200
200
200
200
200
200
200
14
0
14
3
2
14
15
18
0
0
6
19
5
15
9
14
15
19
0
11
14
9
11
7
5
0
7
0
16
7
10
19
6
7
5
15
10
16
10
16
16
1
2
13
18
15
1
6
2
5
1
2
0
17
19
5
7
16
19
10
11
18
15
15
7
18
16
5
7
16
19
7
13
7
13
3
19
0
0
13
2
6
9
0
10
7
6
17
15
11
10
7
19
0
2
9
1
10
1
0
15
2
16
6
13
11
0
7
1
13
10
19
2
16
14
19
13
15
18
9
3
2
1
0
10
14
15
15
13
16
7
13
0
19
16
15
6
6
10
3
2
10
15
10
5
0
7
15
13
1
11
19
15
14
1
16
7
15
7
3
6
3
12
16
16
6
18
7
16
1
5
19
11
7
3
1
10
2
18
10
7
7
2
18
11
14
10
3
7
10
6
9
15
10
18
7
15
8
13
5
3
19
17
2
5
18
18
10
7
19
16
8
3
9
7
10
6
2
7
9
0
10
1
16
0
13
2
7
18
8
16
7
3
16
7
0
1
6
0
7
18
9
3
2
3
16
17
15
10
0
13
16
10
7
8
1
0
8
0
10
16
10
0
18
5
5
19
3
7
2
6
18
13
3
18
19
8
6
16
15
0
9
13
10
0
2
15
12
10
0
3
18
2
15
14
2
6
11
15
0
5
9
1
18
6
16
3
17
15
18
18
7
19
14
7
10
15
16
7
19
17
18
19
11
7
17
3
9
3
7
16
8
18
3
7
3
1
2
7
0
18
7
2
18
0
6
19
1
0
5
3
7
6
11
8
8
6
10
7
10
12
0
0
18
11
19
5
2
7
14
9
11
3
15
16
13
11
10
16
18
12
12
8
11
0
15
5
2
5
9
3
7
15
19
2
6
10
1
10
19
15
16
13
14
13
2
10
10
