0
14
11
3
2
16
0
18
0
7
0
11
0
7
0
15
5
18
8
3
16
7
10
9
2
2
2
7
14
16
8
6
2
11
10
7
0
7
0
13
7
7
18
5
19
2
14
18
19
7
13
6
12
7
18
3
17
10
7
1
12
14
18
11
7
15
19
6
2
7
0
18
11
0
5
7
19
5
10
16
0
11
10
7
18
14
9
16
3
3
10
3
9
18
16
1
10
7
7
12
19
17
1
0
3
16
18
15
2
19
18
7
11
2
8
3
16
7
19
15
14
19
13
0
7
7
19
6
18
0
9
16
14
6
9
0
16
1
10
6
18
5
17
16
2
2
9
7
3
0
8
16
9
7
16
1
14
3
2
7
12
10
15
10
7
19
15
18
1
13
7
