##############################################
##############################################
## single value zscore
# single value: 
	AAAAAAAAAAAAAAAAAAAAAAAAA
	VVVVVVVVVVVVVVVVVVVVVVVVV
	 60	L	 4	0.9994110185
