200
200
200
200
200
200
200
200
200
200
200
200
200
200
200
200
200
200
200
200
200
200
200
200
200
200
200
200
200
200
200
200
200
200
200
200
200
200
200
200
200
200
200
200
200
200
200
200
200
200
200
200
200
200
200
200
200
200
200
200
200
200
200
200
200
200
200
200
200
200
200
200
200
200
200
200
200
200
200
200
200
200
200
200
200
200
200
200
200
200
200
200
200
200
200
200
200
200
200
200
200
200
200
200
200
200
200
200
200
200
200
200
200
200
200
200
200
200
200
200
200
200
200
200
200
200
200
200
200
200
200
200
200
200
200
200
200
200
200
200
200
200
200
200
200
200
200
200
200
200
200
200
200
200
200
200
200
200
200
200
200
200
200
200
200
200
200
200
200
200
200
200
200
200
200
200
200
200
200
200
200
200
200
200
200
200
200
200
200
200
200
200
200
200
200
200
200
200
200
200
200
200
200
200
200
200
200
200
200
200
200
200
200
200
200
200
200
200
200
200
200
200
200
200
200
200
200
200
200
200
200
200
200
200
200
200
200
200
200
200
200
200
200
200
200
200
200
200
200
200
200
200
200
200
200
200
200
200
200
200
200
200
200
200
200
200
200
200
200
200
200
200
200
200
200
200
200
200
200
200
200
200
200
200
200
200
200
200
200
200
200
200
200
200
200
200
200
200
200
200
200
200
200
200
200
200
200
200
200
200
200
200
200
200
200
200
200
200
200
200
200
200
200
200
200
200
200
200
200
200
200
200
200
200
200
200
200
200
200
200
200
200
200
200
200
200
200
200
200
200
200
200
200
200
200
200
200
200
200
200
200
200
200
200
200
200
200
200
200
200
200
200
200
200
200
200
200
200
200
200
200
200
200
200
200
200
200
200
200
200
200
200
200
200
200
200
200
200
200
200
200
200
200
200
200
200
200
200
200
200
200
200
200
200
200
200
200
200
200
200
200
200
200
200
200
12
2
13
7
9
7
18
7
16
6
15
7
19
15
13
5
0
7
19
5
5
3
2
17
10
7
16
7
18
0
19
7
9
2
7
16
11
2
3
18
5
16
18
0
6
10
15
19
16
2
14
18
13
16
19
3
7
19
15
10
7
7
1
10
13
18
2
3
13
5
0
3
3
0
3
10
15
3
18
16
2
11
15
18
7
16
3
19
16
10
7
13
14
9
2
6
18
2
15
10
1
0
7
10
7
18
19
8
2
15
10
15
2
12
5
14
5
19
0
12
17
1
18
10
18
15
12
7
6
8
14
15
16
15
3
5
3
2
15
13
11
16
3
3
13
16
13
2
18
7
17
16
18
2
11
10
3
1
7
18
13
14
16
3
7
15
1
19
2
10
16
7
11
19
16
9
14
7
15
3
2
6
18
18
11
19
16
10
3
16
0
16
18
19
14
9
3
3
3
8
11
17
19
19
10
7
1
16
1
17
7
18
7
3
7
10
7
7
11
6
12
14
13
18
6
2
13
18
0
7
7
15
15
16
19
1
7
13
5
15
2
16
9
7
14
11
0
19
18
13
14
8
5
0
15
2
18
3
14
3
18
3
18
6
4
0
16
5
3
7
0
11
3
10
4
11
15
3
3
0
19
7
7
2
0
12
0
19
0
15
10
6
13
9
16
14
16
14
13
9
15
3
11
18
0
2
15
19
1
16
15
13
13
17
3
12
7
16
19
17
3
16
2
17
3
15
15
5
18
15
7
18
14
3
18
15
3
14
15
2
9
1
12
15
0
7
9
0
10
5
17
12
15
14
10
7
14
10
19
13
15
18
0
5
14
13
11
11
18
3
7
3
11
0
6
5
13
5
13
2
9
7
11
16
17
200
200
200
200
200
200
200
200
200
200
200
200
200
200
200
200
200
200
200
200
200
200
200
200
200
200
200
200
200
200
200
200
200
200
200
200
200
200
200
200
200
200
200
200
200
200
200
200
200
200
200
200
200
200
200
200
200
200
200
200
200
200
200
200
200
200
200
200
200
200
200
200
200
200
200
200
200
200
200
200
200
200
200
200
200
200
200
200
200
200
200
200
200
200
200
200
200
200
200
200
200
200
200
200
200
200
200
200
200
200
200
200
200
200
200
200
200
200
200
200
200
200
200
200
200
200
200
200
200
200
200
200
200
200
200
200
200
200
200
200
200
200
200
200
200
200
200
200
200
200
200
200
200
200
200
200
200
200
200
200
200
200
200
200
200
200
200
200
200
200
200
200
200
200
200
200
200
200
200
200
200
200
200
200
200
200
200
200
200
200
200
200
200
200
200
200
200
200
200
200
200
6
0
7
6
13
13
12
1
0
7
15
0
16
19
1
14
16
6
7
200
200
200
200
200
200
200
200
7
7
13
15
19
16
2
2
16
5
10
7
10
16
13
16
18
12
0
16
3
2
9
7
19
6
10
10
0
0
16
14
13
1
8
11
9
7
16
1
0
16
7
3
9
0
16
19
8
8
10
14
14
16
10
12
0
5
17
18
13
7
3
0
15
15
11
13
1
14
18
19
7
0
7
9
2
18
16
16
13
13
3
2
7
13
2
3
8
7
11
6
0
7
10
15
3
10
15
10
11
3
15
17
7
0
0
7
5
19
7
19
3
18
10
9
2
1
3
17
10
19
2
12
15
19
17
18
12
3
9
3
16
16
0
2
18
11
10
7
7
0
5
5
8
3
15
19
1
10
3
14
17
19
13
12
13
15
0
7
18
1
13
8