##############################################
##############################################
## single value percentile
# single value: 
	 12	I	-4	0.006356
	 64	I	-4	0.0089675
	112	F	 3	0.0168695
	AAAAAAAAAAAAAAAAAAAAAAAAA
	VVVVVVVVVVVVVVVVVVVVVVVVV
	293	L	-1	0.9833465
