##############################################
##############################################
## single value zscore
# single value: 
	 12	I	-4	0.0184603612008
	AAAAAAAAAAAAAAAAAAAAAAAAA
	VVVVVVVVVVVVVVVVVVVVVVVVV
	293	L	-1	0.987096737839
