##############################################
##############################################
## single value percentile
# single value: 
	237	V	-1	0.0064
	285	V	-1	0.011557
	AAAAAAAAAAAAAAAAAAAAAAAAA
	VVVVVVVVVVVVVVVVVVVVVVVVV
	170	W	-2	0.977955
