##############################################
##############################################
## single value zscore
# single value: 
	142	H	 3	0.0133427408059
	116	P	 2	0.0135749948213
	 92	Y	 1	0.021733112413
	AAAAAAAAAAAAAAAAAAAAAAAAA
