##############################################
##############################################
## single value zscore
# single value: 
	AAAAAAAAAAAAAAAAAAAAAAAAA
	VVVVVVVVVVVVVVVVVVVVVVVVV
	125	L	 2	0.997488045893
	 69	L	-2	0.999810198427
