##############################################
##############################################
## single value percentile
# single value: 
	222	L	-3	0.0013025
	102	W	-3	0.021811
	AAAAAAAAAAAAAAAAAAAAAAAAA
	VVVVVVVVVVVVVVVVVVVVVVVVV
	181	L	-4	0.990957
