##############################################
##############################################
## single value percentile
# single value: 
	316	W	 4	0.0064085
	302	Y	 3	0.0064155
	 11	I	 3	0.0089965
	234	Y	 3	0.011451
	AAAAAAAAAAAAAAAAAAAAAAAAA
	VVVVVVVVVVVVVVVVVVVVVVVVV
	336	V	 1	0.978104
	129	I	-2	0.978106
	 86	V	-3	0.998721
