##############################################
##############################################
## single value zscore
# single value: 
	 19	G	 2	0.00113149122502
	AAAAAAAAAAAAAAAAAAAAAAAAA
	VVVVVVVVVVVVVVVVVVVVVVVVV
	 13	L	-4	0.985408938922
