##############################################
##############################################
## single value zscore
# single value: 
	AAAAAAAAAAAAAAAAAAAAAAAAA
	VVVVVVVVVVVVVVVVVVVVVVVVV
	 74	D	 3	0.990062345542
	238	S	-3	0.994377088934
	134	M	 3	0.998370285451
