##############################################
##############################################
## single value percentile
# single value: 
	 83	Y	-4	0.019474
	AAAAAAAAAAAAAAAAAAAAAAAAA
	VVVVVVVVVVVVVVVVVVVVVVVVV
	 22	V	-2	0.9909075
