##############################################
##############################################
## single value zscore
# single value: 
	AAAAAAAAAAAAAAAAAAAAAAAAA
	VVVVVVVVVVVVVVVVVVVVVVVVV
	 22	V	-2	0.987181115692
	 16	F	 4	0.987901258205
	 20	L	 0	0.989300301364
