##############################################
##############################################
## single value percentile
# single value: 
	AAAAAAAAAAAAAAAAAAAAAAAAA
	VVVVVVVVVVVVVVVVVVVVVVVVV
	272	L	 4	0.9817495
