##############################################
##############################################
## single value percentile
# single value: 
	631	G	-4	0.016742
	AAAAAAAAAAAAAAAAAAAAAAAAA
	VVVVVVVVVVVVVVVVVVVVVVVVV
	432	V	 0	0.9781455
	214	S	-3	0.9783185
	608	T	 3	0.983333
	142	L	 0	0.9908875
