##############################################
##############################################
## single value percentile
# single value: 
	AAAAAAAAAAAAAAAAAAAAAAAAA
	VVVVVVVVVVVVVVVVVVVVVVVVV
	 60	L	 4	0.9960745
