##############################################
##############################################
## single value percentile
# single value: 
	222	H	 2	0.003937
	333	H	 4	0.01653
	AAAAAAAAAAAAAAAAAAAAAAAAA
	VVVVVVVVVVVVVVVVVVVVVVVVV
	638	L	-4	0.9807375
