##############################################
##############################################
## single value percentile
# single value: 
	AAAAAAAAAAAAAAAAAAAAAAAAA
	VVVVVVVVVVVVVVVVVVVVVVVVV
	328	Y	-4	0.988363
	502	G	 2	0.996083
