##############################################
##############################################
## single value zscore
# single value: 
	AAAAAAAAAAAAAAAAAAAAAAAAA
	VVVVVVVVVVVVVVVVVVVVVVVVV
	429	F	 2	0.981256339962
	328	Y	-4	0.996454655201
	502	G	 2	0.997660907315
