##############################################
##############################################
## single value zscore
# single value: 
	214	Y	-2	0.000176398770997
	186	W	-3	0.00847866072797
	AAAAAAAAAAAAAAAAAAAAAAAAA
