1881/52/200 = 18%
2519/58/200 = 21%

1a0s x -30.92 102 25.50
      wt 1 -30.9234438318 0 -29.7699123253
3rfz x -43.46 29 7.25
      wt -1 -43.459969672 0 -43.0813915131
2gr8 x -8.96 130 32.50
      wt -1 -8.96341519224 0 -8.36543164531
3o44 x -3.79 173 43.25
      wt 2 -3.79109899697 0 -2.92076412184
3fid x -36.37 51 12.75
      wt -1 -36.3700131049 0 -35.962732506
1yc9 x -16.65 153 38.25
      wt -1 -16.6461016655 0 -16.1347771472


1bxw o -23.58 58 14.50
1e54 o -46.03 9 2.25
1ek9 o -19.41 34 8.50
1fep o -61.58 2 0.50
1i78 o -30.88 10 2.50
1k24 o -33.41 12 3.00
1kmo o -60.55 1 0.25
1nqe o -49.83 19 4.75
1p4t o -25.68 30 7.50
1prn o -43.02 100 25.00
1qd6 o -34.92 49 12.25
1qj8 o -21.53 21 5.25
1t16 o -45.64 2 0.50
1thq o -23.10 24 6.00
1tly o -28.58 41 10.25
1uyn o -33.95 12 3.00
1xkw o -59.91 15 3.75
2erv o -24.56 44 11.00
2f1c o -43.85 51 12.75
2f1t o -23.14 23 5.75
2fcp o -52.14 79 19.75
2lhf o -16.19 88 22.00
2lme o -11.39 56 14.00
2mlh o -26.15 62 15.50
2mpr o -36.30 67 16.75
2o4v o -48.16 12 3.00
2omf o -37.71 17 4.25
2por o -32.70 105 26.25
2qdz o -52.23 31 7.75
2vqi o -43.92 48 12.00
2wjr o -33.58 10 2.50
2ynk o -44.68 17 4.25
3aeh o -25.59 56 14.00
3b07 o -5.28 168 42.00
3bs0 o -47.60 9 2.25
3csl o -70.94 1 0.25
3dwo o -48.32 3 0.75
3dzm o -33.27 12 3.00
3kvn o -36.38 18 4.50
3pik o -12.18 76 19.00
3rbh o -41.60 14 3.50
3syb o -45.97 28 7.00
3szv o -55.25 12 3.00
3v8x o -58.94 4 1.00
3vzt o -25.56 106 26.50
4c00 o -36.32 18 4.50
4e1s o -36.20 17 4.25
4gey o -49.42 16 4.00
4k3c o -48.53 10 2.50
4pr7 o -38.13 9 2.25
4q35 o -55.56 6 1.50
7ahl o -3.52 149 37.25
