4
15
10
0
14
3
18
5
1
14
0
12
14
19
14
5
5
13
15
10
18
5
2
0
7
17
1
16
13
13
19
3
2
5
19
11
16
10
9
15
6
0
10
19
2
2
1
3
10
1
12
0
16
10
11
19
5
6
0
1
0
5
18
1
10
16
3
0
3
1
18
14
5
10
2
7
6
7
15
7
15
17
15
7
2
10
11
7
2
16
0
16
16
1
6
13
15
16
7
10
2
0
15
13
3
10
3
13
13
7
1
10
11
2
12
15
6
0
6
1
5
2
18
10
0
16
6
6
0
5
1
0
19
8
9
10
10
19
15
2
19
0
5
15
18
13
2
5
5
10
0
18
0
5
10
5
9
0
6
6
16
10
1
2
18
5
5
15
18
0
13
19
6
11
5
10
10
16
7
15
15
2
19
10
0
10
6
5
0
1
7
19
9
6
15
16
1
15
3
9
0
11
1
5
7
6
10
0
5
0
2
2
0
10
5
10
10
10
7
15
18
7
11
10
14
5
0
5
16
19
2
15
3
15
10
5
15
19
11
10
14
0
7
10
15
15
5
9
10
10
5
1
14
3
9
12
6
0
6
8
0
10
12
0
0
2
0
2
9
7
0
0
1
0
0
13
13
14
15
9
15
10
16
15
7
9
15
16
0
15
15
3
10
15
15
10
13
2
0
15
15
7
12
17
2
13
9
14
11
9
6
9
14
9
13
2
0
7
1
2
5
0
2
10
3
9
0
6
9
1
5
5
5
15
19
19
2
18
6
5
11
9
5
2
0
13
11
6
19
0
3
0
10
0
10
1
5
15
10
2
3
5
9
15
0
5
5
1
18
10
0
15
10
5
9
16
10
5
1
0
1
0
10
18
5
8
7
0
19
15
18
10
6
19
10
3
0
6
1
15
10
13
0
16
1
5
16
10
10
3
10
2
18
0
1
5
19
2
6
9
15
10
18
16
0
10
7
7
7
4
15
10
0
14
3
18
5
1
14
0
12
14
19
14
5
5
13
15
10
18
5
2
0
7
17
1
16
13
13
19
3
2
5
19
11
16
10
9
15
6
0
10
19
2
2
1
3
10
1
12
0
16
10
11
19
5
6
0
1
0
5
18
1
10
16
3
0
3
1
18
14
5
10
2
7
6
7
15
7
15
17
15
7
2
10
11
7
2
16
0
16
16
1
6
13
15
16
7
10
2
0
15
13
3
10
3
13
13
7
1
10
11
2
12
15
6
0
6
1
5
2
18
10
0
16
6
6
0
5
1
0
19
8
9
10
10
19
15
2
19
0
5
15
18
13
2
5
5
10
0
18
0
5
10
5
9
0
6
6
16
10
1
2
18
5
5
15
18
0
13
19
6
11
5
10
10
16
7
15
15
2
19
10
0
10
6
5
0
1
7
19
9
6
15
16
1
15
3
9
0
11
1
5
7
6
10
0
5
0
2
2
0
10
5
10
10
10
7
15
18
7
11
10
14
5
0
5
16
19
2
15
3
15
10
5
15
19
11
10
14
0
7
10
15
15
5
9
10
10
5
1
14
3
9
12
6
0
6
8
0
10
12
0
0
2
0
2
9
7
0
0
1
0
0
13
13
14
15
9
15
10
16
15
7
9
15
16
0
15
15
3
10
15
15
10
13
2
0
15
15
7
12
17
2
13
9
14
11
9
6
9
14
9
13
2
0
7
1
2
5
0
2
10
3
9
0
6
9
1
5
5
5
15
19
19
2
18
6
5
11
9
5
2
0
13
11
6
19
0
3
0
10
0
10
1
5
15
10
2
3
5
9
15
0
5
5
1
18
10
0
15
10
5
9
16
10
5
1
0
1
0
10
18
5
8
7
0
19
15
18
10
6
19
10
3
0
6
1
15
10
13
0
16
1
5
16
10
10
3
10
2
18
0
1
5
19
2
6
9
15
10
18
16
0
10
7
7
7
4
15
10
0
14
3
18
5
1
14
0
12
14
19
14
5
5
13
15
10
18
5
2
0
7
17
1
16
13
13
19
3
2
5
19
11
16
10
9
15
6
0
10
19
2
2
1
3
10
1
12
0
16
10
11
19
5
6
0
1
0
5
18
1
10
16
3
0
3
1
18
14
5
10
2
7
6
7
15
7
15
17
15
7
2
10
11
7
2
16
0
16
16
1
6
13
15
16
7
10
2
0
15
13
3
10
3
13
13
7
1
10
11
2
12
15
6
0
6
1
5
2
18
10
0
16
6
6
0
5
1
0
19
8
9
10
10
19
15
2
19
0
5
15
18
13
2
5
5
10
0
18
0
5
10
5
9
0
6
6
16
10
1
2
18
5
5
15
18
0
13
19
6
11
5
10
10
16
7
15
15
2
19
10
0
10
6
5
0
1
7
19
9
6
15
16
1
15
3
9
0
11
1
5
7
6
10
0
5
0
2
2
0
10
5
10
10
10
7
15
18
7
11
10
14
5
0
5
16
19
2
15
3
15
10
5
15
19
11
10
14
0
7
10
15
15
5
9
10
10
5
1
14
3
9
12
6
0
6
8
0
10
12
0
0
2
0
2
9
7
0
0
1
0
0
13
13
14
15
9
15
10
16
15
7
9
15
16
0
15
15
3
10
15
15
10
13
2
0
15
15
7
12
17
2
13
9
14
11
9
6
9
14
9
13
2
0
7
1
2
5
0
2
10
3
9
0
6
9
1
5
5
5
15
19
19
2
18
6
5
11
9
5
2
0
13
11
6
19
0
3
0
10
0
10
1
5
15
10
2
3
5
9
15
0
5
5
1
18
10
0
15
10
5
9
16
10
5
1
0
1
0
10
18
5
8
7
0
19
15
18
10
6
19
10
3
0
6
1
15
10
13
0
16
1
5
16
10
10
3
10
2
18
0
1
5
19
2
6
9
15
10
18
16
0
10
7
7
7
