200
200
200
200
200
200
200
200
200
200
3
3
16
9
19
19
16
0
0
6
5
2
10
5
0
14
7
19
15
16
9
16
0
3
6
9
1
11
2
14
19
0
1
3
19
15
11
9
9
1
16
0
14
7
19
2
10
16
7
2
15
16
15
7
5
1
7
2
2
1
5
9
3
9
1
7
0
7
14
6
2
16
10
9
10
9
3
7
11
14
19
15
15
1
2
15
19
1
5
7
17
1
7
6
1
3
16
1
7
3
16
15
17
19
14
14
6
0
9
6
1
9
6
19
10
1
7
14
0
0
0
1
18
7
2
7
0
0
7
7
19
19
2
9
9
16
11
11
7
15
7
6
17
8
7
15
17
3
0
18
13
2
0
14
6
8
11
6
6
7
0
16
11
1
16
2
13
15
10
16
7
14
10
7
3
6
13
15
13
1
10
18
7
2
10
3
11
16
5
0
3
0
17
3
9
2
5
7
8
5
15
0
1
0
7
16
18
0
16
16
10
14
0
7
1
6
7
19
9
2
11
3
9
2
7
19
19
1
17
3
13
0
14
10
5
15
10
6
10
6
0
7
18
15
1
5
7
2
10
18
0
7
3
16
5
2
16
2
15
3
15
18
16
1
15
11
18
7
3
6
16
2
1
10
18
1
5
2
18
0
10
16
17
2
7
7
17
3
2
7
19
16
16
15
2
17
19
5
18
6
8
16
1
2
15
1
9
14
6
7
10
0
7
200
200
200
200
200
200
200
200
200
200
200
5
3
13
19
3
9
3
10
3
3
19
0
10
8
15
6
19
2
10
14
9
3
13
10
19
2
5
16
10
16
10
7
16
6
17
2
5
5
1
0
11
3
10
15
15
2
16
5
0
200
200
200
200
200
200
200
200
200
200
200
200
200
200
200
200
3
1
15
14
18
15
11
0
6
9
13
15
10
13
0
6
2
2
0
6
10
16
3
15
16
9
19
16
14
7
10
1
13
3
8
8
15
9
19
7
2
2
17
15
14
0
10
2
9
15
5
7
10
7
3
3
13
16
10
11
12
7
9
0
1
0
18
11
0
14
15
10
18
5
16
2
14
2
18
9
10
18
15
11
7
5
200
200
200
200
200
200
200
7
4
18
10
5
7
2
3
3
10
11
0
6
16
15
9
2
11
6
9
7
10
6
13
11
1
3
7
17
10
0
7
19
16
17
13
1
2
3
18
1
2
11
9
6
0
7
18
19
0
19
7
5
2
0
19
7
16
3
10
18
5
17
3
2
19
14
11
0
19
19
6
7
10
6
7
15
10
2
19
14
19
15
6
16
19
0
17
16
2
2
9
16
18
0
10
11
15
6
2
11
16
16
7
3
1
10
15
9
9
14
6
18
16
10
2
15
16
10
15
17
5
0
1
6
3
10
15
0
5
16
16
13
16
17
18
7
11
5
5
14
11
11
18
2
18
11
7
5
14
0
19
7
14
6
16
11
6
9
15
14
18
15
9
19
7
10
15
0
16
17
3
19
16
11
2
19
15
10
16
7
7
19
3
2
10
13
3
11
1
10
17
1
0
7
2
0
5
16
16
7
3
10
0
7
0
2
18
9
0
7
0
7
0
18
16
18
2
6
14
7
1
16
17
18
0
15
19
2
16
8
13
