200
200
200
200
200
200
200
200
200
200
200
200
200
200
200
200
19
16
10
18
11
16
16
0
16
0
3
15
3
11
13
11
9
15
5
9
10
16
13
2
13
9
11
3
11
15
18
3
11
3
16
10
19
10
11
0
16
7
2
9
2
15
7
13
19
11
14
2
14
2
3
18
3
13
15
11
10
18
17
7
0
11
18
2
19
15
9
15
15
5
15
2
3
15
19
2
19
19
3
18
0
14
11
2
5
2
6
6
13
5
19
5
2
16
10
7
18
16
13
7
7
3
9
15
9
15
2
7
10
15
7
7
10
2
7
2
16
0
13
15
6
16
9
2
18
11
5
6
15
18
1
16
16
10
15
1
2
16
2
18
11
2
19
7
17
7
19
6
0
8
11
9
12
2
2
7
17
7
14
18
7
1
3
15
13
8
14
16
18
7
2
6
10
13
10
0
7
1
5
15
15
0
18
0
7
5
2
13
9
0
5
8
5
12
14
10
10
15
1
15
2
13
2
14
6
13
10
15
19
10
15
8
1
5
3
7
0
11
11
15
11
9
16
19
16
18
5
1
6
12
3
10
18
5
9
4
17
2
7
13
18
17
0
7
0
2
18
11
2
13
11
16
1
16
13
11
15
16
18
6
9
3
17
6
2
8
11
19
11
10
10
3
16
11
6
16
6
2
2
11
200
200
200
200
200
200
200
200
200
200
200
200
200
200
200
200
19
16
10
18
11
16
16
0
16
0
3
15
3
11
13
11
9
15
5
9
10
16
13
2
13
9
11
3
11
15
18
3
11
3
16
10
19
10
11
0
16
7
2
9
2
15
7
13
19
11
14
2
14
2
3
18
3
13
15
11
10
18
17
7
0
11
18
2
19
15
9
15
15
5
15
2
3
15
19
2
19
19
3
18
0
14
11
2
5
2
6
6
13
5
19
5
2
16
10
7
18
16
13
7
7
3
9
15
9
15
2
7
10
15
7
7
10
2
7
2
16
0
13
15
6
16
9
2
18
11
5
6
15
18
1
16
16
10
15
1
2
16
2
18
11
2
19
7
17
7
19
6
0
8
11
9
12
2
2
7
17
7
14
18
7
1
3
15
13
8
14
16
18
7
2
6
10
13
10
0
7
1
5
15
15
0
18
0
7
5
2
13
9
0
5
8
5
12
14
10
10
15
1
15
2
13
2
14
6
13
10
15
19
10
15
8
1
5
3
7
0
11
11
15
11
9
16
19
16
18
5
1
6
12
3
10
18
5
9
4
17
2
7
13
18
17
0
7
0
2
18
11
2
13
11
16
1
16
13
11
15
16
18
6
9
3
17
6
2
8
11
19
11
10
10
3
16
11
6
16
6
2
2
11
200
200
200
200
200
200
200
200
200
200
200
200
200
200
200
200
19
16
10
18
11
16
16
0
16
0
3
15
3
11
13
11
9
15
5
9
10
16
13
2
13
9
11
3
11
15
18
3
11
3
16
10
19
10
11
0
16
7
2
9
2
15
7
13
19
11
14
2
14
2
3
18
3
13
15
11
10
18
17
7
0
11
18
2
19
15
9
15
15
5
15
2
3
15
19
2
19
19
3
18
0
14
11
2
5
2
6
6
13
5
19
5
2
16
10
7
18
16
13
7
7
3
9
15
9
15
2
7
10
15
7
7
10
2
7
2
16
0
13
15
6
16
9
2
18
11
5
6
15
18
1
16
16
10
15
1
2
16
2
18
11
2
19
7
17
7
19
6
0
8
11
9
12
2
2
7
17
7
14
18
7
1
3
15
13
8
14
16
18
7
2
6
10
13
10
0
7
1
5
15
15
0
18
0
7
5
2
13
9
0
5
8
5
12
14
10
10
15
1
15
2
13
2
14
6
13
10
15
19
10
15
8
1
5
3
7
0
11
11
15
11
9
16
19
16
18
5
1
6
12
3
10
18
5
9
4
17
2
7
13
18
17
0
7
0
2
18
11
2
13
11
16
1
16
13
11
15
16
18
6
9
3
17
6
2
8
11
19
11
10
10
3
16
11
6
16
6
2
2
11
200
200
200
200
200
200
200
200
200
200
200
200
200
200
200
200
19
16
10
18
11
16
16
0
16
0
3
15
3
11
13
11
9
15
5
9
10
16
13
2
13
9
11
3
11
15
18
3
11
3
16
10
19
10
11
0
16
7
2
9
2
15
7
13
19
11
14
2
14
2
3
18
3
13
15
11
10
18
17
7
0
11
18
2
19
15
9
15
15
5
15
2
3
15
19
2
19
19
3
18
0
14
11
2
5
2
6
6
13
5
19
5
2
16
10
7
18
16
13
7
7
3
9
15
9
15
2
7
10
15
7
7
10
2
7
2
16
0
13
15
6
16
9
2
18
11
5
6
15
18
1
16
16
10
15
1
2
16
2
18
11
2
19
7
17
7
19
6
0
8
11
9
12
2
2
7
17
7
14
18
7
1
3
15
13
8
14
16
18
7
2
6
10
13
10
0
7
1
5
15
15
0
18
0
7
5
2
13
9
0
5
8
5
12
14
10
10
15
1
15
2
13
2
14
6
13
10
15
19
10
15
8
1
5
3
7
0
11
11
15
11
9
16
19
16
18
5
1
6
12
3
10
18
5
9
4
17
2
7
13
18
17
0
7
0
2
18
11
2
13
11
16
1
16
13
11
15
16
18
6
9
3
17
6
2
8
11
19
11
10
10
3
16
11
6
16
6
2
2
11
200
200
200
200
200
200
200
200
200
200
200
200
200
200
200
200
19
16
10
18
11
16
16
0
16
0
3
15
3
11
13
11
9
15
5
9
10
16
13
2
13
9
11
3
11
15
18
3
11
3
16
10
19
10
11
0
16
7
2
9
2
15
7
13
19
11
14
2
14
2
3
18
3
13
15
11
10
18
17
7
0
11
18
2
19
15
9
15
15
5
15
2
3
15
19
2
19
19
3
18
0
14
11
2
5
2
6
6
13
5
19
5
2
16
10
7
18
16
13
7
7
3
9
15
9
15
2
7
10
15
7
7
10
2
7
2
16
0
13
15
6
16
9
2
18
11
5
6
15
18
1
16
16
10
15
1
2
16
2
18
11
2
19
7
17
7
19
6
0
8
11
9
12
2
2
7
17
7
14
18
7
1
3
15
13
8
14
16
18
7
2
6
10
13
10
0
7
1
5
15
15
0
18
0
7
5
2
13
9
0
5
8
5
12
14
10
10
15
1
15
2
13
2
14
6
13
10
15
19
10
15
8
1
5
3
7
0
11
11
15
11
9
16
19
16
18
5
1
6
12
3
10
18
5
9
4
17
2
7
13
18
17
0
7
0
2
18
11
2
13
11
16
1
16
13
11
15
16
18
6
9
3
17
6
2
8
11
19
11
10
10
3
16
11
6
16
6
2
2
11
200
200
200
200
200
200
200
200
200
200
200
200
200
200
200
200
19
16
10
18
11
16
16
0
16
0
3
15
3
11
13
11
9
15
5
9
10
16
13
2
13
9
11
3
11
15
18
3
11
3
16
10
19
10
11
0
16
7
2
9
2
15
7
13
19
11
14
2
14
2
3
18
3
13
15
11
10
18
17
7
0
11
18
2
19
15
9
15
15
5
15
2
3
15
19
2
19
19
3
18
0
14
11
2
5
2
6
6
13
5
19
5
2
16
10
7
18
16
13
7
7
3
9
15
9
15
2
7
10
15
7
7
10
2
7
2
16
0
13
15
6
16
9
2
18
11
5
6
15
18
1
16
16
10
15
1
2
16
2
18
11
2
19
7
17
7
19
6
0
8
11
9
12
2
2
7
17
7
14
18
7
1
3
15
13
8
14
16
18
7
2
6
10
13
10
0
7
1
5
15
15
0
18
0
7
5
2
13
9
0
5
8
5
12
14
10
10
15
1
15
2
13
2
14
6
13
10
15
19
10
15
8
1
5
3
7
0
11
11
15
11
9
16
19
16
18
5
1
6
12
3
10
18
5
9
4
17
2
7
13
18
17
0
7
0
2
18
11
2
13
11
16
1
16
13
11
15
16
18
6
9
3
17
6
2
8
11
19
11
10
10
3
16
11
6
16
6
2
2
11
200
200
200
200
200
200
200
200
200
200
200
200
200
200
200
200
19
16
10
18
11
16
16
0
16
0
3
15
3
11
13
11
9
15
5
9
10
16
13
2
13
9
11
3
11
15
18
3
11
3
16
10
19
10
11
0
16
7
2
9
2
15
7
13
19
11
14
2
14
2
3
18
3
13
15
11
10
18
17
7
0
11
18
2
19
15
9
15
15
5
15
2
3
15
19
2
19
19
3
18
0
14
11
2
5
2
6
6
13
5
19
5
2
16
10
7
18
16
13
7
7
3
9
15
9
15
2
7
10
15
7
7
10
2
7
2
16
0
13
15
6
16
9
2
18
11
5
6
15
18
1
16
16
10
15
1
2
16
2
18
11
2
19
7
17
7
19
6
0
8
11
9
12
2
2
7
17
7
14
18
7
1
3
15
13
8
14
16
18
7
2
6
10
13
10
0
7
1
5
15
15
0
18
0
7
5
2
13
9
0
5
8
5
12
14
10
10
15
1
15
2
13
2
14
6
13
10
15
19
10
15
8
1
5
3
7
0
11
11
15
11
9
16
19
16
18
5
1
6
12
3
10
18
5
9
4
17
2
7
13
18
17
0
7
0
2
18
11
2
13
11
16
1
16
13
11
15
16
18
6
9
3
17
6
2
8
11
19
11
10
10
3
16
11
6
16
6
2
2
11
200
200
200
200
200
200
200
200
200
200
200
200
200
200
200
200
19
16
10
18
11
16
16
0
16
0
3
15
3
11
13
11
9
15
5
9
10
16
13
2
13
9
11
3
11
15
18
3
11
3
16
10
19
10
11
0
16
7
2
9
2
15
7
13
19
11
14
2
14
2
3
18
3
13
15
11
10
18
17
7
0
11
18
2
19
15
9
15
15
5
15
2
3
15
19
2
19
19
3
18
0
14
11
2
5
2
6
6
13
5
19
5
2
16
10
7
18
16
13
7
7
3
9
15
9
15
2
7
10
15
7
7
10
2
7
2
16
0
13
15
6
16
9
2
18
11
5
6
15
18
1
16
16
10
15
1
2
16
2
18
11
2
19
7
17
7
19
6
0
8
11
9
12
2
2
7
17
7
14
18
7
1
3
15
13
8
14
16
18
7
2
6
10
13
10
0
7
1
5
15
15
0
18
0
7
5
2
13
9
0
5
8
5
12
14
10
10
15
1
15
2
13
2
14
6
13
10
15
19
10
15
8
1
5
3
7
0
11
11
15
11
9
16
19
16
18
5
1
6
12
3
10
18
5
9
4
17
2
7
13
18
17
0
7
0
2
18
11
2
13
11
16
1
16
13
11
15
16
18
6
9
3
17
6
2
8
11
19
11
10
10
3
16
11
6
16
6
2
2
11
