##############################################
##############################################
## single value zscore
# single value: 
	420	L	 2	0.00663958355445
	343	G	-3	0.00711798770737
	418	Y	 4	0.026003645748
	473	W	 4	0.0263450769486
	341	S	-1	0.0412377079232
	AAAAAAAAAAAAAAAAAAAAAAAAA
	VVVVVVVVVVVVVVVVVVVVVVVVV
	 83	V	 3	0.954128087995
	339	I	 1	0.963218479246
	188	F	 2	0.984186058456
