##############################################
##############################################
## single value zscore
# single value: 
	513	G	 4	7.57182571674e-06
	546	Y	-3	0.00401055536393
	559	L	 4	0.0105944258144
	408	Y	 1	0.0151407585891
	229	V	 2	0.0267784540296
	449	W	 2	0.0327662114986
	385	R	 4	0.0379469691366
	AAAAAAAAAAAAAAAAAAAAAAAAA
	VVVVVVVVVVVVVVVVVVVVVVVVV
	542	L	 1	0.96922304495
	705	V	 3	0.972468474138
	684	W	 4	0.990938280528
	653	S	 3	0.995772216068
