##############################################
##############################################
## single value zscore
# single value: 
	AAAAAAAAAAAAAAAAAAAAAAAAA
	VVVVVVVVVVVVVVVVVVVVVVVVV
	 35	Y	-3	0.950907676453
	116	Y	-3	0.962691373754
	153	V	-2	0.973964518213
	147	L	 4	0.99541107978
