##############################################
##############################################
## single value zscore
# single value: 
	222	L	-3	0.00898966717968
	102	W	-3	0.0150931755991
	AAAAAAAAAAAAAAAAAAAAAAAAA
	VVVVVVVVVVVVVVVVVVVVVVVVV
	235	Y	 4	0.971638919832
	181	L	-4	0.996110752611
