##############################################
##############################################
## single value zscore
# single value: 
	246	T	-2	0.0084660487755
	AAAAAAAAAAAAAAAAAAAAAAAAA
	VVVVVVVVVVVVVVVVVVVVVVVVV
	209	G	-4	0.965236369452
	625	L	 2	0.966400790785
	631	L	-4	0.974106503226
	258	V	-1	0.980461399796
	642	G	 1	0.980685893667
	242	L	 2	0.999820234971
