##############################################
##############################################
## single value zscore
# single value: 
	437	T	-2	0.0339035324103
	AAAAAAAAAAAAAAAAAAAAAAAAA
	VVVVVVVVVVVVVVVVVVVVVVVVV
	522	V	-2	0.983165331795
	246	L	-1	0.986521859107
	550	G	-4	0.986878824213
	477	K	-3	0.988573444382
	488	L	 0	0.997963042151
