##############################################
##############################################
## single value zscore
# single value: 
	180	G	 0	0.0191435066604
	AAAAAAAAAAAAAAAAAAAAAAAAA
	VVVVVVVVVVVVVVVVVVVVVVVVV
	208	L	 0	0.959031881425
	184	L	-4	0.966585477191
	212	L	-4	0.974066501502
	 14	N	 3	0.976944669308
	 60	L	 4	0.99943662153
