##############################################
##############################################
## single value zscore
# single value: 
	AAAAAAAAAAAAAAAAAAAAAAAAA
	VVVVVVVVVVVVVVVVVVVVVVVVV
	 69	L	-2	0.959294334654
	157	M	 0	0.988825431789
	125	L	 2	0.988842431927
