200
0
10
3
19
1
7
7
18
1
15
7
15
8
0
18
6
16
1
10
11
19
15
6
7
17
5
2
7
17
17
0
15
12
6
15
2
16
17
2
16
9
2
3
19
5
19
6
19
2
18
0
9
11
10
3
3
5
17
16
19
1
14
7
12
10
16
8
13
15
15
2
7
16
1
18
7
14
18
19
11
10
15
17
3
0
16
11
3
10
2
13
7
9
1
18
1
18
3
17
11
0
18
1
5
5
3
10
15
7
3
12
15
1
3
2
19
8
1
17
3
7
18
19
16
18
8
9
2
15
3
13
16
13
0
17
5
16
16
10
18
15
11
5
2
3
18
1
18
0
2
8
11
11
17
0
16
6
2
0
13
19
10
5
18
8
12
16
14
3
9
16
14
18
9
6
18
3
18
10
3
1
5
7
19
18
2
7
1
3
2
10
15
6
2
15
18
1
9
7
19
15
13
11
10
