3
10
18
13
2
14
1
13
10
0
3
3
14
5
0
19
0
3
10
15
1
13
6
2
7
5
6
10
14
14
7
16
18
1
19
3
9
18
10
2
2
7
18
12
0
16
1
3
19
16
13
2
16
7
3
15
6
5
7
9
19
14
4
10
16
1
0
5
10
0
15
12
7
10
2
16
0
15
19
0
7
12
2
10
10
0
3
3
0
4
19
14
10
16
16
12
19
5
3
0
16
0
8
10
3
19
7
5
5
1
10
2
10
16
9
14
5
0
13
12
15
2
1
0
1
7
18
9
14
14
6
10
17
3
14
7
9
2
0
7
10
10
2
18
2
13
15
7
2
15
19
5
2
1
9
7
7
2
15
8
18
0
18
10
2
10
5
15
7
10
2
9
7
0
17
1
10
1
3
2
16
16
17
15
18
2
15
15
3
1
15
15
7
15
11
2
11
17
5
8
9
2
16
17
10
6
1
3
9
9
14
10
1
15
1
10
16
10
7
3
7
18
16
5
7
3
9
13
3
7
9
2
13
1
7
0
5
10
0
15
3
3
2
12
10
14
3
15
5
1
7
13
0
14
19
9
8
7
9
0
1
7
16
0
5
19
16
9
11
5
2
7
18
3
9
18
2
15
16
19
14
14
7
14
13
16
9
2
3
9
18
0
0
7
2
15
7
3
10
5
19
16
9
11
6
0
3
7
15
16
5
9
13
16
19
14
18
15
15
19
14
10
10
5
1
6
7
8
16
1
18
15
9
16
0
7
6
18
1
15
7
2
0
5
5
6
11
14
1
13
13
5
15
16
10
10
8
7
10
14
0
7
17
16
9
18
7
7
16
5
10
0
3
1
18
1
0
13
2
13
7
9
7
11
2
12
7
0
10
7
0
10
15
19
3
12
16
5
0
2
15
16
10
14
3
3
15
5
8
3
7
5
15
19
1
13
10
18
2
11
15
10
2
6
15
7
16
2
9
5
10
19
7
18
1
18
15
16
15
7
18
13
2
13
0
3
16
16
18
15
1
12
2
7
18
2
9
6
16
5
3
7
19
9
5
19
11
14
11
13
16
3
18
18
2
10
0
18
2
11
1
7
11
10
5
10
16
19
16
5
5
10
7
1
16
15
16
10
18
10
15
7
15
8
5
16
18
17
7
16
15
2
19
3
6
5
13
5
0
7
10
2
16
0
13
6
3
9
2
17
16
10
15
18
15
10
16
11
2
0
17
5
11
7
1
3
5
12
10
0
10
2
19
2
9
14
13
15
8
17
10
1
15
3
15
11
15
5
17
1
8
0
15
0
15
18
15
12
15
8
3
10
2
7
1
12
16
2
10
0
7
19
18
7
16
10
10
6
3
2
2
10
15
18
15
19
5
16
7
18
0
7
7
7
3
7
2
15
7
15
16
7
18
0
16
10
2
18
1
7
7
18
7
2
0
2
9
7
18
15
8
15
3
3
9
11
5
10
18
18
7
19
15
7
7
19
10
0
8
0
2
7
19
16
10
7
5
14
10
2
3
16
19
19
10
19
11
0
14
7
0
11
3
0
11
19
6
2
5
16
7
19
1
16
3
17
1
7
18
0
19
10
14
18
0
16
6
18
1
6
2
1
19
0
10
3
16
2
16
10
0
3
2
19
3
10
3
2
0
19
0
2
19
19
14
16
1
7
0
9
19
1
0
6
13
11
0
1
19
7
9
11
10
10
12
16
10
16
8
2
2
11
14
10
14
13
7
0
12
19
16
15
6
15
15
5
15
15
7
9
19
0
3
2
7
5
19
18
10
15
7
12
14
10
0
7
11
19
5
19
11
17
7
6
6
6
2
0
8
4
19
0
2
18
5
10
14
14
6
15
5
5
5
10
10
16
5
10
15
0
6
4
1
15
0
17
15
8
14
5
13
6
11
