7
3
5
0
15
17
15
8
14
5
13
6
11
7
0
8
11
13
1
5
10
3
2
1
10
3
11
10
3
16
1
19
3
11
7
10
0
15
15
0
0
10
2
15
10
13
5
14
18
7
19
7
11
19
2
13
16
0
7
19
7
7
18
1
15
15
5
0
10
0
9
7
15
7
18
1
19
2
6
15
19
0
10
11
0
7
19
0
18
0
7
15
15
3
19
12
18
2
0
15
13
2
9
6
17
7
3
5
0
15
17
15
8
14
5
13
6
11
7
0
8
11
13
1
5
10
3
2
1
10
3
11
10
3
16
1
19
3
11
7
10
0
15
15
0
0
10
2
15
10
13
5
14
18
7
19
7
11
19
2
13
16
0
7
19
7
7
18
1
15
15
5
0
10
0
9
7
15
7
18
1
19
2
6
15
19
0
10
11
0
7
19
0
18
0
7
15
15
3
19
12
18
2
0
15
13
2
9
6
17
7
3
5
0
15
17
15
8
14
5
13
6
11
7
0
8
11
13
1
5
10
3
2
1
10
3
11
10
3
16
1
19
3
11
7
10
0
15
15
0
0
10
2
15
10
13
5
14
18
7
19
7
11
19
2
13
16
0
7
19
7
7
18
1
15
15
5
0
10
0
9
7
15
7
18
1
19
2
6
15
19
0
10
11
0
7
19
0
18
0
7
15
15
3
19
12
18
2
0
15
13
2
9
6
17
