12
11
11
1
9
14
16
10
10
0
16
12
9
0
16
0
10
18
15
5
5
7
10
0
0
3
10
0
15
5
4
12
10
7
19
14
15
18
3
1
14
10
19
5
7
3
16
2
3
10
14
19
16
9
2
0
3
8
0
11
7
3
18
14
3
3
0
19
13
16
7
15
19
3
9
12
5
7
2
15
1
10
5
0
3
6
19
5
10
8
5
11
6
0
14
7
5
14
6
14
19
1
16
19
3
0
10
7
2
19
8
18
3
3
2
5
19
9
10
11
7
14
11
7
17
0
2
10
2
16
11
3
16
2
19
17
6
7
3
18
5
12
19
7
1
5
7
1
7
11
0
3
10
12
11
5
1
7
6
2
1
18
16
9
10
3
2
7
15
13
16
15
4
10
14
7
15
3
16
17
15
19
19
7
15
6
9
9
8
3
1
6
6
5
19
0
6
9
17
2
0
1
13
11
19
7
14
19
14
9
13
18
15
14
18
10
5
10
14
19
7
3
11
1
1
15
7
13
10
9
14
2
0
11
18
16
16
16
2
18
13
6
13
18
10
14
18
18
17
2
9
0
14
2
12
3
0
16
9
16
14
8
18
12
8
1
1
7
2
9
12
17
6
2
6
13
1
18
10
15
5
0
7
0
7
10
12
6
10
3
18
10
14
15
3
11
19
18
6
3
6
8
14
2
3
3
15
15
1
1
17
10
13
18
17
2
8
15
7
19
12
3
5
19
17
1
13
2
19
3
18
16
11
19
15
3
14
15
18
13
2
3
13
3
2
11
18
7
15
15
16
3
7
18
0
16
5
11
13
15
19
7
18
0
19
5
2
13
2
0
16
19
15
16
11
5
13
5
19
13
15
6
5
2
16
15
15
18
15
0
6
14
5
10
3
19
2
18
18
5
2
3
19
7
14
13
3
16
1
9
18
7
5
0
19
8
13
19
2
16
1
3
3
12
14
6
0
16
1
19
8
10
6
14
16
9
2
10
14
10
15
2
2
17
7
15
9
2
16
6
0
11
13
10
0
16
8
18
5
5
16
2
10
3
17
18
2
15
1
2
16
16
11
10
3
6
15
19
2
1
19
12
14
5
13
11
19
3
7
11
12
19
13
6
1
3
12
6
12
10
0
14
7
18
16
5
16
10
6
14
1
0
5
18
10
18
19
14
18
1
3
5
15
3
9
18
2
18
3
15
15
10
10
5
15
3
18
15
7
10
13
1
3
1
16
18
7
7
10
3
1
9
0
15
0
2
5
19
16
16
7
19
16
15
1
9
18
3
3
0
0
19
6
1
13
2
9
15
19
7
5
9
18
18
13
16
6
15
1
16
7
3
3
2
9
16
17
6
2
3
3
11
16
7
15
10
19
17
0
7
3
16
18
17
1
9
15
6
1
17
7
10
1
7
7
9
5
18
3
16
1
10
3
2
19
0
16
15
2
15
15
9
6
18
1
1
3
6
3
1
10
19
5
10
2
18
8
18
0
15
14
6
18
9
5
0
16
10
14
11
18
18
15
16
0
6
5
18
11
2
7
9
15
5
19
7
0
19
0
15
1
14
9
0
3
1
17
15
9
19
7
0
18
18
18
3
16
2
0
2
11
5
0
3
15
12
10
7
19
5
18
15
15
4
4
18
0
9
1
19
7
18
6
1
11
10
2
7
17
3
2
3
11
5
8
0
19
18
3
2
0
9
7
13
2
9
6
10
1
7
10
15
15
2
18
7
10
7
16
5
6
12
10
1
15
2
9
10
14
18
5
2
16
10
12
1
18
10
0
16
10
10
10
15
10
0
19
10
9
16
0
7
