0
3
15
3
9
2
9
11
16
7
16
16
3
9
7
15
2
16
16
19
11
16
7
3
10
19
16
18
3
11
6
2
7
12
8
11
11
19
13
18
15
13
9
3
3
11
2
8
2
11
11
10
10
19
9
1
16
11
7
16
9
0
7
5
18
1
19
18
15
6
6
7
0
2
11
15
7
10
0
17
14
15
0
13
11
19
5
10
5
10
14
3
2
6
19
0
5
9
15
3
18
18
14
1
2
15
9
3
16
11
6
18
12
15
16
10
16
18
7
13
2
7
2
19
16
7
3
3
16
7
11
9
7
7
10
9
7
0
2
19
15
9
7
8
16
10
11
18
19
5
14
3
13
11
16
9
10
6
15
14
16
3
11
11
19
7
17
11
19
9
13
2
2
12
19
2
5
2
17
7
14
18
3
1
3
15
17
2
14
19
18
7
2
5
10
13
12
11
16
1
2
7
15
12
11
0
0
3
2
13
10
3
14
2
11
0
15
15
10
10
15
15
7
13
15
14
3
13
0
16
19
9
16
12
3
1
11
0
15
11
5
5
16
2
9
3
19
9
18
6
1
19
1
3
3
18
5
10
8
17
16
15
16
2
17
11
7
16
2
16
11
3
11
17
16
3
1
15
15
6
1
18
11
9
3
17
6
11
6
6
12
16
2
0
3
15
3
9
2
9
11
16
7
16
16
3
9
7
15
2
16
16
19
11
16
7
3
10
19
16
18
3
11
6
2
7
12
8
11
11
19
13
18
15
13
9
3
3
11
2
8
2
11
11
10
10
19
9
1
16
11
7
16
9
0
7
5
18
1
19
18
15
6
6
7
0
2
11
15
7
10
0
17
14
15
0
13
11
19
5
10
5
10
14
3
2
6
19
0
5
9
15
3
18
18
14
1
2
15
9
3
16
11
6
18
12
15
16
10
16
18
7
13
2
7
2
19
16
7
3
3
16
7
11
9
7
7
10
9
7
0
2
19
15
9
7
8
16
10
11
18
19
5
14
3
13
11
16
9
10
6
15
14
16
3
11
11
19
7
17
11
19
9
13
2
2
12
19
2
5
2
17
7
14
18
3
1
3
15
17
2
14
19
18
7
2
5
10
13
12
11
16
1
2
7
15
12
11
0
0
3
2
13
10
3
14
2
11
0
15
15
10
10
15
15
7
13
15
14
3
13
0
16
19
9
16
12
3
1
11
0
15
11
5
5
16
2
9
3
19
9
18
6
1
19
1
3
3
18
5
10
8
17
16
15
16
2
17
11
7
16
2
16
11
3
11
17
16
3
1
15
15
6
1
18
11
9
3
17
6
11
6
6
12
16
2
0
3
15
3
9
2
9
11
16
7
16
16
3
9
7
15
2
16
16
19
11
16
7
3
10
19
16
18
3
11
6
2
7
12
8
11
11
19
13
18
15
13
9
3
3
11
2
8
2
11
11
10
10
19
9
1
16
11
7
16
9
0
7
5
18
1
19
18
15
6
6
7
0
2
11
15
7
10
0
17
14
15
0
13
11
19
5
10
5
10
14
3
2
6
19
0
5
9
15
3
18
18
14
1
2
15
9
3
16
11
6
18
12
15
16
10
16
18
7
13
2
7
2
19
16
7
3
3
16
7
11
9
7
7
10
9
7
0
2
19
15
9
7
8
16
10
11
18
19
5
14
3
13
11
16
9
10
6
15
14
16
3
11
11
19
7
17
11
19
9
13
2
2
12
19
2
5
2
17
7
14
18
3
1
3
15
17
2
14
19
18
7
2
5
10
13
12
11
16
1
2
7
15
12
11
0
0
3
2
13
10
3
14
2
11
0
15
15
10
10
15
15
7
13
15
14
3
13
0
16
19
9
16
12
3
1
11
0
15
11
5
5
16
2
9
3
19
9
18
6
1
19
1
3
3
18
5
10
8
17
16
15
16
2
17
11
7
16
2
16
11
3
11
17
16
3
1
15
15
6
1
18
11
9
3
17
6
11
6
6
12
16
2
0
3
15
3
9
2
9
11
16
7
16
16
3
9
7
15
2
16
16
19
11
16
7
3
10
19
16
18
3
11
6
2
7
12
8
11
11
19
13
18
15
13
9
3
3
11
2
8
2
11
11
10
10
19
9
1
16
11
7
16
9
0
7
5
18
1
19
18
15
6
6
7
0
2
11
15
7
10
0
17
14
15
0
13
11
19
5
10
5
10
14
3
2
6
19
0
5
9
15
3
18
18
14
1
2
15
9
3
16
11
6
18
12
15
16
10
16
18
7
13
2
7
2
19
16
7
3
3
16
7
11
9
7
7
10
9
7
0
2
19
15
9
7
8
16
10
11
18
19
5
14
3
13
11
16
9
10
6
15
14
16
3
11
11
19
7
17
11
19
9
13
2
2
12
19
2
5
2
17
7
14
18
3
1
3
15
17
2
14
19
18
7
2
5
10
13
12
11
16
1
2
7
15
12
11
0
0
3
2
13
10
3
14
2
11
0
15
15
10
10
15
15
7
13
15
14
3
13
0
16
19
9
16
12
3
1
11
0
15
11
5
5
16
2
9
3
19
9
18
6
1
19
1
3
3
18
5
10
8
17
16
15
16
2
17
11
7
16
2
16
11
3
11
17
16
3
1
15
15
6
1
18
11
9
3
17
6
11
6
6
12
16
2
0
3
15
3
9
2
9
11
16
7
16
16
3
9
7
15
2
16
16
19
11
16
7
3
10
19
16
18
3
11
6
2
7
12
8
11
11
19
13
18
15
13
9
3
3
11
2
8
2
11
11
10
10
19
9
1
16
11
7
16
9
0
7
5
18
1
19
18
15
6
6
7
0
2
11
15
7
10
0
17
14
15
0
13
11
19
5
10
5
10
14
3
2
6
19
0
5
9
15
3
18
18
14
1
2
15
9
3
16
11
6
18
12
15
16
10
16
18
7
13
2
7
2
19
16
7
3
3
16
7
11
9
7
7
10
9
7
0
2
19
15
9
7
8
16
10
11
18
19
5
14
3
13
11
16
9
10
6
15
14
16
3
11
11
19
7
17
11
19
9
13
2
2
12
19
2
5
2
17
7
14
18
3
1
3
15
17
2
14
19
18
7
2
5
10
13
12
11
16
1
2
7
15
12
11
0
0
3
2
13
10
3
14
2
11
0
15
15
10
10
15
15
7
13
15
14
3
13
0
16
19
9
16
12
3
1
11
0
15
11
5
5
16
2
9
3
19
9
18
6
1
19
1
3
3
18
5
10
8
17
16
15
16
2
17
11
7
16
2
16
11
3
11
17
16
3
1
15
15
6
1
18
11
9
3
17
6
11
6
6
12
16
2
0
3
15
3
9
2
9
11
16
7
16
16
3
9
7
15
2
16
16
19
11
16
7
3
10
19
16
18
3
11
6
2
7
12
8
11
11
19
13
18
15
13
9
3
3
11
2
8
2
11
11
10
10
19
9
1
16
11
7
16
9
0
7
5
18
1
19
18
15
6
6
7
0
2
11
15
7
10
0
17
14
15
0
13
11
19
5
10
5
10
14
3
2
6
19
0
5
9
15
3
18
18
14
1
2
15
9
3
16
11
6
18
12
15
16
10
16
18
7
13
2
7
2
19
16
7
3
3
16
7
11
9
7
7
10
9
7
0
2
19
15
9
7
8
16
10
11
18
19
5
14
3
13
11
16
9
10
6
15
14
16
3
11
11
19
7
17
11
19
9
13
2
2
12
19
2
5
2
17
7
14
18
3
1
3
15
17
2
14
19
18
7
2
5
10
13
12
11
16
1
2
7
15
12
11
0
0
3
2
13
10
3
14
2
11
0
15
15
10
10
15
15
7
13
15
14
3
13
0
16
19
9
16
12
3
1
11
0
15
11
5
5
16
2
9
3
19
9
18
6
1
19
1
3
3
18
5
10
8
17
16
15
16
2
17
11
7
16
2
16
11
3
11
17
16
3
1
15
15
6
1
18
11
9
3
17
6
11
6
6
12
16
2
0
3
15
3
9
2
9
11
16
7
16
16
3
9
7
15
2
16
16
19
11
16
7
3
10
19
16
18
3
11
6
2
7
12
8
11
11
19
13
18
15
13
9
3
3
11
2
8
2
11
11
10
10
19
9
1
16
11
7
16
9
0
7
5
18
1
19
18
15
6
6
7
0
2
11
15
7
10
0
17
14
15
0
13
11
19
5
10
5
10
14
3
2
6
19
0
5
9
15
3
18
18
14
1
2
15
9
3
16
11
6
18
12
15
16
10
16
18
7
13
2
7
2
19
16
7
3
3
16
7
11
9
7
7
10
9
7
0
2
19
15
9
7
8
16
10
11
18
19
5
14
3
13
11
16
9
10
6
15
14
16
3
11
11
19
7
17
11
19
9
13
2
2
12
19
2
5
2
17
7
14
18
3
1
3
15
17
2
14
19
18
7
2
5
10
13
12
11
16
1
2
7
15
12
11
0
0
3
2
13
10
3
14
2
11
0
15
15
10
10
15
15
7
13
15
14
3
13
0
16
19
9
16
12
3
1
11
0
15
11
5
5
16
2
9
3
19
9
18
6
1
19
1
3
3
18
5
10
8
17
16
15
16
2
17
11
7
16
2
16
11
3
11
17
16
3
1
15
15
6
1
18
11
9
3
17
6
11
6
6
12
16
2
