3
10
19
6
3
15
8
0
15
10
6
10
1
2
13
18
13
2
1
3
13
1
3
6
17
0
5
7
13
10
10
1
10
6
15
7
13
15
6
7
16
19
7
13
7
19
3
0
9
7
10
10
7
13
11
10
3
15
5
3
3
18
0
11
10
7
10
16
0
11
0
1
19
15
2
15
10
10
11
19
7
0
10
8
13
11
15
14
10
19
15
0
2
3
16
1
10
10
14
6
10
13
1
7
0
10
10
3
19
5
6
9
3
7
10
16
10
1
7
0
8
10
3
1
2
11
10
2
15
15
15
3
18
5
19
13
15
0
2
1
9
7
7
1
15
3
0
13
3
13
0
7
7
3
18
1
10
16
14
0
10
16
0
15
10
8
5
7
1
10
11
3
9
18
1
5
16
13
0
7
10
19
8
16
10
3
10
7
1
15
10
11
15
3
10
1
13
0
1
0
15
6
3
7
7
13
1
6
10
3
2
1
0
13
7
0
10
13
15
10
1
10
7
0
8
0
19
0
0
7
18
5
1
9
15
7
3
3
14
18
14
18
9
0
7
15
3
14
18
10
19
2
13
9
5
9
7
3
13
7
2
19
3
6
1
15
17
5
10
1
18
3
18
3
13
7
0
10
7
10
14
7
10
15
13
12
15
1
18
19
15
7
3
2
19
0
1
7
0
0
2
3
7
11
6
17
6
1
2
16
3
10
7
18
19
19
5
15
7
14
10
11
2
10
7
19
11
17
1
2
0
16
19
1
15
2
13
0
2
3
10
3
6
2
1
10
9
10
15
18
15
10
0
10
17
