200
200
200
200
200
200
200
200
200
200
200
200
200
200
200
200
200
200
200
200
200
200
200
200
200
200
200
200
200
200
200
200
200
200
200
200
200
200
200
200
200
200
200
200
200
200
200
200
200
200
200
200
200
200
200
200
200
200
200
200
200
200
17
14
15
0
2
17
17
5
1
18
5
3
0
5
10
2
8
10
9
6
6
0
10
5
8
15
14
15
10
4
12
0
12
0
1
10
11
7
0
5
7
13
0
1
5
0
7
0
9
1
15
13
3
10
7
10
0
0
15
0
16
6
15
11
19
15
6
1
18
5
15
0
16
14
14
3
7
17
2
3
18
7
16
10
16
10
2
13
5
18
3
13
3
13
17
7
11
2
1
0
0
19
19
0
0
16
15
6
10
0
0
0
6
0
6
15
19
0
0
1
10
12
9
15
16
15
9
0
2
0
18
0
6
10
0
1
10
18
0
2
5
6
16
19
8
0
0
10
5
19
1
2
11
16
19
6
10
10
6
11
1
18
0
2
7
10
6
16
10
7
15
19
15
5
0
11
0
19
0
0
15
19
6
0
6
10
10
7
9
5
6
15
9
5
10
5
11
2
0
10
0
0
10
19
7
5
7
14
3
1
0
0
15
9
6
6
14
8
9
16
10
16
15
1
18
19
7
10
10
7
8
1
0
3
9
16
0
0
1
17
1
0
6
0
0
0
5
5
19
7
9
0
5
0
5
13
18
14
3
19
16
10
15
0
13
9
7
18
5
0
13
7
10
3
8
10
13
3
15
7
2
3
0
7
0
9
7
14
0
9
18
10
14
10
13
16
7
7
1
10
6
7
5
10
16
15
0
6
0
1
18
5
6
0
19
0
5
18
2
7
16
10
19
5
0
10
8
6
9
0
3
19
19
16
15
15
5
0
10
5
0
1
9
2
11
16
6
5
0
19
5
5
0
6
5
0
10
8
9
0
16
2
1
18
5
7
7
10
0
16
18
10
3
19
10
19
0
6
6
15
10
10
2
2
5
1
0
10
19
2
10
5
15
1
0
13
15
10
3
10
0
10
9
8
0
10
7
7
7
13
6
200
200
200
200
200
200
200
200
200
200
200
200
200
200
200
200
200
200
200
200
200
200
200
200
200
200
200
200
200
200
200
200
200
200
200
200
200
200
200
200
200
200
200
200
200
200
200
200
200
200
200
200
200
200
200
200
200
200
200
200
200
200
17
14
15
0
2
17
17
5
1
18
5
3
0
5
10
2
8
10
9
6
6
0
10
5
8
15
14
15
10
4
12
0
12
0
1
10
11
7
0
5
7
13
0
1
5
0
7
0
9
1
15
13
3
10
7
10
0
0
15
0
16
6
15
11
19
15
6
1
18
5
15
0
16
14
14
3
7
17
2
3
18
7
16
10
16
10
2
13
5
18
3
13
3
13
17
7
11
2
1
0
0
19
19
0
0
16
15
6
10
0
0
0
6
0
6
15
19
0
0
1
10
12
9
15
16
15
9
0
2
0
18
0
6
10
0
1
10
18
0
2
5
6
16
19
8
0
0
10
5
19
1
2
11
16
19
6
10
10
6
11
1
18
0
2
7
10
6
16
10
7
15
19
15
5
0
11
0
19
0
0
15
19
6
0
6
10
10
7
9
5
6
15
9
5
10
5
11
2
0
10
0
0
10
19
7
5
7
14
3
1
0
0
15
9
6
6
14
8
9
16
10
16
15
1
18
19
7
10
10
7
8
1
0
3
9
16
0
0
1
17
1
0
6
0
0
0
5
5
19
7
9
0
5
0
5
13
18
14
3
19
16
10
15
0
13
9
7
18
5
0
13
7
10
3
8
10
13
3
15
7
2
3
0
7
0
9
7
14
0
9
18
10
14
10
13
16
7
7
1
10
6
7
5
10
16
15
0
6
0
1
18
5
6
0
19
0
5
18
2
7
16
10
19
5
0
10
8
6
9
0
3
19
19
16
15
15
5
0
10
5
0
1
9
2
11
16
6
5
0
19
5
5
0
6
5
0
10
8
9
0
16
2
1
18
5
7
7
10
0
16
18
10
3
19
10
19
0
6
6
15
10
10
2
2
5
1
0
10
19
2
10
5
15
1
0
13
15
10
3
10
0
10
9
8
0
10
7
7
7
13
6
200
200
200
200
200
200
200
200
200
200
200
200
200
200
200
200
200
200
200
200
200
200
200
200
200
200
200
200
200
200
200
200
200
200
200
200
200
200
200
200
200
200
200
200
200
200
200
200
200
200
200
200
200
200
200
200
200
200
200
200
200
200
17
14
15
0
2
17
17
5
1
18
5
3
0
5
10
2
8
10
9
6
6
0
10
5
8
15
14
15
10
4
12
0
12
0
1
10
11
7
0
5
7
13
0
1
5
0
7
0
9
1
15
13
3
10
7
10
0
0
15
0
16
6
15
11
19
15
6
1
18
5
15
0
16
14
14
3
7
17
2
3
18
7
16
10
16
10
2
13
5
18
3
13
3
13
17
7
11
2
1
0
0
19
19
0
0
16
15
6
10
0
0
0
6
0
6
15
19
0
0
1
10
12
9
15
16
15
9
0
2
0
18
0
6
10
0
1
10
18
0
2
5
6
16
19
8
0
0
10
5
19
1
2
11
16
19
6
10
10
6
11
1
18
0
2
7
10
6
16
10
7
15
19
15
5
0
11
0
19
0
0
15
19
6
0
6
10
10
7
9
5
6
15
9
5
10
5
11
2
0
10
0
0
10
19
7
5
7
14
3
1
0
0
15
9
6
6
14
8
9
16
10
16
15
1
18
19
7
10
10
7
8
1
0
3
9
16
0
0
1
17
1
0
6
0
0
0
5
5
19
7
9
0
5
0
5
13
18
14
3
19
16
10
15
0
13
9
7
18
5
0
13
7
10
3
8
10
13
3
15
7
2
3
0
7
0
9
7
14
0
9
18
10
14
10
13
16
7
7
1
10
6
7
5
10
16
15
0
6
0
1
18
5
6
0
19
0
5
18
2
7
16
10
19
5
0
10
8
6
9
0
3
19
19
16
15
15
5
0
10
5
0
1
9
2
11
16
6
5
0
19
5
5
0
6
5
0
10
8
9
0
16
2
1
18
5
7
7
10
0
16
18
10
3
19
10
19
0
6
6
15
10
10
2
2
5
1
0
10
19
2
10
5
15
1
0
13
15
10
3
10
0
10
9
8
0
10
7
7
7
13
6
