1
19
15
7
17
17
2
17
10
11
2
3
19
15
5
16
17
2
6
14
5
2
18
3
10
18
10
14
13
10
15
17
8
2
1
13
12
18
3
11
6
11
16
3
2
18
2
6
12
14
17
7
7
7
13
7
19
15
1
18
2
5
6
7
2
17
15
15
10
18
0
12
12
13
11
3
15
8
2
6
17
5
14
9
9
7
18
7
17
6
11
7
17
18
10
3
15
1
1
3
13
1
10
7
10
7
19
16
0
7
9
16
0
1
3
3
13
2
18
19
14
10
14
9
9
10
14
10
13
15
0
15
18
1
1
10
15
19
5
13
16
18
9
14
7
16
18
2
2
7
2
19
10
13
0
17
10
1
18
7
13
