0.0 0.81514668435 0.638215649867 0.137372413793 0.24295596817 0.289759681698 0.192171087533 0.0885668435013 0 -1.09659681698 -1.44693209549 1.20555411141 -0.451957559682 -1.62274721485 -0.277682228117 0.585641909814 0.0425175066313 0 0 -0.922788859416
0.0 1.30694946524 1.18070187166 1.20164411765 0.345537433155 0.898787433155 0.958643315508 0.327313903743 0 -1.15107459893 -1.56566550802 1.64527032086 -0.580466042781 -1.41150294118 0.45065026738 0.95044197861 0.335315240642 0 0 -0.941240374332
0.0 2.23175449735 2.34054074074 2.6777010582 0.369914550265 1.87786481481 2.02083359788 0.752348941799 0 -1.44127830688 -1.97861216931 2.85423756614 -0.737812433862 -1.52758756614 1.11916269841 1.7102457672 0.83263994709 0 0 -1.15369973545
0.0 2.28453983957 2.37214224599 2.55926122995 0.505520320856 1.78821283422 1.8165 0.722702139037 0 -1.1341540107 -1.60687139037 2.81115882353 -0.543322994652 -1.18834090909 0.933782085561 1.68097379679 0.842893048128 0 0 -0.957486631016
0.0 2.4332037037 2.53456269841 3.02673650794 0.459926455026 1.99707724868 2.15126428571 0.844193386243 0 -1.33941746032 -1.84808915344 3.08913386243 -0.71611984127 -1.34092513228 1.30702962963 1.82490185185 0.981879365079 0 0 -1.00456058201
0.0 2.28453983957 2.37214224599 2.55926122995 0.505520320856 1.78821283422 1.8165 0.722702139037 0 -1.1341540107 -1.60687139037 2.81115882353 -0.543322994652 -1.18834090909 0.933782085561 1.68097379679 0.842893048128 0 0 -0.957486631016
0.0 2.23175449735 2.34054074074 2.6777010582 0.369914550265 1.87786481481 2.02083359788 0.752348941799 0 -1.44127830688 -1.97861216931 2.85423756614 -0.737812433862 -1.52758756614 1.11916269841 1.7102457672 0.83263994709 0 0 -1.15369973545
0.0 1.30694946524 1.18070187166 1.20164411765 0.345537433155 0.898787433155 0.958643315508 0.327313903743 0 -1.15107459893 -1.56566550802 1.64527032086 -0.580466042781 -1.41150294118 0.45065026738 0.95044197861 0.335315240642 0 0 -0.941240374332
0.0 0.81514668435 0.638215649867 0.137372413793 0.24295596817 0.289759681698 0.192171087533 0.0885668435013 0 -1.09659681698 -1.44693209549 1.20555411141 -0.451957559682 -1.62274721485 -0.277682228117 0.585641909814 0.0425175066313 0 0 -0.922788859416
