7
10
3
2
6
10
15
10
19
3
7
5
3
1
16
10
16
19
5
5
17
3
16
13
10
2
7
19
13
14
10
3
1
2
1
10
16
1
6
17
13
8
15
7
1
0
11
18
9
19
0
7
14
7
0
3
6
13
6
7
16
10
6
10
7
18
5
9
7
13
14
17
15
10
7
19
7
9
2
13
15
18
16
16
14
2
9
10
9
3
3
7
3
9
16
1
14
14
13
7
10
2
15
19
9
16
14
2
10
13
14
7
19
15
9
15
0
3
10
7
2
7
14
7
9
5
6
19
0
16
13
15
19
3
19
15
7
0
6
7
7
19
0
19
15
2
0
8
7
16
19
16
7
0
0
7
7
19
10
10
1
14
13
0
1
10
9
0
15
16
7
3
15
19
16
16
18
7
6
14
17
2
12
2
7
10
3
2
6
10
15
10
19
3
7
5
3
1
16
10
16
19
5
5
17
3
16
13
10
2
7
19
13
14
10
3
1
2
1
10
16
1
6
17
13
8
15
7
1
0
11
18
9
19
0
7
14
7
0
3
6
13
6
7
16
10
6
10
7
18
5
9
7
13
14
17
15
10
7
19
7
9
2
13
15
18
16
16
14
2
9
10
9
3
3
7
3
9
16
1
14
14
13
7
10
2
15
19
9
16
14
2
10
13
14
7
19
15
9
15
0
3
10
7
2
7
14
7
9
5
6
19
0
16
13
15
19
3
19
15
7
0
6
7
7
19
0
19
15
2
0
8
7
16
19
16
7
0
0
7
7
19
10
10
1
14
13
0
1
10
9
0
15
16
7
3
15
19
16
16
18
7
6
14
17
2
12
2
7
10
3
2
6
10
15
10
19
3
7
5
3
1
16
10
16
19
5
5
17
3
16
13
10
2
7
19
13
14
10
3
1
2
1
10
16
1
6
17
13
8
15
7
1
0
11
18
9
19
0
7
14
7
0
3
6
13
6
7
16
10
6
10
7
18
5
9
7
13
14
17
15
10
7
19
7
9
2
13
15
18
16
16
14
2
9
10
9
3
3
7
3
9
16
1
14
14
13
7
10
2
15
19
9
16
14
2
10
13
14
7
19
15
9
15
0
3
10
7
2
7
14
7
9
5
6
19
0
16
13
15
19
3
19
15
7
0
6
7
7
19
0
19
15
2
0
8
7
16
19
16
7
0
0
7
7
19
10
10
1
14
13
0
1
10
9
0
15
16
7
3
15
19
16
16
18
7
6
14
17
2
12
2
7
10
3
2
6
10
15
10
19
3
7
5
3
1
16
10
16
19
5
5
17
3
16
13
10
2
7
19
13
14
10
3
1
2
1
10
16
1
6
17
13
8
15
7
1
0
11
18
9
19
0
7
14
7
0
3
6
13
6
7
16
10
6
10
7
18
5
9
7
13
14
17
15
10
7
19
7
9
2
13
15
18
16
16
14
2
9
10
9
3
3
7
3
9
16
1
14
14
13
7
10
2
15
19
9
16
14
2
10
13
14
7
19
15
9
15
0
3
10
7
2
7
14
7
9
5
6
19
0
16
13
15
19
3
19
15
7
0
6
7
7
19
0
19
15
2
0
8
7
16
19
16
7
0
0
7
7
19
10
10
1
14
13
0
1
10
9
0
15
16
7
3
15
19
16
16
18
7
6
14
17
2
12
2
7
10
3
2
6
10
15
10
19
3
7
5
3
1
16
10
16
19
5
5
17
3
16
13
10
2
7
19
13
14
10
3
1
2
1
10
16
1
6
17
13
8
15
7
1
0
11
18
9
19
0
7
14
7
0
3
6
13
6
7
16
10
6
10
7
18
5
9
7
13
14
17
15
10
7
19
7
9
2
13
15
18
16
16
14
2
9
10
9
3
3
7
3
9
16
1
14
14
13
7
10
2
15
19
9
16
14
2
10
13
14
7
19
15
9
15
0
3
10
7
2
7
14
7
9
5
6
19
0
16
13
15
19
3
19
15
7
0
6
7
7
19
0
19
15
2
0
8
7
16
19
16
7
0
0
7
7
19
10
10
1
14
13
0
1
10
9
0
15
16
7
3
15
19
16
16
18
7
6
14
17
2
12
2
7
10
3
2
6
10
15
10
19
3
7
5
3
1
16
10
16
19
5
5
17
3
16
13
10
2
7
19
13
14
10
3
1
2
1
10
16
1
6
17
13
8
15
7
1
0
11
18
9
19
0
7
14
7
0
3
6
13
6
7
16
10
6
10
7
18
5
9
7
13
14
17
15
10
7
19
7
9
2
13
15
18
16
16
14
2
9
10
9
3
3
7
3
9
16
1
14
14
13
7
10
2
15
19
9
16
14
2
10
13
14
7
19
15
9
15
0
3
10
7
2
7
14
7
9
5
6
19
0
16
13
15
19
3
19
15
7
0
6
7
7
19
0
19
15
2
0
8
7
16
19
16
7
0
0
7
7
19
10
10
1
14
13
0
1
10
9
0
15
16
7
3
15
19
16
16
18
7
6
14
17
2
12
2
7
10
3
2
6
10
15
10
19
3
7
5
3
1
16
10
16
19
5
5
17
3
16
13
10
2
7
19
13
14
10
3
1
2
1
10
16
1
6
17
13
8
15
7
1
0
11
18
9
19
0
7
14
7
0
3
6
13
6
7
16
10
6
10
7
18
5
9
7
13
14
17
15
10
7
19
7
9
2
13
15
18
16
16
14
2
9
10
9
3
3
7
3
9
16
1
14
14
13
7
10
2
15
19
9
16
14
2
10
13
14
7
19
15
9
15
0
3
10
7
2
7
14
7
9
5
6
19
0
16
13
15
19
3
19
15
7
0
6
7
7
19
0
19
15
2
0
8
7
16
19
16
7
0
0
7
7
19
10
10
1
14
13
0
1
10
9
0
15
16
7
3
15
19
16
16
18
7
6
14
17
2
12
2
7
10
3
2
6
10
15
10
19
3
7
5
3
1
16
10
16
19
5
5
17
3
16
13
10
2
7
19
13
14
10
3
1
2
1
10
16
1
6
17
13
8
15
7
1
0
11
18
9
19
0
7
14
7
0
3
6
13
6
7
16
10
6
10
7
18
5
9
7
13
14
17
15
10
7
19
7
9
2
13
15
18
16
16
14
2
9
10
9
3
3
7
3
9
16
1
14
14
13
7
10
2
15
19
9
16
14
2
10
13
14
7
19
15
9
15
0
3
10
7
2
7
14
7
9
5
6
19
0
16
13
15
19
3
19
15
7
0
6
7
7
19
0
19
15
2
0
8
7
16
19
16
7
0
0
7
7
19
10
10
1
14
13
0
1
10
9
0
15
16
7
3
15
19
16
16
18
7
6
14
17
2
12
2
