200
200
200
200
3
10
6
7
18
7
0
9
15
1
0
12
7
7
16
15
15
15
18
18
16
7
2
0
0
10
9
15
2
14
0
16
10
15
13
0
14
3
7
2
5
13
6
10
7
10
3
19
19
16
16
3
9
11
19
8
3
15
8
7
0
6
0
11
15
15
16
7
14
18
19
7
14
5
10
15
18
19
0
5
10
3
3
17
1
13
7
0
7
10
13
19
15
15
7
10
7
16
6
18
7
15
11
15
13
10
15
5
16
6
2
7
9
5
16
15
13
3
2
15
15
1
10
9
19
10
1
0
14
9
7
13
15
18
5
0
16
15
11
10
16
13
7
0
15
19
3
10
19
17
16
15
10
2
10
6
10
10
10
14
15
15
5
19
7
0
10
16
0
5
7
2
10
15
7
7
10
19
14
15
10
0
7
13
19
7
16
7
7
0
0
8
13
15
10
15
1
2
15
16
0
7
7
0
19
3
0
19
7
17
7
7
1
10
7
10
16
18
11
10
16
3
2
16
19
10
7
0
12
18
2
13
11
16
15
19
7
3
10
6
7
11
0
16
10
15
0
9
15
7
3
7
0
19
10
14
10
3
7
3
9
1
19
11
2
13
6
12
14
0
15
10
16
10
7
10
0
8
5
13
2
6
1
17
19
19
0
0
3
9
11
1
0
18
17
7
3
19
12
3
12
2
19
0
13
9
15
5
10
7
7
9
3
19
0
10
14
8
1
18
5
3
9
16
19
0
15
9
7
16
0
18
11
18
2
2
3
10
16
10
1
0
7
18
15
18
0
5
10
9
10
14
19
9
14
0
18
10
11
1
8
19
16
13
7
7
6
18
3
13
3
11
3
15
1
9
2
10
0
9
15
13
7
10
1
6
1
19
5
16
16
6
12
10
1
5
15
8
15
5
9
2
0
19
19
15
18
15
11
2
13
8
8
8
