## 1bxw
# single value: 
	 43	Y	-3	0.00646519971026
	AAAAAAAAAAAAAAAAAAAAAAAAA
	166	V	-1	0.107102247349
	 41	G	-1	0.138986991951
	129	Y	-3	0.145894753474
	 99	G	 3	0.153529425864
	 93	I	-3	0.155212994749
	  7	W	-4	0.161741163688
	 79	L	 1	0.168365575829
	 49	V	-4	0.187020690752
	 13	L	 2	0.260135187171
	  9	T	-2	0.273325861479
	164	L	 1	0.277406639867
	 51	F	-2	0.279758552481
	 83	L	-3	0.282342437679
	 77	V	 3	0.313736244043
	162	L	 3	0.379789048147
	123	F	 3	0.39137915681
	 53	M	 0	0.407827541591
	 55	Y	 2	0.458366734342
	125	G	 1	0.504313379602
	141	Y	 2	0.554013312844
	 15	W	 4	0.577878710497
	 97	L	 1	0.59298609281
	139	L	 0	0.613088469207
	127	V	-1	0.616595544212
	168	Y	-3	0.636620915025
	 57	W	 4	0.70344880978
	143	W	 4	0.784588821659
	135	I	-4	0.82713023303
	137	T	-2	0.833843453718
	 95	T	-1	0.925877263284
# vector profile: 
	AAAAAAAAAAAAAAAAAAAAAAAAA
	141	Y	 2	0.106098361676
 [ 0.    0.19  0.    0.04  0.    0.    0.05  0.01  0.21  0.    0.06  0.01  0.01  0.12  0.17  0.    0.07  0.07  0.    0.  ]
	164	L	 1	0.118004924403
 [ 0.    0.04  0.09  0.22  0.01  0.02  0.    0.01  0.07  0.13  0.07  0.06  0.03  0.09  0.1   0.03  0.    0.    0.02  0.  ]
	143	W	 4	0.134115184971
 [ 0.    0.02  0.    0.    0.02  0.    0.06  0.01  0.    0.05  0.01  0.02  0.01  0.03  0.06  0.    0.07  0.27  0.09  0.27]
	139	L	 0	0.140830334646
 [ 0.    0.03  0.01  0.03  0.01  0.04  0.13  0.02  0.15  0.12  0.01  0.05  0.02  0.02  0.22  0.    0.    0.    0.05  0.09]
	  9	T	-2	0.148037979818
 [ 0.    0.    0.09  0.    0.01  0.04  0.07  0.03  0.21  0.01  0.    0.25  0.02  0.03  0.16  0.    0.03  0.02  0.01  0.  ]
	 57	W	 4	0.172630467064
 [ 0.    0.    0.01  0.    0.02  0.25  0.    0.08  0.02  0.    0.    0.02  0.3   0.01  0.01  0.03  0.12  0.09  0.01  0.02]
	 15	W	 4	0.1756167688
 [ 0.    0.02  0.17  0.04  0.06  0.03  0.01  0.    0.17  0.01  0.04  0.15  0.04  0.07  0.01  0.09  0.    0.01  0.01  0.05]
	137	T	-2	0.236740045293
 [ 0.    0.1   0.09  0.09  0.    0.03  0.12  0.03  0.14  0.01  0.    0.02  0.03  0.04  0.04  0.02  0.05  0.08  0.07  0.04]
	 55	Y	 2	0.243217307666
 [ 0.    0.    0.05  0.09  0.    0.08  0.04  0.    0.    0.03  0.    0.01  0.01  0.07  0.28  0.01  0.01  0.02  0.    0.28]
	 53	M	 0	0.250771096387
 [ 0.    0.1   0.04  0.09  0.02  0.05  0.1   0.    0.07  0.    0.03  0.04  0.    0.16  0.21  0.03  0.03  0.01  0.01  0.01]
	 49	V	-4	0.252051852179
 [ 0.    0.02  0.    0.01  0.02  0.04  0.    0.04  0.05  0.03  0.08  0.28  0.01  0.1   0.13  0.    0.02  0.04  0.04  0.07]
	166	V	-1	0.253558442998
 [ 0.    0.09  0.08  0.01  0.06  0.04  0.05  0.01  0.    0.22  0.    0.01  0.03  0.07  0.02  0.01  0.05  0.1   0.07  0.08]
	  7	W	-4	0.275866497197
 [ 0.    0.13  0.05  0.14  0.01  0.    0.1   0.01  0.15  0.    0.    0.02  0.02  0.03  0.13  0.02  0.    0.13  0.04  0.02]
	127	V	-1	0.280736749048
 [ 0.    0.14  0.01  0.16  0.    0.02  0.06  0.    0.28  0.06  0.    0.02  0.01  0.    0.19  0.03  0.01  0.01  0.01  0.  ]
	 13	L	 2	0.306656463721
 [ 0.    0.22  0.07  0.23  0.    0.01  0.    0.02  0.03  0.01  0.03  0.11  0.    0.02  0.03  0.01  0.07  0.1   0.02  0.02]
	 51	F	-2	0.309346983635
 [ 0.    0.01  0.09  0.15  0.01  0.01  0.    0.01  0.1   0.2   0.04  0.22  0.01  0.01  0.01  0.02  0.01  0.03  0.06  0.02]
	 81	A	-1	0.352150995342
 [ 0.    0.    0.02  0.07  0.    0.05  0.    0.05  0.45  0.02  0.01  0.01  0.11  0.02  0.02  0.03  0.01  0.03  0.03  0.06]
	 11	A	 0	0.368430505267
 [ 0.    0.13  0.03  0.04  0.01  0.11  0.03  0.03  0.08  0.    0.    0.17  0.02  0.03  0.    0.    0.05  0.15  0.07  0.05]
	 37	A	 3	0.43814846069
 [ 0.    0.1   0.11  0.    0.09  0.13  0.02  0.    0.05  0.    0.01  0.01  0.2   0.    0.11  0.13  0.01  0.01  0.    0.01]
	129	Y	-3	0.457349600589
 [ 0.    0.16  0.1   0.    0.01  0.15  0.07  0.02  0.08  0.    0.    0.2   0.    0.    0.03  0.04  0.04  0.02  0.04  0.04]
	 95	T	-1	0.515172822956
 [ 0.    0.01  0.19  0.04  0.    0.06  0.02  0.03  0.01  0.01  0.01  0.    0.    0.01  0.45  0.08  0.06  0.01  0.01  0.01]
	135	I	-4	0.527331880421
 [ 0.    0.05  0.13  0.14  0.01  0.1   0.13  0.    0.02  0.05  0.15  0.04  0.01  0.03  0.03  0.04  0.05  0.    0.02  0.  ]
	162	L	 3	0.574428566196
 [ 0.    0.1   0.12  0.04  0.14  0.06  0.    0.01  0.05  0.    0.    0.11  0.07  0.01  0.03  0.06  0.07  0.09  0.02  0.02]
	125	G	 1	0.575827788482
 [ 0.    0.05  0.11  0.28  0.    0.09  0.03  0.    0.    0.02  0.05  0.1   0.08  0.02  0.    0.08  0.02  0.04  0.    0.02]
	 79	L	 1	0.59874544279
 [ 0.    0.3   0.01  0.12  0.    0.02  0.02  0.02  0.01  0.07  0.04  0.1   0.04  0.08  0.01  0.    0.    0.02  0.04  0.09]
	 77	V	 3	0.620777969075
 [ 0.    0.04  0.17  0.01  0.12  0.    0.01  0.    0.05  0.14  0.    0.01  0.08  0.02  0.19  0.05  0.02  0.06  0.03  0.  ]
	 43	Y	-3	0.636823065365
 [ 0.    0.01  0.01  0.02  0.02  0.21  0.03  0.11  0.09  0.    0.01  0.06  0.01  0.01  0.01  0.09  0.03  0.13  0.15  0.01]
	 99	G	 3	0.640115988729
 [ 0.    0.05  0.07  0.1   0.01  0.01  0.05  0.01  0.    0.08  0.14  0.04  0.03  0.13  0.03  0.05  0.    0.07  0.06  0.07]
	 41	G	-1	0.656371460207
 [ 0.    0.05  0.05  0.09  0.    0.08  0.12  0.02  0.05  0.02  0.02  0.07  0.09  0.02  0.01  0.06  0.15  0.1   0.    0.  ]
	168	Y	-3	0.726558974087
 [ 0.    0.08  0.09  0.18  0.    0.14  0.04  0.04  0.01  0.    0.02  0.04  0.02  0.    0.17  0.05  0.03  0.03  0.    0.05]
	123	F	 3	0.772929427809
 [ 0.    0.12  0.12  0.13  0.06  0.14  0.05  0.01  0.12  0.    0.01  0.07  0.01  0.    0.    0.04  0.06  0.05  0.01  0.  ]
	 93	I	-3	0.832754075187
 [ 0.    0.12  0.06  0.06  0.    0.1   0.08  0.05  0.19  0.02  0.02  0.08  0.    0.    0.11  0.04  0.05  0.01  0.    0.01]
	VVVVVVVVVVVVVVVVVVVVVVVVV
	 39	A	 1	0.956907603287
 [ 0.    0.04  0.06  0.03  0.04  0.09  0.    0.    0.25  0.01  0.03  0.09  0.05  0.07  0.04  0.01  0.02  0.08  0.08  0.01]
	 97	L	 1	0.96180754954
 [ 0.    0.05  0.16  0.13  0.09  0.1   0.04  0.    0.11  0.    0.    0.04  0.    0.02  0.03  0.05  0.02  0.08  0.07  0.  ]
	 83	L	-3	0.997876260126
 [ 0.    0.1   0.09  0.22  0.    0.01  0.22  0.02  0.16  0.01  0.    0.06  0.01  0.    0.07  0.02  0.    0.    0.    0.  ]
