## 1bxx
# single value: 
	AAAAAAAAAAAAAAAAAAAAAAAAA
	 43	Y	-3	0.0746501864481
	166	V	-1	0.0983318576579
	  9	T	-4	0.134121886347
	 41	G	-1	0.135586890557
	129	Y	-3	0.14585975805
	 99	G	 3	0.153320250073
	 93	I	-3	0.155041896951
	 79	L	 1	0.168626571913
	 49	V	-4	0.186927486639
	 13	L	 0	0.241338539091
	164	L	 1	0.246322290534
	 51	F	-2	0.279297114636
	 83	L	-3	0.282247622646
	 77	V	 3	0.313367828845
	 17	Q	 4	0.321098889384
	123	F	 3	0.391117616195
	 53	M	 0	0.407424258067
	162	L	 3	0.409014080722
	 55	Y	 2	0.457960943789
	125	G	 1	0.505112381619
	141	Y	 2	0.555764706393
	 97	L	 1	0.59298609281
	139	L	 0	0.614070144165
	127	V	-1	0.616715911916
	168	Y	-3	0.635472449965
	 57	W	 4	0.702909438238
	143	W	 4	0.784892683719
	 15	W	 2	0.802527797172
	135	I	-4	0.8280818874
	137	T	-2	0.832235758925
	 95	T	-1	0.925705157811
# vector profile: 
	AAAAAAAAAAAAAAAAAAAAAAAAA
	141	Y	 2	0.105818673283
 [ 0.    0.19  0.    0.04  0.    0.    0.05  0.01  0.21  0.    0.06  0.01  0.    0.12  0.17  0.    0.07  0.07  0.    0.  ]
	 15	W	 2	0.112391975707
 [ 0.    0.31  0.01  0.01  0.01  0.    0.2   0.    0.13  0.01  0.03  0.03  0.    0.03  0.03  0.    0.02  0.1   0.01  0.06]
	164	L	 1	0.11750869035
 [ 0.    0.03  0.08  0.22  0.    0.03  0.    0.01  0.05  0.11  0.09  0.09  0.02  0.12  0.1   0.03  0.    0.    0.02  0.  ]
	143	W	 4	0.134224502343
 [ 0.    0.02  0.    0.    0.02  0.    0.06  0.01  0.    0.05  0.01  0.03  0.02  0.03  0.06  0.    0.07  0.27  0.09  0.27]
	139	L	 0	0.141416525993
 [ 0.    0.03  0.01  0.03  0.01  0.04  0.13  0.02  0.15  0.12  0.01  0.05  0.02  0.02  0.22  0.    0.    0.    0.05  0.09]
	 57	W	 4	0.171981928113
 [ 0.    0.    0.01  0.    0.02  0.25  0.    0.08  0.02  0.    0.    0.02  0.3   0.01  0.01  0.03  0.12  0.09  0.01  0.02]
	 13	L	 0	0.198065693146
 [ 0.    0.02  0.02  0.16  0.    0.09  0.08  0.02  0.03  0.01  0.05  0.22  0.    0.03  0.14  0.01  0.02  0.04  0.01  0.04]
	137	T	-2	0.237564146248
 [ 0.    0.09  0.09  0.09  0.    0.02  0.12  0.03  0.14  0.01  0.    0.02  0.03  0.04  0.05  0.02  0.05  0.08  0.07  0.04]
	 55	Y	 2	0.242665523747
 [ 0.    0.    0.05  0.09  0.    0.08  0.04  0.    0.    0.03  0.    0.01  0.01  0.07  0.28  0.01  0.01  0.02  0.    0.28]
	 53	M	 0	0.250735956392
 [ 0.    0.1   0.04  0.09  0.02  0.05  0.1   0.    0.07  0.    0.03  0.04  0.    0.16  0.21  0.03  0.03  0.01  0.01  0.01]
	 49	V	-4	0.251656966144
 [ 0.    0.02  0.    0.01  0.02  0.04  0.    0.04  0.05  0.03  0.08  0.28  0.01  0.1   0.13  0.    0.02  0.04  0.04  0.07]
	166	V	-1	0.273302205274
 [ 0.    0.09  0.07  0.01  0.06  0.04  0.04  0.01  0.    0.22  0.    0.    0.03  0.08  0.03  0.01  0.05  0.1   0.07  0.08]
	127	V	-1	0.281027828728
 [ 0.    0.14  0.01  0.16  0.    0.02  0.06  0.    0.28  0.06  0.    0.02  0.01  0.    0.19  0.03  0.01  0.01  0.01  0.  ]
	 51	F	-2	0.305688047281
 [ 0.    0.01  0.09  0.15  0.01  0.01  0.    0.01  0.09  0.2   0.04  0.22  0.01  0.01  0.01  0.02  0.01  0.03  0.06  0.02]
	 43	Y	-3	0.3299133186
 [ 0.    0.    0.01  0.01  0.01  0.22  0.01  0.13  0.13  0.    0.03  0.04  0.04  0.    0.01  0.09  0.03  0.12  0.1   0.01]
	 81	A	-1	0.352154835948
 [ 0.    0.    0.02  0.07  0.    0.05  0.    0.05  0.45  0.02  0.01  0.01  0.11  0.02  0.02  0.03  0.01  0.03  0.03  0.06]
	  9	T	-4	0.400263026294
 [ 0.    0.    0.13  0.08  0.02  0.16  0.15  0.    0.22  0.01  0.    0.07  0.01  0.    0.03  0.03  0.04  0.04  0.    0.  ]
	 37	A	 3	0.422985264005
 [ 0.    0.1   0.11  0.    0.09  0.14  0.03  0.    0.05  0.    0.01  0.01  0.19  0.    0.11  0.12  0.01  0.02  0.    0.01]
	 11	A	-2	0.428201968085
 [ 0.    0.13  0.04  0.07  0.01  0.1   0.04  0.03  0.02  0.    0.    0.17  0.01  0.04  0.    0.    0.06  0.15  0.06  0.06]
	129	Y	-3	0.457314470204
 [ 0.    0.16  0.1   0.    0.01  0.15  0.07  0.02  0.08  0.    0.    0.2   0.    0.    0.03  0.04  0.04  0.02  0.04  0.04]
	 17	Q	 4	0.46218406906
 [ 0.    0.06  0.04  0.07  0.06  0.01  0.04  0.    0.18  0.16  0.08  0.06  0.02  0.06  0.    0.03  0.01  0.01  0.02  0.07]
	 95	T	-1	0.514739212538
 [ 0.    0.01  0.19  0.04  0.    0.06  0.02  0.03  0.01  0.01  0.01  0.    0.    0.01  0.45  0.08  0.06  0.01  0.01  0.01]
	135	I	-4	0.530585298072
 [ 0.    0.05  0.13  0.14  0.01  0.09  0.13  0.    0.02  0.05  0.15  0.04  0.02  0.03  0.03  0.04  0.05  0.    0.02  0.  ]
	125	G	 1	0.575956667272
 [ 0.    0.05  0.11  0.28  0.    0.09  0.03  0.    0.    0.02  0.05  0.1   0.08  0.02  0.    0.08  0.02  0.04  0.    0.02]
	 79	L	 1	0.598821084824
 [ 0.    0.3   0.01  0.12  0.    0.02  0.02  0.02  0.01  0.07  0.04  0.1   0.04  0.08  0.01  0.    0.    0.02  0.04  0.09]
	 77	V	 3	0.621205475729
 [ 0.    0.04  0.17  0.01  0.12  0.    0.01  0.    0.05  0.14  0.    0.01  0.08  0.02  0.19  0.05  0.02  0.06  0.03  0.  ]
	 41	G	-1	0.624352158073
 [ 0.    0.06  0.04  0.09  0.    0.07  0.12  0.02  0.07  0.02  0.02  0.06  0.11  0.02  0.01  0.05  0.13  0.08  0.    0.  ]
	162	L	 3	0.632133526454
 [ 0.    0.07  0.14  0.05  0.13  0.06  0.    0.01  0.06  0.02  0.    0.1   0.06  0.01  0.02  0.07  0.06  0.09  0.02  0.04]
	 99	G	 3	0.640008396719
 [ 0.    0.05  0.07  0.1   0.01  0.01  0.05  0.01  0.    0.08  0.14  0.04  0.03  0.13  0.03  0.05  0.    0.07  0.06  0.07]
	123	F	 3	0.772927616736
 [ 0.    0.12  0.12  0.13  0.06  0.14  0.05  0.01  0.12  0.    0.01  0.07  0.01  0.    0.    0.04  0.06  0.05  0.01  0.  ]
	168	Y	-3	0.796834669449
 [ 0.    0.1   0.08  0.14  0.    0.12  0.06  0.04  0.    0.    0.02  0.09  0.02  0.    0.16  0.04  0.04  0.03  0.    0.05]
	 93	I	-3	0.832534323694
 [ 0.    0.12  0.06  0.06  0.    0.1   0.08  0.05  0.19  0.02  0.02  0.08  0.    0.    0.11  0.04  0.05  0.01  0.    0.01]
	 39	A	 1	0.914329559045
 [ 0.    0.04  0.06  0.04  0.05  0.08  0.    0.    0.2   0.02  0.04  0.08  0.05  0.08  0.04  0.01  0.02  0.09  0.09  0.01]
	VVVVVVVVVVVVVVVVVVVVVVVVV
	 97	L	 1	0.961842501282
 [ 0.    0.05  0.16  0.13  0.09  0.1   0.04  0.    0.11  0.    0.    0.04  0.    0.02  0.03  0.05  0.02  0.08  0.07  0.  ]
	 83	L	-3	0.997874343274
 [ 0.    0.1   0.09  0.22  0.    0.01  0.22  0.02  0.16  0.01  0.    0.06  0.01  0.    0.07  0.02  0.    0.    0.    0.  ]
