## 1k24
# single value: 
	191	F	 3	0.025831491695
	AAAAAAAAAAAAAAAAAAAAAAAAA
	211	P	 1	0.0842587942888
	 38	V	 0	0.103102150195
	247	L	 2	0.121512855321
	 36	I	 2	0.140309943002
	245	Y	 4	0.177907283179
	251	I	-2	0.181909621066
	145	L	-4	0.183481094868
	157	P	-2	0.213972938418
	253	F	-4	0.215724318263
	193	L	 1	0.320699836577
	213	Y	 3	0.322120403978
	 90	I	 4	0.344791429345
	110	V	-3	0.345366546443
	249	V	 0	0.34791552081
	116	F	 3	0.379193596891
	137	W	 4	0.387692525465
	141	V	 0	0.402080901605
	159	S	 0	0.408878887474
	 98	Y	-4	0.437572477465
	 92	L	 2	0.468481713812
	155	I	-4	0.531525030849
	 96	Y	-2	0.543262334784
	163	F	 4	0.549575157835
	161	V	 2	0.550092944012
	114	L	 1	0.593030817263
	 42	I	-4	0.615161512501
	 50	I	-3	0.626188414267
	 16	L	 3	0.627446732433
	 14	T	 1	0.674571302
	 94	T	 0	0.682088473038
	 34	K	 4	0.779618114504
	 10	F	-3	0.783006131847
	207	I	-3	0.876737492655
	 12	V	-1	0.878251827913
	 56	F	 3	0.918844208573
	197	I	-3	0.935412656552
	VVVVVVVVVVVVVVVVVVVVVVVVV
	 52	L	-1	0.978817424417
# vector profile: 
	 96	Y	-2	0.0386640391928
 [ 0.    0.    0.09  0.    0.02  0.    0.28  0.01  0.01  0.05  0.    0.22  0.    0.03  0.05  0.    0.02  0.07  0.    0.15]
	AAAAAAAAAAAAAAAAAAAAAAAAA
	157	P	-2	0.0686767471773
 [ 0.    0.14  0.01  0.01  0.01  0.02  0.01  0.08  0.05  0.04  0.02  0.    0.02  0.13  0.25  0.02  0.04  0.07  0.06  0.01]
	 98	Y	-4	0.115620079155
 [ 0.    0.03  0.08  0.38  0.    0.09  0.11  0.    0.04  0.04  0.    0.07  0.02  0.06  0.01  0.03  0.    0.01  0.01  0.02]
	 92	L	 2	0.130411304247
 [ 0.    0.11  0.04  0.15  0.01  0.    0.38  0.01  0.01  0.15  0.    0.    0.02  0.    0.    0.02  0.    0.02  0.01  0.07]
	 90	I	 4	0.13205722065
 [ 0.    0.02  0.08  0.01  0.    0.05  0.    0.06  0.09  0.04  0.09  0.06  0.15  0.08  0.    0.03  0.09  0.07  0.02  0.06]
	 36	I	 2	0.134153052302
 [ 0.    0.08  0.01  0.06  0.    0.27  0.04  0.    0.08  0.21  0.01  0.01  0.    0.06  0.    0.02  0.09  0.01  0.    0.03]
	 94	T	 0	0.152565135905
 [ 0.    0.03  0.08  0.18  0.    0.02  0.    0.03  0.11  0.01  0.13  0.13  0.    0.07  0.07  0.06  0.02  0.    0.03  0.03]
	 42	I	-4	0.153134182672
 [ 0.    0.03  0.11  0.19  0.03  0.08  0.1   0.01  0.14  0.02  0.04  0.    0.01  0.    0.    0.01  0.03  0.02  0.11  0.06]
	116	F	 3	0.160335539907
 [ 0.    0.05  0.1   0.2   0.    0.07  0.07  0.02  0.04  0.06  0.16  0.05  0.01  0.01  0.04  0.07  0.    0.    0.    0.03]
	143	A	-2	0.165836295197
 [ 0.    0.04  0.    0.    0.    0.01  0.02  0.04  0.01  0.06  0.    0.13  0.08  0.07  0.12  0.    0.01  0.25  0.14  0.03]
	163	F	 4	0.205984623801
 [ 0.    0.03  0.    0.01  0.    0.04  0.01  0.01  0.06  0.01  0.    0.    0.34  0.    0.36  0.    0.02  0.09  0.01  0.  ]
	112	A	-1	0.217868596336
 [ 0.    0.04  0.03  0.03  0.09  0.01  0.04  0.    0.13  0.01  0.09  0.04  0.09  0.05  0.01  0.1   0.15  0.01  0.06  0.02]
	137	W	 4	0.227696123216
 [ 0.    0.    0.02  0.05  0.    0.06  0.    0.02  0.24  0.23  0.01  0.04  0.    0.01  0.    0.15  0.02  0.02  0.03  0.12]
	155	I	-4	0.251645190955
 [ 0.    0.04  0.07  0.09  0.04  0.16  0.2   0.03  0.02  0.    0.03  0.    0.02  0.04  0.07  0.09  0.02  0.03  0.03  0.02]
	193	L	 1	0.270909340648
 [ 0.    0.    0.13  0.07  0.01  0.01  0.    0.01  0.31  0.01  0.02  0.12  0.06  0.04  0.11  0.06  0.    0.    0.01  0.03]
	 50	I	-3	0.294820964759
 [ 0.    0.02  0.01  0.11  0.01  0.18  0.07  0.    0.    0.01  0.05  0.2   0.    0.    0.    0.03  0.07  0.13  0.1   0.01]
	 54	A	 1	0.298119160203
 [ 0.    0.    0.09  0.02  0.    0.04  0.01  0.    0.48  0.    0.03  0.17  0.07  0.01  0.03  0.03  0.    0.01  0.    0.01]
	114	L	 1	0.358950403722
 [ 0.    0.09  0.34  0.03  0.04  0.02  0.15  0.    0.08  0.02  0.    0.05  0.01  0.    0.04  0.09  0.03  0.01  0.    0.  ]
	159	S	 0	0.36580113615
 [ 0.    0.05  0.    0.05  0.    0.    0.03  0.03  0.18  0.02  0.01  0.14  0.06  0.    0.33  0.01  0.    0.02  0.04  0.02]
	 56	F	 3	0.404104208691
 [ 0.    0.02  0.01  0.32  0.1   0.01  0.04  0.    0.05  0.08  0.01  0.09  0.05  0.11  0.09  0.    0.03  0.    0.    0.01]
	141	V	 0	0.451183371486
 [ 0.    0.08  0.04  0.07  0.    0.11  0.03  0.    0.01  0.01  0.01  0.37  0.01  0.03  0.02  0.16  0.03  0.    0.    0.  ]
	161	V	 2	0.462577302003
 [ 0.    0.1   0.02  0.02  0.03  0.09  0.14  0.07  0.    0.01  0.    0.17  0.02  0.02  0.17  0.05  0.08  0.    0.    0.  ]
	 52	L	-1	0.484734176499
 [ 0.    0.01  0.    0.    0.05  0.    0.    0.    0.04  0.09  0.2   0.    0.1   0.2   0.    0.    0.02  0.2   0.05  0.03]
	245	Y	 4	0.488833774712
 [ 0.    0.07  0.08  0.    0.03  0.01  0.05  0.02  0.19  0.03  0.03  0.05  0.04  0.09  0.01  0.01  0.    0.22  0.06  0.  ]
	110	V	-3	0.509162184341
 [ 0.    0.05  0.15  0.04  0.02  0.04  0.07  0.02  0.06  0.03  0.    0.    0.02  0.03  0.3   0.08  0.02  0.04  0.03  0.  ]
	209	A	-1	0.510372367303
 [ 0.    0.05  0.03  0.04  0.05  0.08  0.01  0.    0.06  0.08  0.09  0.05  0.16  0.09  0.02  0.01  0.    0.12  0.06  0.02]
	207	I	-3	0.569619253889
 [ 0.    0.01  0.    0.42  0.01  0.19  0.    0.02  0.    0.04  0.06  0.05  0.05  0.12  0.    0.01  0.    0.    0.02  0.01]
	 38	V	 0	0.582242827863
 [ 0.    0.03  0.09  0.02  0.    0.35  0.03  0.    0.01  0.03  0.    0.15  0.07  0.01  0.02  0.11  0.02  0.02  0.    0.04]
	139	A	 2	0.612412698805
 [ 0.    0.2   0.07  0.33  0.    0.    0.1   0.    0.03  0.02  0.04  0.08  0.01  0.03  0.04  0.01  0.01  0.01  0.    0.03]
	213	Y	 3	0.652826069204
 [ 0.    0.14  0.02  0.21  0.01  0.13  0.04  0.    0.11  0.01  0.05  0.09  0.01  0.    0.02  0.09  0.03  0.04  0.01  0.  ]
	 16	L	 3	0.730792033583
 [ 0.    0.02  0.05  0.08  0.    0.15  0.16  0.    0.08  0.    0.    0.05  0.01  0.    0.08  0.07  0.07  0.09  0.09  0.  ]
	195	A	-1	0.777410626604
 [ 0.    0.1   0.1   0.24  0.01  0.05  0.16  0.01  0.04  0.06  0.01  0.08  0.    0.01  0.    0.02  0.02  0.08  0.02  0.  ]
	247	L	 2	0.780830924842
 [ 0.    0.2   0.18  0.03  0.    0.07  0.13  0.01  0.15  0.    0.03  0.02  0.02  0.01  0.05  0.03  0.    0.01  0.01  0.05]
	211	P	 1	0.784528279651
 [ 0.    0.12  0.12  0.11  0.08  0.11  0.07  0.    0.14  0.    0.    0.08  0.02  0.01  0.06  0.    0.    0.05  0.02  0.  ]
	 10	F	-3	0.785392463444
 [ 0.    0.18  0.08  0.19  0.02  0.    0.14  0.    0.01  0.01  0.02  0.11  0.06  0.01  0.12  0.01  0.01  0.01  0.01  0.  ]
	197	I	-3	0.796918710773
 [ 0.    0.08  0.11  0.13  0.    0.03  0.07  0.01  0.    0.05  0.09  0.14  0.01  0.05  0.06  0.04  0.01  0.03  0.06  0.04]
	249	V	 0	0.809519755363
 [ 0.    0.09  0.08  0.22  0.    0.03  0.01  0.04  0.17  0.04  0.01  0.11  0.03  0.01  0.01  0.05  0.01  0.06  0.03  0.  ]
	253	F	-4	0.818489866526
 [ 0.    0.13  0.13  0.3   0.01  0.    0.02  0.01  0.01  0.04  0.05  0.13  0.02  0.02  0.    0.07  0.    0.02  0.01  0.05]
	 40	A	-2	0.883384160816
 [ 0.    0.03  0.31  0.17  0.    0.11  0.    0.03  0.01  0.    0.01  0.17  0.02  0.02  0.03  0.08  0.01  0.    0.    0.01]
	145	L	-4	0.927861289807
 [ 0.    0.05  0.03  0.04  0.02  0.06  0.06  0.03  0.17  0.03  0.01  0.18  0.09  0.01  0.06  0.    0.02  0.06  0.06  0.  ]
	VVVVVVVVVVVVVVVVVVVVVVVVV
	 12	V	-1	0.953492642484
 [ 0.    0.02  0.06  0.14  0.02  0.12  0.11  0.    0.2   0.03  0.06  0.    0.08  0.06  0.01  0.    0.    0.06  0.01  0.01]
	251	I	-2	0.953691366905
 [ 0.    0.03  0.1   0.13  0.    0.22  0.06  0.01  0.    0.01  0.01  0.09  0.03  0.    0.16  0.12  0.01  0.01  0.    0.  ]
	 14	T	 1	0.960886097711
 [ 0.    0.05  0.03  0.07  0.05  0.09  0.02  0.    0.11  0.04  0.09  0.06  0.02  0.08  0.11  0.05  0.    0.03  0.05  0.04]
	 34	K	 4	0.972861317012
 [ 0.    0.3   0.14  0.17  0.    0.01  0.11  0.02  0.06  0.01  0.01  0.01  0.    0.    0.05  0.09  0.01  0.    0.01  0.01]
	191	F	 3	0.983920712243
 [ 0.    0.06  0.1   0.03  0.    0.01  0.    0.01  0.09  0.    0.03  0.26  0.05  0.04  0.11  0.07  0.1   0.01  0.02  0.  ]
