## 1qd6
# single value: 
	142	H	 3	0.0125382645288
	116	P	 2	0.0145863187952
	 92	Y	 1	0.0248083950723
	156	N	 4	0.0325676367199
	 38	N	-1	0.0365398546948
	120	L	-2	0.0488774136057
	AAAAAAAAAAAAAAAAAAAAAAAAA
	175	P	 1	0.0728345550445
	 71	L	 1	0.0766128012172
	227	L	-1	0.112773171573
	 36	D	-3	0.15165403317
	267	D	-4	0.165776523731
	118	L	 0	0.171167323126
	 88	L	-3	0.179593961343
	122	F	-4	0.23573377316
	 73	L	-1	0.25417899398
	263	V	 0	0.255379661156
	 69	F	 3	0.26354321657
	197	L	 0	0.302325556447
	225	L	 1	0.318187491207
	 94	Q	 3	0.330815644295
	158	L	 2	0.33234864666
	261	V	 2	0.33559000014
	208	L	-2	0.336852578187
	201	Y	-4	0.365041557084
	 75	F	-3	0.365829022556
	177	Y	 3	0.378018634554
	114	Y	 4	0.389890745146
	259	V	 4	0.398652745647
	199	I	-2	0.412487060528
	138	M	-1	0.517008316282
	136	V	-3	0.536232642592
	160	T	 0	0.586287425391
	193	G	 4	0.59861640469
	162	L	-2	0.609945649761
	239	T	 1	0.630937896396
	171	V	-3	0.643582350527
	241	V	 3	0.711700826548
	140	Y	 1	0.760139842666
	212	G	 2	0.762422980946
	229	Y	-3	0.779658180996
	235	V	-3	0.782207325858
	214	Y	 4	0.852743191735
	195	Y	 2	0.853301333353
	265	L	-2	0.861882925043
	173	V	-1	0.871762616077
	VVVVVVVVVVVVVVVVVVVVVVVVV
	 42	Y	 3	0.951728131567
	 40	L	 1	0.953605533836
	237	L	-1	0.956651015402
# vector profile: 
	AAAAAAAAAAAAAAAAAAAAAAAAA
	 75	F	-3	0.111206679125
 [ 0.    0.    0.02  0.04  0.03  0.03  0.    0.03  0.06  0.13  0.09  0.05  0.4   0.02  0.    0.01  0.06  0.    0.03  0.  ]
	263	V	 0	0.126241642625
 [ 0.    0.    0.06  0.12  0.    0.01  0.02  0.    0.    0.    0.08  0.24  0.03  0.    0.08  0.12  0.    0.01  0.17  0.06]
	212	G	 2	0.139306515583
 [ 0.    0.18  0.02  0.07  0.    0.    0.01  0.03  0.01  0.06  0.01  0.06  0.    0.12  0.04  0.09  0.02  0.19  0.08  0.  ]
	208	L	-2	0.154976586838
 [ 0.    0.    0.17  0.04  0.    0.11  0.17  0.01  0.16  0.    0.01  0.05  0.01  0.    0.01  0.08  0.01  0.01  0.14  0.02]
	239	T	 1	0.171008182541
 [ 0.    0.02  0.03  0.    0.07  0.22  0.01  0.02  0.12  0.09  0.03  0.05  0.07  0.    0.11  0.    0.01  0.06  0.1   0.01]
	201	Y	-4	0.184268498255
 [ 0.    0.08  0.03  0.    0.01  0.    0.01  0.02  0.02  0.01  0.    0.46  0.01  0.01  0.2   0.03  0.03  0.03  0.02  0.02]
	267	D	-4	0.210644567298
 [ 0.    0.01  0.08  0.27  0.04  0.    0.    0.    0.02  0.    0.08  0.    0.09  0.01  0.23  0.01  0.    0.07  0.    0.06]
	229	Y	-3	0.226696520861
 [ 0.    0.02  0.01  0.    0.    0.2   0.04  0.03  0.16  0.06  0.08  0.    0.02  0.07  0.01  0.11  0.12  0.    0.04  0.03]
	 69	F	 3	0.249861784729
 [ 0.    0.09  0.06  0.04  0.24  0.04  0.06  0.    0.02  0.04  0.01  0.09  0.11  0.04  0.01  0.    0.05  0.04  0.04  0.02]
	177	Y	 3	0.253935424767
 [ 0.    0.12  0.02  0.    0.16  0.2   0.03  0.01  0.01  0.01  0.06  0.17  0.    0.02  0.05  0.02  0.04  0.07  0.01  0.01]
	164	A	-4	0.256867589667
 [ 0.    0.    0.09  0.03  0.    0.08  0.    0.    0.    0.    0.01  0.24  0.    0.04  0.33  0.08  0.04  0.03  0.01  0.02]
	210	A	 0	0.274361057668
 [ 0.    0.08  0.06  0.14  0.    0.    0.04  0.01  0.49  0.    0.02  0.06  0.    0.03  0.01  0.    0.    0.    0.02  0.02]
	 88	L	-3	0.294071349533
 [ 0.    0.02  0.02  0.    0.03  0.06  0.02  0.17  0.02  0.07  0.05  0.    0.08  0.    0.34  0.    0.03  0.    0.01  0.09]
	241	V	 3	0.300305699233
 [ 0.    0.08  0.    0.07  0.07  0.08  0.04  0.04  0.03  0.05  0.1   0.02  0.15  0.03  0.15  0.02  0.01  0.04  0.    0.01]
	199	I	-2	0.318640299449
 [ 0.    0.01  0.06  0.03  0.01  0.23  0.07  0.    0.01  0.    0.    0.11  0.12  0.    0.14  0.1   0.06  0.05  0.    0.  ]
	235	V	-3	0.319775218353
 [ 0.    0.02  0.08  0.    0.    0.13  0.11  0.04  0.07  0.06  0.09  0.09  0.    0.1   0.    0.14  0.02  0.03  0.    0.03]
	114	Y	 4	0.321450213749
 [ 0.    0.06  0.01  0.01  0.03  0.03  0.17  0.    0.02  0.01  0.    0.16  0.01  0.07  0.36  0.01  0.01  0.03  0.01  0.  ]
	 73	L	-1	0.322102973193
 [ 0.    0.09  0.05  0.01  0.    0.06  0.05  0.08  0.02  0.18  0.03  0.08  0.01  0.04  0.01  0.15  0.04  0.    0.    0.11]
	225	L	 1	0.336195160997
 [ 0.    0.02  0.    0.    0.01  0.18  0.    0.    0.11  0.19  0.02  0.15  0.07  0.    0.15  0.01  0.01  0.07  0.    0.  ]
	223	A	 3	0.336303059438
 [ 0.    0.03  0.01  0.02  0.19  0.    0.03  0.    0.06  0.    0.05  0.06  0.06  0.04  0.    0.    0.01  0.33  0.07  0.05]
	120	L	-2	0.342232931369
 [ 0.    0.    0.03  0.11  0.08  0.01  0.01  0.02  0.06  0.07  0.11  0.13  0.    0.    0.3   0.    0.    0.04  0.    0.02]
	214	Y	 4	0.350305370341
 [ 0.    0.    0.03  0.    0.    0.    0.    0.03  0.54  0.02  0.    0.16  0.    0.01  0.08  0.01  0.    0.01  0.11  0.  ]
	206	A	-4	0.397096438366
 [ 0.    0.03  0.06  0.11  0.02  0.01  0.01  0.02  0.09  0.08  0.03  0.23  0.01  0.    0.04  0.04  0.07  0.16  0.01  0.01]
	259	V	 4	0.402752881429
 [ 0.    0.04  0.01  0.05  0.04  0.11  0.09  0.01  0.14  0.01  0.11  0.01  0.02  0.02  0.03  0.02  0.01  0.17  0.11  0.  ]
	195	Y	 2	0.429481250408
 [ 0.    0.03  0.    0.03  0.01  0.    0.01  0.01  0.48  0.    0.06  0.13  0.03  0.    0.12  0.    0.01  0.    0.03  0.03]
	227	L	-1	0.442591237695
 [ 0.    0.08  0.08  0.26  0.02  0.06  0.07  0.    0.03  0.    0.08  0.03  0.08  0.05  0.01  0.02  0.02  0.07  0.02  0.02]
	 38	N	-1	0.467099481891
 [ 0.    0.09  0.32  0.    0.    0.05  0.08  0.02  0.15  0.    0.02  0.07  0.01  0.    0.1   0.07  0.01  0.01  0.    0.01]
	158	L	 2	0.47398236416
 [ 0.    0.09  0.04  0.02  0.    0.02  0.    0.    0.04  0.02  0.01  0.67  0.01  0.    0.    0.    0.    0.04  0.01  0.02]
	116	P	 2	0.483421531293
 [ 0.    0.02  0.    0.    0.    0.01  0.06  0.    0.04  0.04  0.04  0.06  0.06  0.13  0.27  0.    0.    0.14  0.05  0.07]
	197	L	 0	0.484495583638
 [ 0.    0.07  0.11  0.15  0.    0.03  0.09  0.    0.01  0.02  0.01  0.23  0.14  0.07  0.    0.    0.02  0.02  0.01  0.01]
	261	V	 2	0.505551381327
 [ 0.    0.17  0.    0.04  0.01  0.02  0.01  0.    0.05  0.14  0.08  0.03  0.1   0.07  0.03  0.    0.04  0.18  0.03  0.01]
	193	G	 4	0.529749215407
 [ 0.    0.16  0.    0.08  0.03  0.06  0.    0.    0.19  0.04  0.    0.11  0.01  0.05  0.    0.01  0.01  0.19  0.02  0.03]
	 90	A	-1	0.550832327107
 [ 0.    0.09  0.1   0.13  0.    0.03  0.17  0.    0.    0.    0.02  0.15  0.13  0.05  0.06  0.01  0.    0.05  0.02  0.  ]
	 94	Q	 3	0.557897926137
 [ 0.    0.06  0.08  0.12  0.01  0.01  0.06  0.01  0.    0.08  0.11  0.05  0.02  0.11  0.04  0.06  0.    0.07  0.07  0.07]
	140	Y	 1	0.56475998862
 [ 0.    0.17  0.03  0.05  0.07  0.01  0.03  0.01  0.05  0.07  0.08  0.12  0.09  0.09  0.03  0.01  0.01  0.04  0.01  0.03]
	138	M	-1	0.600802237177
 [ 0.    0.01  0.11  0.06  0.    0.08  0.08  0.02  0.    0.06  0.13  0.02  0.    0.09  0.04  0.07  0.09  0.06  0.    0.09]
	175	P	 1	0.605599671922
 [ 0.    0.07  0.01  0.07  0.02  0.02  0.09  0.    0.05  0.05  0.15  0.05  0.    0.09  0.1   0.07  0.06  0.05  0.01  0.04]
	171	V	-3	0.65972221809
 [ 0.    0.    0.02  0.24  0.02  0.12  0.    0.    0.01  0.02  0.14  0.05  0.12  0.09  0.13  0.    0.    0.03  0.    0.  ]
	 71	L	 1	0.66478319552
 [ 0.    0.03  0.14  0.14  0.    0.02  0.15  0.01  0.02  0.1   0.07  0.    0.03  0.06  0.04  0.05  0.01  0.06  0.    0.05]
	265	L	-2	0.675208855574
 [ 0.    0.09  0.16  0.24  0.    0.04  0.09  0.    0.    0.    0.02  0.23  0.02  0.    0.04  0.04  0.01  0.    0.    0.  ]
	173	V	-1	0.678966134067
 [ 0.    0.29  0.02  0.07  0.04  0.    0.03  0.01  0.04  0.05  0.07  0.12  0.06  0.08  0.01  0.01  0.01  0.03  0.01  0.02]
	237	L	-1	0.695668264082
 [ 0.    0.01  0.    0.05  0.02  0.01  0.    0.03  0.02  0.18  0.09  0.01  0.17  0.14  0.01  0.01  0.02  0.2   0.01  0.04]
	 40	L	 1	0.699628597944
 [ 0.    0.09  0.13  0.07  0.01  0.05  0.09  0.03  0.    0.06  0.1   0.03  0.    0.04  0.07  0.13  0.04  0.    0.01  0.07]
	136	V	-3	0.704451914306
 [ 0.    0.29  0.09  0.36  0.01  0.01  0.07  0.01  0.    0.01  0.01  0.01  0.08  0.02  0.    0.01  0.    0.    0.01  0.  ]
	122	F	-4	0.736026601442
 [ 0.    0.1   0.17  0.11  0.    0.05  0.11  0.03  0.04  0.02  0.    0.12  0.    0.02  0.01  0.17  0.01  0.03  0.01  0.  ]
	 36	D	-3	0.760914494414
 [ 0.    0.11  0.12  0.09  0.    0.02  0.08  0.01  0.    0.07  0.03  0.16  0.03  0.09  0.03  0.06  0.02  0.    0.03  0.05]
	118	L	 0	0.780570600274
 [ 0.    0.04  0.14  0.09  0.    0.14  0.07  0.    0.14  0.04  0.02  0.15  0.01  0.01  0.    0.11  0.03  0.01  0.01  0.01]
	 92	Y	 1	0.80282148184
 [ 0.    0.15  0.02  0.12  0.09  0.06  0.02  0.    0.08  0.    0.01  0.24  0.01  0.01  0.01  0.04  0.01  0.08  0.06  0.  ]
	156	N	 4	0.805546071074
 [ 0.    0.15  0.11  0.    0.04  0.02  0.03  0.    0.1   0.07  0.03  0.01  0.06  0.02  0.13  0.02  0.08  0.03  0.07  0.01]
	142	H	 3	0.858660568706
 [ 0.    0.13  0.06  0.11  0.    0.05  0.11  0.05  0.19  0.05  0.03  0.02  0.01  0.04  0.01  0.04  0.02  0.04  0.    0.04]
	160	T	 0	0.872319815582
 [ 0.    0.15  0.01  0.    0.    0.    0.    0.    0.03  0.01  0.02  0.52  0.03  0.03  0.    0.03  0.    0.13  0.01  0.03]
	 42	Y	 3	0.948917407011
 [ 0.    0.02  0.02  0.03  0.11  0.06  0.01  0.    0.07  0.1   0.04  0.08  0.03  0.1   0.08  0.02  0.01  0.05  0.04  0.13]
	VVVVVVVVVVVVVVVVVVVVVVVVV
	162	L	-2	0.979451419966
 [ 0.    0.09  0.14  0.1   0.01  0.24  0.07  0.    0.02  0.    0.    0.16  0.01  0.    0.    0.14  0.01  0.01  0.    0.  ]
