## 1uyn
# single value: 
	AAAAAAAAAAAAAAAAAAAAAAAAA
	891	H	-4	0.103774820933
	957	Y	 4	0.109917917101
	825	T	 2	0.111328875496
	858	T	-4	0.125545941363
	850	I	-1	0.137578585409
	885	L	 2	0.180781907238
	931	M	 4	0.200719206726
	1051	V	-4	0.206532476196
	848	V	 1	0.210214991015
	905	Y	 3	0.23842281508
	866	M	 4	0.244487383728
	933	L	 2	0.253819473972
	1063	Y	 2	0.26042744461
	949	L	-4	0.273769187982
	864	L	 2	0.276070915663
	883	I	 4	0.2768709514
	889	I	-2	0.285305287007
	1047	L	 0	0.300785810382
	1078	V	 1	0.318570282499
	846	Q	 3	0.479133954352
	827	Q	 4	0.480019690479
	1080	V	-1	0.482465431592
	1043	L	 4	0.494448370729
	986	G	 3	0.508907727243
	939	V	-4	0.551249983402
	955	L	 2	0.621584636863
	1065	Y	 4	0.629277712661
	953	G	 0	0.667191026274
	1057	W	-4	0.674775027159
	899	L	-3	0.695415635776
	901	G	-1	0.709405208069
	937	G	-2	0.710398547288
	951	V	-2	0.733537692731
	1002	L	-3	0.808028329435
	1059	G	-2	0.820275229401
	1082	Y	-3	0.832367856085
	1076	G	 3	0.869109872985
	1008	V	 3	0.872446010548
	903	F	 1	0.873236421371
	992	L	-3	0.943829299119
	990	L	-1	0.945888393995
	VVVVVVVVVVVVVVVVVVVVVVVVV
	819	L	-4	0.957066863201
	821	V	-2	0.980827998142
# vector profile: 
	AAAAAAAAAAAAAAAAAAAAAAAAA
	901	G	-1	0.0657971922433
 [ 0.    0.06  0.07  0.06  0.08  0.02  0.    0.05  0.08  0.    0.07  0.03  0.    0.05  0.02  0.01  0.    0.02  0.12  0.24]
	1002	L	-3	0.102339218254
 [ 0.    0.04  0.    0.01  0.03  0.04  0.    0.    0.    0.04  0.12  0.37  0.06  0.08  0.02  0.04  0.02  0.04  0.01  0.07]
	1004	A	-1	0.102910192788
 [ 0.    0.02  0.15  0.03  0.02  0.03  0.01  0.01  0.    0.06  0.09  0.03  0.21  0.    0.    0.09  0.    0.09  0.    0.14]
	1059	G	-2	0.126601551251
 [ 0.    0.03  0.15  0.14  0.    0.08  0.11  0.06  0.09  0.02  0.01  0.06  0.01  0.01  0.03  0.12  0.03  0.03  0.    0.03]
	1063	Y	 2	0.127616971615
 [ 0.    0.05  0.    0.    0.02  0.02  0.01  0.    0.13  0.    0.05  0.23  0.11  0.    0.29  0.01  0.    0.01  0.04  0.03]
	949	L	-4	0.128808477528
 [ 0.    0.16  0.09  0.11  0.    0.    0.04  0.09  0.    0.09  0.07  0.12  0.06  0.02  0.    0.08  0.06  0.    0.    0.  ]
	848	V	 1	0.136341628248
 [ 0.    0.05  0.07  0.18  0.    0.    0.07  0.01  0.04  0.02  0.12  0.12  0.05  0.15  0.    0.03  0.    0.    0.    0.07]
	988	A	 1	0.137263467885
 [ 0.    0.19  0.15  0.1   0.03  0.03  0.17  0.    0.04  0.01  0.01  0.02  0.    0.03  0.01  0.14  0.01  0.    0.04  0.01]
	955	L	 2	0.139680909896
 [ 0.    0.14  0.04  0.05  0.07  0.07  0.    0.01  0.02  0.    0.01  0.09  0.15  0.08  0.04  0.02  0.06  0.14  0.03  0.  ]
	1078	V	 1	0.14350216446
 [ 0.    0.    0.    0.    0.02  0.04  0.04  0.01  0.02  0.11  0.24  0.15  0.22  0.05  0.01  0.01  0.    0.06  0.    0.02]
	986	G	 3	0.161509795402
 [ 0.    0.01  0.05  0.    0.05  0.02  0.03  0.    0.    0.03  0.08  0.    0.04  0.    0.63  0.04  0.    0.    0.01  0.02]
	933	L	 2	0.166071692978
 [ 0.    0.    0.01  0.01  0.02  0.08  0.05  0.11  0.28  0.    0.05  0.13  0.    0.01  0.01  0.02  0.    0.02  0.17  0.03]
	1061	A	 0	0.1706279393
 [ 0.    0.01  0.    0.02  0.02  0.11  0.    0.01  0.06  0.    0.03  0.15  0.16  0.16  0.14  0.    0.03  0.07  0.02  0.01]
	953	G	 0	0.181560310181
 [ 0.    0.07  0.03  0.08  0.    0.02  0.    0.01  0.07  0.    0.07  0.18  0.04  0.17  0.11  0.    0.04  0.04  0.    0.05]
	899	L	-3	0.205753279777
 [ 0.    0.05  0.13  0.14  0.    0.08  0.09  0.    0.03  0.    0.02  0.14  0.04  0.    0.15  0.07  0.01  0.04  0.01  0.  ]
	846	Q	 3	0.215432236057
 [ 0.    0.01  0.14  0.    0.25  0.    0.11  0.01  0.01  0.01  0.03  0.02  0.23  0.01  0.    0.1   0.    0.01  0.04  0.02]
	1006	A	 1	0.22704472294
 [ 0.    0.07  0.03  0.08  0.03  0.04  0.11  0.01  0.08  0.08  0.07  0.13  0.03  0.04  0.    0.04  0.    0.04  0.02  0.1 ]
	1065	Y	 4	0.237083059203
 [ 0.    0.08  0.04  0.12  0.01  0.    0.04  0.    0.    0.01  0.09  0.    0.1   0.31  0.01  0.01  0.01  0.08  0.02  0.07]
	905	Y	 3	0.246153366704
 [ 0.    0.06  0.02  0.02  0.03  0.    0.01  0.02  0.04  0.    0.23  0.02  0.23  0.08  0.02  0.    0.    0.16  0.05  0.01]
	887	A	 0	0.246571193844
 [ 0.    0.11  0.04  0.11  0.    0.06  0.05  0.03  0.06  0.    0.01  0.15  0.04  0.01  0.    0.01  0.09  0.15  0.07  0.  ]
	939	V	-4	0.254998088742
 [ 0.    0.    0.01  0.06  0.    0.14  0.12  0.    0.06  0.    0.    0.01  0.    0.02  0.18  0.06  0.12  0.09  0.11  0.  ]
	1047	L	 0	0.259082434022
 [ 0.    0.05  0.03  0.07  0.02  0.03  0.01  0.02  0.38  0.    0.02  0.04  0.    0.    0.01  0.02  0.06  0.04  0.19  0.  ]
	937	G	-2	0.268300702473
 [ 0.    0.06  0.01  0.12  0.01  0.    0.    0.01  0.06  0.05  0.03  0.51  0.02  0.07  0.    0.02  0.    0.    0.    0.01]
	1043	L	 4	0.271168263169
 [ 0.    0.02  0.02  0.05  0.    0.21  0.06  0.    0.    0.03  0.    0.06  0.17  0.    0.15  0.1   0.05  0.04  0.01  0.03]
	1076	G	 3	0.271227266029
 [ 0.    0.    0.13  0.05  0.17  0.03  0.04  0.04  0.12  0.    0.    0.01  0.04  0.04  0.12  0.02  0.    0.15  0.04  0.  ]
	951	V	-2	0.278517465774
 [ 0.    0.07  0.08  0.23  0.    0.16  0.04  0.02  0.    0.    0.    0.28  0.    0.    0.01  0.05  0.02  0.    0.01  0.01]
	885	L	 2	0.286592007579
 [ 0.    0.49  0.09  0.05  0.    0.    0.07  0.01  0.    0.04  0.06  0.03  0.02  0.    0.    0.03  0.01  0.04  0.    0.03]
	1057	W	-4	0.301336107754
 [ 0.    0.04  0.08  0.04  0.    0.04  0.06  0.    0.09  0.01  0.18  0.11  0.03  0.03  0.2   0.01  0.04  0.03  0.03  0.  ]
	1008	V	 3	0.308658761577
 [ 0.    0.    0.    0.02  0.04  0.03  0.05  0.01  0.    0.11  0.15  0.09  0.14  0.14  0.03  0.03  0.    0.08  0.01  0.06]
	1051	V	-4	0.313973574178
 [ 0.    0.12  0.02  0.03  0.    0.02  0.08  0.04  0.01  0.04  0.    0.06  0.05  0.08  0.2   0.1   0.06  0.    0.05  0.05]
	850	I	-1	0.315333680512
 [ 0.    0.12  0.1   0.14  0.    0.1   0.05  0.    0.07  0.09  0.04  0.04  0.    0.01  0.05  0.04  0.03  0.08  0.03  0.01]
	1049	A	-2	0.316310105456
 [ 0.    0.07  0.1   0.1   0.01  0.08  0.03  0.01  0.05  0.    0.    0.08  0.11  0.04  0.09  0.02  0.05  0.11  0.03  0.01]
	931	M	 4	0.318139242635
 [ 0.    0.08  0.    0.05  0.02  0.03  0.03  0.05  0.02  0.08  0.02  0.01  0.06  0.07  0.23  0.01  0.01  0.1   0.01  0.11]
	889	I	-2	0.369311477055
 [ 0.    0.24  0.09  0.05  0.    0.11  0.01  0.02  0.    0.02  0.02  0.31  0.02  0.01  0.    0.03  0.04  0.02  0.    0.01]
	992	L	-3	0.377564248341
 [ 0.    0.06  0.    0.    0.02  0.02  0.06  0.    0.    0.12  0.13  0.06  0.12  0.07  0.02  0.03  0.    0.14  0.03  0.13]
	891	H	-4	0.396761227039
 [ 0.    0.02  0.02  0.01  0.06  0.14  0.08  0.    0.17  0.11  0.02  0.01  0.07  0.04  0.    0.04  0.1   0.04  0.03  0.03]
	866	M	 4	0.39958119383
 [ 0.    0.    0.02  0.24  0.01  0.18  0.    0.03  0.08  0.15  0.04  0.    0.03  0.03  0.05  0.08  0.    0.    0.    0.04]
	990	L	-1	0.404302370793
 [ 0.    0.08  0.01  0.06  0.03  0.01  0.02  0.    0.    0.05  0.15  0.12  0.13  0.1   0.09  0.    0.    0.13  0.    0.01]
	935	A	 0	0.441471975822
 [ 0.    0.29  0.05  0.11  0.    0.05  0.05  0.    0.01  0.03  0.03  0.19  0.    0.02  0.07  0.01  0.01  0.03  0.02  0.04]
	957	Y	 4	0.485310301024
 [ 0.    0.11  0.    0.01  0.02  0.01  0.01  0.03  0.05  0.06  0.05  0.21  0.02  0.09  0.02  0.    0.    0.15  0.1   0.05]
	903	F	 1	0.488273822196
 [ 0.    0.04  0.    0.    0.09  0.01  0.    0.    0.08  0.1   0.08  0.02  0.19  0.07  0.    0.    0.02  0.18  0.05  0.07]
	860	A	-2	0.520505461855
 [ 0.    0.08  0.01  0.37  0.    0.29  0.01  0.    0.04  0.04  0.    0.01  0.02  0.01  0.09  0.01  0.01  0.    0.01  0.  ]
	858	T	-4	0.58559267714
 [ 0.    0.16  0.01  0.03  0.03  0.    0.02  0.    0.02  0.07  0.07  0.02  0.03  0.09  0.17  0.    0.03  0.04  0.11  0.1 ]
	864	L	 2	0.596551642601
 [ 0.    0.13  0.08  0.05  0.    0.18  0.12  0.    0.01  0.02  0.01  0.27  0.    0.01  0.01  0.05  0.03  0.    0.    0.  ]
	1080	V	-1	0.648305779504
 [ 0.    0.15  0.02  0.12  0.01  0.08  0.04  0.03  0.1   0.01  0.02  0.24  0.    0.02  0.03  0.07  0.04  0.    0.    0.  ]
	862	A	 0	0.719800882481
 [ 0.    0.17  0.02  0.05  0.01  0.05  0.    0.02  0.1   0.03  0.01  0.22  0.    0.01  0.09  0.    0.03  0.13  0.05  0.01]
	827	Q	 4	0.750561327063
 [ 0.    0.01  0.01  0.06  0.03  0.    0.04  0.02  0.01  0.1   0.13  0.02  0.06  0.13  0.02  0.03  0.    0.13  0.11  0.09]
	821	V	-2	0.771857527755
 [ 0.    0.    0.04  0.    0.05  0.14  0.    0.    0.06  0.08  0.15  0.01  0.17  0.11  0.02  0.03  0.01  0.06  0.01  0.06]
	1045	A	 2	0.773560133113
 [ 0.    0.06  0.16  0.14  0.    0.01  0.09  0.01  0.07  0.08  0.05  0.08  0.02  0.02  0.02  0.1   0.04  0.    0.01  0.05]
	1082	Y	-3	0.784250136484
 [ 0.    0.14  0.03  0.1   0.01  0.08  0.11  0.01  0.    0.02  0.04  0.27  0.03  0.01  0.09  0.01  0.01  0.    0.02  0.02]
	852	A	-3	0.797430790942
 [ 0.    0.08  0.12  0.2   0.    0.12  0.05  0.02  0.    0.04  0.01  0.15  0.    0.    0.01  0.05  0.03  0.07  0.01  0.02]
	883	I	 4	0.852984562967
 [ 0.    0.35  0.04  0.12  0.    0.04  0.07  0.03  0.15  0.01  0.    0.06  0.    0.01  0.    0.06  0.02  0.    0.01  0.01]
	825	T	 2	0.927764502204
 [ 0.    0.14  0.18  0.23  0.03  0.03  0.1   0.01  0.01  0.01  0.01  0.08  0.01  0.    0.03  0.09  0.02  0.    0.    0.02]
	823	A	 0	0.93297897348
 [ 0.    0.1   0.03  0.09  0.    0.03  0.    0.01  0.12  0.08  0.04  0.2   0.    0.03  0.06  0.01  0.02  0.05  0.01  0.12]
	VVVVVVVVVVVVVVVVVVVVVVVVV
	819	L	-4	0.999427630956
 [ 0.    0.05  0.06  0.11  0.03  0.1   0.03  0.    0.11  0.01  0.02  0.03  0.03  0.11  0.01  0.05  0.03  0.09  0.11  0.01]
