## 2erv
# single value: 
	AAAAAAAAAAAAAAAAAAAAAAAAA
	 17	Y	 2	0.0737145047824
	142	Y	 3	0.0760578879137
	 15	M	 4	0.136790358942
	 41	W	-3	0.252020767089
	  7	V	 2	0.252904745131
	 45	Y	 1	0.256158886117
	 19	L	 0	0.287478880915
	112	L	-3	0.298290189002
	 62	F	 1	0.30188649364
	 60	L	 3	0.36098533028
	 23	W	-4	0.396816488339
	 66	F	-3	0.398515384547
	 21	L	-2	0.450065960977
	148	I	-3	0.50566245634
	144	L	 1	0.528345362836
	  3	V	-2	0.577228912716
	 64	P	-1	0.584904316207
	 47	Y	 3	0.597248651724
	146	Y	-1	0.666466837644
	120	V	-2	0.680334914838
	118	Q	-4	0.702291326531
	 77	P	-4	0.737850176321
	 85	V	 4	0.80588899406
	106	D	 3	0.824030218093
	 79	I	-2	0.869657652615
	 83	I	 2	0.926772289066
	122	V	 0	0.932929042244
	VVVVVVVVVVVVVVVVVVVVVVVVV
	126	H	 4	0.95514388636
	108	I	 1	0.979355893932
# vector profile: 
	AAAAAAAAAAAAAAAAAAAAAAAAA
	148	I	-3	0.0800533663777
 [ 0.    0.01  0.    0.    0.03  0.03  0.05  0.02  0.    0.    0.01  0.14  0.    0.16  0.06  0.05  0.02  0.18  0.01  0.23]
	144	L	 1	0.0994042998106
 [ 0.    0.06  0.05  0.1   0.07  0.32  0.03  0.    0.    0.01  0.    0.13  0.01  0.08  0.    0.    0.    0.04  0.01  0.06]
	112	L	-3	0.104169571146
 [ 0.    0.    0.02  0.05  0.02  0.07  0.    0.03  0.06  0.    0.05  0.07  0.19  0.    0.    0.03  0.12  0.18  0.05  0.07]
	118	Q	-4	0.135627984291
 [ 0.    0.05  0.04  0.08  0.01  0.06  0.    0.    0.03  0.    0.    0.18  0.05  0.11  0.05  0.01  0.    0.17  0.06  0.11]
	 45	Y	 1	0.170873143485
 [ 0.    0.02  0.02  0.02  0.    0.1   0.    0.01  0.04  0.02  0.1   0.28  0.07  0.15  0.03  0.    0.    0.03  0.03  0.08]
	  5	A	 0	0.179670088375
 [ 0.    0.06  0.17  0.03  0.    0.01  0.19  0.01  0.08  0.11  0.03  0.    0.08  0.    0.09  0.    0.01  0.03  0.09  0.  ]
	 41	W	-3	0.202348136128
 [ 0.    0.16  0.08  0.01  0.01  0.    0.28  0.    0.09  0.01  0.03  0.04  0.    0.02  0.11  0.07  0.02  0.05  0.02  0.01]
	 62	F	 1	0.217223873067
 [ 0.    0.12  0.    0.09  0.01  0.07  0.03  0.01  0.15  0.06  0.01  0.17  0.    0.03  0.    0.01  0.    0.15  0.06  0.02]
	 17	Y	 2	0.237812525179
 [ 0.    0.02  0.12  0.03  0.01  0.02  0.    0.    0.08  0.11  0.04  0.01  0.02  0.19  0.03  0.07  0.02  0.    0.11  0.11]
	 19	L	 0	0.241453656771
 [ 0.    0.01  0.09  0.09  0.    0.03  0.03  0.02  0.03  0.13  0.02  0.05  0.26  0.04  0.02  0.05  0.    0.09  0.    0.03]
	  1	A	-4	0.253191032766
 [ 0.    0.01  0.02  0.1   0.06  0.07  0.02  0.02  0.11  0.    0.    0.08  0.05  0.05  0.02  0.03  0.    0.12  0.18  0.05]
	 43	A	-1	0.256238831181
 [ 0.    0.    0.19  0.07  0.01  0.13  0.16  0.01  0.01  0.02  0.1   0.    0.11  0.01  0.11  0.01  0.    0.03  0.    0.  ]
	 47	Y	 3	0.259254784715
 [ 0.    0.11  0.1   0.03  0.14  0.01  0.08  0.03  0.13  0.06  0.    0.01  0.    0.    0.07  0.08  0.01  0.1   0.01  0.03]
	 64	P	-1	0.263019046925
 [ 0.    0.03  0.02  0.01  0.    0.03  0.    0.08  0.07  0.05  0.04  0.35  0.09  0.07  0.01  0.04  0.05  0.    0.    0.06]
	 23	W	-4	0.273492107872
 [ 0.    0.01  0.07  0.09  0.04  0.    0.    0.    0.07  0.2   0.02  0.12  0.11  0.08  0.05  0.07  0.    0.01  0.    0.06]
	  9	A	 4	0.281586329394
 [ 0.    0.05  0.01  0.    0.    0.01  0.02  0.    0.35  0.    0.    0.    0.14  0.    0.03  0.    0.01  0.12  0.1   0.16]
	 15	M	 4	0.330246023312
 [ 0.    0.07  0.02  0.1   0.01  0.03  0.    0.01  0.    0.06  0.06  0.16  0.1   0.05  0.08  0.16  0.04  0.04  0.    0.01]
	110	A	-1	0.370799098916
 [ 0.    0.06  0.06  0.02  0.    0.14  0.06  0.09  0.11  0.    0.01  0.17  0.    0.    0.09  0.11  0.03  0.01  0.01  0.01]
	 77	P	-4	0.398865373945
 [ 0.    0.08  0.05  0.01  0.05  0.14  0.14  0.    0.13  0.03  0.01  0.06  0.02  0.01  0.05  0.08  0.08  0.03  0.    0.02]
	  7	V	 2	0.426441055023
 [ 0.    0.01  0.11  0.02  0.02  0.11  0.09  0.    0.1   0.    0.01  0.01  0.05  0.04  0.02  0.1   0.09  0.13  0.07  0.02]
	120	V	-2	0.426641137637
 [ 0.    0.1   0.1   0.09  0.    0.17  0.09  0.07  0.07  0.    0.02  0.06  0.01  0.02  0.04  0.08  0.05  0.03  0.    0.01]
	 66	F	-3	0.470275346718
 [ 0.    0.12  0.1   0.34  0.    0.05  0.09  0.02  0.02  0.    0.    0.1   0.01  0.    0.02  0.07  0.02  0.01  0.02  0.01]
	106	D	 3	0.497141161828
 [ 0.    0.07  0.03  0.1   0.    0.12  0.1   0.08  0.06  0.03  0.05  0.08  0.    0.01  0.01  0.09  0.06  0.04  0.03  0.04]
	124	A	 2	0.53895134023
 [ 0.    0.08  0.13  0.09  0.14  0.1   0.09  0.    0.    0.02  0.09  0.03  0.01  0.02  0.09  0.01  0.08  0.01  0.01  0.  ]
	146	Y	-1	0.551809184613
 [ 0.    0.07  0.07  0.1   0.    0.17  0.1   0.03  0.08  0.02  0.01  0.09  0.03  0.01  0.01  0.06  0.08  0.04  0.01  0.02]
	126	H	 4	0.569859120492
 [ 0.    0.    0.1   0.06  0.1   0.06  0.09  0.02  0.28  0.03  0.09  0.09  0.    0.01  0.01  0.01  0.02  0.02  0.02  0.  ]
	142	Y	 3	0.623890031301
 [ 0.    0.03  0.25  0.07  0.13  0.05  0.09  0.    0.02  0.01  0.    0.07  0.    0.03  0.02  0.08  0.05  0.02  0.07  0.02]
	122	V	 0	0.62533778223
 [ 0.    0.04  0.13  0.11  0.    0.08  0.12  0.    0.03  0.07  0.08  0.05  0.02  0.06  0.05  0.09  0.02  0.    0.    0.05]
	108	I	 1	0.686914483245
 [ 0.    0.    0.01  0.03  0.    0.03  0.13  0.02  0.    0.14  0.    0.32  0.05  0.02  0.03  0.03  0.    0.05  0.11  0.03]
	 81	A	 0	0.697679767546
 [ 0.    0.2   0.06  0.25  0.    0.09  0.08  0.    0.17  0.03  0.01  0.02  0.01  0.01  0.02  0.02  0.    0.02  0.01  0.02]
	 60	L	 3	0.7000946855
 [ 0.    0.11  0.03  0.09  0.11  0.02  0.01  0.    0.13  0.02  0.    0.05  0.02  0.07  0.    0.01  0.01  0.19  0.1   0.02]
	 21	L	-2	0.70626666542
 [ 0.    0.09  0.11  0.12  0.    0.18  0.09  0.01  0.01  0.03  0.    0.1   0.02  0.02  0.07  0.09  0.02  0.    0.    0.04]
	  3	V	-2	0.793488828418
 [ 0.    0.12  0.12  0.15  0.    0.12  0.07  0.01  0.03  0.07  0.    0.21  0.01  0.01  0.02  0.04  0.01  0.01  0.    0.  ]
	 83	I	 2	0.89002177152
 [ 0.    0.5   0.01  0.08  0.01  0.01  0.04  0.02  0.03  0.05  0.07  0.02  0.03  0.03  0.03  0.03  0.01  0.02  0.01  0.02]
	VVVVVVVVVVVVVVVVVVVVVVVVV
	 79	I	-2	0.977292429319
 [ 0.    0.4   0.03  0.04  0.    0.03  0.02  0.01  0.01  0.01  0.    0.41  0.    0.    0.02  0.01  0.    0.    0.    0.  ]
	 85	V	 4	0.999250074181
 [ 0.    0.16  0.04  0.16  0.    0.1   0.08  0.05  0.17  0.01  0.    0.    0.    0.    0.09  0.07  0.03  0.01  0.02  0.01]
