## 2gr8
# single value: 
	AAAAAAAAAAAAAAAAAAAAAAAAA
	1090	V	 3	0.256842912155
	1054	S	 4	0.306318117223
	1094	V	-1	0.339622991554
	1082	T	 4	0.383158855324
	1046	S	-4	0.426949332726
	1076	I	-2	0.43874409898
	1078	L	 0	0.447975079861
	1052	G	 2	0.453738031653
	1061	L	 3	0.499690380578
	1067	R	-3	0.511598726162
	1063	I	 1	0.524913482358
	1096	Y	-3	0.733462664328
	1065	V	-1	0.740265460617
	1050	I	 0	0.84597343789
	1048	V	-2	0.903813642814
	1080	G	 2	0.911913607853
	VVVVVVVVVVVVVVVVVVVVVVVVV
	1074	V	-4	0.980062918802
# vector profile: 
	AAAAAAAAAAAAAAAAAAAAAAAAA
	1076	I	-2	0.0560731353082
 [ 0.    0.13  0.03  0.02  0.    0.    0.    0.08  0.01  0.01  0.01  0.23  0.22  0.07  0.06  0.    0.02  0.    0.03  0.07]
	1067	R	-3	0.0576004041284
 [ 0.    0.    0.02  0.01  0.    0.02  0.02  0.06  0.15  0.11  0.27  0.1   0.08  0.02  0.06  0.    0.    0.07  0.    0.  ]
	1094	V	-1	0.0728376675955
 [ 0.    0.    0.    0.02  0.    0.07  0.    0.03  0.23  0.06  0.03  0.06  0.34  0.04  0.04  0.    0.01  0.    0.03  0.03]
	1082	T	 4	0.139373413943
 [ 0.    0.01  0.03  0.02  0.04  0.02  0.02  0.03  0.05  0.01  0.05  0.07  0.    0.03  0.24  0.    0.01  0.33  0.05  0.01]
	1092	A	 1	0.166286196469
 [ 0.    0.14  0.04  0.07  0.    0.01  0.14  0.02  0.13  0.03  0.11  0.15  0.02  0.08  0.    0.    0.02  0.01  0.01  0.  ]
	1046	S	-4	0.169459118236
 [ 0.    0.    0.04  0.15  0.04  0.04  0.12  0.    0.01  0.04  0.    0.07  0.    0.12  0.    0.01  0.    0.01  0.19  0.16]
	1080	G	 2	0.188568890518
 [ 0.    0.25  0.04  0.21  0.03  0.    0.08  0.08  0.    0.06  0.    0.06  0.01  0.    0.    0.06  0.06  0.05  0.    0.01]
	1061	L	 3	0.210097601935
 [ 0.    0.14  0.01  0.15  0.01  0.03  0.11  0.01  0.22  0.    0.    0.24  0.01  0.    0.    0.01  0.02  0.    0.01  0.01]
	1078	L	 0	0.276073590352
 [ 0.    0.07  0.05  0.42  0.    0.    0.01  0.    0.05  0.    0.    0.33  0.    0.    0.04  0.01  0.    0.    0.01  0.01]
	1054	S	 4	0.297440268402
 [ 0.    0.04  0.01  0.12  0.16  0.    0.01  0.05  0.    0.03  0.1   0.03  0.05  0.17  0.02  0.02  0.    0.05  0.03  0.1 ]
	1090	V	 3	0.301550603122
 [ 0.    0.07  0.02  0.02  0.19  0.02  0.    0.    0.11  0.06  0.    0.07  0.03  0.08  0.06  0.    0.01  0.16  0.07  0.02]
	1063	I	 1	0.310893671953
 [ 0.    0.18  0.23  0.19  0.    0.17  0.01  0.    0.01  0.    0.02  0.11  0.    0.    0.02  0.05  0.    0.01  0.    0.  ]
	1074	V	-4	0.348678677236
 [ 0.    0.01  0.    0.04  0.01  0.    0.    0.    0.    0.12  0.    0.    0.03  0.11  0.37  0.    0.01  0.01  0.    0.27]
	1052	G	 2	0.424119538141
 [ 0.    0.18  0.27  0.22  0.    0.02  0.06  0.    0.05  0.    0.02  0.07  0.    0.01  0.01  0.04  0.    0.03  0.01  0.  ]
	1096	Y	-3	0.685078314143
 [ 0.    0.07  0.07  0.08  0.    0.1   0.12  0.04  0.14  0.01  0.01  0.06  0.06  0.01  0.11  0.05  0.04  0.04  0.01  0.  ]
	1050	I	 0	0.728904658699
 [ 0.    0.14  0.11  0.15  0.    0.06  0.1   0.03  0.05  0.03  0.02  0.18  0.02  0.01  0.02  0.06  0.01  0.    0.    0.03]
	1048	V	-2	0.861657136691
 [ 0.    0.18  0.1   0.07  0.    0.09  0.09  0.02  0.01  0.01  0.01  0.29  0.    0.    0.    0.08  0.03  0.    0.    0.02]
	VVVVVVVVVVVVVVVVVVVVVVVVV
	1065	V	-1	0.974429971793
 [ 0.    0.12  0.18  0.17  0.    0.14  0.2   0.    0.    0.    0.    0.11  0.    0.    0.01  0.02  0.01  0.01  0.01  0.  ]
