## 2mlh
# single value: 
	 65	W	-3	0.0154627005993
	AAAAAAAAAAAAAAAAAAAAAAAAA
	123	Y	-2	0.0548786150437
	194	V	 3	0.122629136169
	198	V	-1	0.125100110161
	 62	F	-4	0.19756137316
	 54	P	 4	0.232366045742
	 56	V	 2	0.309567331285
	125	F	-4	0.318083227294
	234	V	 0	0.388577326995
	 60	Y	-2	0.465787187241
	  9	P	-3	0.490223141247
	238	F	-4	0.527383003454
	139	V	 3	0.574388754603
	236	Y	-2	0.585510929503
	133	P	-3	0.596414687516
	 58	V	 0	0.610833416845
	232	L	 2	0.624722510312
	 15	L	 3	0.661427675981
	208	L	-1	0.691903457321
	117	L	 4	0.692126337856
	 71	Y	 3	0.702750507154
	119	L	 2	0.72704263295
	 11	V	-1	0.730670335945
	 67	I	-1	0.75816596391
	206	L	-3	0.797158875051
	212	Y	 3	0.845282158129
	200	F	-3	0.924503466272
	135	I	-1	0.938688443629
# vector profile: 
	AAAAAAAAAAAAAAAAAAAAAAAAA
	133	P	-3	0.0771650331516
 [ 0.    0.01  0.    0.13  0.    0.02  0.38  0.03  0.02  0.01  0.02  0.11  0.06  0.    0.03  0.01  0.05  0.09  0.03  0.  ]
	236	Y	-2	0.0891115004867
 [ 0.    0.06  0.12  0.3   0.    0.    0.04  0.    0.    0.    0.    0.2   0.15  0.02  0.01  0.    0.01  0.01  0.    0.06]
	210	A	 1	0.0924228476796
 [ 0.    0.07  0.25  0.14  0.06  0.    0.05  0.    0.    0.    0.06  0.02  0.02  0.04  0.07  0.05  0.    0.    0.01  0.14]
	137	A	 1	0.0924289299442
 [ 0.    0.03  0.13  0.04  0.04  0.    0.02  0.05  0.03  0.09  0.18  0.08  0.07  0.01  0.02  0.02  0.07  0.05  0.01  0.08]
	121	A	 0	0.0987695056261
 [ 0.    0.02  0.    0.1   0.    0.    0.03  0.07  0.36  0.03  0.06  0.01  0.02  0.    0.01  0.04  0.    0.    0.    0.24]
	 58	V	 0	0.111572931909
 [ 0.    0.1   0.02  0.01  0.    0.26  0.04  0.    0.11  0.02  0.01  0.01  0.1   0.08  0.21  0.    0.    0.    0.    0.01]
	123	Y	-2	0.129712820953
 [ 0.    0.    0.08  0.14  0.05  0.04  0.06  0.    0.03  0.    0.    0.09  0.03  0.07  0.    0.08  0.01  0.07  0.18  0.06]
	 54	P	 4	0.175205627589
 [ 0.    0.    0.02  0.26  0.01  0.01  0.    0.01  0.1   0.02  0.01  0.    0.09  0.01  0.16  0.02  0.09  0.1   0.05  0.03]
	234	V	 0	0.189682918547
 [ 0.    0.04  0.09  0.02  0.01  0.1   0.01  0.    0.12  0.16  0.    0.04  0.    0.08  0.22  0.06  0.    0.03  0.03  0.01]
	139	V	 3	0.213238549777
 [ 0.    0.    0.    0.02  0.05  0.06  0.    0.    0.01  0.    0.06  0.    0.15  0.03  0.    0.    0.05  0.35  0.21  0.  ]
	208	L	-1	0.252445066832
 [ 0.    0.02  0.06  0.11  0.    0.09  0.09  0.06  0.02  0.01  0.02  0.18  0.01  0.01  0.13  0.13  0.    0.02  0.01  0.01]
	117	L	 4	0.252926636937
 [ 0.    0.01  0.    0.08  0.01  0.02  0.04  0.    0.08  0.02  0.03  0.12  0.01  0.05  0.25  0.03  0.03  0.19  0.01  0.04]
	212	Y	 3	0.253569911635
 [ 0.    0.05  0.02  0.    0.12  0.12  0.04  0.02  0.01  0.02  0.07  0.04  0.01  0.04  0.04  0.04  0.16  0.1   0.1   0.01]
	119	L	 2	0.257864166447
 [ 0.    0.25  0.04  0.11  0.09  0.06  0.04  0.    0.06  0.    0.03  0.01  0.    0.08  0.14  0.03  0.03  0.    0.02  0.  ]
	125	F	-4	0.265317559764
 [ 0.    0.05  0.    0.32  0.02  0.12  0.05  0.06  0.16  0.    0.01  0.01  0.05  0.03  0.01  0.    0.06  0.    0.03  0.  ]
	 56	V	 2	0.293595187529
 [ 0.    0.01  0.05  0.    0.06  0.09  0.    0.    0.41  0.02  0.    0.08  0.07  0.    0.07  0.02  0.02  0.02  0.08  0.01]
	 60	Y	-2	0.332034295848
 [ 0.    0.05  0.13  0.24  0.01  0.01  0.05  0.01  0.08  0.02  0.06  0.19  0.08  0.    0.01  0.01  0.    0.01  0.    0.04]
	230	A	 4	0.356351949435
 [ 0.    0.11  0.18  0.02  0.04  0.1   0.04  0.    0.02  0.    0.08  0.07  0.01  0.    0.19  0.01  0.04  0.    0.04  0.03]
	  9	P	-3	0.385761613367
 [ 0.    0.03  0.09  0.28  0.    0.06  0.04  0.01  0.1   0.01  0.03  0.    0.09  0.    0.    0.    0.01  0.22  0.03  0.02]
	206	L	-3	0.400231199668
 [ 0.    0.03  0.04  0.14  0.01  0.08  0.12  0.01  0.06  0.    0.03  0.    0.02  0.    0.3   0.    0.03  0.02  0.07  0.02]
	 11	V	-1	0.443582908682
 [ 0.    0.03  0.01  0.13  0.06  0.09  0.06  0.    0.07  0.02  0.08  0.02  0.13  0.11  0.    0.01  0.01  0.07  0.09  0.01]
	 71	Y	 3	0.494600463004
 [ 0.    0.16  0.12  0.07  0.2   0.    0.03  0.    0.    0.08  0.03  0.03  0.05  0.03  0.02  0.06  0.02  0.01  0.01  0.08]
	135	I	-1	0.52400221014
 [ 0.    0.01  0.01  0.11  0.    0.36  0.05  0.    0.05  0.1   0.    0.07  0.    0.03  0.18  0.    0.    0.    0.    0.01]
	 65	W	-3	0.55696326464
 [ 0.    0.    0.    0.02  0.    0.15  0.01  0.05  0.11  0.02  0.01  0.12  0.    0.    0.18  0.03  0.08  0.2   0.    0.02]
	 15	L	 3	0.582006064595
 [ 0.    0.01  0.21  0.06  0.06  0.06  0.18  0.    0.07  0.04  0.01  0.    0.02  0.02  0.19  0.    0.01  0.01  0.03  0.  ]
	 67	I	-1	0.600503010205
 [ 0.    0.02  0.13  0.02  0.05  0.04  0.    0.    0.14  0.02  0.06  0.12  0.03  0.12  0.01  0.02  0.04  0.06  0.12  0.01]
	232	L	 2	0.635883981512
 [ 0.    0.32  0.    0.24  0.    0.04  0.1   0.01  0.    0.    0.    0.05  0.01  0.    0.1   0.03  0.    0.07  0.01  0.01]
	 13	A	 1	0.662455889491
 [ 0.    0.04  0.06  0.04  0.05  0.19  0.07  0.01  0.1   0.02  0.01  0.15  0.03  0.05  0.01  0.06  0.02  0.04  0.03  0.02]
	238	F	-4	0.694884711054
 [ 0.    0.09  0.03  0.1   0.    0.04  0.16  0.03  0.18  0.08  0.    0.02  0.03  0.    0.07  0.01  0.01  0.1   0.02  0.02]
	 69	A	 1	0.702040851053
 [ 0.    0.11  0.09  0.06  0.07  0.1   0.07  0.    0.03  0.04  0.03  0.09  0.03  0.03  0.01  0.06  0.04  0.05  0.02  0.06]
	 62	F	-4	0.723264237416
 [ 0.    0.07  0.15  0.12  0.04  0.02  0.1   0.02  0.1   0.    0.02  0.16  0.01  0.03  0.1   0.02  0.01  0.    0.04  0.01]
	200	F	-3	0.732629778453
 [ 0.    0.09  0.12  0.14  0.    0.03  0.08  0.01  0.    0.04  0.03  0.15  0.01  0.04  0.07  0.04  0.01  0.03  0.06  0.01]
	194	V	 3	0.843662146784
 [ 0.    0.09  0.06  0.13  0.    0.28  0.09  0.01  0.04  0.04  0.03  0.09  0.    0.    0.01  0.08  0.02  0.01  0.01  0.02]
	196	A	 1	0.933055583955
 [ 0.    0.12  0.19  0.04  0.01  0.1   0.18  0.03  0.09  0.    0.01  0.12  0.01  0.    0.01  0.05  0.01  0.    0.    0.03]
	198	V	-1	0.934578499038
 [ 0.    0.04  0.09  0.25  0.01  0.08  0.1   0.01  0.12  0.01  0.01  0.    0.01  0.03  0.01  0.03  0.02  0.09  0.08  0.01]
