## 2mpr
# single value: 
	302	Y	 3	0.00689492015427
	234	Y	 3	0.00941784530332
	 11	I	 3	0.0173352319905
	316	W	 4	0.0216283198652
	280	W	 4	0.0448741098746
	AAAAAAAAAAAAAAAAAAAAAAAAA
	300	G	 1	0.0664439750006
	355	I	 2	0.0752056831918
	338	Y	 3	0.123701894793
	286	G	-2	0.142865639702
	213	W	 4	0.157762039633
	228	N	-3	0.182367348385
	288	I	-4	0.187492127936
	 46	L	-3	0.199225844709
	322	P	-2	0.214168099359
	353	Y	 4	0.221534859752
	332	T	-3	0.226813143494
	282	I	 2	0.231953241617
	324	Y	-4	0.232692814483
	 44	L	-1	0.25009230916
	320	V	 0	0.265331753538
	379	Y	 4	0.266825209526
	373	I	-2	0.320539233418
	125	P	 2	0.338544241631
	318	V	 2	0.351852199003
	375	I	 0	0.356633713024
	219	H	-2	0.35678875777
	178	G	-4	0.384025619948
	221	Q	-4	0.39197680681
	215	F	 2	0.392063781784
	 64	V	 1	0.418802817395
	139	L	-3	0.430657376673
	419	F	 3	0.443875347568
	361	W	-4	0.454670448278
	172	F	 2	0.465352902766
	123	S	 4	0.491971671471
	357	L	 0	0.496269531503
	145	R	 3	0.502294092699
	 40	T	 3	0.511813308949
	284	D	 0	0.524315997239
	174	V	 0	0.537697152976
	 60	F	-3	0.54054925228
	359	Q	-2	0.549038397473
	 66	Y	 3	0.563936467988
	 82	R	 1	0.569731262504
	371	P	-4	0.583983934591
	  5	G	-3	0.601973244065
	 62	T	-1	0.602704202439
	230	F	-1	0.607519330444
	176	L	-2	0.631769278518
	187	L	-3	0.657441506643
	193	Y	 3	0.672044813044
	232	V	 1	0.726256683715
	170	D	 4	0.752412089166
	423	M	-1	0.781514795654
	334	L	-1	0.792970891294
	100	I	-3	0.808686613275
	191	V	 1	0.80936268519
	131	N	-4	0.811497547835
	  9	S	 1	0.812563020891
	296	L	-3	0.820377621477
	141	L	-1	0.864513496245
	189	L	-1	0.877715318927
	106	F	 3	0.92685711014
	425	I	-3	0.933378179249
	298	Y	-1	0.938808385239
	VVVVVVVVVVVVVVVVVVVVVVVVV
	104	K	 1	0.965417136431
	336	V	 1	0.972898240686
	129	I	-2	0.988196685062
	 86	V	-3	0.999995213263
# vector profile: 
	AAAAAAAAAAAAAAAAAAAAAAAAA
	 82	R	 1	0.0811435140499
 [ 0.    0.02  0.09  0.09  0.03  0.01  0.09  0.01  0.34  0.07  0.    0.16  0.    0.    0.03  0.    0.    0.03  0.03  0.01]
	 80	A	 3	0.104181684381
 [ 0.    0.04  0.04  0.13  0.17  0.06  0.04  0.    0.2   0.01  0.05  0.02  0.    0.01  0.13  0.01  0.01  0.    0.05  0.02]
	174	V	 0	0.111916472511
 [ 0.    0.01  0.02  0.01  0.01  0.    0.02  0.02  0.01  0.19  0.07  0.1   0.11  0.08  0.15  0.02  0.    0.17  0.01  0.  ]
	123	S	 4	0.118904514189
 [ 0.    0.01  0.09  0.02  0.01  0.2   0.02  0.01  0.06  0.04  0.    0.02  0.08  0.07  0.    0.    0.05  0.23  0.04  0.04]
	176	L	-2	0.127191648272
 [ 0.    0.02  0.12  0.15  0.04  0.19  0.19  0.09  0.01  0.02  0.01  0.06  0.02  0.01  0.03  0.05  0.    0.01  0.    0.  ]
	139	L	-3	0.132285979976
 [ 0.    0.09  0.02  0.1   0.    0.02  0.14  0.    0.12  0.13  0.    0.02  0.09  0.13  0.03  0.08  0.    0.    0.01  0.01]
	145	R	 3	0.134850511064
 [ 0.    0.    0.    0.05  0.09  0.04  0.    0.    0.08  0.04  0.03  0.    0.02  0.06  0.01  0.    0.11  0.36  0.07  0.03]
	170	D	 4	0.145558472159
 [ 0.    0.01  0.03  0.18  0.    0.11  0.02  0.04  0.16  0.    0.02  0.08  0.07  0.01  0.01  0.    0.08  0.14  0.01  0.01]
	282	I	 2	0.174258346238
 [ 0.    0.07  0.13  0.12  0.    0.09  0.01  0.    0.14  0.08  0.03  0.01  0.13  0.09  0.03  0.01  0.    0.05  0.01  0.02]
	131	N	-4	0.184763435698
 [ 0.    0.1   0.19  0.33  0.    0.01  0.    0.01  0.01  0.02  0.03  0.08  0.    0.01  0.    0.02  0.04  0.06  0.02  0.09]
	 60	F	-3	0.186594063832
 [ 0.    0.06  0.03  0.35  0.01  0.03  0.12  0.04  0.07  0.03  0.    0.01  0.    0.    0.    0.    0.02  0.07  0.06  0.08]
	178	G	-4	0.192787217256
 [ 0.    0.05  0.04  0.02  0.03  0.04  0.02  0.    0.01  0.05  0.    0.34  0.09  0.02  0.02  0.    0.    0.13  0.13  0.  ]
	371	P	-4	0.204087323375
 [ 0.    0.06  0.01  0.    0.05  0.    0.02  0.    0.1   0.01  0.12  0.01  0.01  0.03  0.01  0.    0.    0.38  0.09  0.09]
	324	Y	-4	0.210280962463
 [ 0.    0.    0.08  0.01  0.02  0.03  0.01  0.01  0.08  0.23  0.06  0.    0.14  0.07  0.06  0.06  0.    0.02  0.08  0.04]
	191	V	 1	0.211298818068
 [ 0.    0.    0.05  0.02  0.01  0.15  0.03  0.03  0.05  0.1   0.41  0.    0.02  0.03  0.    0.01  0.01  0.    0.01  0.05]
	102	A	-1	0.218064043128
 [ 0.    0.27  0.06  0.01  0.04  0.01  0.02  0.02  0.    0.01  0.    0.42  0.02  0.02  0.04  0.    0.    0.03  0.01  0.  ]
	 66	Y	 3	0.229029638422
 [ 0.    0.07  0.11  0.18  0.    0.01  0.08  0.01  0.03  0.03  0.1   0.05  0.01  0.11  0.04  0.07  0.    0.05  0.    0.06]
	286	G	-2	0.261881175749
 [ 0.    0.11  0.    0.    0.02  0.    0.04  0.04  0.11  0.02  0.    0.    0.09  0.32  0.09  0.09  0.03  0.01  0.02  0.  ]
	  5	G	-3	0.302114860382
 [ 0.    0.34  0.11  0.01  0.    0.01  0.05  0.    0.    0.01  0.01  0.23  0.07  0.01  0.01  0.07  0.06  0.    0.    0.  ]
	373	I	-2	0.325662811894
 [ 0.    0.03  0.04  0.07  0.02  0.1   0.05  0.    0.28  0.01  0.11  0.04  0.    0.09  0.02  0.01  0.    0.06  0.04  0.02]
	288	I	-4	0.329093657249
 [ 0.    0.04  0.08  0.01  0.01  0.02  0.    0.    0.04  0.07  0.    0.19  0.    0.06  0.    0.01  0.02  0.19  0.12  0.1 ]
	100	I	-3	0.341653437986
 [ 0.    0.16  0.14  0.02  0.    0.    0.03  0.03  0.08  0.04  0.03  0.22  0.    0.09  0.01  0.07  0.01  0.04  0.01  0.  ]
	213	W	 4	0.35512227595
 [ 0.    0.04  0.1   0.01  0.06  0.09  0.03  0.    0.07  0.03  0.04  0.04  0.    0.13  0.1   0.03  0.    0.14  0.03  0.08]
	189	L	-1	0.356991741991
 [ 0.    0.21  0.01  0.1   0.05  0.01  0.    0.01  0.11  0.08  0.09  0.04  0.01  0.09  0.05  0.01  0.01  0.1   0.01  0.01]
	353	Y	 4	0.375857732527
 [ 0.    0.06  0.03  0.    0.04  0.    0.    0.02  0.09  0.04  0.03  0.03  0.    0.12  0.1   0.    0.01  0.29  0.05  0.07]
	355	I	 2	0.379553266407
 [ 0.    0.01  0.02  0.09  0.    0.11  0.04  0.    0.18  0.14  0.07  0.03  0.03  0.04  0.    0.1   0.05  0.01  0.01  0.06]
	221	Q	-4	0.394029306512
 [ 0.    0.    0.14  0.39  0.02  0.01  0.01  0.    0.    0.03  0.    0.02  0.03  0.06  0.2   0.04  0.02  0.    0.04  0.  ]
	228	N	-3	0.395042686069
 [ 0.    0.03  0.1   0.12  0.    0.27  0.02  0.01  0.01  0.06  0.01  0.    0.    0.    0.02  0.1   0.08  0.18  0.    0.  ]
	338	Y	 3	0.40435365812
 [ 0.    0.21  0.    0.17  0.04  0.02  0.02  0.    0.18  0.01  0.01  0.04  0.01  0.    0.02  0.    0.01  0.18  0.08  0.02]
	379	Y	 4	0.412658772122
 [ 0.    0.02  0.13  0.13  0.    0.01  0.01  0.03  0.03  0.    0.    0.01  0.    0.01  0.6   0.    0.    0.    0.03  0.  ]
	280	W	 4	0.418504113235
 [ 0.    0.02  0.    0.06  0.01  0.    0.04  0.01  0.15  0.02  0.01  0.    0.03  0.09  0.1   0.03  0.01  0.34  0.07  0.02]
	377	A	 2	0.419389740579
 [ 0.    0.16  0.09  0.08  0.    0.    0.02  0.02  0.03  0.    0.02  0.01  0.04  0.11  0.03  0.1   0.01  0.18  0.07  0.04]
	187	L	-3	0.425670979939
 [ 0.    0.02  0.17  0.01  0.02  0.14  0.13  0.02  0.07  0.    0.01  0.02  0.04  0.04  0.03  0.04  0.08  0.01  0.15  0.01]
	318	V	 2	0.428138389785
 [ 0.    0.08  0.05  0.07  0.    0.    0.    0.    0.17  0.09  0.04  0.28  0.01  0.04  0.    0.03  0.03  0.    0.09  0.01]
	375	I	 0	0.430102500882
 [ 0.    0.11  0.07  0.14  0.01  0.01  0.02  0.    0.    0.01  0.01  0.39  0.    0.01  0.06  0.07  0.02  0.    0.02  0.06]
	 40	T	 3	0.447703647862
 [ 0.    0.01  0.    0.4   0.06  0.36  0.    0.    0.    0.02  0.    0.    0.01  0.    0.    0.1   0.    0.02  0.    0.01]
	 62	T	-1	0.454380176555
 [ 0.    0.01  0.05  0.24  0.02  0.05  0.05  0.    0.05  0.15  0.08  0.04  0.03  0.07  0.03  0.03  0.    0.08  0.    0.01]
	 11	I	 3	0.464395559102
 [ 0.    0.    0.02  0.01  0.    0.    0.    0.02  0.23  0.22  0.17  0.    0.07  0.1   0.    0.01  0.    0.    0.    0.14]
	 64	V	 1	0.467972339631
 [ 0.    0.15  0.2   0.17  0.05  0.05  0.04  0.    0.01  0.02  0.01  0.15  0.    0.07  0.02  0.03  0.01  0.    0.02  0.  ]
	322	P	-2	0.470832935014
 [ 0.    0.41  0.11  0.19  0.    0.    0.04  0.    0.03  0.01  0.02  0.07  0.    0.02  0.05  0.03  0.    0.01  0.    0.01]
	106	F	 3	0.478924467177
 [ 0.    0.09  0.13  0.13  0.    0.06  0.11  0.04  0.    0.1   0.05  0.02  0.01  0.1   0.02  0.07  0.01  0.02  0.02  0.03]
	219	H	-2	0.488289072947
 [ 0.    0.2   0.02  0.26  0.    0.02  0.15  0.02  0.01  0.    0.    0.18  0.    0.03  0.07  0.01  0.02  0.    0.    0.01]
	320	V	 0	0.502399211489
 [ 0.    0.    0.11  0.03  0.01  0.07  0.    0.    0.01  0.04  0.01  0.25  0.08  0.1   0.    0.04  0.    0.14  0.1   0.01]
	215	F	 2	0.503701545034
 [ 0.    0.04  0.12  0.11  0.01  0.12  0.05  0.    0.01  0.03  0.01  0.17  0.04  0.    0.05  0.12  0.05  0.    0.03  0.01]
	217	A	 0	0.543657006587
 [ 0.    0.06  0.11  0.04  0.    0.14  0.04  0.    0.    0.    0.    0.28  0.01  0.    0.07  0.13  0.03  0.    0.    0.06]
	332	T	-3	0.569422136074
 [ 0.    0.15  0.    0.01  0.    0.01  0.    0.1   0.05  0.19  0.03  0.    0.02  0.07  0.09  0.04  0.02  0.03  0.    0.2 ]
	193	Y	 3	0.574565956024
 [ 0.    0.05  0.08  0.11  0.01  0.03  0.06  0.02  0.    0.07  0.16  0.06  0.03  0.13  0.03  0.06  0.    0.01  0.01  0.07]
	  7	A	-1	0.576964114916
 [ 0.    0.15  0.03  0.    0.01  0.    0.    0.    0.23  0.16  0.11  0.08  0.07  0.04  0.05  0.    0.    0.02  0.01  0.04]
	361	W	-4	0.584057499654
 [ 0.    0.    0.    0.02  0.01  0.05  0.15  0.    0.23  0.    0.    0.15  0.03  0.01  0.23  0.01  0.    0.    0.09  0.01]
	284	D	 0	0.607535073991
 [ 0.    0.03  0.33  0.    0.    0.17  0.03  0.04  0.01  0.01  0.01  0.23  0.02  0.    0.09  0.01  0.02  0.    0.    0.01]
	423	M	-1	0.621625633787
 [ 0.    0.07  0.11  0.35  0.    0.07  0.14  0.    0.03  0.    0.02  0.05  0.02  0.    0.02  0.06  0.02  0.    0.02  0.  ]
	234	Y	 3	0.653204924469
 [ 0.    0.    0.    0.    0.    0.16  0.08  0.06  0.1   0.    0.    0.09  0.01  0.01  0.04  0.13  0.03  0.09  0.18  0.  ]
	302	Y	 3	0.667639373934
 [ 0.    0.    0.01  0.03  0.01  0.2   0.05  0.    0.08  0.    0.03  0.16  0.01  0.01  0.04  0.07  0.04  0.05  0.19  0.  ]
	357	L	 0	0.670710701344
 [ 0.    0.16  0.24  0.    0.    0.19  0.    0.    0.03  0.01  0.    0.17  0.04  0.01  0.02  0.    0.01  0.07  0.02  0.03]
	125	P	 2	0.675315001149
 [ 0.    0.17  0.15  0.23  0.01  0.02  0.15  0.    0.03  0.01  0.01  0.07  0.02  0.02  0.01  0.08  0.01  0.    0.01  0.  ]
	172	F	 2	0.678384004735
 [ 0.    0.15  0.2   0.27  0.02  0.03  0.1   0.01  0.01  0.    0.    0.08  0.01  0.    0.04  0.08  0.01  0.    0.01  0.  ]
	141	L	-1	0.685148014886
 [ 0.    0.05  0.08  0.13  0.03  0.13  0.11  0.01  0.23  0.    0.04  0.    0.07  0.02  0.01  0.04  0.    0.04  0.    0.  ]
	421	A	 1	0.708193353549
 [ 0.    0.17  0.06  0.08  0.01  0.03  0.04  0.02  0.    0.    0.01  0.15  0.03  0.01  0.08  0.08  0.11  0.1   0.01  0.01]
	316	W	 4	0.752690257785
 [ 0.    0.    0.06  0.01  0.04  0.    0.    0.02  0.    0.09  0.    0.01  0.03  0.1   0.19  0.    0.02  0.22  0.1   0.1 ]
	104	K	 1	0.775598348641
 [ 0.    0.09  0.03  0.05  0.02  0.13  0.05  0.04  0.16  0.01  0.01  0.24  0.    0.01  0.01  0.07  0.06  0.01  0.01  0.  ]
	127	A	 0	0.790254252386
 [ 0.    0.14  0.12  0.18  0.01  0.11  0.1   0.    0.01  0.02  0.03  0.11  0.01  0.03  0.    0.09  0.02  0.01  0.    0.01]
	425	I	-3	0.791494949048
 [ 0.    0.08  0.11  0.13  0.    0.03  0.07  0.01  0.    0.05  0.08  0.14  0.01  0.05  0.06  0.04  0.01  0.03  0.06  0.04]
	419	F	 3	0.813368038942
 [ 0.    0.09  0.1   0.11  0.02  0.08  0.13  0.02  0.1   0.    0.    0.14  0.    0.    0.15  0.03  0.01  0.    0.    0.03]
	232	V	 1	0.816596861565
 [ 0.    0.01  0.03  0.09  0.06  0.09  0.    0.    0.07  0.05  0.09  0.02  0.07  0.11  0.14  0.04  0.    0.07  0.02  0.01]
	 42	A	 1	0.819379616981
 [ 0.    0.14  0.08  0.12  0.01  0.01  0.29  0.02  0.04  0.    0.01  0.02  0.01  0.03  0.09  0.08  0.03  0.01  0.    0.  ]
	334	L	-1	0.827167829603
 [ 0.    0.    0.01  0.03  0.    0.04  0.05  0.04  0.03  0.17  0.02  0.1   0.16  0.04  0.01  0.01  0.02  0.23  0.    0.03]
	 44	L	-1	0.833994779774
 [ 0.    0.05  0.09  0.11  0.    0.03  0.03  0.01  0.36  0.03  0.01  0.14  0.01  0.    0.    0.03  0.02  0.04  0.04  0.01]
	359	Q	-2	0.895265794101
 [ 0.    0.07  0.09  0.33  0.    0.    0.18  0.01  0.    0.03  0.01  0.02  0.06  0.02  0.11  0.03  0.    0.    0.01  0.02]
	 84	A	-1	0.906097096374
 [ 0.    0.06  0.06  0.06  0.    0.13  0.06  0.1   0.24  0.    0.    0.18  0.01  0.    0.    0.08  0.01  0.    0.    0.01]
	  9	S	 1	0.911902197928
 [ 0.    0.09  0.07  0.09  0.01  0.1   0.02  0.03  0.22  0.    0.    0.19  0.    0.    0.02  0.02  0.02  0.08  0.01  0.  ]
	143	A	 1	0.913295067313
 [ 0.    0.16  0.13  0.14  0.09  0.08  0.09  0.    0.13  0.    0.    0.04  0.    0.01  0.03  0.04  0.02  0.01  0.04  0.  ]
	298	Y	-1	0.915527010106
 [ 0.    0.05  0.02  0.03  0.04  0.17  0.01  0.    0.09  0.03  0.12  0.05  0.21  0.04  0.01  0.    0.    0.08  0.03  0.02]
	 46	L	-3	0.926059422268
 [ 0.    0.12  0.09  0.22  0.    0.07  0.12  0.05  0.04  0.04  0.01  0.05  0.02  0.    0.06  0.08  0.03  0.    0.01  0.01]
	230	F	-1	0.948963286713
 [ 0.    0.04  0.03  0.08  0.    0.01  0.01  0.05  0.06  0.22  0.01  0.07  0.01  0.    0.24  0.06  0.03  0.03  0.05  0.  ]
	VVVVVVVVVVVVVVVVVVVVVVVVV
	336	V	 1	0.950752150467
 [ 0.    0.04  0.04  0.08  0.05  0.15  0.02  0.    0.05  0.04  0.07  0.07  0.05  0.08  0.09  0.06  0.01  0.03  0.02  0.04]
	129	I	-2	0.954159510989
 [ 0.    0.09  0.09  0.08  0.    0.11  0.05  0.03  0.01  0.07  0.11  0.18  0.01  0.06  0.    0.04  0.01  0.02  0.    0.04]
	300	G	 1	0.960726761266
 [ 0.    0.    0.    0.05  0.02  0.22  0.    0.01  0.    0.21  0.07  0.04  0.06  0.24  0.01  0.    0.    0.03  0.01  0.02]
	296	L	-3	0.99349092618
 [ 0.    0.01  0.1   0.09  0.    0.02  0.12  0.    0.27  0.05  0.01  0.01  0.    0.02  0.29  0.    0.    0.    0.    0.  ]
	 86	V	-3	0.998968314108
 [ 0.    0.01  0.    0.02  0.    0.    0.    0.    0.08  0.13  0.12  0.    0.07  0.15  0.03  0.    0.01  0.13  0.13  0.11]
