## 2omf
# single value: 
	 19	G	 2	0.00113166530121
	187	I	 0	0.0246188005352
	191	Y	 4	0.0324285268047
	 43	L	 1	0.0497097771472
	AAAAAAAAAAAAAAAAAAAAAAAAA
	185	F	-2	0.0512915195316
	 98	Y	 1	0.051381924472
	155	V	 2	0.0720403973872
	 15	G	-2	0.0751374316909
	336	I	 0	0.0753183721333
	 90	Y	-4	0.0806078818826
	257	V	 4	0.0845969019454
	135	G	 4	0.117618576433
	 45	F	-1	0.137067975163
	 61	W	 1	0.164785691144
	265	F	-4	0.166809298525
	297	V	 2	0.179354873175
	 47	G	-3	0.182304335111
	303	F	-4	0.186671470882
	332	V	 4	0.191220929617
	 59	G	-1	0.247725800798
	263	Y	-2	0.250968840524
	 82	R	 4	0.262941955066
	271	P	-1	0.286639762733
	 96	F	-1	0.288291924014
	275	Y	 3	0.293844786394
	295	F	 4	0.304763231872
	174	V	 4	0.3210905963
	 57	G	-3	0.324138684783
	340	F	-4	0.33646893999
	214	W	 4	0.339791504321
	 88	L	-2	0.351859623338
	143	N	-4	0.375479760749
	139	Y	 0	0.392878755888
	259	L	 2	0.411192513116
	176	G	 2	0.412299802203
	182	Y	-4	0.417628695975
	100	R	 3	0.433057655664
	151	L	-2	0.439465459486
	183	E	-4	0.46711021637
	231	Y	 3	0.512291621129
	218	L	 0	0.518039813712
	149	D	-4	0.567142624615
	220	Y	-2	0.572481271122
	189	G	 2	0.575750013616
	307	M	-3	0.583533573542
	178	I	 0	0.596968049141
	338	Y	-2	0.616683511024
	309	T	-1	0.622765261136
	225	I	-3	0.666087157712
	269	L	-3	0.670132675525
	153	F	 0	0.678358719877
	301	Y	-2	0.68001629307
	157	Y	 4	0.715221543689
	141	N	-2	0.738717166889
	216	T	 2	0.744790750081
	334	V	 2	0.749555155356
	311	V	 1	0.764725773757
	 21	H	 4	0.779018609448
	 94	G	-3	0.81039819644
	 63	Y	 3	0.848888485891
	180	Y	-2	0.874319658835
	313	Y	 3	0.874857409954
	227	L	-1	0.918985078089
	273	I	 1	0.93922769914
	VVVVVVVVVVVVVVVVVVVVVVVVV
	 13	L	-4	0.986435393795
# vector profile: 
	AAAAAAAAAAAAAAAAAAAAAAAAA
	229	A	 1	0.0722206214907
 [ 0.    0.04  0.    0.03  0.    0.05  0.12  0.05  0.04  0.06  0.04  0.14  0.01  0.12  0.08  0.06  0.08  0.01  0.02  0.05]
	340	F	-4	0.08314972045
 [ 0.    0.04  0.02  0.06  0.    0.02  0.02  0.    0.19  0.06  0.01  0.12  0.01  0.09  0.01  0.08  0.11  0.08  0.08  0.  ]
	218	L	 0	0.100942443583
 [ 0.    0.    0.    0.37  0.01  0.01  0.05  0.02  0.    0.    0.    0.    0.    0.21  0.16  0.05  0.01  0.06  0.03  0.03]
	 61	W	 1	0.1092673867
 [ 0.    0.    0.    0.    0.    0.03  0.04  0.    0.04  0.02  0.06  0.05  0.04  0.23  0.    0.    0.    0.2   0.1   0.17]
	100	R	 3	0.115185221165
 [ 0.    0.01  0.05  0.13  0.04  0.02  0.02  0.    0.01  0.09  0.14  0.01  0.01  0.08  0.01  0.02  0.06  0.08  0.12  0.08]
	 96	F	-1	0.118225986409
 [ 0.    0.02  0.    0.    0.    0.    0.    0.    0.43  0.02  0.01  0.35  0.01  0.07  0.01  0.01  0.01  0.01  0.    0.04]
	220	Y	-2	0.137166047221
 [ 0.    0.06  0.12  0.02  0.01  0.37  0.03  0.13  0.05  0.01  0.    0.03  0.01  0.    0.06  0.02  0.06  0.01  0.    0.01]
	214	W	 4	0.146734623899
 [ 0.    0.02  0.01  0.    0.02  0.    0.03  0.    0.23  0.08  0.03  0.    0.03  0.15  0.18  0.04  0.01  0.07  0.06  0.05]
	271	P	-1	0.150728446699
 [ 0.    0.    0.19  0.25  0.    0.11  0.03  0.02  0.    0.01  0.01  0.06  0.02  0.01  0.06  0.08  0.01  0.01  0.04  0.07]
	311	V	 1	0.193058200444
 [ 0.    0.21  0.    0.    0.08  0.03  0.02  0.02  0.11  0.    0.07  0.08  0.03  0.11  0.    0.01  0.    0.14  0.03  0.04]
	151	L	-2	0.194561559711
 [ 0.    0.08  0.05  0.    0.02  0.01  0.05  0.03  0.15  0.02  0.    0.06  0.03  0.01  0.03  0.    0.01  0.26  0.15  0.03]
	309	T	-1	0.196506623664
 [ 0.    0.    0.3   0.13  0.    0.28  0.    0.01  0.04  0.    0.    0.03  0.    0.    0.09  0.06  0.01  0.    0.05  0.  ]
	 86	A	 0	0.204230633314
 [ 0.    0.08  0.04  0.07  0.    0.2   0.15  0.    0.    0.01  0.1   0.02  0.03  0.01  0.06  0.    0.    0.06  0.01  0.15]
	336	I	 0	0.205519745545
 [ 0.    0.    0.15  0.01  0.    0.01  0.04  0.    0.15  0.22  0.05  0.13  0.    0.06  0.01  0.04  0.    0.09  0.    0.04]
	174	V	 4	0.206666748514
 [ 0.    0.03  0.    0.05  0.03  0.    0.    0.01  0.17  0.02  0.01  0.    0.    0.06  0.24  0.    0.    0.26  0.07  0.03]
	231	Y	 3	0.207445865906
 [ 0.    0.16  0.02  0.03  0.15  0.03  0.02  0.    0.05  0.09  0.07  0.16  0.    0.01  0.16  0.    0.    0.04  0.    0.  ]
	149	D	-4	0.221051828901
 [ 0.    0.    0.16  0.01  0.01  0.    0.    0.03  0.03  0.11  0.05  0.12  0.02  0.11  0.03  0.09  0.02  0.1   0.07  0.04]
	141	N	-2	0.221955117985
 [ 0.    0.27  0.1   0.32  0.01  0.01  0.06  0.    0.    0.01  0.    0.13  0.01  0.    0.    0.04  0.01  0.01  0.    0.02]
	263	Y	-2	0.23659078031
 [ 0.    0.05  0.07  0.17  0.02  0.03  0.08  0.03  0.14  0.07  0.03  0.17  0.    0.02  0.01  0.01  0.03  0.06  0.02  0.  ]
	143	N	-4	0.260404591074
 [ 0.    0.04  0.02  0.33  0.    0.01  0.08  0.    0.04  0.02  0.01  0.    0.    0.03  0.12  0.01  0.    0.12  0.14  0.04]
	222	A	-4	0.260782786462
 [ 0.    0.08  0.    0.17  0.07  0.    0.09  0.02  0.01  0.02  0.    0.01  0.03  0.22  0.11  0.06  0.    0.09  0.02  0.  ]
	334	V	 2	0.271174972762
 [ 0.    0.    0.01  0.03  0.01  0.01  0.15  0.    0.    0.21  0.    0.08  0.13  0.01  0.09  0.04  0.    0.01  0.19  0.03]
	137	A	 2	0.281516309551
 [ 0.    0.16  0.18  0.11  0.02  0.01  0.09  0.    0.11  0.01  0.01  0.    0.02  0.    0.15  0.07  0.01  0.    0.04  0.  ]
	275	Y	 3	0.287181385676
 [ 0.    0.06  0.    0.06  0.04  0.01  0.36  0.    0.05  0.18  0.    0.01  0.01  0.    0.    0.09  0.02  0.03  0.02  0.05]
	216	T	 2	0.302570758738
 [ 0.    0.12  0.01  0.07  0.    0.01  0.02  0.02  0.08  0.16  0.03  0.28  0.06  0.03  0.    0.02  0.02  0.    0.05  0.01]
	178	I	 0	0.306210267622
 [ 0.    0.    0.47  0.02  0.01  0.16  0.    0.05  0.    0.    0.03  0.16  0.    0.    0.    0.04  0.02  0.01  0.02  0.01]
	 94	G	-3	0.309733750123
 [ 0.    0.02  0.03  0.16  0.    0.04  0.06  0.03  0.07  0.12  0.06  0.14  0.02  0.04  0.02  0.03  0.03  0.04  0.    0.09]
	261	A	 0	0.312749830747
 [ 0.    0.06  0.07  0.16  0.    0.    0.11  0.02  0.08  0.01  0.02  0.    0.13  0.01  0.26  0.02  0.01  0.02  0.01  0.01]
	225	I	-3	0.3221651698
 [ 0.    0.08  0.06  0.17  0.01  0.05  0.06  0.03  0.04  0.01  0.    0.1   0.01  0.03  0.15  0.03  0.04  0.12  0.    0.  ]
	 59	G	-1	0.354991660416
 [ 0.    0.05  0.01  0.23  0.02  0.    0.03  0.01  0.23  0.07  0.07  0.02  0.01  0.05  0.05  0.    0.01  0.03  0.01  0.12]
	259	L	 2	0.361866308646
 [ 0.    0.31  0.09  0.13  0.    0.01  0.18  0.04  0.02  0.01  0.    0.02  0.    0.01  0.01  0.09  0.    0.01  0.05  0.01]
	257	V	 4	0.366452761953
 [ 0.    0.    0.01  0.01  0.03  0.01  0.    0.02  0.07  0.11  0.05  0.01  0.08  0.12  0.    0.    0.    0.24  0.1   0.12]
	 88	L	-2	0.368172924082
 [ 0.    0.03  0.21  0.04  0.05  0.    0.02  0.    0.01  0.05  0.01  0.12  0.03  0.06  0.25  0.02  0.    0.03  0.05  0.01]
	265	F	-4	0.376129918211
 [ 0.    0.02  0.07  0.07  0.01  0.01  0.11  0.01  0.04  0.03  0.03  0.06  0.01  0.09  0.33  0.01  0.01  0.07  0.    0.02]
	303	F	-4	0.42646318015
 [ 0.    0.01  0.03  0.12  0.01  0.01  0.04  0.    0.21  0.17  0.02  0.    0.07  0.07  0.11  0.05  0.01  0.    0.03  0.03]
	301	Y	-2	0.437338648334
 [ 0.    0.16  0.22  0.12  0.    0.07  0.07  0.01  0.    0.05  0.03  0.09  0.01  0.    0.02  0.08  0.04  0.    0.01  0.01]
	297	V	 2	0.441143887153
 [ 0.    0.01  0.06  0.11  0.01  0.05  0.27  0.    0.12  0.05  0.01  0.02  0.15  0.    0.11  0.    0.    0.    0.    0.03]
	 57	G	-3	0.453072309493
 [ 0.    0.05  0.08  0.16  0.03  0.13  0.11  0.01  0.12  0.02  0.    0.01  0.    0.01  0.02  0.09  0.07  0.08  0.01  0.  ]
	155	V	 2	0.466661439751
 [ 0.    0.06  0.08  0.04  0.    0.01  0.    0.01  0.02  0.11  0.1   0.38  0.01  0.01  0.01  0.05  0.02  0.01  0.01  0.08]
	 84	A	 2	0.467407747469
 [ 0.    0.03  0.09  0.    0.    0.    0.03  0.01  0.05  0.53  0.    0.02  0.02  0.08  0.    0.03  0.04  0.02  0.    0.05]
	295	F	 4	0.505968418117
 [ 0.    0.15  0.03  0.09  0.04  0.03  0.03  0.    0.2   0.01  0.01  0.14  0.01  0.02  0.    0.05  0.    0.14  0.02  0.02]
	183	E	-4	0.514337026294
 [ 0.    0.2   0.01  0.16  0.04  0.    0.    0.01  0.08  0.02  0.03  0.08  0.06  0.05  0.13  0.05  0.    0.    0.06  0.01]
	307	M	-3	0.556748899007
 [ 0.    0.07  0.03  0.05  0.    0.19  0.03  0.05  0.08  0.03  0.03  0.12  0.    0.04  0.    0.09  0.06  0.08  0.02  0.03]
	 47	G	-3	0.558398813119
 [ 0.    0.11  0.15  0.18  0.    0.04  0.1   0.02  0.01  0.    0.01  0.19  0.01  0.    0.09  0.05  0.01  0.01  0.02  0.  ]
	157	Y	 4	0.56246624797
 [ 0.    0.    0.02  0.    0.    0.31  0.03  0.01  0.02  0.    0.03  0.04  0.17  0.1   0.09  0.03  0.02  0.08  0.02  0.02]
	299	A	 0	0.563106989546
 [ 0.    0.04  0.03  0.02  0.    0.19  0.21  0.01  0.18  0.04  0.02  0.17  0.05  0.    0.03  0.01  0.    0.    0.    0.  ]
	 98	Y	 1	0.573643282077
 [ 0.    0.01  0.14  0.05  0.18  0.12  0.02  0.    0.1   0.    0.    0.07  0.01  0.04  0.03  0.03  0.02  0.1   0.07  0.  ]
	269	L	-3	0.588392386589
 [ 0.    0.03  0.01  0.01  0.01  0.12  0.    0.02  0.29  0.    0.01  0.02  0.02  0.01  0.    0.03  0.02  0.27  0.12  0.02]
	135	G	 4	0.60883534671
 [ 0.    0.07  0.18  0.01  0.02  0.    0.01  0.02  0.09  0.2   0.    0.01  0.02  0.11  0.11  0.07  0.02  0.01  0.    0.06]
	 82	R	 4	0.613581946769
 [ 0.    0.02  0.19  0.11  0.02  0.02  0.    0.01  0.    0.02  0.    0.07  0.09  0.19  0.    0.09  0.06  0.03  0.04  0.02]
	 43	L	 1	0.646923000958
 [ 0.    0.    0.    0.    0.    0.    0.    0.01  0.19  0.05  0.1   0.2   0.01  0.09  0.13  0.05  0.02  0.04  0.02  0.07]
	 90	Y	-4	0.698903176576
 [ 0.    0.09  0.03  0.06  0.01  0.05  0.04  0.04  0.    0.04  0.12  0.07  0.02  0.2   0.    0.08  0.05  0.02  0.08  0.01]
	313	Y	 3	0.706726331312
 [ 0.    0.03  0.12  0.1   0.09  0.07  0.02  0.01  0.03  0.01  0.    0.12  0.    0.06  0.09  0.05  0.05  0.09  0.04  0.01]
	227	L	-1	0.709818066984
 [ 0.    0.03  0.05  0.01  0.04  0.05  0.02  0.    0.04  0.05  0.06  0.11  0.02  0.22  0.04  0.01  0.03  0.04  0.1   0.09]
	332	V	 4	0.716193376631
 [ 0.    0.09  0.07  0.38  0.01  0.01  0.2   0.    0.06  0.01  0.    0.    0.04  0.01  0.01  0.01  0.01  0.06  0.    0.02]
	185	F	-2	0.722286971917
 [ 0.    0.04  0.19  0.27  0.09  0.02  0.04  0.    0.    0.04  0.03  0.12  0.    0.05  0.04  0.03  0.    0.03  0.02  0.01]
	180	Y	-2	0.726321914689
 [ 0.    0.21  0.1   0.17  0.04  0.04  0.17  0.01  0.15  0.    0.02  0.02  0.01  0.    0.    0.02  0.01  0.02  0.02  0.  ]
	191	Y	 4	0.74020277405
 [ 0.    0.04  0.03  0.    0.02  0.    0.    0.    0.04  0.1   0.08  0.03  0.06  0.11  0.25  0.    0.    0.03  0.13  0.06]
	182	Y	-4	0.751810706623
 [ 0.    0.01  0.    0.04  0.    0.02  0.01  0.07  0.17  0.    0.06  0.    0.01  0.06  0.33  0.02  0.02  0.13  0.    0.06]
	338	Y	-2	0.768455888236
 [ 0.    0.22  0.06  0.09  0.01  0.1   0.1   0.05  0.02  0.01  0.    0.24  0.    0.    0.01  0.03  0.05  0.01  0.    0.01]
	 45	F	-1	0.820986167581
 [ 0.    0.04  0.1   0.25  0.01  0.1   0.08  0.    0.06  0.    0.    0.05  0.    0.03  0.15  0.04  0.02  0.02  0.05  0.01]
	 63	Y	 3	0.825458257969
 [ 0.    0.12  0.09  0.07  0.06  0.05  0.09  0.05  0.06  0.01  0.02  0.1   0.    0.    0.05  0.08  0.06  0.07  0.02  0.02]
	176	G	 2	0.832261763792
 [ 0.    0.02  0.18  0.08  0.    0.22  0.06  0.    0.09  0.02  0.    0.07  0.09  0.    0.    0.09  0.05  0.01  0.02  0.02]
	 17	A	 0	0.838243740496
 [ 0.    0.01  0.    0.    0.    0.01  0.    0.03  0.    0.11  0.15  0.04  0.03  0.26  0.03  0.    0.07  0.07  0.06  0.13]
	273	I	 1	0.849267735234
 [ 0.    0.01  0.02  0.    0.04  0.09  0.    0.    0.06  0.06  0.12  0.06  0.14  0.17  0.02  0.03  0.    0.08  0.03  0.07]
	 15	G	-2	0.864359360711
 [ 0.    0.    0.14  0.18  0.01  0.08  0.1   0.02  0.01  0.05  0.07  0.02  0.03  0.04  0.1   0.06  0.02  0.01  0.02  0.04]
	189	G	 2	0.897156389137
 [ 0.    0.05  0.11  0.1   0.    0.2   0.15  0.    0.    0.03  0.01  0.1   0.05  0.03  0.11  0.    0.    0.    0.03  0.02]
	153	F	 0	0.928731430448
 [ 0.    0.08  0.07  0.26  0.    0.23  0.1   0.01  0.02  0.    0.02  0.04  0.01  0.    0.01  0.11  0.01  0.    0.02  0.01]
	 13	L	-4	0.935265491138
 [ 0.    0.05  0.03  0.07  0.01  0.    0.09  0.01  0.    0.05  0.08  0.01  0.01  0.08  0.09  0.07  0.12  0.08  0.1   0.05]
	VVVVVVVVVVVVVVVVVVVVVVVVV
	187	I	 0	0.962040077822
 [ 0.    0.07  0.12  0.17  0.    0.06  0.03  0.01  0.01  0.05  0.04  0.11  0.    0.01  0.17  0.09  0.02  0.01  0.    0.02]
	 19	G	 2	0.962829469116
 [ 0.    0.03  0.18  0.07  0.    0.07  0.07  0.05  0.02  0.06  0.08  0.    0.01  0.05  0.02  0.14  0.08  0.02  0.01  0.05]
	139	Y	 0	0.979005178654
 [ 0.    0.21  0.09  0.18  0.    0.06  0.1   0.    0.02  0.    0.    0.19  0.01  0.    0.    0.1   0.    0.01  0.    0.  ]
	 41	A	 3	0.991708894808
 [ 0.    0.11  0.06  0.1   0.02  0.11  0.07  0.01  0.08  0.04  0.04  0.16  0.    0.01  0.01  0.09  0.05  0.02  0.02  0.02]
	 21	H	 4	0.999716322036
 [ 0.    0.03  0.03  0.01  0.16  0.02  0.01  0.01  0.01  0.12  0.12  0.01  0.03  0.13  0.1   0.01  0.    0.07  0.05  0.09]
