## 3b07
# single value: 
	AAAAAAAAAAAAAAAAAAAAAAAAA
	129	L	 3	0.263008661148
	135	G	-3	0.345856105603
	125	I	 2	0.403886093561
	119	F	-4	0.484203005153
	123	I	 0	0.549226581776
	133	L	-1	0.587936004591
	121	G	-2	0.733506948484
	131	G	 1	0.906491840009
	VVVVVVVVVVVVVVVVVVVVVVVVV
	127	N	 4	0.999999790027
# vector profile: 
	AAAAAAAAAAAAAAAAAAAAAAAAA
	119	F	-4	0.134424543773
 [ 0.    0.    0.01  0.13  0.    0.31  0.03  0.    0.01  0.02  0.01  0.09  0.08  0.    0.07  0.02  0.13  0.05  0.02  0.  ]
	121	G	-2	0.223767395975
 [ 0.    0.04  0.    0.01  0.    0.07  0.21  0.02  0.04  0.01  0.01  0.15  0.01  0.15  0.07  0.01  0.03  0.03  0.12  0.02]
	123	I	 0	0.264101201507
 [ 0.    0.02  0.07  0.05  0.    0.02  0.06  0.05  0.04  0.    0.05  0.    0.07  0.06  0.43  0.    0.01  0.05  0.01  0.01]
	135	G	-3	0.302077503703
 [ 0.    0.12  0.16  0.2   0.    0.03  0.1   0.01  0.    0.    0.    0.22  0.    0.01  0.08  0.06  0.01  0.01  0.    0.  ]
	131	G	 1	0.313129185911
 [ 0.    0.08  0.04  0.19  0.    0.03  0.18  0.05  0.    0.04  0.08  0.17  0.04  0.06  0.02  0.01  0.    0.    0.01  0.01]
	129	L	 3	0.348543669668
 [ 0.    0.02  0.01  0.14  0.29  0.09  0.01  0.07  0.08  0.01  0.03  0.07  0.    0.    0.11  0.01  0.    0.    0.07  0.01]
	125	I	 2	0.435017017729
 [ 0.    0.03  0.    0.1   0.02  0.11  0.01  0.    0.01  0.    0.15  0.14  0.04  0.27  0.07  0.01  0.    0.02  0.02  0.  ]
	133	L	-1	0.612609602471
 [ 0.    0.09  0.08  0.31  0.    0.1   0.14  0.03  0.01  0.    0.    0.04  0.01  0.    0.09  0.04  0.02  0.04  0.    0.  ]
	VVVVVVVVVVVVVVVVVVVVVVVVV
	127	N	 4	0.999999997016
 [ 0.    0.13  0.11  0.05  0.04  0.1   0.06  0.01  0.    0.02  0.06  0.25  0.01  0.03  0.02  0.07  0.03  0.    0.    0.01]
