## 3kvn
# single value: 
	353	G	 1	0.00743396690429
	AAAAAAAAAAAAAAAAAAAAAAAAA
	616	L	 0	0.0669762547373
	421	V	-2	0.0971708662214
	614	V	 2	0.108708600895
	618	L	-2	0.110972902952
	532	Y	-4	0.122472532806
	583	V	 3	0.127515000562
	349	G	-3	0.157863472447
	355	G	 3	0.161509924881
	376	L	 2	0.169780271889
	528	L	 0	0.17784116663
	612	Q	 4	0.190886024998
	601	Y	 2	0.191514850132
	396	F	 3	0.240598498484
	595	L	-4	0.248512603917
	428	W	-4	0.267344753897
	374	Y	 4	0.280672737742
	597	L	-2	0.296612297008
	603	W	 4	0.330844021139
	378	L	 0	0.337311522399
	382	Y	-4	0.390743723552
	524	L	 4	0.404166620191
	544	Y	 2	0.409836116426
	468	F	 3	0.480050610091
	620	L	-4	0.483501847277
	392	V	-1	0.484350563995
	472	L	-1	0.509321055035
	486	L	-3	0.514245896428
	538	T	-4	0.546609698111
	546	H	 4	0.581143849737
	599	G	 0	0.585624313966
	589	Q	-3	0.60105720701
	474	Y	-3	0.645422306154
	423	Y	-4	0.647118283597
	415	Y	 4	0.662143216043
	530	G	-2	0.670566279757
	434	L	 2	0.688246056852
	540	L	-2	0.690171517328
	587	F	-1	0.751317733091
	490	V	 1	0.774849019276
	585	L	 1	0.802689363843
	380	G	-2	0.826904358582
	436	G	 4	0.85908887252
	488	P	-1	0.862473039917
	351	V	-1	0.910697762515
# vector profile: 
	AAAAAAAAAAAAAAAAAAAAAAAAA
	589	Q	-3	0.0717526983707
 [ 0.    0.    0.    0.01  0.12  0.04  0.01  0.05  0.04  0.02  0.16  0.02  0.    0.11  0.    0.05  0.    0.23  0.12  0.01]
	394	A	 1	0.0791800969896
 [ 0.    0.02  0.09  0.01  0.01  0.03  0.03  0.    0.05  0.02  0.18  0.06  0.05  0.28  0.02  0.07  0.01  0.04  0.    0.03]
	544	Y	 2	0.0898903795175
 [ 0.    0.44  0.04  0.1   0.02  0.01  0.06  0.03  0.02  0.03  0.    0.18  0.    0.04  0.    0.    0.    0.03  0.01  0.  ]
	382	Y	-4	0.102231874947
 [ 0.    0.04  0.02  0.07  0.    0.01  0.    0.    0.03  0.02  0.    0.29  0.11  0.01  0.17  0.    0.06  0.01  0.03  0.13]
	468	F	 3	0.103535844481
 [ 0.    0.05  0.06  0.01  0.16  0.03  0.01  0.    0.04  0.01  0.09  0.09  0.2   0.    0.16  0.    0.    0.    0.    0.09]
	415	Y	 4	0.128309656743
 [ 0.    0.12  0.15  0.04  0.03  0.01  0.02  0.    0.15  0.01  0.05  0.04  0.01  0.02  0.12  0.01  0.01  0.09  0.06  0.05]
	538	T	-4	0.129372921465
 [ 0.    0.01  0.    0.    0.06  0.03  0.01  0.    0.24  0.04  0.15  0.02  0.03  0.04  0.    0.    0.    0.23  0.11  0.02]
	597	L	-2	0.13390497538
 [ 0.    0.32  0.05  0.17  0.    0.    0.05  0.    0.11  0.09  0.03  0.08  0.    0.    0.05  0.    0.04  0.    0.01  0.  ]
	376	L	 2	0.134479801366
 [ 0.    0.04  0.19  0.04  0.    0.    0.    0.03  0.    0.08  0.13  0.08  0.    0.07  0.19  0.04  0.04  0.02  0.01  0.03]
	392	V	-1	0.138618303371
 [ 0.    0.11  0.03  0.    0.01  0.    0.01  0.01  0.27  0.    0.    0.39  0.    0.01  0.06  0.04  0.    0.02  0.02  0.  ]
	528	L	 0	0.139693218489
 [ 0.    0.15  0.02  0.02  0.02  0.02  0.04  0.13  0.16  0.    0.12  0.01  0.02  0.05  0.    0.02  0.01  0.    0.1   0.11]
	432	A	 0	0.140383581001
 [ 0.    0.03  0.    0.    0.    0.11  0.01  0.04  0.22  0.01  0.07  0.06  0.05  0.    0.11  0.13  0.02  0.    0.01  0.1 ]
	486	L	-3	0.151798562607
 [ 0.    0.02  0.22  0.    0.    0.28  0.1   0.    0.12  0.02  0.    0.    0.    0.    0.01  0.12  0.02  0.06  0.    0.02]
	530	G	-2	0.166425845092
 [ 0.    0.    0.02  0.    0.    0.09  0.01  0.01  0.01  0.03  0.    0.11  0.08  0.01  0.36  0.    0.01  0.22  0.    0.04]
	546	H	 4	0.168132035408
 [ 0.    0.    0.02  0.    0.02  0.27  0.    0.06  0.02  0.    0.01  0.02  0.28  0.02  0.    0.03  0.12  0.1   0.01  0.02]
	470	A	 1	0.171205103423
 [ 0.    0.04  0.11  0.09  0.    0.01  0.08  0.02  0.12  0.03  0.05  0.01  0.02  0.09  0.08  0.09  0.13  0.    0.01  0.02]
	436	G	 4	0.175266687168
 [ 0.    0.01  0.    0.01  0.01  0.16  0.04  0.08  0.01  0.09  0.03  0.17  0.    0.    0.05  0.02  0.02  0.06  0.1   0.13]
	532	Y	-4	0.199492024483
 [ 0.    0.08  0.    0.01  0.02  0.02  0.    0.    0.09  0.03  0.01  0.17  0.    0.05  0.06  0.    0.    0.21  0.21  0.05]
	419	A	 0	0.203902243877
 [ 0.    0.18  0.01  0.05  0.    0.06  0.01  0.    0.08  0.03  0.    0.52  0.    0.    0.02  0.    0.03  0.    0.    0.01]
	417	A	 2	0.20946218742
 [ 0.    0.04  0.01  0.04  0.    0.03  0.    0.    0.24  0.05  0.05  0.    0.    0.21  0.02  0.01  0.03  0.    0.13  0.15]
	378	L	 0	0.210555927947
 [ 0.    0.07  0.    0.01  0.    0.04  0.01  0.02  0.02  0.04  0.02  0.32  0.02  0.03  0.22  0.01  0.04  0.01  0.    0.13]
	524	L	 4	0.211872967808
 [ 0.    0.03  0.01  0.07  0.03  0.    0.    0.09  0.04  0.04  0.01  0.24  0.21  0.01  0.04  0.05  0.08  0.    0.04  0.  ]
	595	L	-4	0.225871218228
 [ 0.    0.2   0.22  0.07  0.    0.01  0.09  0.02  0.    0.04  0.05  0.08  0.    0.01  0.01  0.1   0.08  0.    0.    0.  ]
	396	F	 3	0.226152964097
 [ 0.    0.    0.    0.03  0.03  0.11  0.03  0.    0.07  0.22  0.09  0.03  0.    0.05  0.04  0.02  0.04  0.2   0.05  0.  ]
	492	A	 3	0.234280477916
 [ 0.    0.07  0.12  0.19  0.    0.04  0.09  0.02  0.    0.    0.04  0.1   0.02  0.    0.09  0.08  0.    0.07  0.06  0.02]
	490	V	 1	0.236648724397
 [ 0.    0.11  0.11  0.09  0.08  0.03  0.02  0.    0.06  0.06  0.11  0.11  0.05  0.02  0.05  0.03  0.    0.    0.03  0.04]
	430	A	-2	0.237017063333
 [ 0.    0.04  0.09  0.01  0.    0.02  0.01  0.01  0.29  0.04  0.06  0.18  0.01  0.01  0.08  0.03  0.06  0.    0.05  0.02]
	421	V	-2	0.258299326178
 [ 0.    0.14  0.08  0.08  0.01  0.06  0.08  0.07  0.11  0.02  0.01  0.07  0.07  0.    0.    0.07  0.03  0.03  0.    0.07]
	542	A	 0	0.269516469889
 [ 0.    0.02  0.02  0.01  0.    0.01  0.02  0.09  0.    0.05  0.02  0.06  0.03  0.12  0.38  0.01  0.02  0.02  0.07  0.07]
	587	F	-1	0.283151956963
 [ 0.    0.02  0.    0.11  0.07  0.    0.    0.03  0.    0.11  0.08  0.    0.16  0.04  0.19  0.    0.03  0.07  0.03  0.05]
	390	A	-3	0.289671347654
 [ 0.    0.1   0.03  0.15  0.02  0.05  0.03  0.03  0.    0.03  0.    0.05  0.02  0.05  0.    0.05  0.06  0.11  0.01  0.21]
	423	Y	-4	0.310240473164
 [ 0.    0.    0.01  0.01  0.    0.02  0.02  0.02  0.01  0.01  0.    0.09  0.15  0.03  0.46  0.    0.02  0.09  0.01  0.03]
	612	Q	 4	0.341229205232
 [ 0.    0.01  0.02  0.    0.09  0.07  0.02  0.01  0.02  0.07  0.05  0.08  0.    0.18  0.03  0.01  0.01  0.15  0.14  0.02]
	614	V	 2	0.34595378927
 [ 0.    0.01  0.04  0.    0.    0.01  0.    0.09  0.01  0.03  0.    0.01  0.06  0.07  0.23  0.01  0.    0.2   0.15  0.07]
	599	G	 0	0.34717312
 [ 0.    0.3   0.12  0.06  0.    0.02  0.24  0.    0.01  0.03  0.04  0.02  0.03  0.    0.    0.05  0.06  0.    0.01  0.  ]
	585	L	 1	0.362355859461
 [ 0.    0.02  0.09  0.04  0.06  0.07  0.01  0.    0.14  0.1   0.05  0.03  0.05  0.08  0.05  0.01  0.02  0.02  0.06  0.12]
	583	V	 3	0.392841092552
 [ 0.    0.07  0.08  0.01  0.04  0.13  0.04  0.    0.27  0.01  0.03  0.01  0.    0.05  0.03  0.01  0.01  0.12  0.05  0.05]
	488	P	-1	0.431321233474
 [ 0.    0.02  0.08  0.21  0.02  0.01  0.13  0.01  0.01  0.01  0.1   0.    0.08  0.08  0.08  0.01  0.02  0.11  0.03  0.01]
	374	Y	 4	0.43855369795
 [ 0.    0.06  0.    0.07  0.    0.    0.05  0.18  0.11  0.02  0.    0.14  0.02  0.02  0.13  0.07  0.    0.03  0.03  0.07]
	355	G	 3	0.443070390445
 [ 0.    0.    0.03  0.04  0.2   0.01  0.03  0.02  0.01  0.08  0.2   0.01  0.02  0.1   0.08  0.03  0.02  0.01  0.    0.11]
	603	W	 4	0.483279445838
 [ 0.    0.    0.03  0.05  0.    0.    0.04  0.    0.04  0.12  0.    0.06  0.02  0.01  0.28  0.01  0.    0.02  0.    0.3 ]
	540	L	-2	0.499742880088
 [ 0.    0.12  0.11  0.03  0.    0.08  0.    0.03  0.04  0.    0.01  0.28  0.02  0.03  0.1   0.07  0.03  0.    0.01  0.03]
	351	V	-1	0.500907136078
 [ 0.    0.02  0.06  0.    0.    0.12  0.    0.    0.06  0.07  0.14  0.    0.05  0.22  0.12  0.01  0.04  0.03  0.    0.05]
	474	Y	-3	0.505886889998
 [ 0.    0.11  0.15  0.18  0.    0.04  0.1   0.01  0.    0.03  0.01  0.2   0.    0.02  0.08  0.05  0.01  0.    0.    0.01]
	380	G	-2	0.509866043949
 [ 0.    0.01  0.08  0.05  0.02  0.21  0.03  0.02  0.01  0.    0.01  0.2   0.01  0.02  0.12  0.05  0.05  0.04  0.02  0.05]
	472	L	-1	0.509967018518
 [ 0.    0.08  0.06  0.25  0.    0.07  0.05  0.02  0.23  0.14  0.    0.    0.    0.01  0.02  0.02  0.    0.01  0.02  0.01]
	620	L	-4	0.550273938718
 [ 0.    0.06  0.16  0.03  0.    0.25  0.04  0.    0.    0.    0.    0.11  0.06  0.    0.01  0.1   0.05  0.05  0.01  0.05]
	601	Y	 2	0.580165465468
 [ 0.    0.07  0.13  0.12  0.    0.25  0.15  0.    0.02  0.02  0.    0.03  0.03  0.01  0.01  0.11  0.02  0.    0.02  0.02]
	526	A	 2	0.598070465842
 [ 0.    0.    0.    0.01  0.    0.    0.2   0.    0.06  0.15  0.01  0.16  0.06  0.06  0.07  0.01  0.01  0.03  0.15  0.  ]
	428	W	-4	0.69781482273
 [ 0.    0.    0.04  0.18  0.01  0.    0.    0.    0.02  0.03  0.    0.42  0.02  0.02  0.17  0.03  0.01  0.02  0.02  0.01]
	349	G	-3	0.740371668619
 [ 0.    0.08  0.11  0.23  0.    0.03  0.07  0.01  0.    0.03  0.07  0.14  0.01  0.04  0.07  0.04  0.01  0.01  0.02  0.02]
	616	L	 0	0.775887538534
 [ 0.    0.18  0.02  0.11  0.    0.02  0.03  0.05  0.05  0.04  0.04  0.32  0.    0.01  0.03  0.03  0.01  0.    0.01  0.06]
	353	G	 1	0.802052768493
 [ 0.    0.02  0.12  0.14  0.01  0.11  0.11  0.05  0.03  0.03  0.08  0.09  0.02  0.06  0.    0.07  0.01  0.01  0.    0.03]
	618	L	-2	0.824169428243
 [ 0.    0.22  0.13  0.16  0.    0.04  0.1   0.02  0.    0.03  0.02  0.12  0.    0.    0.01  0.07  0.05  0.    0.    0.01]
	434	L	 2	0.89108634576
 [ 0.    0.43  0.    0.    0.01  0.1   0.    0.    0.01  0.    0.    0.32  0.01  0.    0.06  0.    0.01  0.02  0.    0.01]
