## 4c00
# single value: 
	AAAAAAAAAAAAAAAAAAAAAAAAA
	347	T	 3	0.0534987680295
	427	S	 4	0.127111303055
	302	T	 0	0.13395426577
	411	Y	-1	0.139833122112
	453	W	 4	0.14517641348
	371	L	 4	0.156526962973
	445	F	-4	0.164522302846
	332	G	 0	0.174698442345
	313	F	-1	0.184720835912
	274	Y	 2	0.18644344382
	409	Q	-3	0.192586636583
	388	P	 1	0.244639992771
	369	W	 2	0.265056099155
	365	I	-2	0.266683842569
	433	N	-2	0.268069460183
	575	P	-3	0.272921504499
	508	Y	-4	0.275412755138
	336	R	 4	0.283018327801
	386	F	 3	0.298706944382
	311	L	 1	0.311963695917
	500	I	 4	0.314530874476
	268	I	-4	0.323670474612
	571	I	 1	0.333153592138
	309	Q	 3	0.343568288864
	544	W	-3	0.343856157354
	413	I	 1	0.375214156065
	553	L	 0	0.392256527173
	549	G	-4	0.396513179803
	506	Y	-2	0.418589100531
	542	V	-1	0.421218775508
	367	L	 0	0.427757402563
	353	R	-3	0.428469867296
	555	F	 2	0.498803906336
	300	T	-2	0.51099090972
	390	V	-1	0.520626153562
	280	P	 3	0.542385705929
	276	T	 4	0.55359529743
	363	R	-4	0.564113867561
	392	I	-3	0.565827038885
	569	F	 3	0.566190375861
	451	L	 2	0.568588892999
	557	V	 4	0.571197515062
	522	S	 4	0.581263260254
	286	W	-3	0.633835992096
	270	T	-2	0.664238754134
	573	L	-1	0.683476444473
	504	L	 0	0.690414733851
	449	G	 0	0.694815188842
	282	V	 1	0.703935805123
	516	G	-2	0.7275367148
	315	Y	-3	0.749580753157
	415	Y	 3	0.79544221682
	538	T	 3	0.797175900807
	540	V	 1	0.840350042004
	514	W	-4	0.843482661593
	349	L	 1	0.861981798282
	447	T	-2	0.878277138522
	304	I	 2	0.883554099592
	520	V	 2	0.905573628461
	298	L	-4	0.916775038461
	330	V	-2	0.931221274003
	551	I	-2	0.939426623849
	272	V	 0	0.949470586178
	VVVVVVVVVVVVVVVVVVVVVVVVV
	435	W	-4	0.963054494319
	334	F	 2	0.965846438174
	518	V	 0	0.975713569586
	429	F	 2	0.978589354875
	328	Y	-4	0.99673356396
	502	G	 2	0.997426556308
# vector profile: 
	AAAAAAAAAAAAAAAAAAAAAAAAA
	270	T	-2	0.0523673959477
 [ 0.    0.07  0.04  0.    0.02  0.    0.    0.04  0.11  0.    0.    0.31  0.05  0.01  0.05  0.01  0.04  0.12  0.    0.13]
	365	I	-2	0.0770613126484
 [ 0.    0.06  0.16  0.01  0.01  0.    0.    0.01  0.05  0.07  0.01  0.21  0.02  0.08  0.06  0.19  0.04  0.01  0.    0.  ]
	555	F	 2	0.113433189269
 [ 0.    0.43  0.07  0.01  0.    0.01  0.07  0.01  0.22  0.05  0.    0.04  0.01  0.    0.01  0.01  0.    0.02  0.02  0.01]
	300	T	-2	0.123116872189
 [ 0.    0.    0.02  0.07  0.01  0.01  0.02  0.    0.34  0.04  0.01  0.03  0.    0.02  0.09  0.02  0.    0.1   0.04  0.16]
	542	V	-1	0.129899621212
 [ 0.    0.04  0.09  0.33  0.01  0.14  0.02  0.01  0.    0.06  0.    0.    0.    0.06  0.    0.13  0.07  0.01  0.01  0.  ]
	557	V	 4	0.14325216247
 [ 0.    0.07  0.02  0.13  0.07  0.02  0.03  0.06  0.01  0.09  0.04  0.06  0.    0.09  0.02  0.03  0.05  0.09  0.11  0.01]
	549	G	-4	0.145515004055
 [ 0.    0.04  0.16  0.1   0.01  0.01  0.04  0.    0.16  0.01  0.01  0.24  0.06  0.02  0.03  0.01  0.    0.    0.03  0.08]
	413	I	 1	0.1516355851
 [ 0.    0.14  0.02  0.11  0.01  0.    0.01  0.01  0.07  0.01  0.02  0.    0.27  0.02  0.15  0.09  0.01  0.02  0.05  0.  ]
	388	P	 1	0.157521516192
 [ 0.    0.01  0.    0.01  0.02  0.13  0.19  0.02  0.    0.    0.03  0.36  0.01  0.    0.08  0.03  0.    0.06  0.01  0.06]
	369	W	 2	0.179848926776
 [ 0.    0.    0.35  0.11  0.    0.02  0.01  0.01  0.    0.    0.04  0.05  0.    0.07  0.19  0.06  0.04  0.04  0.    0.02]
	504	L	 0	0.183388979289
 [ 0.    0.15  0.02  0.13  0.    0.02  0.    0.04  0.15  0.    0.02  0.01  0.02  0.03  0.1   0.    0.03  0.    0.    0.28]
	540	V	 1	0.187912606024
 [ 0.    0.01  0.07  0.    0.07  0.    0.    0.04  0.14  0.06  0.03  0.02  0.08  0.12  0.    0.01  0.01  0.23  0.04  0.08]
	500	I	 4	0.188562463217
 [ 0.    0.49  0.06  0.    0.01  0.02  0.08  0.02  0.07  0.04  0.07  0.    0.    0.    0.01  0.07  0.03  0.01  0.    0.01]
	363	R	-4	0.194335646649
 [ 0.    0.01  0.07  0.2   0.02  0.01  0.    0.    0.2   0.    0.01  0.    0.14  0.02  0.2   0.07  0.01  0.04  0.01  0.01]
	508	Y	-4	0.211700958761
 [ 0.    0.01  0.04  0.33  0.01  0.09  0.    0.    0.19  0.03  0.01  0.    0.02  0.1   0.03  0.02  0.    0.    0.05  0.06]
	367	L	 0	0.212248997323
 [ 0.    0.02  0.02  0.09  0.01  0.    0.    0.    0.09  0.    0.    0.08  0.18  0.01  0.    0.03  0.13  0.32  0.01  0.01]
	282	V	 1	0.221963505293
 [ 0.    0.04  0.07  0.07  0.    0.17  0.02  0.    0.3   0.    0.    0.12  0.06  0.01  0.07  0.05  0.    0.    0.    0.02]
	445	F	-4	0.225090029689
 [ 0.    0.05  0.01  0.02  0.03  0.01  0.09  0.    0.13  0.05  0.03  0.01  0.01  0.16  0.06  0.01  0.    0.17  0.13  0.04]
	286	W	-3	0.229071181506
 [ 0.    0.09  0.14  0.18  0.    0.01  0.08  0.    0.    0.11  0.    0.21  0.05  0.    0.05  0.02  0.    0.01  0.01  0.03]
	313	F	-1	0.248450926894
 [ 0.    0.02  0.04  0.05  0.    0.06  0.15  0.    0.    0.12  0.14  0.08  0.11  0.08  0.01  0.03  0.02  0.04  0.01  0.01]
	522	S	 4	0.283052112886
 [ 0.    0.    0.02  0.08  0.04  0.    0.    0.    0.13  0.05  0.08  0.    0.    0.25  0.01  0.    0.    0.03  0.16  0.13]
	311	L	 1	0.296142327351
 [ 0.    0.02  0.    0.01  0.    0.04  0.09  0.04  0.41  0.04  0.02  0.07  0.04  0.09  0.    0.01  0.    0.02  0.05  0.02]
	390	V	-1	0.299024263594
 [ 0.    0.03  0.1   0.14  0.    0.15  0.07  0.07  0.    0.05  0.01  0.03  0.    0.26  0.    0.02  0.02  0.    0.05  0.  ]
	451	L	 2	0.302953629774
 [ 0.    0.03  0.02  0.06  0.02  0.4   0.01  0.    0.    0.    0.    0.01  0.01  0.    0.24  0.14  0.03  0.    0.    0.01]
	571	I	 1	0.303909097353
 [ 0.    0.    0.01  0.03  0.02  0.01  0.01  0.    0.14  0.01  0.28  0.01  0.06  0.11  0.01  0.    0.01  0.01  0.11  0.16]
	575	P	-3	0.304031957225
 [ 0.    0.08  0.13  0.16  0.    0.01  0.07  0.    0.01  0.    0.06  0.18  0.09  0.    0.05  0.02  0.    0.1   0.01  0.01]
	411	Y	-1	0.325891776362
 [ 0.    0.02  0.02  0.05  0.03  0.02  0.    0.    0.42  0.01  0.    0.    0.11  0.    0.12  0.01  0.    0.12  0.06  0.  ]
	453	W	 4	0.332298662731
 [ 0.    0.06  0.05  0.    0.03  0.02  0.    0.    0.07  0.1   0.05  0.1   0.07  0.07  0.18  0.01  0.    0.17  0.    0.01]
	298	L	-4	0.349930019346
 [ 0.    0.05  0.01  0.02  0.05  0.02  0.05  0.12  0.01  0.01  0.13  0.01  0.03  0.11  0.21  0.01  0.01  0.09  0.07  0.01]
	553	L	 0	0.353306096685
 [ 0.    0.26  0.02  0.05  0.04  0.19  0.07  0.02  0.01  0.01  0.    0.04  0.    0.01  0.06  0.01  0.04  0.11  0.01  0.05]
	336	R	 4	0.356589529432
 [ 0.    0.03  0.02  0.2   0.05  0.07  0.14  0.04  0.11  0.    0.05  0.05  0.    0.02  0.07  0.07  0.04  0.02  0.    0.02]
	280	P	 3	0.37036442714
 [ 0.    0.    0.06  0.01  0.2   0.    0.05  0.02  0.    0.19  0.16  0.02  0.1   0.07  0.    0.    0.01  0.01  0.    0.09]
	272	V	 0	0.371355547466
 [ 0.    0.16  0.05  0.16  0.02  0.09  0.11  0.    0.    0.03  0.    0.01  0.03  0.02  0.02  0.07  0.05  0.04  0.02  0.11]
	353	R	-3	0.386670858246
 [ 0.    0.    0.03  0.13  0.01  0.01  0.05  0.    0.01  0.08  0.02  0.01  0.1   0.13  0.36  0.01  0.    0.01  0.02  0.01]
	449	G	 0	0.388793810585
 [ 0.    0.02  0.    0.07  0.01  0.04  0.1   0.01  0.09  0.08  0.05  0.08  0.15  0.01  0.14  0.02  0.02  0.    0.01  0.1 ]
	516	G	-2	0.394150356125
 [ 0.    0.    0.07  0.03  0.    0.06  0.02  0.01  0.45  0.05  0.01  0.01  0.07  0.    0.08  0.03  0.06  0.    0.02  0.02]
	371	L	 4	0.411174776181
 [ 0.    0.09  0.02  0.05  0.05  0.01  0.05  0.    0.12  0.14  0.06  0.07  0.15  0.08  0.02  0.01  0.01  0.    0.03  0.03]
	518	V	 0	0.413124030333
 [ 0.    0.02  0.01  0.01  0.05  0.01  0.04  0.02  0.    0.06  0.12  0.02  0.13  0.13  0.11  0.    0.01  0.06  0.06  0.14]
	276	T	 4	0.435517413377
 [ 0.    0.    0.08  0.01  0.24  0.07  0.    0.03  0.01  0.11  0.03  0.    0.15  0.19  0.    0.02  0.    0.05  0.    0.  ]
	409	Q	-3	0.437169288683
 [ 0.    0.09  0.08  0.32  0.01  0.08  0.16  0.    0.02  0.    0.    0.03  0.01  0.    0.02  0.02  0.02  0.07  0.07  0.  ]
	538	T	 3	0.451516743251
 [ 0.    0.06  0.    0.08  0.01  0.17  0.    0.05  0.    0.19  0.09  0.01  0.04  0.07  0.02  0.02  0.02  0.02  0.    0.15]
	514	W	-4	0.461690739424
 [ 0.    0.03  0.01  0.28  0.    0.    0.16  0.01  0.15  0.02  0.    0.    0.09  0.13  0.02  0.    0.    0.08  0.02  0.  ]
	274	Y	 2	0.462645175057
 [ 0.    0.12  0.12  0.16  0.04  0.06  0.05  0.04  0.01  0.15  0.01  0.06  0.    0.    0.01  0.04  0.01  0.02  0.02  0.08]
	309	Q	 3	0.470486003483
 [ 0.    0.02  0.16  0.08  0.31  0.01  0.    0.    0.17  0.03  0.    0.06  0.04  0.02  0.01  0.03  0.    0.03  0.02  0.  ]
	506	Y	-2	0.482629508036
 [ 0.    0.01  0.27  0.09  0.01  0.15  0.    0.05  0.01  0.    0.    0.19  0.01  0.01  0.1   0.04  0.03  0.01  0.    0.  ]
	544	W	-3	0.496768860636
 [ 0.    0.04  0.07  0.07  0.02  0.28  0.03  0.04  0.06  0.    0.    0.11  0.02  0.    0.02  0.06  0.01  0.01  0.16  0.  ]
	433	N	-2	0.504225146776
 [ 0.    0.08  0.05  0.    0.02  0.06  0.03  0.01  0.05  0.07  0.16  0.18  0.02  0.07  0.09  0.04  0.02  0.01  0.01  0.03]
	392	I	-3	0.521204871976
 [ 0.    0.06  0.25  0.    0.    0.21  0.04  0.    0.11  0.    0.    0.14  0.    0.    0.01  0.05  0.06  0.04  0.03  0.  ]
	347	T	 3	0.534422892358
 [ 0.    0.02  0.09  0.02  0.06  0.15  0.1   0.06  0.07  0.    0.    0.01  0.    0.03  0.01  0.13  0.08  0.1   0.07  0.  ]
	386	F	 3	0.548450383297
 [ 0.    0.04  0.18  0.15  0.09  0.08  0.    0.01  0.17  0.    0.    0.07  0.02  0.01  0.01  0.06  0.02  0.04  0.05  0.  ]
	268	I	-4	0.553407498311
 [ 0.    0.08  0.1   0.08  0.02  0.16  0.09  0.    0.13  0.01  0.    0.08  0.    0.    0.03  0.13  0.08  0.    0.    0.01]
	284	A	-1	0.579943779584
 [ 0.    0.01  0.01  0.18  0.02  0.    0.    0.    0.    0.07  0.08  0.05  0.08  0.09  0.23  0.01  0.    0.08  0.02  0.05]
	302	T	 0	0.580989835392
 [ 0.    0.11  0.07  0.07  0.01  0.01  0.03  0.01  0.1   0.13  0.    0.25  0.01  0.02  0.08  0.04  0.03  0.03  0.01  0.  ]
	306	A	 4	0.666014029795
 [ 0.    0.07  0.11  0.18  0.16  0.06  0.06  0.01  0.01  0.1   0.06  0.01  0.01  0.01  0.03  0.01  0.    0.05  0.    0.04]
	415	Y	 3	0.671809268982
 [ 0.    0.07  0.08  0.04  0.09  0.08  0.07  0.06  0.04  0.    0.02  0.12  0.    0.    0.07  0.08  0.11  0.04  0.02  0.  ]
	447	T	-2	0.679909703446
 [ 0.    0.23  0.15  0.17  0.    0.03  0.15  0.02  0.    0.02  0.01  0.07  0.01  0.    0.    0.08  0.03  0.02  0.01  0.  ]
	330	V	-2	0.695752301467
 [ 0.    0.04  0.18  0.2   0.01  0.08  0.01  0.06  0.03  0.05  0.03  0.13  0.    0.    0.01  0.1   0.02  0.    0.01  0.03]
	569	F	 3	0.700097843913
 [ 0.    0.12  0.04  0.12  0.01  0.06  0.04  0.02  0.06  0.03  0.04  0.36  0.06  0.    0.02  0.    0.    0.    0.01  0.01]
	315	Y	-3	0.715195399422
 [ 0.    0.04  0.16  0.19  0.01  0.04  0.03  0.    0.03  0.07  0.07  0.22  0.03  0.03  0.    0.03  0.    0.01  0.01  0.02]
	551	I	-2	0.742321833107
 [ 0.    0.09  0.15  0.15  0.    0.1   0.12  0.01  0.03  0.05  0.02  0.18  0.    0.    0.01  0.05  0.03  0.    0.    0.01]
	573	L	-1	0.774411423829
 [ 0.    0.09  0.09  0.25  0.01  0.05  0.16  0.01  0.04  0.07  0.01  0.08  0.    0.01  0.    0.02  0.02  0.07  0.01  0.  ]
	427	S	 4	0.814177223051
 [ 0.    0.01  0.01  0.05  0.03  0.    0.04  0.02  0.    0.11  0.09  0.01  0.02  0.23  0.02  0.03  0.    0.12  0.12  0.08]
	431	A	 0	0.817382915584
 [ 0.    0.17  0.05  0.09  0.    0.12  0.09  0.04  0.    0.02  0.11  0.04  0.01  0.09  0.    0.05  0.1   0.    0.01  0.  ]
	502	G	 2	0.861279128133
 [ 0.    0.27  0.08  0.2   0.    0.    0.08  0.06  0.03  0.04  0.02  0.06  0.02  0.    0.01  0.07  0.    0.01  0.02  0.02]
	435	W	-4	0.861411040972
 [ 0.    0.02  0.    0.17  0.01  0.    0.    0.    0.06  0.07  0.17  0.    0.04  0.17  0.03  0.    0.    0.1   0.09  0.07]
	349	L	 1	0.949186981239
 [ 0.    0.07  0.11  0.1   0.    0.17  0.11  0.04  0.03  0.04  0.02  0.06  0.    0.    0.1   0.07  0.03  0.    0.01  0.02]
	332	G	 0	0.949826182491
 [ 0.    0.09  0.09  0.19  0.    0.12  0.07  0.01  0.15  0.01  0.01  0.16  0.    0.    0.    0.04  0.02  0.02  0.02  0.01]
	VVVVVVVVVVVVVVVVVVVVVVVVV
	334	F	 2	0.961397730148
 [ 0.    0.12  0.15  0.2   0.03  0.03  0.09  0.02  0.01  0.03  0.06  0.07  0.01  0.05  0.03  0.07  0.02  0.    0.    0.01]
	429	F	 2	0.964707836875
 [ 0.    0.    0.17  0.21  0.03  0.03  0.1   0.02  0.01  0.06  0.11  0.01  0.01  0.06  0.03  0.08  0.02  0.    0.    0.04]
	304	I	 2	0.977127982772
 [ 0.    0.12  0.15  0.19  0.03  0.03  0.09  0.01  0.01  0.02  0.07  0.07  0.01  0.05  0.03  0.07  0.02  0.01  0.    0.04]
	520	V	 2	0.977229949043
 [ 0.    0.11  0.11  0.18  0.01  0.05  0.06  0.01  0.13  0.01  0.03  0.14  0.    0.    0.02  0.07  0.04  0.    0.01  0.02]
	351	A	-1	0.977528459779
 [ 0.    0.18  0.13  0.11  0.02  0.14  0.15  0.02  0.    0.    0.01  0.08  0.02  0.    0.    0.05  0.04  0.01  0.04  0.  ]
	328	Y	-4	0.993110705171
 [ 0.    0.02  0.02  0.1   0.04  0.05  0.04  0.    0.11  0.02  0.05  0.01  0.03  0.15  0.04  0.03  0.04  0.14  0.1   0.03]
