## 4pr7
# single value: 
	214	Y	-2	0.000226912743875
	186	W	-3	0.0109415356655
	AAAAAAAAAAAAAAAAAAAAAAAAA
	212	V	 0	0.05930003906
	180	Y	-2	0.0652300972275
	182	W	-4	0.0814364075607
	  1	V	-3	0.0823367124466
	107	V	-1	0.0924794799364
	152	L	 3	0.113093908277
	  7	H	 3	0.176537219102
	210	V	 2	0.189367179605
	150	Y	 1	0.192222801762
	 95	L	 1	0.207118222254
	109	L	 1	0.214777703373
	 60	T	 4	0.228460231957
	 68	Y	-4	0.230698674522
	188	P	-1	0.231692600903
	136	G	 2	0.243973159518
	146	Y	-3	0.282247204517
	 76	I	-2	0.302206458814
	 27	F	-4	0.351888326353
	 82	L	 4	0.353230643064
	216	F	-4	0.368115426286
	 78	P	 0	0.370420947839
	111	Y	 3	0.371562963326
	105	L	-3	0.401444703983
	148	I	-1	0.419906651886
	 25	H	-2	0.423749957207
	 66	Y	-2	0.449501029742
	 23	I	 0	0.489258639867
	208	Y	 4	0.530520689571
	178	L	 0	0.57759189425
	 19	D	 4	0.582917951654
	 93	P	 3	0.600579256782
	 21	L	 2	0.60300658088
	 31	F	-3	0.620450777318
	140	Y	-2	0.623410478385
	 35	S	 1	0.625678268695
	 62	V	 2	0.720964726516
	 37	V	 3	0.724219680583
	 33	L	-1	0.759526262863
	 97	G	-1	0.803054689083
	190	V	 1	0.816287631718
	 80	F	 2	0.821089099782
	174	H	 4	0.832863198268
	176	V	 2	0.852549945626
	192	V	 3	0.869787464639
	  3	I	-1	0.873665924904
	138	I	 0	0.873892253982
	 74	F	-4	0.875493600031
	134	L	 4	0.889628616954
	VVVVVVVVVVVVVVVVVVVVVVVVV
	142	F	-4	0.955324705542
	  5	Y	 1	0.965533926383
# vector profile: 
	AAAAAAAAAAAAAAAAAAAAAAAAA
	 35	S	 1	0.071148858512
 [ 0.    0.    0.04  0.    0.11  0.02  0.2   0.01  0.14  0.06  0.    0.15  0.04  0.01  0.05  0.03  0.    0.04  0.    0.09]
	 31	F	-3	0.0759313425403
 [ 0.    0.06  0.03  0.33  0.    0.    0.08  0.01  0.    0.06  0.03  0.03  0.    0.02  0.    0.01  0.    0.01  0.    0.32]
	 99	A	-3	0.088943329524
 [ 0.    0.06  0.    0.    0.01  0.15  0.07  0.03  0.05  0.    0.05  0.    0.11  0.03  0.03  0.02  0.11  0.14  0.02  0.12]
	 33	L	-1	0.109034144176
 [ 0.    0.    0.32  0.08  0.01  0.02  0.08  0.03  0.04  0.02  0.1   0.08  0.02  0.06  0.01  0.09  0.    0.02  0.    0.  ]
	 93	P	 3	0.12035504579
 [ 0.    0.01  0.15  0.01  0.07  0.    0.13  0.08  0.02  0.09  0.17  0.01  0.05  0.03  0.02  0.    0.04  0.01  0.1   0.02]
	 76	I	-2	0.143614275337
 [ 0.    0.    0.06  0.01  0.01  0.01  0.    0.    0.25  0.03  0.02  0.42  0.01  0.02  0.06  0.04  0.    0.04  0.    0.  ]
	178	L	 0	0.156973611417
 [ 0.    0.03  0.    0.    0.    0.05  0.    0.01  0.01  0.06  0.    0.41  0.14  0.    0.24  0.01  0.01  0.    0.    0.  ]
	 23	I	 0	0.157837954043
 [ 0.    0.01  0.06  0.01  0.    0.    0.02  0.02  0.02  0.    0.04  0.01  0.3   0.02  0.12  0.18  0.    0.16  0.01  0.01]
	216	F	-4	0.159043207159
 [ 0.    0.    0.06  0.01  0.01  0.1   0.01  0.01  0.04  0.    0.    0.23  0.01  0.03  0.16  0.12  0.09  0.05  0.03  0.04]
	 60	T	 4	0.192823762978
 [ 0.    0.03  0.09  0.07  0.03  0.04  0.07  0.01  0.13  0.07  0.    0.03  0.11  0.01  0.01  0.05  0.04  0.    0.08  0.14]
	 74	F	-4	0.197316786952
 [ 0.    0.02  0.05  0.2   0.04  0.01  0.02  0.    0.1   0.    0.01  0.01  0.01  0.25  0.21  0.01  0.02  0.    0.04  0.  ]
	 27	F	-4	0.197374310245
 [ 0.    0.01  0.07  0.27  0.02  0.06  0.16  0.    0.12  0.    0.01  0.03  0.    0.03  0.15  0.03  0.    0.    0.02  0.03]
	 37	V	 3	0.204987095379
 [ 0.    0.08  0.13  0.22  0.    0.01  0.1   0.02  0.01  0.05  0.02  0.06  0.01  0.    0.04  0.08  0.    0.07  0.07  0.02]
	  7	H	 3	0.205049983545
 [ 0.    0.04  0.    0.05  0.15  0.02  0.02  0.    0.18  0.    0.02  0.    0.    0.    0.06  0.02  0.03  0.29  0.09  0.02]
	105	L	-3	0.205312635474
 [ 0.    0.04  0.1   0.12  0.    0.14  0.    0.01  0.    0.09  0.01  0.03  0.    0.01  0.    0.27  0.    0.09  0.03  0.06]
	 80	F	 2	0.254581196766
 [ 0.    0.    0.02  0.02  0.    0.    0.02  0.    0.02  0.02  0.02  0.07  0.01  0.07  0.49  0.05  0.1   0.03  0.    0.05]
	150	Y	 1	0.292422031135
 [ 0.    0.    0.    0.    0.02  0.    0.    0.03  0.    0.19  0.05  0.15  0.09  0.04  0.29  0.    0.02  0.05  0.04  0.01]
	174	H	 4	0.305922610186
 [ 0.    0.01  0.02  0.11  0.01  0.15  0.03  0.    0.19  0.26  0.01  0.01  0.02  0.02  0.02  0.05  0.    0.04  0.03  0.02]
	146	Y	-3	0.326277360969
 [ 0.    0.    0.    0.02  0.04  0.22  0.05  0.02  0.    0.12  0.    0.05  0.06  0.03  0.07  0.01  0.16  0.11  0.02  0.02]
	 25	H	-2	0.332064529116
 [ 0.    0.03  0.12  0.07  0.    0.47  0.11  0.    0.    0.01  0.    0.01  0.01  0.02  0.04  0.04  0.02  0.03  0.01  0.  ]
	148	I	-1	0.36578215801
 [ 0.    0.03  0.02  0.3   0.    0.    0.32  0.01  0.01  0.    0.02  0.    0.11  0.05  0.1   0.    0.    0.    0.01  0.  ]
	 66	Y	-2	0.379410783508
 [ 0.    0.03  0.01  0.04  0.    0.03  0.15  0.04  0.12  0.16  0.    0.08  0.02  0.    0.06  0.02  0.    0.15  0.    0.08]
	 82	L	 4	0.385597409265
 [ 0.    0.02  0.06  0.06  0.    0.16  0.06  0.01  0.    0.01  0.01  0.18  0.05  0.03  0.16  0.12  0.05  0.    0.    0.02]
	 78	P	 0	0.387702528873
 [ 0.    0.    0.08  0.01  0.01  0.    0.01  0.    0.51  0.04  0.    0.15  0.02  0.01  0.01  0.04  0.    0.04  0.    0.05]
	192	V	 3	0.394958350082
 [ 0.    0.09  0.07  0.    0.14  0.    0.01  0.01  0.12  0.03  0.18  0.01  0.02  0.    0.    0.03  0.    0.19  0.04  0.04]
	152	L	 3	0.452007386334
 [ 0.    0.23  0.    0.07  0.04  0.01  0.02  0.    0.    0.08  0.09  0.    0.08  0.    0.31  0.01  0.01  0.02  0.01  0.03]
	 21	L	 2	0.468528001723
 [ 0.    0.02  0.02  0.05  0.02  0.12  0.01  0.01  0.1   0.07  0.    0.21  0.01  0.01  0.    0.03  0.09  0.19  0.03  0.  ]
	 64	A	 0	0.522899906781
 [ 0.    0.01  0.04  0.    0.    0.4   0.01  0.01  0.04  0.01  0.03  0.36  0.01  0.02  0.02  0.01  0.    0.02  0.    0.02]
	  1	V	-3	0.523193039951
 [ 0.    0.07  0.    0.04  0.02  0.2   0.    0.06  0.    0.02  0.    0.05  0.03  0.02  0.04  0.02  0.09  0.1   0.17  0.05]
	176	V	 2	0.629100556252
 [ 0.    0.06  0.09  0.13  0.01  0.09  0.01  0.01  0.02  0.04  0.    0.1   0.05  0.01  0.13  0.21  0.    0.    0.    0.03]
	 97	G	-1	0.634584012338
 [ 0.    0.07  0.12  0.05  0.    0.09  0.06  0.01  0.03  0.03  0.01  0.22  0.    0.    0.13  0.11  0.02  0.01  0.04  0.  ]
	109	L	 1	0.686470699227
 [ 0.    0.19  0.05  0.06  0.01  0.08  0.06  0.02  0.1   0.01  0.02  0.22  0.01  0.    0.04  0.05  0.03  0.02  0.    0.02]
	136	G	 2	0.704211664497
 [ 0.    0.02  0.05  0.02  0.05  0.08  0.02  0.01  0.23  0.02  0.07  0.07  0.14  0.04  0.03  0.07  0.02  0.04  0.03  0.01]
	180	Y	-2	0.704880296496
 [ 0.    0.04  0.02  0.06  0.03  0.03  0.03  0.02  0.17  0.02  0.02  0.27  0.03  0.02  0.01  0.02  0.04  0.15  0.03  0.  ]
	 95	L	 1	0.713722012392
 [ 0.    0.    0.05  0.07  0.01  0.25  0.03  0.07  0.12  0.07  0.02  0.16  0.01  0.03  0.    0.    0.    0.05  0.06  0.  ]
	 68	Y	-4	0.718968043207
 [ 0.    0.1   0.12  0.    0.    0.    0.19  0.    0.02  0.    0.    0.06  0.03  0.    0.42  0.03  0.    0.    0.02  0.  ]
	138	I	 0	0.752949464443
 [ 0.    0.01  0.01  0.04  0.01  0.23  0.03  0.01  0.    0.03  0.05  0.21  0.01  0.04  0.14  0.06  0.02  0.    0.1   0.01]
	182	W	-4	0.776987997538
 [ 0.    0.02  0.02  0.03  0.01  0.07  0.06  0.    0.24  0.07  0.08  0.    0.    0.15  0.    0.11  0.    0.08  0.    0.07]
	214	Y	-2	0.794696795846
 [ 0.    0.08  0.05  0.18  0.01  0.01  0.12  0.01  0.01  0.07  0.02  0.    0.08  0.08  0.03  0.01  0.    0.06  0.16  0.03]
	186	W	-3	0.805885021113
 [ 0.    0.07  0.    0.    0.    0.11  0.    0.    0.22  0.    0.    0.    0.13  0.02  0.23  0.    0.    0.14  0.06  0.01]
	142	F	-4	0.81431196113
 [ 0.    0.05  0.07  0.03  0.01  0.    0.02  0.01  0.    0.07  0.12  0.13  0.01  0.11  0.02  0.03  0.    0.11  0.15  0.07]
	  3	I	-1	0.833686890024
 [ 0.    0.    0.05  0.09  0.02  0.13  0.    0.01  0.28  0.03  0.05  0.04  0.06  0.11  0.    0.02  0.    0.03  0.07  0.02]
	107	V	-1	0.846856720471
 [ 0.    0.06  0.03  0.11  0.    0.07  0.07  0.03  0.01  0.06  0.03  0.23  0.04  0.02  0.07  0.09  0.02  0.02  0.    0.02]
	210	V	 2	0.863697681969
 [ 0.    0.06  0.1   0.04  0.    0.2   0.16  0.    0.14  0.07  0.    0.    0.    0.02  0.07  0.02  0.    0.    0.11  0.01]
	111	Y	 3	0.931783918522
 [ 0.    0.16  0.17  0.14  0.02  0.02  0.1   0.04  0.    0.02  0.04  0.06  0.    0.07  0.01  0.07  0.03  0.01  0.    0.04]
	  5	Y	 1	0.93898870293
 [ 0.    0.13  0.06  0.07  0.06  0.08  0.03  0.    0.06  0.06  0.05  0.09  0.05  0.07  0.    0.04  0.02  0.05  0.04  0.05]
	 19	D	 4	0.944891509167
 [ 0.    0.23  0.03  0.    0.03  0.01  0.    0.    0.09  0.05  0.06  0.    0.06  0.09  0.16  0.01  0.05  0.02  0.04  0.07]
	VVVVVVVVVVVVVVVVVVVVVVVVV
	188	P	-1	0.954886778541
 [ 0.    0.01  0.12  0.03  0.02  0.19  0.03  0.    0.16  0.    0.04  0.07  0.11  0.06  0.01  0.05  0.02  0.04  0.04  0.  ]
	190	V	 1	0.97558358508
 [ 0.    0.12  0.04  0.02  0.04  0.2   0.05  0.    0.04  0.02  0.05  0.19  0.13  0.03  0.01  0.02  0.    0.03  0.    0.01]
	134	L	 4	0.982750697208
 [ 0.    0.08  0.04  0.05  0.1   0.04  0.02  0.    0.14  0.02  0.02  0.07  0.02  0.08  0.    0.05  0.02  0.16  0.05  0.01]
	140	Y	-2	0.990780568382
 [ 0.    0.09  0.13  0.18  0.    0.06  0.1   0.02  0.01  0.03  0.04  0.16  0.01  0.02  0.06  0.05  0.02  0.    0.    0.02]
	208	Y	 4	0.99638150256
 [ 0.    0.06  0.11  0.12  0.    0.27  0.03  0.    0.    0.02  0.01  0.14  0.01  0.01  0.01  0.18  0.01  0.02  0.    0.  ]
	212	V	 0	0.998317309061
 [ 0.    0.04  0.18  0.    0.    0.13  0.19  0.    0.26  0.    0.01  0.09  0.    0.    0.04  0.03  0.    0.    0.01  0.01]
	 62	V	 2	0.999997148721
 [ 0.    0.13  0.19  0.13  0.01  0.1   0.1   0.    0.12  0.    0.    0.09  0.    0.    0.01  0.09  0.01  0.    0.    0.  ]
