200
6
0
7
6
13
13
12
1
0
7
15
0
16
19
1
14
16
6
7
200
200
200
200
200
200
200
200
7
7
13
15
19
16
2
2
16
5
10
7
10
16
13
16
18
12
0
16
3
2
9
7
19
6
10
10
0
0
16
14
13
1
8
11
9
7
16
1
0
16
7
3
9
0
16
19
8
8
10
14
14
16
10
12
0
5
17
18
13
7
3
0
15
15
11
13
1
14
18
19
7
0
7
9
2
18
16
16
13
13
3
2
7
13
2
3
8
7
11
6
0
7
10
15
3
10
15
10
11
3
15
17
7
0
0
7
5
19
7
19
3
18
10
9
2
1
3
17
10
19
2
12
15
19
17
18
12
3
9
3
16
16
0
2
18
11
10
7
7
0
5
5
8
3
15
19
1
10
3
14
17
19
13
12
13
15
0
7
18
1
13
8