pdb		2h		dh		tilt	dt	calctilt	lower	upper	mytilt	within	mytilt_diff	lower_diff	upper_diff
1a0s	23.8	1.1		0		0	0			0		0		1		FALSE	1			1			1
1bxw	25.4	1.9		5		1	4			3		5		16		FALSE	12			13			11
1e54	25		0.9		0		0	0			0		0		0		TRUE	0			0			0
1ek9	24.6	1.6		0		2	0			-2		2		1		TRUE	1			3			1
1fep	24.3	1.1		1		0	1			1		1		1		TRUE	0			0			0
1i78	26.5	1.6		5		6	5			-1		11		5		TRUE	0			6			6
1k24	25.4	1.3		10		11	14			3		25		21		TRUE	7			18			4
1kmo	24.5	1.2		3		0	4			4		4		2		FALSE	2			2			2
1nqe	23.4	1		5		0	4			4		4		4		TRUE	0			0			0
1p4t	24.9	2.4		22		3	20			17		23		21		TRUE	1			4			2
1prn	23.2	0.5		0		0	0			0		0		0		TRUE	0			0			0
1qd6	23.9	1		0		0	0			0		0		0		TRUE	0			0			0
1qj8	23.6	2.8		12		5	17			12		22		24		FALSE	7			12			2
1t16	25.4	1.3		6		7	4			-3		11		15		FALSE	11			18			4
1thq	23.4	2.5		27		3	33			30		36		29		FALSE	4			1			7
1tly	23.4	1.5		8		0	9			9		9		5		FALSE	4			4			4
1uyn	25.3	1.3		8		8	6			-2		14		14		TRUE	8			16			0
1xkw	24.8	1		5		4	5			1		9		6		TRUE	1			5			3
1yc9	24.6	1		0		0	0			0		0		0		TRUE	0			0			0
2erv	24.7	1.8		20		2	24			22		26		25		TRUE	1			3			1
2f1c	24.7	1.2		5		2	4			2		6		2		TRUE	2			0			4
2f1t	25.4	1.4		10		3	10			7		13		17		FALSE	7			10			4
2fcp	24.7	1		5		1	4			3		5		8		FALSE	4			5			3
2gr8	22.7	2		0		1	2			1		3		0		FALSE	2			1			3
2lhf	20.6	0.6		15		3	13			10		16		21		FALSE	8			11			5
2lme	23.4	2.2		0		1	0			-1		1		1		TRUE	1			2			0
2mlh	23.2	2.7		13		2	19			17		21		15		FALSE	4			2			6
2mpr	24.5	1		0		0	0			0		0		0		TRUE	0			0			0
2o4v	23.9	1.1		0		0	0			0		0		0		TRUE	0			0			0
2omf	24		0.8		0		0	0			0		0		1		FALSE	1			1			1
2por	23.4	0.6		0		0	0			0		0		1		FALSE	1			1			1
2qdz	23.2	0.9		10		0	11			11		11		9		FALSE	2			2			2
2vqi	23.1	1		3		0	2			2		2		4		FALSE	2			2			2
2wjr	23.3	1.5		4		4	6			2		10		9		TRUE	3			7			1
2ynk	23.8	1.3		6		1	6			5		7		4		FALSE	2			1			3
3aeh	25.2	1.1		4		0	5			5		5		18		FALSE	13			13			13
3b07	21.4	1		0		0	0			0		0		0		TRUE	0			0			0
3bs0	23.4	1.4		7		7	4			-3		11		8		TRUE	4			11			3
3csl	25.4	1.3		4		5	4			-1		9		2		TRUE	2			3			7
3dwo	24.8	1.6		6		3	4			1		7		5		TRUE	1			4			2
3dzm	28.5	2.6		6		10	7			-3		17		22		FALSE	15			25			5
3fid	25.6	2		24		0	26			26		26		5		FALSE	21			21			21
3kvn	24.4	1.5		4		2	7			5		9		9		TRUE	2			4			0
3o44	24.6	0		0		0	0			0		0		0		TRUE	0			0			0
3pik	24.3	1.2		1		0	2			2		2		0		FALSE	2			2			2
3rbh	24.3	1.2		4		0	3			3		3		4		FALSE	1			1			1
3rfz	23.8	0.8		5		0	7			7		7		7		TRUE	0			0			0
3syb	23.6	0.9		8		0	5			5		5		6		FALSE	1			1			1
3szv	23.8	1.2		1		0	2			2		2		4		FALSE	2			2			2
3v8x	23.2	0.6		3		0	3			3		3		1		FALSE	2			2			2
3vzt	24.4	1		0		0	0			0		0		0		TRUE	0			0			0
4c00	23.4	1.3		7		1	13			12		14		11		FALSE	2			1			3
4e1s	24.4	1.6		9		2	11			9		13		8		FALSE	3			1			5
4gey	24.4	1.6		6		2	4			2		6		10		FALSE	6			8			4
4k3c	24.4	1		10		0	11			11		11		11		TRUE	0			0			0
4pr7	22.2	1.5		2		1	7			6		8		4		FALSE	3			2			4
4q35	23		0.7		6		2	7			5		9		8		TRUE	1			3			1
7ahl	23.5	0.9		0		1	1			0		2		0		TRUE	1			0			2
