##############################################
##############################################
## single value zscore
# single value: 
	247	L	-2	0.00977974205825
	669	V	-3	0.0145399688021
	187	F	-4	0.035029304106
	460	M	 0	0.0354344870788
	444	P	 3	0.0397770245258
	351	V	-2	0.0425960093456
	177	F	 0	0.0499208145537
	AAAAAAAAAAAAAAAAAAAAAAAAA
	VVVVVVVVVVVVVVVVVVVVVVVVV
	365	L	-1	0.95921485915
