##############################################
##############################################
## single value percentile
# single value: 
	191	F	 3	0.0116035
	AAAAAAAAAAAAAAAAAAAAAAAAA
	VVVVVVVVVVVVVVVVVVVVVVVVV
	 52	L	-1	0.9652895
