##############################################
##############################################
## single value percentile
# single value: 
	513	G	 4	0.00131
	559	L	 4	0.003992
	546	Y	-3	0.0064805
	229	V	 2	0.0116025
	505	W	-4	0.0169805
	385	R	 4	0.0215525
	408	Y	 1	0.0274455
	557	L	 2	0.044957
	AAAAAAAAAAAAAAAAAAAAAAAAA
	VVVVVVVVVVVVVVVVVVVVVVVVV
	705	V	 3	0.957924
	684	W	 4	0.985923
	653	S	 3	0.991007
