##############################################
##############################################
## single value zscore
# single value: 
	AAAAAAAAAAAAAAAAAAAAAAAAA
	VVVVVVVVVVVVVVVVVVVVVVVVV
	116	Y	-3	0.957835064442
	153	V	-2	0.973801561424
	147	L	 4	0.995251170435
