##############################################
##############################################
## single value zscore
# single value: 
	237	V	-1	0.0215768732639
	285	V	-1	0.026710252783
	AAAAAAAAAAAAAAAAAAAAAAAAA
	VVVVVVVVVVVVVVVVVVVVVVVVV
	181	Y	 3	0.950786127916
	265	V	-4	0.956779760355
	170	W	-2	0.975071322309
	 31	L	 2	0.978569847336
	146	L	 1	0.981246409043
	 67	N	 4	0.987611042417
