##############################################
##############################################
## single value percentile
# single value: 
	142	H	 3	0.0037865
	116	P	 2	0.006562
	120	L	-2	0.016712
	 92	Y	 1	0.030008
	 71	L	 1	0.034926
	156	N	 4	0.034983
	175	P	 1	0.0478005
	AAAAAAAAAAAAAAAAAAAAAAAAA
	VVVVVVVVVVVVVVVVVVVVVVVVV
	 42	Y	 3	0.9678605
