##############################################
##############################################
## single value zscore
# single value: 
	302	Y	 3	0.00617561223752
	234	Y	 3	0.0084678988867
	 11	I	 3	0.0156271364386
	316	W	 4	0.0214861836613
	280	W	 4	0.0446962866405
	AAAAAAAAAAAAAAAAAAAAAAAAA
	VVVVVVVVVVVVVVVVVVVVVVVVV
	104	K	 1	0.970183054557
	336	V	 1	0.975886381617
	129	I	-2	0.987930227682
	 86	V	-3	0.999995893005
