##############################################
##############################################
## single value zscore
# single value: 
	437	T	-2	0.0329282304719
	AAAAAAAAAAAAAAAAAAAAAAAAA
	VVVVVVVVVVVVVVVVVVVVVVVVV
	522	V	-2	0.983012211681
	246	L	-1	0.986796571727
	550	G	-4	0.987290744559
	477	K	-3	0.989350214788
	488	L	 0	0.998057363831
