##############################################
##############################################
## single value zscore
# single value: 
	495	Y	-3	0.00220744795831
	567	L	 2	0.0338611248183
	AAAAAAAAAAAAAAAAAAAAAAAAA
	VVVVVVVVVVVVVVVVVVVVVVVVV
	441	N	-2	0.970265725828
	859	G	 2	0.975639778036
	260	G	 2	0.98319107242
	580	L	-1	0.988357218832
	771	L	 0	0.988531698265
	435	Y	 4	0.996117366079
