##############################################
##############################################
## single value percentile
# single value: 
	359	Y	 4	0.0400665
	AAAAAAAAAAAAAAAAAAAAAAAAA
	VVVVVVVVVVVVVVVVVVVVVVVVV
	102	L	-1	0.972973
	343	G	-2	0.974251
