##############################################
##############################################
## single value percentile
# single value: 
	317	F	 4	0.0427775
	AAAAAAAAAAAAAAAAAAAAAAAAA
	VVVVVVVVVVVVVVVVVVVVVVVVV
	295	S	 2	0.9753095
