##############################################
##############################################
## single value zscore
# single value: 
	170	W	-1	4.61765167692e-05
	155	E	 3	0.0144115734945
	384	G	-1	0.0198457950116
	274	Y	-2	0.0375375020086
	AAAAAAAAAAAAAAAAAAAAAAAAA
	VVVVVVVVVVVVVVVVVVVVVVVVV
	255	L	 3	0.951967434678
	131	F	 0	0.959085324142
	225	I	 2	0.959728556928
	460	F	 0	0.964165650797
	177	L	-4	0.969511359721
	135	Y	-4	0.970473613806
	392	Y	-4	0.971171306785
	396	L	 0	0.974359533683
	172	F	-3	0.979657831337
	272	L	-4	0.981316677613
	219	H	-4	0.981442363669
	434	V	-1	0.983624037417
	133	V	-2	0.984593790569
	382	L	 1	0.984729326042
	227	H	 4	0.987349208166
	458	I	-2	0.993574511943
	153	L	 1	0.9989006634
