##############################################
##############################################
## single value zscore
# single value: 
	180	G	 0	0.018706979335
	AAAAAAAAAAAAAAAAAAAAAAAAA
	VVVVVVVVVVVVVVVVVVVVVVVVV
	208	L	 0	0.959706780767
	184	L	-4	0.966333295934
	212	L	-4	0.973895449477
	 14	N	 3	0.976781535373
	 60	L	 4	0.9994110185
