##############################################
##############################################
## single value zscore
# single value: 
	222	H	 2	0.00534776938266
	333	H	 4	0.0208206044107
	793	V	 1	0.0386583534011
	AAAAAAAAAAAAAAAAAAAAAAAAA
	VVVVVVVVVVVVVVVVVVVVVVVVV
	220	L	 0	0.959405046109
	424	D	-4	0.962197077867
	588	D	-2	0.967049562145
	640	L	-2	0.991437269372
	638	L	-4	0.992515825865
