##############################################
##############################################
## single value percentile
# single value: 
	219	S	 4	0.026982
	405	M	 1	0.029781
	AAAAAAAAAAAAAAAAAAAAAAAAA
	VVVVVVVVVVVVVVVVVVVVVVVVV
	217	L	 2	0.957458
	250	Y	 4	0.962894
	336	G	-3	0.980701
