##############################################
##############################################
## single value percentile
# single value: 
	AAAAAAAAAAAAAAAAAAAAAAAAA
	VVVVVVVVVVVVVVVVVVVVVVVVV
	617	T	-3	0.9601305
	611	V	 3	0.980976
