##############################################
##############################################
## single value percentile
# single value: 
	243	F	 1	0.0320685
	AAAAAAAAAAAAAAAAAAAAAAAAA
	VVVVVVVVVVVVVVVVVVVVVVVVV
	361	V	-1	0.9522125
	624	G	 0	0.960154
	685	V	 3	0.986099
	231	P	-1	0.991064
	363	Y	-3	0.9936235
	721	Y	-3	0.9961355
