0
6
9
18
2
11
3
7
2
11
19
3
10
18
7
11
0
19
7
10
8
18
13
15
11
7
2
7
6
2
15
18
7
7
2
7
3
12
16
18
0
1
10
7
13
11
7
6
16
5
9
2
15
3
10
16
7
18
7
5
17
6
18
2
13
5
7
2
2
15
6
7
0
3
0
5
16
7
2
11
16
1
10
0
13
0
7
10
11
18
0
3
19
7
15
13
3
18
7
1
2
18
7
19
19
18
3
0
10
7
18
16
3
12
10
14
6
13
7
7
3
16
0
18
15
3
3
13
13
19
7
1
19
7
7
19
0
16
16
18
1
2
15
2
13
13
7
10
19
3
7
10
2
13
0
19
5
18
10
7
11
2
6
1
3
16
0
1
1
15
2
7
3
7
19
7
7
15
9
15
18
6
18
6
7
13
7
9
19
7
0
18
7
0
0
3
1
16
2
10
5
6
0
5
14
10
7
2
7
11
11
0
6
5
17
0
16
7
10
11
18
3
0
2
2
9
18
10
0
0
2
18
7
6
16
1
2
0
16
14
9
16
2
11
13
16
2
16
15
7
13
0
2
11
16
5
3
19
10
10
19
0
5
18
5
13
3
13
7
10
1
14
15
9
0
18
16
11
15
11
0
11
3
19
6
7
9
7
3
19
3
10
19
2
18
13
6
19
7
0
16
18
18
13
2
11
2
12
15
16
18
19
3
18
9
9
2
5
9
3
15
3
2
11
10
7
19
7
15
3
3
16
19
0
19
7
9
19
18
5
13
