<?xml version="1.0" encoding="utf-8" standalone="no"?>
<!DOCTYPE svg PUBLIC "-//W3C//DTD SVG 1.1//EN"
  "http://www.w3.org/Graphics/SVG/1.1/DTD/svg11.dtd">
<!-- Created with matplotlib (http://matplotlib.org/) -->
<svg height="216pt" version="1.1" viewBox="0 0 1080 216" width="1080pt" xmlns="http://www.w3.org/2000/svg" xmlns:xlink="http://www.w3.org/1999/xlink">
 <defs>
  <style type="text/css">
*{stroke-linecap:butt;stroke-linejoin:round;}
  </style>
 </defs>
 <g id="figure_1">
  <g id="patch_1">
   <path d="
M0 216
L1080 216
L1080 0
L0 0
z
" style="fill:#ffffff;"/>
  </g>
  <g id="axes_1">
   <g id="patch_2">
    <path d="
M81.81 143.356
L1058.54 143.356
L1058.54 12.96
L81.81 12.96
z
" style="fill:#ffffff;"/>
   </g>
   <g id="LineCollection_1">
    <defs>
     <path d="
M176.056 -72.644
L176.056 -81.0883
L193.191 -81.0883
L193.191 -72.644" id="C0_0_c900d81267"/>
     <path d="
M210.327 -72.644
L210.327 -79.4237
L227.462 -79.4237
L227.462 -72.644" id="C0_1_fd1b56bebf"/>
     <path d="
M261.733 -72.644
L261.733 -77.6416
L278.869 -77.6416
L278.869 -72.644" id="C0_2_47fb35a2fe"/>
     <path d="
M244.598 -72.644
L244.598 -78.8441
L270.301 -78.8441
L270.301 -77.6416" id="C0_3_5ed92b98d6"/>
     <path d="
M313.14 -72.644
L313.14 -77.7258
L330.276 -77.7258
L330.276 -72.644" id="C0_4_6abe6d9c21"/>
     <path d="
M296.005 -72.644
L296.005 -79.9856
L321.708 -79.9856
L321.708 -77.7258" id="C0_5_18258e804b"/>
     <path d="
M257.45 -78.8441
L257.45 -80.8102
L308.856 -80.8102
L308.856 -79.9856" id="C0_6_c16a10d8fd"/>
     <path d="
M218.895 -79.4237
L218.895 -81.74
L283.153 -81.74
L283.153 -80.8102" id="C0_7_91e4d80206"/>
     <path d="
M184.623 -81.0883
L184.623 -83.8965
L251.024 -83.8965
L251.024 -81.74" id="C0_8_4eba225651"/>
     <path d="
M158.92 -72.644
L158.92 -85.1422
L217.824 -85.1422
L217.824 -83.8965" id="C0_9_2a4b3fe751"/>
     <path d="
M347.411 -72.644
L347.411 -83.0844
L364.547 -83.0844
L364.547 -72.644" id="C0_a_623ce77009"/>
     <path d="
M433.089 -72.644
L433.089 -80.7437
L450.225 -80.7437
L450.225 -72.644" id="C0_b_fbdee7156e"/>
     <path d="
M415.954 -72.644
L415.954 -81.6675
L441.657 -81.6675
L441.657 -80.7437" id="C0_c_367262f9be"/>
     <path d="
M398.818 -72.644
L398.818 -83.4261
L428.805 -83.4261
L428.805 -81.6675" id="C0_d_ba6d30cae4"/>
     <path d="
M381.682 -72.644
L381.682 -83.9611
L413.812 -83.9611
L413.812 -83.4261" id="C0_e_d7f21a871d"/>
     <path d="
M355.979 -83.0844
L355.979 -85.8276
L397.747 -85.8276
L397.747 -83.9611" id="C0_f_2a3dddbe84"/>
     <path d="
M188.372 -85.1422
L188.372 -87.5893
L376.863 -87.5893
L376.863 -85.8276" id="C0_10_ab9e8e66a9"/>
     <path d="
M484.496 -72.644
L484.496 -89.8826
L501.631 -89.8826
L501.631 -72.644" id="C0_11_64e3cbb334"/>
     <path d="
M467.36 -72.644
L467.36 -93.0364
L493.064 -93.0364
L493.064 -89.8826" id="C0_12_df18ba1888"/>
     <path d="
M282.617 -87.5893
L282.617 -95.7554
L480.212 -95.7554
L480.212 -93.0364" id="C0_13_cb45346fdd"/>
     <path d="
M535.902 -72.644
L535.902 -85.096
L553.038 -85.096
L553.038 -72.644" id="C0_14_14163b10ce"/>
     <path d="
M621.58 -72.644
L621.58 -79.5166
L638.716 -79.5166
L638.716 -72.644" id="C0_15_d8fbcb28eb"/>
     <path d="
M604.445 -72.644
L604.445 -82.4422
L630.148 -82.4422
L630.148 -79.5166" id="C0_16_3ef93f2165"/>
     <path d="
M587.309 -72.644
L587.309 -82.9377
L617.296 -82.9377
L617.296 -82.4422" id="C0_17_eccc33de23"/>
     <path d="
M570.174 -72.644
L570.174 -85.7086
L602.303 -85.7086
L602.303 -82.9377" id="C0_18_949c516f7e"/>
     <path d="
M544.47 -85.096
L544.47 -87.8993
L586.238 -87.8993
L586.238 -85.7086" id="C0_19_7557c293ff"/>
     <path d="
M518.767 -72.644
L518.767 -91.2572
L565.354 -91.2572
L565.354 -87.8993" id="C0_1a_e6fa88fd48"/>
     <path d="
M655.851 -72.644
L655.851 -87.6166
L672.987 -87.6166
L672.987 -72.644" id="C0_1b_dc2ad1f4dc"/>
     <path d="
M724.394 -72.644
L724.394 -83.055
L741.529 -83.055
L741.529 -72.644" id="C0_1c_b918030350"/>
     <path d="
M707.258 -72.644
L707.258 -85.1011
L732.961 -85.1011
L732.961 -83.055" id="C0_1d_5a4af56d94"/>
     <path d="
M690.123 -72.644
L690.123 -88.5687
L720.11 -88.5687
L720.11 -85.1011" id="C0_1e_f2650efd6d"/>
     <path d="
M810.072 -72.644
L810.072 -81.2499
L827.207 -81.2499
L827.207 -72.644" id="C0_1f_2d0181bcfb"/>
     <path d="
M792.936 -72.644
L792.936 -83.3066
L818.639 -83.3066
L818.639 -81.2499" id="C0_20_88a0716ff7"/>
     <path d="
M861.478 -72.644
L861.478 -79.4191
L878.614 -79.4191
L878.614 -72.644" id="C0_21_ad4048828a"/>
     <path d="
M844.343 -72.644
L844.343 -81.6006
L870.046 -81.6006
L870.046 -79.4191" id="C0_22_99b4336a00"/>
     <path d="
M912.885 -72.644
L912.885 -81.4616
L930.02 -81.4616
L930.02 -72.644" id="C0_23_c34eeef031"/>
     <path d="
M895.749 -72.644
L895.749 -82.6254
L921.453 -82.6254
L921.453 -81.4616" id="C0_24_56a460d0f5"/>
     <path d="
M857.194 -81.6006
L857.194 -84.5561
L908.601 -84.5561
L908.601 -82.6254" id="C0_25_0d6189d6d5"/>
     <path d="
M805.788 -83.3066
L805.788 -84.9114
L882.898 -84.9114
L882.898 -84.5561" id="C0_26_813cce5559"/>
     <path d="
M775.8 -72.644
L775.8 -87.0801
L844.343 -87.0801
L844.343 -84.9114" id="C0_27_589f1e07ed"/>
     <path d="
M758.665 -72.644
L758.665 -88.2762
L810.072 -88.2762
L810.072 -87.0801" id="C0_28_86c82aa2bc"/>
     <path d="
M947.156 -72.644
L947.156 -88.3915
L964.292 -88.3915
L964.292 -72.644" id="C0_29_9212adbf2c"/>
     <path d="
M784.368 -88.2762
L784.368 -91.325
L955.724 -91.325
L955.724 -88.3915" id="C0_2a_561e6da43f"/>
     <path d="
M705.116 -88.5687
L705.116 -94.8323
L870.046 -94.8323
L870.046 -91.325" id="C0_2b_be016e14a9"/>
     <path d="
M664.419 -87.6166
L664.419 -95.5005
L787.581 -95.5005
L787.581 -94.8323" id="C0_2c_7a395e1cb8"/>
     <path d="
M542.061 -91.2572
L542.061 -96.7977
L726 -96.7977
L726 -95.5005" id="C0_2d_0458ff07a3"/>
     <path d="
M381.415 -95.7554
L381.415 -101.594
L634.03 -101.594
L634.03 -96.7977" id="C0_2e_47fa20cd4c"/>
     <path d="
M981.427 -72.644
L981.427 -102.209
L998.563 -102.209
L998.563 -72.644" id="C0_2f_2b90761ebe"/>
     <path d="
M507.723 -101.594
L507.723 -104.522
L989.995 -104.522
L989.995 -102.209" id="C0_30_5ef3b15de5"/>
     <path d="
M141.784 -72.644
L141.784 -113.259
L748.859 -113.259
L748.859 -104.522" id="C0_31_cf32e9a452"/>
     <path d="
M124.649 -72.644
L124.649 -121.236
L445.322 -121.236
L445.322 -113.259" id="C0_32_5de3bbad2c"/>
     <path d="
M107.513 -72.644
L107.513 -133.685
L284.985 -133.685
L284.985 -121.236" id="C0_33_86f489d495"/>
     <path d="
M90.3778 -72.644
L90.3778 -155.008
L196.249 -155.008
L196.249 -133.685" id="C0_34_10088591e6"/>
     <path d="
M1032.83 -72.644
L1032.83 -137.032
L1049.97 -137.032
L1049.97 -72.644" id="C0_35_ff9596c033"/>
     <path d="
M1015.7 -72.644
L1015.7 -157.867
L1041.4 -157.867
L1041.4 -137.032" id="C0_36_44e10d3a8d"/>
     <path d="
M143.314 -155.008
L143.314 -196.831
L1028.55 -196.831
L1028.55 -157.867" id="C0_37_0fe0fa7dd2"/>
    </defs>
    <g clip-path="url(#pb44108de42)">
     <use style="fill:none;stroke:#008000;" x="0.0" xlink:href="#C0_0_c900d81267" y="216.0"/>
    </g>
    <g clip-path="url(#pb44108de42)">
     <use style="fill:none;stroke:#008000;" x="0.0" xlink:href="#C0_1_fd1b56bebf" y="216.0"/>
    </g>
    <g clip-path="url(#pb44108de42)">
     <use style="fill:none;stroke:#008000;" x="0.0" xlink:href="#C0_2_47fb35a2fe" y="216.0"/>
    </g>
    <g clip-path="url(#pb44108de42)">
     <use style="fill:none;stroke:#008000;" x="0.0" xlink:href="#C0_3_5ed92b98d6" y="216.0"/>
    </g>
    <g clip-path="url(#pb44108de42)">
     <use style="fill:none;stroke:#008000;" x="0.0" xlink:href="#C0_4_6abe6d9c21" y="216.0"/>
    </g>
    <g clip-path="url(#pb44108de42)">
     <use style="fill:none;stroke:#008000;" x="0.0" xlink:href="#C0_5_18258e804b" y="216.0"/>
    </g>
    <g clip-path="url(#pb44108de42)">
     <use style="fill:none;stroke:#008000;" x="0.0" xlink:href="#C0_6_c16a10d8fd" y="216.0"/>
    </g>
    <g clip-path="url(#pb44108de42)">
     <use style="fill:none;stroke:#008000;" x="0.0" xlink:href="#C0_7_91e4d80206" y="216.0"/>
    </g>
    <g clip-path="url(#pb44108de42)">
     <use style="fill:none;stroke:#008000;" x="0.0" xlink:href="#C0_8_4eba225651" y="216.0"/>
    </g>
    <g clip-path="url(#pb44108de42)">
     <use style="fill:none;stroke:#008000;" x="0.0" xlink:href="#C0_9_2a4b3fe751" y="216.0"/>
    </g>
    <g clip-path="url(#pb44108de42)">
     <use style="fill:none;stroke:#008000;" x="0.0" xlink:href="#C0_a_623ce77009" y="216.0"/>
    </g>
    <g clip-path="url(#pb44108de42)">
     <use style="fill:none;stroke:#008000;" x="0.0" xlink:href="#C0_b_fbdee7156e" y="216.0"/>
    </g>
    <g clip-path="url(#pb44108de42)">
     <use style="fill:none;stroke:#008000;" x="0.0" xlink:href="#C0_c_367262f9be" y="216.0"/>
    </g>
    <g clip-path="url(#pb44108de42)">
     <use style="fill:none;stroke:#008000;" x="0.0" xlink:href="#C0_d_ba6d30cae4" y="216.0"/>
    </g>
    <g clip-path="url(#pb44108de42)">
     <use style="fill:none;stroke:#008000;" x="0.0" xlink:href="#C0_e_d7f21a871d" y="216.0"/>
    </g>
    <g clip-path="url(#pb44108de42)">
     <use style="fill:none;stroke:#008000;" x="0.0" xlink:href="#C0_f_2a3dddbe84" y="216.0"/>
    </g>
    <g clip-path="url(#pb44108de42)">
     <use style="fill:none;stroke:#008000;" x="0.0" xlink:href="#C0_10_ab9e8e66a9" y="216.0"/>
    </g>
    <g clip-path="url(#pb44108de42)">
     <use style="fill:none;stroke:#008000;" x="0.0" xlink:href="#C0_11_64e3cbb334" y="216.0"/>
    </g>
    <g clip-path="url(#pb44108de42)">
     <use style="fill:none;stroke:#008000;" x="0.0" xlink:href="#C0_12_df18ba1888" y="216.0"/>
    </g>
    <g clip-path="url(#pb44108de42)">
     <use style="fill:none;stroke:#008000;" x="0.0" xlink:href="#C0_13_cb45346fdd" y="216.0"/>
    </g>
    <g clip-path="url(#pb44108de42)">
     <use style="fill:none;stroke:#008000;" x="0.0" xlink:href="#C0_14_14163b10ce" y="216.0"/>
    </g>
    <g clip-path="url(#pb44108de42)">
     <use style="fill:none;stroke:#008000;" x="0.0" xlink:href="#C0_15_d8fbcb28eb" y="216.0"/>
    </g>
    <g clip-path="url(#pb44108de42)">
     <use style="fill:none;stroke:#008000;" x="0.0" xlink:href="#C0_16_3ef93f2165" y="216.0"/>
    </g>
    <g clip-path="url(#pb44108de42)">
     <use style="fill:none;stroke:#008000;" x="0.0" xlink:href="#C0_17_eccc33de23" y="216.0"/>
    </g>
    <g clip-path="url(#pb44108de42)">
     <use style="fill:none;stroke:#008000;" x="0.0" xlink:href="#C0_18_949c516f7e" y="216.0"/>
    </g>
    <g clip-path="url(#pb44108de42)">
     <use style="fill:none;stroke:#008000;" x="0.0" xlink:href="#C0_19_7557c293ff" y="216.0"/>
    </g>
    <g clip-path="url(#pb44108de42)">
     <use style="fill:none;stroke:#008000;" x="0.0" xlink:href="#C0_1a_e6fa88fd48" y="216.0"/>
    </g>
    <g clip-path="url(#pb44108de42)">
     <use style="fill:none;stroke:#008000;" x="0.0" xlink:href="#C0_1b_dc2ad1f4dc" y="216.0"/>
    </g>
    <g clip-path="url(#pb44108de42)">
     <use style="fill:none;stroke:#008000;" x="0.0" xlink:href="#C0_1c_b918030350" y="216.0"/>
    </g>
    <g clip-path="url(#pb44108de42)">
     <use style="fill:none;stroke:#008000;" x="0.0" xlink:href="#C0_1d_5a4af56d94" y="216.0"/>
    </g>
    <g clip-path="url(#pb44108de42)">
     <use style="fill:none;stroke:#008000;" x="0.0" xlink:href="#C0_1e_f2650efd6d" y="216.0"/>
    </g>
    <g clip-path="url(#pb44108de42)">
     <use style="fill:none;stroke:#008000;" x="0.0" xlink:href="#C0_1f_2d0181bcfb" y="216.0"/>
    </g>
    <g clip-path="url(#pb44108de42)">
     <use style="fill:none;stroke:#008000;" x="0.0" xlink:href="#C0_20_88a0716ff7" y="216.0"/>
    </g>
    <g clip-path="url(#pb44108de42)">
     <use style="fill:none;stroke:#008000;" x="0.0" xlink:href="#C0_21_ad4048828a" y="216.0"/>
    </g>
    <g clip-path="url(#pb44108de42)">
     <use style="fill:none;stroke:#008000;" x="0.0" xlink:href="#C0_22_99b4336a00" y="216.0"/>
    </g>
    <g clip-path="url(#pb44108de42)">
     <use style="fill:none;stroke:#008000;" x="0.0" xlink:href="#C0_23_c34eeef031" y="216.0"/>
    </g>
    <g clip-path="url(#pb44108de42)">
     <use style="fill:none;stroke:#008000;" x="0.0" xlink:href="#C0_24_56a460d0f5" y="216.0"/>
    </g>
    <g clip-path="url(#pb44108de42)">
     <use style="fill:none;stroke:#008000;" x="0.0" xlink:href="#C0_25_0d6189d6d5" y="216.0"/>
    </g>
    <g clip-path="url(#pb44108de42)">
     <use style="fill:none;stroke:#008000;" x="0.0" xlink:href="#C0_26_813cce5559" y="216.0"/>
    </g>
    <g clip-path="url(#pb44108de42)">
     <use style="fill:none;stroke:#008000;" x="0.0" xlink:href="#C0_27_589f1e07ed" y="216.0"/>
    </g>
    <g clip-path="url(#pb44108de42)">
     <use style="fill:none;stroke:#008000;" x="0.0" xlink:href="#C0_28_86c82aa2bc" y="216.0"/>
    </g>
    <g clip-path="url(#pb44108de42)">
     <use style="fill:none;stroke:#008000;" x="0.0" xlink:href="#C0_29_9212adbf2c" y="216.0"/>
    </g>
    <g clip-path="url(#pb44108de42)">
     <use style="fill:none;stroke:#008000;" x="0.0" xlink:href="#C0_2a_561e6da43f" y="216.0"/>
    </g>
    <g clip-path="url(#pb44108de42)">
     <use style="fill:none;stroke:#008000;" x="0.0" xlink:href="#C0_2b_be016e14a9" y="216.0"/>
    </g>
    <g clip-path="url(#pb44108de42)">
     <use style="fill:none;stroke:#008000;" x="0.0" xlink:href="#C0_2c_7a395e1cb8" y="216.0"/>
    </g>
    <g clip-path="url(#pb44108de42)">
     <use style="fill:none;stroke:#008000;" x="0.0" xlink:href="#C0_2d_0458ff07a3" y="216.0"/>
    </g>
    <g clip-path="url(#pb44108de42)">
     <use style="fill:none;stroke:#008000;" x="0.0" xlink:href="#C0_2e_47fa20cd4c" y="216.0"/>
    </g>
    <g clip-path="url(#pb44108de42)">
     <use style="fill:none;stroke:#008000;" x="0.0" xlink:href="#C0_2f_2b90761ebe" y="216.0"/>
    </g>
    <g clip-path="url(#pb44108de42)">
     <use style="fill:none;stroke:#008000;" x="0.0" xlink:href="#C0_30_5ef3b15de5" y="216.0"/>
    </g>
    <g clip-path="url(#pb44108de42)">
     <use style="fill:none;stroke:#008000;" x="0.0" xlink:href="#C0_31_cf32e9a452" y="216.0"/>
    </g>
    <g clip-path="url(#pb44108de42)">
     <use style="fill:none;stroke:#008000;" x="0.0" xlink:href="#C0_32_5de3bbad2c" y="216.0"/>
    </g>
    <g clip-path="url(#pb44108de42)">
     <use style="fill:none;stroke:#008000;" x="0.0" xlink:href="#C0_33_86f489d495" y="216.0"/>
    </g>
    <g clip-path="url(#pb44108de42)">
     <use style="fill:none;stroke:#008000;" x="0.0" xlink:href="#C0_34_10088591e6" y="216.0"/>
    </g>
    <g clip-path="url(#pb44108de42)">
     <use style="fill:none;stroke:#008000;" x="0.0" xlink:href="#C0_35_ff9596c033" y="216.0"/>
    </g>
    <g clip-path="url(#pb44108de42)">
     <use style="fill:none;stroke:#008000;" x="0.0" xlink:href="#C0_36_44e10d3a8d" y="216.0"/>
    </g>
    <g clip-path="url(#pb44108de42)">
     <use style="fill:none;stroke:#008000;" x="0.0" xlink:href="#C0_37_0fe0fa7dd2" y="216.0"/>
    </g>
   </g>
   <g id="matplotlib.axis_1">
    <g id="xtick_1">
     <g id="text_1">
      <!-- 7ahl -->
      <defs>
       <path d="
M34.2812 27.4844
Q23.3906 27.4844 19.1875 25
Q14.9844 22.5156 14.9844 16.5
Q14.9844 11.7188 18.1406 8.90625
Q21.2969 6.10938 26.7031 6.10938
Q34.1875 6.10938 38.7031 11.4062
Q43.2188 16.7031 43.2188 25.4844
L43.2188 27.4844
z

M52.2031 31.2031
L52.2031 0
L43.2188 0
L43.2188 8.29688
Q40.1406 3.32812 35.5469 0.953125
Q30.9531 -1.42188 24.3125 -1.42188
Q15.9219 -1.42188 10.9531 3.29688
Q6 8.01562 6 15.9219
Q6 25.1406 12.1719 29.8281
Q18.3594 34.5156 30.6094 34.5156
L43.2188 34.5156
L43.2188 35.4062
Q43.2188 41.6094 39.1406 45
Q35.0625 48.3906 27.6875 48.3906
Q23 48.3906 18.5469 47.2656
Q14.1094 46.1406 10.0156 43.8906
L10.0156 52.2031
Q14.9375 54.1094 19.5781 55.0469
Q24.2188 56 28.6094 56
Q40.4844 56 46.3438 49.8438
Q52.2031 43.7031 52.2031 31.2031" id="BitstreamVeraSans-Roman-61"/>
       <path d="
M8.20312 72.9062
L55.0781 72.9062
L55.0781 68.7031
L28.6094 0
L18.3125 0
L43.2188 64.5938
L8.20312 64.5938
z
" id="BitstreamVeraSans-Roman-37"/>
       <path d="
M9.42188 75.9844
L18.4062 75.9844
L18.4062 0
L9.42188 0
z
" id="BitstreamVeraSans-Roman-6c"/>
       <path d="
M54.8906 33.0156
L54.8906 0
L45.9062 0
L45.9062 32.7188
Q45.9062 40.4844 42.875 44.3281
Q39.8438 48.1875 33.7969 48.1875
Q26.5156 48.1875 22.3125 43.5469
Q18.1094 38.9219 18.1094 30.9062
L18.1094 0
L9.07812 0
L9.07812 75.9844
L18.1094 75.9844
L18.1094 46.1875
Q21.3438 51.125 25.7031 53.5625
Q30.0781 56 35.7969 56
Q45.2188 56 50.0469 50.1719
Q54.8906 44.3438 54.8906 33.0156" id="BitstreamVeraSans-Roman-68"/>
      </defs>
      <g transform="translate(88.7751459894 189.856461097)rotate(-70.0)scale(0.2 -0.2)">
       <use xlink:href="#BitstreamVeraSans-Roman-37"/>
       <use x="63.623046875" xlink:href="#BitstreamVeraSans-Roman-61"/>
       <use x="124.90234375" xlink:href="#BitstreamVeraSans-Roman-68"/>
       <use x="188.28125" xlink:href="#BitstreamVeraSans-Roman-6c"/>
      </g>
     </g>
    </g>
    <g id="xtick_2">
     <g id="text_2">
      <!-- 3o44 -->
      <defs>
       <path d="
M40.5781 39.3125
Q47.6562 37.7969 51.625 33
Q55.6094 28.2188 55.6094 21.1875
Q55.6094 10.4062 48.1875 4.48438
Q40.7656 -1.42188 27.0938 -1.42188
Q22.5156 -1.42188 17.6562 -0.515625
Q12.7969 0.390625 7.625 2.20312
L7.625 11.7188
Q11.7188 9.32812 16.5938 8.10938
Q21.4844 6.89062 26.8125 6.89062
Q36.0781 6.89062 40.9375 10.5469
Q45.7969 14.2031 45.7969 21.1875
Q45.7969 27.6406 41.2812 31.2656
Q36.7656 34.9062 28.7188 34.9062
L20.2188 34.9062
L20.2188 43.0156
L29.1094 43.0156
Q36.375 43.0156 40.2344 45.9219
Q44.0938 48.8281 44.0938 54.2969
Q44.0938 59.9062 40.1094 62.9062
Q36.1406 65.9219 28.7188 65.9219
Q24.6562 65.9219 20.0156 65.0312
Q15.375 64.1562 9.8125 62.3125
L9.8125 71.0938
Q15.4375 72.6562 20.3438 73.4375
Q25.25 74.2188 29.5938 74.2188
Q40.8281 74.2188 47.3594 69.1094
Q53.9062 64.0156 53.9062 55.3281
Q53.9062 49.2656 50.4375 45.0938
Q46.9688 40.9219 40.5781 39.3125" id="BitstreamVeraSans-Roman-33"/>
       <path d="
M30.6094 48.3906
Q23.3906 48.3906 19.1875 42.75
Q14.9844 37.1094 14.9844 27.2969
Q14.9844 17.4844 19.1562 11.8438
Q23.3438 6.20312 30.6094 6.20312
Q37.7969 6.20312 41.9844 11.8594
Q46.1875 17.5312 46.1875 27.2969
Q46.1875 37.0156 41.9844 42.7031
Q37.7969 48.3906 30.6094 48.3906
M30.6094 56
Q42.3281 56 49.0156 48.375
Q55.7188 40.7656 55.7188 27.2969
Q55.7188 13.875 49.0156 6.21875
Q42.3281 -1.42188 30.6094 -1.42188
Q18.8438 -1.42188 12.1719 6.21875
Q5.51562 13.875 5.51562 27.2969
Q5.51562 40.7656 12.1719 48.375
Q18.8438 56 30.6094 56" id="BitstreamVeraSans-Roman-6f"/>
       <path d="
M37.7969 64.3125
L12.8906 25.3906
L37.7969 25.3906
z

M35.2031 72.9062
L47.6094 72.9062
L47.6094 25.3906
L58.0156 25.3906
L58.0156 17.1875
L47.6094 17.1875
L47.6094 0
L37.7969 0
L37.7969 17.1875
L4.89062 17.1875
L4.89062 26.7031
z
" id="BitstreamVeraSans-Roman-34"/>
      </defs>
      <g transform="translate(104.530874028 197.438605931)rotate(-70.0)scale(0.2 -0.2)">
       <use xlink:href="#BitstreamVeraSans-Roman-33"/>
       <use x="63.623046875" xlink:href="#BitstreamVeraSans-Roman-6f"/>
       <use x="124.8046875" xlink:href="#BitstreamVeraSans-Roman-34"/>
       <use x="188.427734375" xlink:href="#BitstreamVeraSans-Roman-34"/>
      </g>
     </g>
    </g>
    <g id="xtick_3">
     <g id="text_3">
      <!-- 2lme -->
      <defs>
       <path d="
M19.1875 8.29688
L53.6094 8.29688
L53.6094 0
L7.32812 0
L7.32812 8.29688
Q12.9375 14.1094 22.625 23.8906
Q32.3281 33.6875 34.8125 36.5312
Q39.5469 41.8438 41.4219 45.5312
Q43.3125 49.2188 43.3125 52.7812
Q43.3125 58.5938 39.2344 62.25
Q35.1562 65.9219 28.6094 65.9219
Q23.9688 65.9219 18.8125 64.3125
Q13.6719 62.7031 7.8125 59.4219
L7.8125 69.3906
Q13.7656 71.7812 18.9375 73
Q24.125 74.2188 28.4219 74.2188
Q39.75 74.2188 46.4844 68.5469
Q53.2188 62.8906 53.2188 53.4219
Q53.2188 48.9219 51.5312 44.8906
Q49.8594 40.875 45.4062 35.4062
Q44.1875 33.9844 37.6406 27.2188
Q31.1094 20.4531 19.1875 8.29688" id="BitstreamVeraSans-Roman-32"/>
       <path d="
M52 44.1875
Q55.375 50.25 60.0625 53.125
Q64.75 56 71.0938 56
Q79.6406 56 84.2812 50.0156
Q88.9219 44.0469 88.9219 33.0156
L88.9219 0
L79.8906 0
L79.8906 32.7188
Q79.8906 40.5781 77.0938 44.375
Q74.3125 48.1875 68.6094 48.1875
Q61.625 48.1875 57.5625 43.5469
Q53.5156 38.9219 53.5156 30.9062
L53.5156 0
L44.4844 0
L44.4844 32.7188
Q44.4844 40.625 41.7031 44.4062
Q38.9219 48.1875 33.1094 48.1875
Q26.2188 48.1875 22.1562 43.5312
Q18.1094 38.875 18.1094 30.9062
L18.1094 0
L9.07812 0
L9.07812 54.6875
L18.1094 54.6875
L18.1094 46.1875
Q21.1875 51.2188 25.4844 53.6094
Q29.7812 56 35.6875 56
Q41.6562 56 45.8281 52.9688
Q50 49.9531 52 44.1875" id="BitstreamVeraSans-Roman-6d"/>
       <path d="
M56.2031 29.5938
L56.2031 25.2031
L14.8906 25.2031
Q15.4844 15.9219 20.4844 11.0625
Q25.4844 6.20312 34.4219 6.20312
Q39.5938 6.20312 44.4531 7.46875
Q49.3125 8.73438 54.1094 11.2812
L54.1094 2.78125
Q49.2656 0.734375 44.1875 -0.34375
Q39.1094 -1.42188 33.8906 -1.42188
Q20.7969 -1.42188 13.1562 6.1875
Q5.51562 13.8125 5.51562 26.8125
Q5.51562 40.2344 12.7656 48.1094
Q20.0156 56 32.3281 56
Q43.3594 56 49.7812 48.8906
Q56.2031 41.7969 56.2031 29.5938
M47.2188 32.2344
Q47.125 39.5938 43.0938 43.9844
Q39.0625 48.3906 32.4219 48.3906
Q24.9062 48.3906 20.3906 44.1406
Q15.875 39.8906 15.1875 32.1719
z
" id="BitstreamVeraSans-Roman-65"/>
      </defs>
      <g transform="translate(121.705451254 197.224238552)rotate(-70.0)scale(0.2 -0.2)">
       <use xlink:href="#BitstreamVeraSans-Roman-32"/>
       <use x="63.623046875" xlink:href="#BitstreamVeraSans-Roman-6c"/>
       <use x="91.40625" xlink:href="#BitstreamVeraSans-Roman-6d"/>
       <use x="188.818359375" xlink:href="#BitstreamVeraSans-Roman-65"/>
      </g>
     </g>
    </g>
    <g id="xtick_4">
     <g id="text_4">
      <!-- 1thq -->
      <defs>
       <path d="
M18.3125 70.2188
L18.3125 54.6875
L36.8125 54.6875
L36.8125 47.7031
L18.3125 47.7031
L18.3125 18.0156
Q18.3125 11.3281 20.1406 9.42188
Q21.9688 7.51562 27.5938 7.51562
L36.8125 7.51562
L36.8125 0
L27.5938 0
Q17.1875 0 13.2344 3.875
Q9.28125 7.76562 9.28125 18.0156
L9.28125 47.7031
L2.6875 47.7031
L2.6875 54.6875
L9.28125 54.6875
L9.28125 70.2188
z
" id="BitstreamVeraSans-Roman-74"/>
       <path d="
M12.4062 8.29688
L28.5156 8.29688
L28.5156 63.9219
L10.9844 60.4062
L10.9844 69.3906
L28.4219 72.9062
L38.2812 72.9062
L38.2812 8.29688
L54.3906 8.29688
L54.3906 0
L12.4062 0
z
" id="BitstreamVeraSans-Roman-31"/>
       <path d="
M14.7969 27.2969
Q14.7969 17.3906 18.875 11.75
Q22.9531 6.10938 30.0781 6.10938
Q37.2031 6.10938 41.2969 11.75
Q45.4062 17.3906 45.4062 27.2969
Q45.4062 37.2031 41.2969 42.8438
Q37.2031 48.4844 30.0781 48.4844
Q22.9531 48.4844 18.875 42.8438
Q14.7969 37.2031 14.7969 27.2969
M45.4062 8.20312
Q42.5781 3.32812 38.25 0.953125
Q33.9375 -1.42188 27.875 -1.42188
Q17.9688 -1.42188 11.7344 6.48438
Q5.51562 14.4062 5.51562 27.2969
Q5.51562 40.1875 11.7344 48.0938
Q17.9688 56 27.875 56
Q33.9375 56 38.25 53.625
Q42.5781 51.2656 45.4062 46.3906
L45.4062 54.6875
L54.3906 54.6875
L54.3906 -20.7969
L45.4062 -20.7969
z
" id="BitstreamVeraSans-Roman-71"/>
      </defs>
      <g transform="translate(139.801345242 191.947277178)rotate(-70.0)scale(0.2 -0.2)">
       <use xlink:href="#BitstreamVeraSans-Roman-31"/>
       <use x="63.623046875" xlink:href="#BitstreamVeraSans-Roman-74"/>
       <use x="102.83203125" xlink:href="#BitstreamVeraSans-Roman-68"/>
       <use x="166.2109375" xlink:href="#BitstreamVeraSans-Roman-71"/>
      </g>
     </g>
    </g>
    <g id="xtick_5">
     <g id="text_5">
      <!-- 1qj8 -->
      <defs>
       <path d="
M31.7812 34.625
Q24.75 34.625 20.7188 30.8594
Q16.7031 27.0938 16.7031 20.5156
Q16.7031 13.9219 20.7188 10.1562
Q24.75 6.39062 31.7812 6.39062
Q38.8125 6.39062 42.8594 10.1719
Q46.9219 13.9688 46.9219 20.5156
Q46.9219 27.0938 42.8906 30.8594
Q38.875 34.625 31.7812 34.625
M21.9219 38.8125
Q15.5781 40.375 12.0312 44.7188
Q8.5 49.0781 8.5 55.3281
Q8.5 64.0625 14.7188 69.1406
Q20.9531 74.2188 31.7812 74.2188
Q42.6719 74.2188 48.875 69.1406
Q55.0781 64.0625 55.0781 55.3281
Q55.0781 49.0781 51.5312 44.7188
Q48 40.375 41.7031 38.8125
Q48.8281 37.1562 52.7969 32.3125
Q56.7812 27.4844 56.7812 20.5156
Q56.7812 9.90625 50.3125 4.23438
Q43.8438 -1.42188 31.7812 -1.42188
Q19.7344 -1.42188 13.25 4.23438
Q6.78125 9.90625 6.78125 20.5156
Q6.78125 27.4844 10.7812 32.3125
Q14.7969 37.1562 21.9219 38.8125
M18.3125 54.3906
Q18.3125 48.7344 21.8438 45.5625
Q25.3906 42.3906 31.7812 42.3906
Q38.1406 42.3906 41.7188 45.5625
Q45.3125 48.7344 45.3125 54.3906
Q45.3125 60.0625 41.7188 63.2344
Q38.1406 66.4062 31.7812 66.4062
Q25.3906 66.4062 21.8438 63.2344
Q18.3125 60.0625 18.3125 54.3906" id="BitstreamVeraSans-Roman-38"/>
       <path d="
M9.42188 54.6875
L18.4062 54.6875
L18.4062 -0.984375
Q18.4062 -11.4219 14.4219 -16.1094
Q10.4531 -20.7969 1.60938 -20.7969
L-1.8125 -20.7969
L-1.8125 -13.1875
L0.59375 -13.1875
Q5.71875 -13.1875 7.5625 -10.8125
Q9.42188 -8.45312 9.42188 -0.984375
z

M9.42188 75.9844
L18.4062 75.9844
L18.4062 64.5938
L9.42188 64.5938
z
" id="BitstreamVeraSans-Roman-6a"/>
      </defs>
      <g transform="translate(157.242056893 190.270513158)rotate(-70.0)scale(0.2 -0.2)">
       <use xlink:href="#BitstreamVeraSans-Roman-31"/>
       <use x="63.623046875" xlink:href="#BitstreamVeraSans-Roman-71"/>
       <use x="127.099609375" xlink:href="#BitstreamVeraSans-Roman-6a"/>
       <use x="154.8828125" xlink:href="#BitstreamVeraSans-Roman-38"/>
      </g>
     </g>
    </g>
    <g id="xtick_6">
     <g id="text_6">
      <!-- 1i78 -->
      <defs>
       <path d="
M9.42188 54.6875
L18.4062 54.6875
L18.4062 0
L9.42188 0
z

M9.42188 75.9844
L18.4062 75.9844
L18.4062 64.5938
L9.42188 64.5938
z
" id="BitstreamVeraSans-Roman-69"/>
      </defs>
      <g transform="translate(174.372812789 190.296942013)rotate(-70.0)scale(0.2 -0.2)">
       <use xlink:href="#BitstreamVeraSans-Roman-31"/>
       <use x="63.623046875" xlink:href="#BitstreamVeraSans-Roman-69"/>
       <use x="91.40625" xlink:href="#BitstreamVeraSans-Roman-37"/>
       <use x="155.029296875" xlink:href="#BitstreamVeraSans-Roman-38"/>
      </g>
     </g>
    </g>
    <g id="xtick_7">
     <g id="text_7">
      <!-- 1e54 -->
      <defs>
       <path d="
M10.7969 72.9062
L49.5156 72.9062
L49.5156 64.5938
L19.8281 64.5938
L19.8281 46.7344
Q21.9688 47.4688 24.1094 47.8281
Q26.2656 48.1875 28.4219 48.1875
Q40.625 48.1875 47.75 41.5
Q54.8906 34.8125 54.8906 23.3906
Q54.8906 11.625 47.5625 5.09375
Q40.2344 -1.42188 26.9062 -1.42188
Q22.3125 -1.42188 17.5469 -0.640625
Q12.7969 0.140625 7.71875 1.70312
L7.71875 11.625
Q12.1094 9.23438 16.7969 8.0625
Q21.4844 6.89062 26.7031 6.89062
Q35.1562 6.89062 40.0781 11.3281
Q45.0156 15.7656 45.0156 23.3906
Q45.0156 31 40.0781 35.4375
Q35.1562 39.8906 26.7031 39.8906
Q22.75 39.8906 18.8125 39.0156
Q14.8906 38.1406 10.7969 36.2812
z
" id="BitstreamVeraSans-Roman-35"/>
      </defs>
      <g transform="translate(190.311842247 196.871853819)rotate(-70.0)scale(0.2 -0.2)">
       <use xlink:href="#BitstreamVeraSans-Roman-31"/>
       <use x="63.623046875" xlink:href="#BitstreamVeraSans-Roman-65"/>
       <use x="125.146484375" xlink:href="#BitstreamVeraSans-Roman-35"/>
       <use x="188.76953125" xlink:href="#BitstreamVeraSans-Roman-34"/>
      </g>
     </g>
    </g>
    <g id="xtick_8">
     <g id="text_8">
      <!-- 2o4v -->
      <defs>
       <path d="
M2.98438 54.6875
L12.5 54.6875
L29.5938 8.79688
L46.6875 54.6875
L56.2031 54.6875
L35.6875 0
L23.4844 0
z
" id="BitstreamVeraSans-Roman-76"/>
      </defs>
      <g transform="translate(207.39610478 197.153761605)rotate(-70.0)scale(0.2 -0.2)">
       <use xlink:href="#BitstreamVeraSans-Roman-32"/>
       <use x="63.623046875" xlink:href="#BitstreamVeraSans-Roman-6f"/>
       <use x="124.8046875" xlink:href="#BitstreamVeraSans-Roman-34"/>
       <use x="188.427734375" xlink:href="#BitstreamVeraSans-Roman-76"/>
      </g>
     </g>
    </g>
    <g id="xtick_9">
     <g id="text_9">
      <!-- 2mpr -->
      <defs>
       <path d="
M41.1094 46.2969
Q39.5938 47.1719 37.8125 47.5781
Q36.0312 48 33.8906 48
Q26.2656 48 22.1875 43.0469
Q18.1094 38.0938 18.1094 28.8125
L18.1094 0
L9.07812 0
L9.07812 54.6875
L18.1094 54.6875
L18.1094 46.1875
Q20.9531 51.1719 25.4844 53.5781
Q30.0312 56 36.5312 56
Q37.4531 56 38.5781 55.875
Q39.7031 55.7656 41.0625 55.5156
z
" id="BitstreamVeraSans-Roman-72"/>
       <path d="
M18.1094 8.20312
L18.1094 -20.7969
L9.07812 -20.7969
L9.07812 54.6875
L18.1094 54.6875
L18.1094 46.3906
Q20.9531 51.2656 25.2656 53.625
Q29.5938 56 35.5938 56
Q45.5625 56 51.7812 48.0938
Q58.0156 40.1875 58.0156 27.2969
Q58.0156 14.4062 51.7812 6.48438
Q45.5625 -1.42188 35.5938 -1.42188
Q29.5938 -1.42188 25.2656 0.953125
Q20.9531 3.32812 18.1094 8.20312
M48.6875 27.2969
Q48.6875 37.2031 44.6094 42.8438
Q40.5312 48.4844 33.4062 48.4844
Q26.2656 48.4844 22.1875 42.8438
Q18.1094 37.2031 18.1094 27.2969
Q18.1094 17.3906 22.1875 11.75
Q26.2656 6.10938 33.4062 6.10938
Q40.5312 6.10938 44.6094 11.75
Q48.6875 17.3906 48.6875 27.2969" id="BitstreamVeraSans-Roman-70"/>
      </defs>
      <g transform="translate(223.813962439 201.097534073)rotate(-70.0)scale(0.2 -0.2)">
       <use xlink:href="#BitstreamVeraSans-Roman-32"/>
       <use x="63.623046875" xlink:href="#BitstreamVeraSans-Roman-6d"/>
       <use x="161.03515625" xlink:href="#BitstreamVeraSans-Roman-70"/>
       <use x="224.51171875" xlink:href="#BitstreamVeraSans-Roman-72"/>
      </g>
     </g>
    </g>
    <g id="xtick_10">
     <g id="text_10">
      <!-- 1fep -->
      <defs>
       <path d="
M37.1094 75.9844
L37.1094 68.5
L28.5156 68.5
Q23.6875 68.5 21.7969 66.5469
Q19.9219 64.5938 19.9219 59.5156
L19.9219 54.6875
L34.7188 54.6875
L34.7188 47.7031
L19.9219 47.7031
L19.9219 0
L10.8906 0
L10.8906 47.7031
L2.29688 47.7031
L2.29688 54.6875
L10.8906 54.6875
L10.8906 58.5
Q10.8906 67.625 15.1406 71.7969
Q19.3906 75.9844 28.6094 75.9844
z
" id="BitstreamVeraSans-Roman-66"/>
      </defs>
      <g transform="translate(242.690624286 191.530288578)rotate(-70.0)scale(0.2 -0.2)">
       <use xlink:href="#BitstreamVeraSans-Roman-31"/>
       <use x="63.623046875" xlink:href="#BitstreamVeraSans-Roman-66"/>
       <use x="98.828125" xlink:href="#BitstreamVeraSans-Roman-65"/>
       <use x="160.3515625" xlink:href="#BitstreamVeraSans-Roman-70"/>
      </g>
     </g>
    </g>
    <g id="xtick_11">
     <g id="text_11">
      <!-- 1ek9 -->
      <defs>
       <path d="
M10.9844 1.51562
L10.9844 10.5
Q14.7031 8.73438 18.5 7.8125
Q22.3125 6.89062 25.9844 6.89062
Q35.75 6.89062 40.8906 13.4531
Q46.0469 20.0156 46.7812 33.4062
Q43.9531 29.2031 39.5938 26.9531
Q35.25 24.7031 29.9844 24.7031
Q19.0469 24.7031 12.6719 31.3125
Q6.29688 37.9375 6.29688 49.4219
Q6.29688 60.6406 12.9375 67.4219
Q19.5781 74.2188 30.6094 74.2188
Q43.2656 74.2188 49.9219 64.5156
Q56.5938 54.8281 56.5938 36.375
Q56.5938 19.1406 48.4062 8.85938
Q40.2344 -1.42188 26.4219 -1.42188
Q22.7031 -1.42188 18.8906 -0.6875
Q15.0938 0.046875 10.9844 1.51562
M30.6094 32.4219
Q37.25 32.4219 41.125 36.9531
Q45.0156 41.5 45.0156 49.4219
Q45.0156 57.2812 41.125 61.8438
Q37.25 66.4062 30.6094 66.4062
Q23.9688 66.4062 20.0938 61.8438
Q16.2188 57.2812 16.2188 49.4219
Q16.2188 41.5 20.0938 36.9531
Q23.9688 32.4219 30.6094 32.4219" id="BitstreamVeraSans-Roman-39"/>
       <path d="
M9.07812 75.9844
L18.1094 75.9844
L18.1094 31.1094
L44.9219 54.6875
L56.3906 54.6875
L27.3906 29.1094
L57.625 0
L45.9062 0
L18.1094 26.7031
L18.1094 0
L9.07812 0
z
" id="BitstreamVeraSans-Roman-6b"/>
      </defs>
      <g transform="translate(259.098328222 195.529855295)rotate(-70.0)scale(0.2 -0.2)">
       <use xlink:href="#BitstreamVeraSans-Roman-31"/>
       <use x="63.623046875" xlink:href="#BitstreamVeraSans-Roman-65"/>
       <use x="125.146484375" xlink:href="#BitstreamVeraSans-Roman-6b"/>
       <use x="183.056640625" xlink:href="#BitstreamVeraSans-Roman-39"/>
      </g>
     </g>
    </g>
    <g id="xtick_12">
     <g id="text_12">
      <!-- 3pik -->
      <g transform="translate(277.04726043 191.060442268)rotate(-70.0)scale(0.2 -0.2)">
       <use xlink:href="#BitstreamVeraSans-Roman-33"/>
       <use x="63.623046875" xlink:href="#BitstreamVeraSans-Roman-70"/>
       <use x="127.099609375" xlink:href="#BitstreamVeraSans-Roman-69"/>
       <use x="154.8828125" xlink:href="#BitstreamVeraSans-Roman-6b"/>
      </g>
     </g>
    </g>
    <g id="xtick_13">
     <g id="text_13">
      <!-- 1uyn -->
      <defs>
       <path d="
M54.8906 33.0156
L54.8906 0
L45.9062 0
L45.9062 32.7188
Q45.9062 40.4844 42.875 44.3281
Q39.8438 48.1875 33.7969 48.1875
Q26.5156 48.1875 22.3125 43.5469
Q18.1094 38.9219 18.1094 30.9062
L18.1094 0
L9.07812 0
L9.07812 54.6875
L18.1094 54.6875
L18.1094 46.1875
Q21.3438 51.125 25.7031 53.5625
Q30.0781 56 35.7969 56
Q45.2188 56 50.0469 50.1719
Q54.8906 44.3438 54.8906 33.0156" id="BitstreamVeraSans-Roman-6e"/>
       <path d="
M8.5 21.5781
L8.5 54.6875
L17.4844 54.6875
L17.4844 21.9219
Q17.4844 14.1562 20.5 10.2656
Q23.5312 6.39062 29.5938 6.39062
Q36.8594 6.39062 41.0781 11.0312
Q45.3125 15.6719 45.3125 23.6875
L45.3125 54.6875
L54.2969 54.6875
L54.2969 0
L45.3125 0
L45.3125 8.40625
Q42.0469 3.42188 37.7188 1
Q33.4062 -1.42188 27.6875 -1.42188
Q18.2656 -1.42188 13.375 4.4375
Q8.5 10.2969 8.5 21.5781" id="BitstreamVeraSans-Roman-75"/>
       <path d="
M32.1719 -5.07812
Q28.375 -14.8438 24.75 -17.8125
Q21.1406 -20.7969 15.0938 -20.7969
L7.90625 -20.7969
L7.90625 -13.2812
L13.1875 -13.2812
Q16.8906 -13.2812 18.9375 -11.5156
Q21 -9.76562 23.4844 -3.21875
L25.0938 0.875
L2.98438 54.6875
L12.5 54.6875
L29.5938 11.9219
L46.6875 54.6875
L56.2031 54.6875
z
" id="BitstreamVeraSans-Roman-79"/>
      </defs>
      <g transform="translate(293.320828341 195.797080384)rotate(-70.0)scale(0.2 -0.2)">
       <use xlink:href="#BitstreamVeraSans-Roman-31"/>
       <use x="63.623046875" xlink:href="#BitstreamVeraSans-Roman-75"/>
       <use x="127.001953125" xlink:href="#BitstreamVeraSans-Roman-79"/>
       <use x="186.181640625" xlink:href="#BitstreamVeraSans-Roman-6e"/>
      </g>
     </g>
    </g>
    <g id="xtick_14">
     <g id="text_14">
      <!-- 3csl -->
      <defs>
       <path d="
M44.2812 53.0781
L44.2812 44.5781
Q40.4844 46.5312 36.375 47.5
Q32.2812 48.4844 27.875 48.4844
Q21.1875 48.4844 17.8438 46.4375
Q14.5 44.3906 14.5 40.2812
Q14.5 37.1562 16.8906 35.375
Q19.2812 33.5938 26.5156 31.9844
L29.5938 31.2969
Q39.1562 29.25 43.1875 25.5156
Q47.2188 21.7812 47.2188 15.0938
Q47.2188 7.46875 41.1875 3.01562
Q35.1562 -1.42188 24.6094 -1.42188
Q20.2188 -1.42188 15.4531 -0.5625
Q10.6875 0.296875 5.42188 2
L5.42188 11.2812
Q10.4062 8.6875 15.2344 7.39062
Q20.0625 6.10938 24.8125 6.10938
Q31.1562 6.10938 34.5625 8.28125
Q37.9844 10.4531 37.9844 14.4062
Q37.9844 18.0625 35.5156 20.0156
Q33.0625 21.9688 24.7031 23.7812
L21.5781 24.5156
Q13.2344 26.2656 9.51562 29.9062
Q5.8125 33.5469 5.8125 39.8906
Q5.8125 47.6094 11.2812 51.7969
Q16.75 56 26.8125 56
Q31.7812 56 36.1719 55.2656
Q40.5781 54.5469 44.2812 53.0781" id="BitstreamVeraSans-Roman-73"/>
       <path d="
M48.7812 52.5938
L48.7812 44.1875
Q44.9688 46.2969 41.1406 47.3438
Q37.3125 48.3906 33.4062 48.3906
Q24.6562 48.3906 19.8125 42.8438
Q14.9844 37.3125 14.9844 27.2969
Q14.9844 17.2812 19.8125 11.7344
Q24.6562 6.20312 33.4062 6.20312
Q37.3125 6.20312 41.1406 7.25
Q44.9688 8.29688 48.7812 10.4062
L48.7812 2.09375
Q45.0156 0.34375 40.9844 -0.53125
Q36.9688 -1.42188 32.4219 -1.42188
Q20.0625 -1.42188 12.7812 6.34375
Q5.51562 14.1094 5.51562 27.2969
Q5.51562 40.6719 12.8594 48.3281
Q20.2188 56 33.0156 56
Q37.1562 56 41.1094 55.1406
Q45.0625 54.2969 48.7812 52.5938" id="BitstreamVeraSans-Roman-63"/>
      </defs>
      <g transform="translate(312.118932436 186.661506187)rotate(-70.0)scale(0.2 -0.2)">
       <use xlink:href="#BitstreamVeraSans-Roman-33"/>
       <use x="63.623046875" xlink:href="#BitstreamVeraSans-Roman-63"/>
       <use x="118.603515625" xlink:href="#BitstreamVeraSans-Roman-73"/>
       <use x="170.703125" xlink:href="#BitstreamVeraSans-Roman-6c"/>
      </g>
     </g>
    </g>
    <g id="xtick_15">
     <g id="text_15">
      <!-- 1kmo -->
      <g transform="translate(326.443519937 202.107703641)rotate(-70.0)scale(0.2 -0.2)">
       <use xlink:href="#BitstreamVeraSans-Roman-31"/>
       <use x="63.623046875" xlink:href="#BitstreamVeraSans-Roman-6b"/>
       <use x="121.533203125" xlink:href="#BitstreamVeraSans-Roman-6d"/>
       <use x="218.9453125" xlink:href="#BitstreamVeraSans-Roman-6f"/>
      </g>
     </g>
    </g>
    <g id="xtick_16">
     <g id="text_16">
      <!-- 1t16 -->
      <defs>
       <path d="
M33.0156 40.375
Q26.375 40.375 22.4844 35.8281
Q18.6094 31.2969 18.6094 23.3906
Q18.6094 15.5312 22.4844 10.9531
Q26.375 6.39062 33.0156 6.39062
Q39.6562 6.39062 43.5312 10.9531
Q47.4062 15.5312 47.4062 23.3906
Q47.4062 31.2969 43.5312 35.8281
Q39.6562 40.375 33.0156 40.375
M52.5938 71.2969
L52.5938 62.3125
Q48.875 64.0625 45.0938 64.9844
Q41.3125 65.9219 37.5938 65.9219
Q27.8281 65.9219 22.6719 59.3281
Q17.5312 52.7344 16.7969 39.4062
Q19.6719 43.6562 24.0156 45.9219
Q28.375 48.1875 33.5938 48.1875
Q44.5781 48.1875 50.9531 41.5156
Q57.3281 34.8594 57.3281 23.3906
Q57.3281 12.1562 50.6875 5.35938
Q44.0469 -1.42188 33.0156 -1.42188
Q20.3594 -1.42188 13.6719 8.26562
Q6.98438 17.9688 6.98438 36.375
Q6.98438 53.6562 15.1875 63.9375
Q23.3906 74.2188 37.2031 74.2188
Q40.9219 74.2188 44.7031 73.4844
Q48.4844 72.75 52.5938 71.2969" id="BitstreamVeraSans-Roman-36"/>
      </defs>
      <g transform="translate(345.31911297 192.546331224)rotate(-70.0)scale(0.2 -0.2)">
       <use xlink:href="#BitstreamVeraSans-Roman-31"/>
       <use x="63.623046875" xlink:href="#BitstreamVeraSans-Roman-74"/>
       <use x="102.83203125" xlink:href="#BitstreamVeraSans-Roman-31"/>
       <use x="166.455078125" xlink:href="#BitstreamVeraSans-Roman-36"/>
      </g>
     </g>
    </g>
    <g id="xtick_17">
     <g id="text_17">
      <!-- 3dwo -->
      <defs>
       <path d="
M45.4062 46.3906
L45.4062 75.9844
L54.3906 75.9844
L54.3906 0
L45.4062 0
L45.4062 8.20312
Q42.5781 3.32812 38.25 0.953125
Q33.9375 -1.42188 27.875 -1.42188
Q17.9688 -1.42188 11.7344 6.48438
Q5.51562 14.4062 5.51562 27.2969
Q5.51562 40.1875 11.7344 48.0938
Q17.9688 56 27.875 56
Q33.9375 56 38.25 53.625
Q42.5781 51.2656 45.4062 46.3906
M14.7969 27.2969
Q14.7969 17.3906 18.875 11.75
Q22.9531 6.10938 30.0781 6.10938
Q37.2031 6.10938 41.2969 11.75
Q45.4062 17.3906 45.4062 27.2969
Q45.4062 37.2031 41.2969 42.8438
Q37.2031 48.4844 30.0781 48.4844
Q22.9531 48.4844 18.875 42.8438
Q14.7969 37.2031 14.7969 27.2969" id="BitstreamVeraSans-Roman-64"/>
       <path d="
M4.20312 54.6875
L13.1875 54.6875
L24.4219 12.0156
L35.5938 54.6875
L46.1875 54.6875
L57.4219 12.0156
L68.6094 54.6875
L77.5938 54.6875
L63.2812 0
L52.6875 0
L40.9219 44.8281
L29.1094 0
L18.5 0
z
" id="BitstreamVeraSans-Roman-77"/>
      </defs>
      <g transform="translate(360.943377016 200.85086476)rotate(-70.0)scale(0.2 -0.2)">
       <use xlink:href="#BitstreamVeraSans-Roman-33"/>
       <use x="63.623046875" xlink:href="#BitstreamVeraSans-Roman-64"/>
       <use x="127.099609375" xlink:href="#BitstreamVeraSans-Roman-77"/>
       <use x="208.88671875" xlink:href="#BitstreamVeraSans-Roman-6f"/>
      </g>
     </g>
    </g>
    <g id="xtick_18">
     <g id="text_18">
      <!-- 1qd6 -->
      <g transform="translate(378.764586076 197.083284659)rotate(-70.0)scale(0.2 -0.2)">
       <use xlink:href="#BitstreamVeraSans-Roman-31"/>
       <use x="63.623046875" xlink:href="#BitstreamVeraSans-Roman-71"/>
       <use x="127.099609375" xlink:href="#BitstreamVeraSans-Roman-64"/>
       <use x="190.576171875" xlink:href="#BitstreamVeraSans-Roman-36"/>
      </g>
     </g>
    </g>
    <g id="xtick_19">
     <g id="text_19">
      <!-- 1k24 -->
      <g transform="translate(396.062611198 196.190576669)rotate(-70.0)scale(0.2 -0.2)">
       <use xlink:href="#BitstreamVeraSans-Roman-31"/>
       <use x="63.623046875" xlink:href="#BitstreamVeraSans-Roman-6b"/>
       <use x="121.533203125" xlink:href="#BitstreamVeraSans-Roman-32"/>
       <use x="185.15625" xlink:href="#BitstreamVeraSans-Roman-34"/>
      </g>
     </g>
    </g>
    <g id="xtick_20">
     <g id="text_20">
      <!-- 1a0s -->
      <defs>
       <path d="
M31.7812 66.4062
Q24.1719 66.4062 20.3281 58.9062
Q16.5 51.4219 16.5 36.375
Q16.5 21.3906 20.3281 13.8906
Q24.1719 6.39062 31.7812 6.39062
Q39.4531 6.39062 43.2812 13.8906
Q47.125 21.3906 47.125 36.375
Q47.125 51.4219 43.2812 58.9062
Q39.4531 66.4062 31.7812 66.4062
M31.7812 74.2188
Q44.0469 74.2188 50.5156 64.5156
Q56.9844 54.8281 56.9844 36.375
Q56.9844 17.9688 50.5156 8.26562
Q44.0469 -1.42188 31.7812 -1.42188
Q19.5312 -1.42188 13.0625 8.26562
Q6.59375 17.9688 6.59375 36.375
Q6.59375 54.8281 13.0625 64.5156
Q19.5312 74.2188 31.7812 74.2188" id="BitstreamVeraSans-Roman-30"/>
      </defs>
      <g transform="translate(413.452019827 194.795720435)rotate(-70.0)scale(0.2 -0.2)">
       <use xlink:href="#BitstreamVeraSans-Roman-31"/>
       <use x="63.623046875" xlink:href="#BitstreamVeraSans-Roman-61"/>
       <use x="124.90234375" xlink:href="#BitstreamVeraSans-Roman-30"/>
       <use x="188.525390625" xlink:href="#BitstreamVeraSans-Roman-73"/>
      </g>
     </g>
    </g>
    <g id="xtick_21">
     <g id="text_21">
      <!-- 4gey -->
      <defs>
       <path d="
M45.4062 27.9844
Q45.4062 37.75 41.375 43.1094
Q37.3594 48.4844 30.0781 48.4844
Q22.8594 48.4844 18.8281 43.1094
Q14.7969 37.75 14.7969 27.9844
Q14.7969 18.2656 18.8281 12.8906
Q22.8594 7.51562 30.0781 7.51562
Q37.3594 7.51562 41.375 12.8906
Q45.4062 18.2656 45.4062 27.9844
M54.3906 6.78125
Q54.3906 -7.17188 48.1875 -13.9844
Q42 -20.7969 29.2031 -20.7969
Q24.4688 -20.7969 20.2656 -20.0938
Q16.0625 -19.3906 12.1094 -17.9219
L12.1094 -9.1875
Q16.0625 -11.3281 19.9219 -12.3438
Q23.7812 -13.375 27.7812 -13.375
Q36.625 -13.375 41.0156 -8.76562
Q45.4062 -4.15625 45.4062 5.17188
L45.4062 9.625
Q42.625 4.78125 38.2812 2.39062
Q33.9375 0 27.875 0
Q17.8281 0 11.6719 7.65625
Q5.51562 15.3281 5.51562 27.9844
Q5.51562 40.6719 11.6719 48.3281
Q17.8281 56 27.875 56
Q33.9375 56 38.2812 53.6094
Q42.625 51.2188 45.4062 46.3906
L45.4062 54.6875
L54.3906 54.6875
z
" id="BitstreamVeraSans-Roman-67"/>
      </defs>
      <g transform="translate(430.068142288 197.650036771)rotate(-70.0)scale(0.2 -0.2)">
       <use xlink:href="#BitstreamVeraSans-Roman-34"/>
       <use x="63.623046875" xlink:href="#BitstreamVeraSans-Roman-67"/>
       <use x="127.099609375" xlink:href="#BitstreamVeraSans-Roman-65"/>
       <use x="188.623046875" xlink:href="#BitstreamVeraSans-Roman-79"/>
      </g>
     </g>
    </g>
    <g id="xtick_22">
     <g id="text_22">
      <!-- 3kvn -->
      <g transform="translate(447.613063201 195.40064756)rotate(-70.0)scale(0.2 -0.2)">
       <use xlink:href="#BitstreamVeraSans-Roman-33"/>
       <use x="63.623046875" xlink:href="#BitstreamVeraSans-Roman-6b"/>
       <use x="121.533203125" xlink:href="#BitstreamVeraSans-Roman-76"/>
       <use x="180.712890625" xlink:href="#BitstreamVeraSans-Roman-6e"/>
      </g>
     </g>
    </g>
    <g id="xtick_23">
     <g id="text_23">
      <!-- 2wjr -->
      <g transform="translate(465.467405463 191.451002013)rotate(-70.0)scale(0.2 -0.2)">
       <use xlink:href="#BitstreamVeraSans-Roman-32"/>
       <use x="63.623046875" xlink:href="#BitstreamVeraSans-Roman-77"/>
       <use x="145.41015625" xlink:href="#BitstreamVeraSans-Roman-6a"/>
       <use x="173.193359375" xlink:href="#BitstreamVeraSans-Roman-72"/>
      </g>
     </g>
    </g>
    <g id="xtick_24">
     <g id="text_24">
      <!-- 3dzm -->
      <defs>
       <path d="
M5.51562 54.6875
L48.1875 54.6875
L48.1875 46.4844
L14.4062 7.17188
L48.1875 7.17188
L48.1875 0
L4.29688 0
L4.29688 8.20312
L38.0938 47.5156
L5.51562 47.5156
z
" id="BitstreamVeraSans-Roman-7a"/>
      </defs>
      <g transform="translate(480.758734275 201.58499962)rotate(-70.0)scale(0.2 -0.2)">
       <use xlink:href="#BitstreamVeraSans-Roman-33"/>
       <use x="63.623046875" xlink:href="#BitstreamVeraSans-Roman-64"/>
       <use x="127.099609375" xlink:href="#BitstreamVeraSans-Roman-7a"/>
       <use x="179.58984375" xlink:href="#BitstreamVeraSans-Roman-6d"/>
      </g>
     </g>
    </g>
    <g id="xtick_25">
     <g id="text_25">
      <!-- 1bxw -->
      <defs>
       <path d="
M54.8906 54.6875
L35.1094 28.0781
L55.9062 0
L45.3125 0
L29.3906 21.4844
L13.4844 0
L2.875 0
L24.125 28.6094
L4.6875 54.6875
L15.2812 54.6875
L29.7812 35.2031
L44.2812 54.6875
z
" id="BitstreamVeraSans-Roman-78"/>
       <path d="
M48.6875 27.2969
Q48.6875 37.2031 44.6094 42.8438
Q40.5312 48.4844 33.4062 48.4844
Q26.2656 48.4844 22.1875 42.8438
Q18.1094 37.2031 18.1094 27.2969
Q18.1094 17.3906 22.1875 11.75
Q26.2656 6.10938 33.4062 6.10938
Q40.5312 6.10938 44.6094 11.75
Q48.6875 17.3906 48.6875 27.2969
M18.1094 46.3906
Q20.9531 51.2656 25.2656 53.625
Q29.5938 56 35.5938 56
Q45.5625 56 51.7812 48.0938
Q58.0156 40.1875 58.0156 27.2969
Q58.0156 14.4062 51.7812 6.48438
Q45.5625 -1.42188 35.5938 -1.42188
Q29.5938 -1.42188 25.2656 0.953125
Q20.9531 3.32812 18.1094 8.20312
L18.1094 0
L9.07812 0
L9.07812 75.9844
L18.1094 75.9844
z
" id="BitstreamVeraSans-Roman-62"/>
      </defs>
      <g transform="translate(498.167381538 200.084427967)rotate(-70.0)scale(0.2 -0.2)">
       <use xlink:href="#BitstreamVeraSans-Roman-31"/>
       <use x="63.623046875" xlink:href="#BitstreamVeraSans-Roman-62"/>
       <use x="127.099609375" xlink:href="#BitstreamVeraSans-Roman-78"/>
       <use x="186.279296875" xlink:href="#BitstreamVeraSans-Roman-77"/>
      </g>
     </g>
    </g>
    <g id="xtick_26">
     <g id="text_26">
      <!-- 3fid -->
      <g transform="translate(518.023076044 185.137442217)rotate(-70.0)scale(0.2 -0.2)">
       <use xlink:href="#BitstreamVeraSans-Roman-33"/>
       <use x="63.623046875" xlink:href="#BitstreamVeraSans-Roman-66"/>
       <use x="98.828125" xlink:href="#BitstreamVeraSans-Roman-69"/>
       <use x="126.611328125" xlink:href="#BitstreamVeraSans-Roman-64"/>
      </g>
     </g>
    </g>
    <g id="xtick_27">
     <g id="text_27">
      <!-- 4c00 -->
      <g transform="translate(533.073921943 196.592882572)rotate(-70.0)scale(0.2 -0.2)">
       <use xlink:href="#BitstreamVeraSans-Roman-34"/>
       <use x="63.623046875" xlink:href="#BitstreamVeraSans-Roman-63"/>
       <use x="118.603515625" xlink:href="#BitstreamVeraSans-Roman-30"/>
       <use x="182.2265625" xlink:href="#BitstreamVeraSans-Roman-30"/>
      </g>
     </g>
    </g>
    <g id="xtick_28">
     <g id="text_28">
      <!-- 1tly -->
      <g transform="translate(552.210305336 185.598478909)rotate(-70.0)scale(0.2 -0.2)">
       <use xlink:href="#BitstreamVeraSans-Roman-31"/>
       <use x="63.623046875" xlink:href="#BitstreamVeraSans-Roman-74"/>
       <use x="102.83203125" xlink:href="#BitstreamVeraSans-Roman-6c"/>
       <use x="130.615234375" xlink:href="#BitstreamVeraSans-Roman-79"/>
      </g>
     </g>
    </g>
    <g id="xtick_29">
     <g id="text_29">
      <!-- 1p4t -->
      <g transform="translate(567.952673212 193.254037229)rotate(-70.0)scale(0.2 -0.2)">
       <use xlink:href="#BitstreamVeraSans-Roman-31"/>
       <use x="63.623046875" xlink:href="#BitstreamVeraSans-Roman-70"/>
       <use x="127.099609375" xlink:href="#BitstreamVeraSans-Roman-34"/>
       <use x="190.72265625" xlink:href="#BitstreamVeraSans-Roman-74"/>
      </g>
     </g>
    </g>
    <g id="xtick_30">
     <g id="text_30">
      <!-- 2omf -->
      <g transform="translate(583.876204883 199.914108679)rotate(-70.0)scale(0.2 -0.2)">
       <use xlink:href="#BitstreamVeraSans-Roman-32"/>
       <use x="63.623046875" xlink:href="#BitstreamVeraSans-Roman-6f"/>
       <use x="124.8046875" xlink:href="#BitstreamVeraSans-Roman-6d"/>
       <use x="222.216796875" xlink:href="#BitstreamVeraSans-Roman-66"/>
      </g>
     </g>
    </g>
    <g id="xtick_31">
     <g id="text_31">
      <!-- 3syb -->
      <g transform="translate(601.925071101 194.895562776)rotate(-70.0)scale(0.2 -0.2)">
       <use xlink:href="#BitstreamVeraSans-Roman-33"/>
       <use x="63.623046875" xlink:href="#BitstreamVeraSans-Roman-73"/>
       <use x="115.72265625" xlink:href="#BitstreamVeraSans-Roman-79"/>
       <use x="174.90234375" xlink:href="#BitstreamVeraSans-Roman-62"/>
      </g>
     </g>
    </g>
    <g id="xtick_32">
     <g id="text_32">
      <!-- 2fcp -->
      <g transform="translate(619.771931672 190.987028782)rotate(-70.0)scale(0.2 -0.2)">
       <use xlink:href="#BitstreamVeraSans-Roman-32"/>
       <use x="63.623046875" xlink:href="#BitstreamVeraSans-Roman-66"/>
       <use x="98.828125" xlink:href="#BitstreamVeraSans-Roman-63"/>
       <use x="153.80859375" xlink:href="#BitstreamVeraSans-Roman-70"/>
      </g>
     </g>
    </g>
    <g id="xtick_33">
     <g id="text_33">
      <!-- 4k3c -->
      <g transform="translate(636.067944656 195.600332242)rotate(-70.0)scale(0.2 -0.2)">
       <use xlink:href="#BitstreamVeraSans-Roman-34"/>
       <use x="63.623046875" xlink:href="#BitstreamVeraSans-Roman-6b"/>
       <use x="121.533203125" xlink:href="#BitstreamVeraSans-Roman-33"/>
       <use x="185.15625" xlink:href="#BitstreamVeraSans-Roman-63"/>
      </g>
     </g>
    </g>
    <g id="xtick_34">
     <g id="text_34">
      <!-- 2mlh -->
      <g transform="translate(652.952873573 196.977569239)rotate(-70.0)scale(0.2 -0.2)">
       <use xlink:href="#BitstreamVeraSans-Roman-32"/>
       <use x="63.623046875" xlink:href="#BitstreamVeraSans-Roman-6d"/>
       <use x="161.03515625" xlink:href="#BitstreamVeraSans-Roman-6c"/>
       <use x="188.818359375" xlink:href="#BitstreamVeraSans-Roman-68"/>
      </g>
     </g>
    </g>
    <g id="xtick_35">
     <g id="text_35">
      <!-- 3aeh -->
      <g transform="translate(670.179822635 196.475420995)rotate(-70.0)scale(0.2 -0.2)">
       <use xlink:href="#BitstreamVeraSans-Roman-33"/>
       <use x="63.623046875" xlink:href="#BitstreamVeraSans-Roman-61"/>
       <use x="124.90234375" xlink:href="#BitstreamVeraSans-Roman-65"/>
       <use x="186.42578125" xlink:href="#BitstreamVeraSans-Roman-68"/>
      </g>
     </g>
    </g>
    <g id="xtick_36">
     <g id="text_36">
      <!-- 3bs0 -->
      <g transform="translate(687.491207918 195.509299519)rotate(-70.0)scale(0.2 -0.2)">
       <use xlink:href="#BitstreamVeraSans-Roman-33"/>
       <use x="63.623046875" xlink:href="#BitstreamVeraSans-Roman-62"/>
       <use x="127.099609375" xlink:href="#BitstreamVeraSans-Roman-73"/>
       <use x="179.19921875" xlink:href="#BitstreamVeraSans-Roman-30"/>
      </g>
     </g>
    </g>
    <g id="xtick_37">
     <g id="text_37">
      <!-- 3rfz -->
      <g transform="translate(706.270607786 186.476504202)rotate(-70.0)scale(0.2 -0.2)">
       <use xlink:href="#BitstreamVeraSans-Roman-33"/>
       <use x="63.623046875" xlink:href="#BitstreamVeraSans-Roman-72"/>
       <use x="104.736328125" xlink:href="#BitstreamVeraSans-Roman-66"/>
       <use x="139.94140625" xlink:href="#BitstreamVeraSans-Roman-7a"/>
      </g>
     </g>
    </g>
    <g id="xtick_38">
     <g id="text_38">
      <!-- 2por -->
      <g transform="translate(721.984117713 194.290635652)rotate(-70.0)scale(0.2 -0.2)">
       <use xlink:href="#BitstreamVeraSans-Roman-32"/>
       <use x="63.623046875" xlink:href="#BitstreamVeraSans-Roman-70"/>
       <use x="127.099609375" xlink:href="#BitstreamVeraSans-Roman-6f"/>
       <use x="188.28125" xlink:href="#BitstreamVeraSans-Roman-72"/>
      </g>
     </g>
    </g>
    <g id="xtick_39">
     <g id="text_39">
      <!-- 2qdz -->
      <g transform="translate(738.799039383 196.052559316)rotate(-70.0)scale(0.2 -0.2)">
       <use xlink:href="#BitstreamVeraSans-Roman-32"/>
       <use x="63.623046875" xlink:href="#BitstreamVeraSans-Roman-71"/>
       <use x="127.099609375" xlink:href="#BitstreamVeraSans-Roman-64"/>
       <use x="190.576171875" xlink:href="#BitstreamVeraSans-Roman-7a"/>
      </g>
     </g>
    </g>
    <g id="xtick_40">
     <g id="text_40">
      <!-- 4pr7 -->
      <g transform="translate(756.380834343 193.600548883)rotate(-70.0)scale(0.2 -0.2)">
       <use xlink:href="#BitstreamVeraSans-Roman-34"/>
       <use x="63.623046875" xlink:href="#BitstreamVeraSans-Roman-70"/>
       <use x="127.099609375" xlink:href="#BitstreamVeraSans-Roman-72"/>
       <use x="168.212890625" xlink:href="#BitstreamVeraSans-Roman-37"/>
      </g>
     </g>
    </g>
    <g id="xtick_41">
     <g id="text_41">
      <!-- 1prn -->
      <g transform="translate(773.791084824 192.091167611)rotate(-70.0)scale(0.2 -0.2)">
       <use xlink:href="#BitstreamVeraSans-Roman-31"/>
       <use x="63.623046875" xlink:href="#BitstreamVeraSans-Roman-70"/>
       <use x="127.099609375" xlink:href="#BitstreamVeraSans-Roman-72"/>
       <use x="166.462890625" xlink:href="#BitstreamVeraSans-Roman-6e"/>
      </g>
     </g>
    </g>
    <g id="xtick_42">
     <g id="text_42">
      <!-- 1nqe -->
      <g transform="translate(790.060377484 196.851298043)rotate(-70.0)scale(0.2 -0.2)">
       <use xlink:href="#BitstreamVeraSans-Roman-31"/>
       <use x="63.623046875" xlink:href="#BitstreamVeraSans-Roman-6e"/>
       <use x="127.001953125" xlink:href="#BitstreamVeraSans-Roman-71"/>
       <use x="190.478515625" xlink:href="#BitstreamVeraSans-Roman-65"/>
      </g>
     </g>
    </g>
    <g id="xtick_43">
     <g id="text_43">
      <!-- 4e1s -->
      <g transform="translate(807.353058541 195.987955448)rotate(-70.0)scale(0.2 -0.2)">
       <use xlink:href="#BitstreamVeraSans-Roman-34"/>
       <use x="63.623046875" xlink:href="#BitstreamVeraSans-Roman-65"/>
       <use x="125.146484375" xlink:href="#BitstreamVeraSans-Roman-31"/>
       <use x="188.76953125" xlink:href="#BitstreamVeraSans-Roman-73"/>
      </g>
     </g>
    </g>
    <g id="xtick_44">
     <g id="text_44">
      <!-- 3v8x -->
      <g transform="translate(824.3651762 196.666296058)rotate(-70.0)scale(0.2 -0.2)">
       <use xlink:href="#BitstreamVeraSans-Roman-33"/>
       <use x="63.623046875" xlink:href="#BitstreamVeraSans-Roman-76"/>
       <use x="122.802734375" xlink:href="#BitstreamVeraSans-Roman-38"/>
       <use x="186.42578125" xlink:href="#BitstreamVeraSans-Roman-78"/>
      </g>
     </g>
    </g>
    <g id="xtick_45">
     <g id="text_45">
      <!-- 2f1c -->
      <g transform="translate(842.554591321 190.875440283)rotate(-70.0)scale(0.2 -0.2)">
       <use xlink:href="#BitstreamVeraSans-Roman-32"/>
       <use x="63.623046875" xlink:href="#BitstreamVeraSans-Roman-66"/>
       <use x="98.828125" xlink:href="#BitstreamVeraSans-Roman-31"/>
       <use x="162.451171875" xlink:href="#BitstreamVeraSans-Roman-63"/>
      </g>
     </g>
    </g>
    <g id="xtick_46">
     <g id="text_46">
      <!-- 2ynk -->
      <g transform="translate(858.575919377 196.998125015)rotate(-70.0)scale(0.2 -0.2)">
       <use xlink:href="#BitstreamVeraSans-Roman-32"/>
       <use x="63.623046875" xlink:href="#BitstreamVeraSans-Roman-79"/>
       <use x="122.802734375" xlink:href="#BitstreamVeraSans-Roman-6e"/>
       <use x="186.181640625" xlink:href="#BitstreamVeraSans-Roman-6b"/>
      </g>
     </g>
    </g>
    <g id="xtick_47">
     <g id="text_47">
      <!-- 1xkw -->
      <g transform="translate(875.340606838 199.036083387)rotate(-70.0)scale(0.2 -0.2)">
       <use xlink:href="#BitstreamVeraSans-Roman-31"/>
       <use x="63.623046875" xlink:href="#BitstreamVeraSans-Roman-78"/>
       <use x="122.802734375" xlink:href="#BitstreamVeraSans-Roman-6b"/>
       <use x="180.712890625" xlink:href="#BitstreamVeraSans-Roman-77"/>
      </g>
     </g>
    </g>
    <g id="xtick_48">
     <g id="text_48">
      <!-- 2vqi -->
      <g transform="translate(894.184669889 189.647966797)rotate(-70.0)scale(0.2 -0.2)">
       <use xlink:href="#BitstreamVeraSans-Roman-32"/>
       <use x="63.623046875" xlink:href="#BitstreamVeraSans-Roman-76"/>
       <use x="122.802734375" xlink:href="#BitstreamVeraSans-Roman-71"/>
       <use x="186.279296875" xlink:href="#BitstreamVeraSans-Roman-69"/>
      </g>
     </g>
    </g>
    <g id="xtick_49">
     <g id="text_49">
      <!-- 3vzt -->
      <g transform="translate(911.077080497 190.984092242)rotate(-70.0)scale(0.2 -0.2)">
       <use xlink:href="#BitstreamVeraSans-Roman-33"/>
       <use x="63.623046875" xlink:href="#BitstreamVeraSans-Roman-76"/>
       <use x="122.802734375" xlink:href="#BitstreamVeraSans-Roman-7a"/>
       <use x="175.29296875" xlink:href="#BitstreamVeraSans-Roman-74"/>
      </g>
     </g>
    </g>
    <g id="xtick_50">
     <g id="text_50">
      <!-- 2f1t -->
      <g transform="translate(928.64177445 188.626051072)rotate(-70.0)scale(0.2 -0.2)">
       <use xlink:href="#BitstreamVeraSans-Roman-32"/>
       <use x="63.623046875" xlink:href="#BitstreamVeraSans-Roman-66"/>
       <use x="98.828125" xlink:href="#BitstreamVeraSans-Roman-31"/>
       <use x="162.451171875" xlink:href="#BitstreamVeraSans-Roman-74"/>
      </g>
     </g>
    </g>
    <g id="xtick_51">
     <g id="text_51">
      <!-- 2erv -->
      <g transform="translate(944.98374639 192.98681214)rotate(-70.0)scale(0.2 -0.2)">
       <use xlink:href="#BitstreamVeraSans-Roman-32"/>
       <use x="63.623046875" xlink:href="#BitstreamVeraSans-Roman-65"/>
       <use x="125.146484375" xlink:href="#BitstreamVeraSans-Roman-72"/>
       <use x="166.259765625" xlink:href="#BitstreamVeraSans-Roman-76"/>
      </g>
     </g>
    </g>
    <g id="xtick_52">
     <g id="text_52">
      <!-- 3szv -->
      <g transform="translate(962.063199264 193.295148781)rotate(-70.0)scale(0.2 -0.2)">
       <use xlink:href="#BitstreamVeraSans-Roman-33"/>
       <use x="63.623046875" xlink:href="#BitstreamVeraSans-Roman-73"/>
       <use x="115.72265625" xlink:href="#BitstreamVeraSans-Roman-7a"/>
       <use x="168.212890625" xlink:href="#BitstreamVeraSans-Roman-76"/>
      </g>
     </g>
    </g>
    <g id="xtick_53">
     <g id="text_53">
      <!-- 2gr8 -->
      <g transform="translate(979.168303649 193.462531529)rotate(-70.0)scale(0.2 -0.2)">
       <use xlink:href="#BitstreamVeraSans-Roman-32"/>
       <use x="63.623046875" xlink:href="#BitstreamVeraSans-Roman-67"/>
       <use x="127.099609375" xlink:href="#BitstreamVeraSans-Roman-72"/>
       <use x="168.212890625" xlink:href="#BitstreamVeraSans-Roman-38"/>
      </g>
     </g>
    </g>
    <g id="xtick_54">
     <g id="text_54">
      <!-- 1yc9 -->
      <g transform="translate(996.107742028 194.540241504)rotate(-70.0)scale(0.2 -0.2)">
       <use xlink:href="#BitstreamVeraSans-Roman-31"/>
       <use x="63.623046875" xlink:href="#BitstreamVeraSans-Roman-79"/>
       <use x="122.802734375" xlink:href="#BitstreamVeraSans-Roman-63"/>
       <use x="177.783203125" xlink:href="#BitstreamVeraSans-Roman-39"/>
      </g>
     </g>
    </g>
    <g id="xtick_55">
     <g id="text_55">
      <!-- 3b07 -->
      <g transform="translate(1012.73775906 197.318207814)rotate(-70.0)scale(0.2 -0.2)">
       <use xlink:href="#BitstreamVeraSans-Roman-33"/>
       <use x="63.623046875" xlink:href="#BitstreamVeraSans-Roman-62"/>
       <use x="127.099609375" xlink:href="#BitstreamVeraSans-Roman-30"/>
       <use x="190.72265625" xlink:href="#BitstreamVeraSans-Roman-37"/>
      </g>
     </g>
    </g>
    <g id="xtick_56">
     <g id="text_56">
      <!-- 2lhf -->
      <g transform="translate(1031.70740763 187.240004456)rotate(-70.0)scale(0.2 -0.2)">
       <use xlink:href="#BitstreamVeraSans-Roman-32"/>
       <use x="63.623046875" xlink:href="#BitstreamVeraSans-Roman-6c"/>
       <use x="91.40625" xlink:href="#BitstreamVeraSans-Roman-68"/>
       <use x="154.78515625" xlink:href="#BitstreamVeraSans-Roman-66"/>
      </g>
     </g>
    </g>
    <g id="xtick_57">
     <g id="text_57">
      <!-- 3rbh -->
      <g transform="translate(1047.78538277 193.051416008)rotate(-70.0)scale(0.2 -0.2)">
       <use xlink:href="#BitstreamVeraSans-Roman-33"/>
       <use x="63.623046875" xlink:href="#BitstreamVeraSans-Roman-72"/>
       <use x="104.736328125" xlink:href="#BitstreamVeraSans-Roman-62"/>
       <use x="168.212890625" xlink:href="#BitstreamVeraSans-Roman-68"/>
      </g>
     </g>
    </g>
   </g>
   <g id="matplotlib.axis_2">
    <g id="ytick_1">
     <g id="line2d_1">
      <defs>
       <path d="
M0 0
L4 0" id="m728421d6d4" style="stroke:#000000;stroke-width:0.5;"/>
      </defs>
      <g>
       <use style="stroke:#000000;stroke-width:0.5;" x="81.81" xlink:href="#m728421d6d4" y="143.355963226"/>
      </g>
     </g>
     <g id="line2d_2">
      <defs>
       <path d="
M0 0
L-4 0" id="mcb0005524f" style="stroke:#000000;stroke-width:0.5;"/>
      </defs>
      <g>
       <use style="stroke:#000000;stroke-width:0.5;" x="1058.53723658" xlink:href="#mcb0005524f" y="143.355963226"/>
      </g>
     </g>
     <g id="text_58">
      <!-- 0.00 -->
      <defs>
       <path d="
M10.6875 12.4062
L21 12.4062
L21 0
L10.6875 0
z
" id="BitstreamVeraSans-Roman-2e"/>
      </defs>
      <g transform="translate(35.925625 148.874713226)scale(0.2 -0.2)">
       <use xlink:href="#BitstreamVeraSans-Roman-30"/>
       <use x="63.623046875" xlink:href="#BitstreamVeraSans-Roman-2e"/>
       <use x="95.41015625" xlink:href="#BitstreamVeraSans-Roman-30"/>
       <use x="159.033203125" xlink:href="#BitstreamVeraSans-Roman-30"/>
      </g>
     </g>
    </g>
    <g id="ytick_2">
     <g id="line2d_3">
      <g>
       <use style="stroke:#000000;stroke-width:0.5;" x="81.81" xlink:href="#m728421d6d4" y="128.443461327"/>
      </g>
     </g>
     <g id="line2d_4">
      <g>
       <use style="stroke:#000000;stroke-width:0.5;" x="1058.53723658" xlink:href="#mcb0005524f" y="128.443461327"/>
      </g>
     </g>
     <g id="text_59">
      <!-- 0.05 -->
      <g transform="translate(36.344375 133.962211327)scale(0.2 -0.2)">
       <use xlink:href="#BitstreamVeraSans-Roman-30"/>
       <use x="63.623046875" xlink:href="#BitstreamVeraSans-Roman-2e"/>
       <use x="95.41015625" xlink:href="#BitstreamVeraSans-Roman-30"/>
       <use x="159.033203125" xlink:href="#BitstreamVeraSans-Roman-35"/>
      </g>
     </g>
    </g>
    <g id="ytick_3">
     <g id="line2d_5">
      <g>
       <use style="stroke:#000000;stroke-width:0.5;" x="81.81" xlink:href="#m728421d6d4" y="113.530959428"/>
      </g>
     </g>
     <g id="line2d_6">
      <g>
       <use style="stroke:#000000;stroke-width:0.5;" x="1058.53723658" xlink:href="#mcb0005524f" y="113.530959428"/>
      </g>
     </g>
     <g id="text_60">
      <!-- 0.10 -->
      <g transform="translate(35.925625 119.049709428)scale(0.2 -0.2)">
       <use xlink:href="#BitstreamVeraSans-Roman-30"/>
       <use x="63.623046875" xlink:href="#BitstreamVeraSans-Roman-2e"/>
       <use x="95.41015625" xlink:href="#BitstreamVeraSans-Roman-31"/>
       <use x="159.033203125" xlink:href="#BitstreamVeraSans-Roman-30"/>
      </g>
     </g>
    </g>
    <g id="ytick_4">
     <g id="line2d_7">
      <g>
       <use style="stroke:#000000;stroke-width:0.5;" x="81.81" xlink:href="#m728421d6d4" y="98.6184575286"/>
      </g>
     </g>
     <g id="line2d_8">
      <g>
       <use style="stroke:#000000;stroke-width:0.5;" x="1058.53723658" xlink:href="#mcb0005524f" y="98.6184575286"/>
      </g>
     </g>
     <g id="text_61">
      <!-- 0.15 -->
      <g transform="translate(36.344375 104.137207529)scale(0.2 -0.2)">
       <use xlink:href="#BitstreamVeraSans-Roman-30"/>
       <use x="63.623046875" xlink:href="#BitstreamVeraSans-Roman-2e"/>
       <use x="95.41015625" xlink:href="#BitstreamVeraSans-Roman-31"/>
       <use x="159.033203125" xlink:href="#BitstreamVeraSans-Roman-35"/>
      </g>
     </g>
    </g>
    <g id="ytick_5">
     <g id="line2d_9">
      <g>
       <use style="stroke:#000000;stroke-width:0.5;" x="81.81" xlink:href="#m728421d6d4" y="83.7059556295"/>
      </g>
     </g>
     <g id="line2d_10">
      <g>
       <use style="stroke:#000000;stroke-width:0.5;" x="1058.53723658" xlink:href="#mcb0005524f" y="83.7059556295"/>
      </g>
     </g>
     <g id="text_62">
      <!-- 0.20 -->
      <g transform="translate(35.925625 89.2247056295)scale(0.2 -0.2)">
       <use xlink:href="#BitstreamVeraSans-Roman-30"/>
       <use x="63.623046875" xlink:href="#BitstreamVeraSans-Roman-2e"/>
       <use x="95.41015625" xlink:href="#BitstreamVeraSans-Roman-32"/>
       <use x="159.033203125" xlink:href="#BitstreamVeraSans-Roman-30"/>
      </g>
     </g>
    </g>
    <g id="ytick_6">
     <g id="line2d_11">
      <g>
       <use style="stroke:#000000;stroke-width:0.5;" x="81.81" xlink:href="#m728421d6d4" y="68.7934537305"/>
      </g>
     </g>
     <g id="line2d_12">
      <g>
       <use style="stroke:#000000;stroke-width:0.5;" x="1058.53723658" xlink:href="#mcb0005524f" y="68.7934537305"/>
      </g>
     </g>
     <g id="text_63">
      <!-- 0.25 -->
      <g transform="translate(36.344375 74.3122037305)scale(0.2 -0.2)">
       <use xlink:href="#BitstreamVeraSans-Roman-30"/>
       <use x="63.623046875" xlink:href="#BitstreamVeraSans-Roman-2e"/>
       <use x="95.41015625" xlink:href="#BitstreamVeraSans-Roman-32"/>
       <use x="159.033203125" xlink:href="#BitstreamVeraSans-Roman-35"/>
      </g>
     </g>
    </g>
    <g id="ytick_7">
     <g id="line2d_13">
      <g>
       <use style="stroke:#000000;stroke-width:0.5;" x="81.81" xlink:href="#m728421d6d4" y="53.8809518314"/>
      </g>
     </g>
     <g id="line2d_14">
      <g>
       <use style="stroke:#000000;stroke-width:0.5;" x="1058.53723658" xlink:href="#mcb0005524f" y="53.8809518314"/>
      </g>
     </g>
     <g id="text_64">
      <!-- 0.30 -->
      <g transform="translate(35.925625 59.3997018314)scale(0.2 -0.2)">
       <use xlink:href="#BitstreamVeraSans-Roman-30"/>
       <use x="63.623046875" xlink:href="#BitstreamVeraSans-Roman-2e"/>
       <use x="95.41015625" xlink:href="#BitstreamVeraSans-Roman-33"/>
       <use x="159.033203125" xlink:href="#BitstreamVeraSans-Roman-30"/>
      </g>
     </g>
    </g>
    <g id="ytick_8">
     <g id="line2d_15">
      <g>
       <use style="stroke:#000000;stroke-width:0.5;" x="81.81" xlink:href="#m728421d6d4" y="38.9684499323"/>
      </g>
     </g>
     <g id="line2d_16">
      <g>
       <use style="stroke:#000000;stroke-width:0.5;" x="1058.53723658" xlink:href="#mcb0005524f" y="38.9684499323"/>
      </g>
     </g>
     <g id="text_65">
      <!-- 0.35 -->
      <g transform="translate(36.344375 44.4871999323)scale(0.2 -0.2)">
       <use xlink:href="#BitstreamVeraSans-Roman-30"/>
       <use x="63.623046875" xlink:href="#BitstreamVeraSans-Roman-2e"/>
       <use x="95.41015625" xlink:href="#BitstreamVeraSans-Roman-33"/>
       <use x="159.033203125" xlink:href="#BitstreamVeraSans-Roman-35"/>
      </g>
     </g>
    </g>
    <g id="ytick_9">
     <g id="line2d_17">
      <g>
       <use style="stroke:#000000;stroke-width:0.5;" x="81.81" xlink:href="#m728421d6d4" y="24.0559480332"/>
      </g>
     </g>
     <g id="line2d_18">
      <g>
       <use style="stroke:#000000;stroke-width:0.5;" x="1058.53723658" xlink:href="#mcb0005524f" y="24.0559480332"/>
      </g>
     </g>
     <g id="text_66">
      <!-- 0.40 -->
      <g transform="translate(35.925625 29.5746980332)scale(0.2 -0.2)">
       <use xlink:href="#BitstreamVeraSans-Roman-30"/>
       <use x="63.623046875" xlink:href="#BitstreamVeraSans-Roman-2e"/>
       <use x="95.41015625" xlink:href="#BitstreamVeraSans-Roman-34"/>
       <use x="159.033203125" xlink:href="#BitstreamVeraSans-Roman-30"/>
      </g>
     </g>
    </g>
    <g id="text_67">
     <!-- Distance -->
     <defs>
      <path d="
M19.6719 64.7969
L19.6719 8.10938
L31.5938 8.10938
Q46.6875 8.10938 53.6875 14.9375
Q60.6875 21.7812 60.6875 36.5312
Q60.6875 51.1719 53.6875 57.9844
Q46.6875 64.7969 31.5938 64.7969
z

M9.8125 72.9062
L30.0781 72.9062
Q51.2656 72.9062 61.1719 64.0938
Q71.0938 55.2812 71.0938 36.5312
Q71.0938 17.6719 61.125 8.82812
Q51.1719 0 30.0781 0
L9.8125 0
z
" id="BitstreamVeraSans-Roman-44"/>
     </defs>
     <g transform="translate(26.76625 120.368919113)rotate(-90.0)scale(0.2 -0.2)">
      <use xlink:href="#BitstreamVeraSans-Roman-44"/>
      <use x="77.001953125" xlink:href="#BitstreamVeraSans-Roman-69"/>
      <use x="104.78515625" xlink:href="#BitstreamVeraSans-Roman-73"/>
      <use x="156.884765625" xlink:href="#BitstreamVeraSans-Roman-74"/>
      <use x="196.09375" xlink:href="#BitstreamVeraSans-Roman-61"/>
      <use x="257.373046875" xlink:href="#BitstreamVeraSans-Roman-6e"/>
      <use x="320.751953125" xlink:href="#BitstreamVeraSans-Roman-63"/>
      <use x="375.732421875" xlink:href="#BitstreamVeraSans-Roman-65"/>
     </g>
    </g>
   </g>
   <g id="patch_3">
    <path d="
M81.81 12.96
L1058.54 12.96" style="fill:none;stroke:#000000;"/>
   </g>
   <g id="patch_4">
    <path d="
M1058.54 143.356
L1058.54 12.96" style="fill:none;stroke:#000000;"/>
   </g>
   <g id="patch_5">
    <path d="
M81.81 143.356
L1058.54 143.356" style="fill:none;stroke:#000000;"/>
   </g>
   <g id="patch_6">
    <path d="
M81.81 143.356
L81.81 12.96" style="fill:none;stroke:#000000;"/>
   </g>
  </g>
 </g>
 <defs>
  <clipPath id="pb44108de42">
   <rect height="130.395963226" width="976.72723658" x="81.81" y="12.96"/>
  </clipPath>
 </defs>
</svg>
