<?xml version="1.0" encoding="utf-8" standalone="no"?>
<!DOCTYPE svg PUBLIC "-//W3C//DTD SVG 1.1//EN"
  "http://www.w3.org/Graphics/SVG/1.1/DTD/svg11.dtd">
<!-- Created with matplotlib (http://matplotlib.org/) -->
<svg height="216pt" version="1.1" viewBox="0 0 1080 216" width="1080pt" xmlns="http://www.w3.org/2000/svg" xmlns:xlink="http://www.w3.org/1999/xlink">
 <defs>
  <style type="text/css">
*{stroke-linecap:butt;stroke-linejoin:round;}
  </style>
 </defs>
 <g id="figure_1">
  <g id="patch_1">
   <path d="
M0 216
L1080 216
L1080 0
L0 0
z
" style="fill:#ffffff;"/>
  </g>
  <g id="axes_1">
   <g id="patch_2">
    <path d="
M62.0663 143.356
L1058.43 143.356
L1058.43 12.96
L62.0663 12.96
z
" style="fill:#ffffff;"/>
   </g>
   <g id="LineCollection_1">
    <defs>
     <path d="
M123.247 -72.644
L123.247 -150.975
L140.727 -150.975
L140.727 -72.644" id="C0_0_da37468f0d"/>
    </defs>
    <g clip-path="url(#p922289d469)">
     <use style="fill:none;stroke:#008000;" x="0.0" xlink:href="#C0_0_da37468f0d" y="216.0"/>
    </g>
   </g>
   <g id="LineCollection_2">
    <defs>
     <path d="
M263.087 -72.644
L263.087 -112.214
L280.567 -112.214
L280.567 -72.644" id="C1_0_909fdc2767"/>
     <path d="
M245.607 -72.644
L245.607 -118.135
L271.827 -118.135
L271.827 -112.214" id="C1_1_d67422bc9d"/>
     <path d="
M228.127 -72.644
L228.127 -123.493
L258.717 -123.493
L258.717 -118.135" id="C1_2_5668514d85"/>
     <path d="
M315.528 -72.644
L315.528 -105.938
L333.008 -105.938
L333.008 -72.644" id="C1_3_1d4a31753f"/>
     <path d="
M298.047 -72.644
L298.047 -109.731
L324.268 -109.731
L324.268 -105.938" id="C1_4_0bc9bd57d6"/>
     <path d="
M367.968 -72.644
L367.968 -106.314
L385.448 -106.314
L385.448 -72.644" id="C1_5_2db4cc4c55"/>
     <path d="
M350.488 -72.644
L350.488 -110.55
L376.708 -110.55
L376.708 -106.314" id="C1_6_0e10019da0"/>
     <path d="
M311.158 -109.731
L311.158 -113.704
L363.598 -113.704
L363.598 -110.55" id="C1_7_d124a1c652"/>
     <path d="
M420.408 -72.644
L420.408 -113.464
L437.888 -113.464
L437.888 -72.644" id="C1_8_9a7adda249"/>
     <path d="
M402.928 -72.644
L402.928 -117.447
L429.148 -117.447
L429.148 -113.464" id="C1_9_2b6b2d224c"/>
     <path d="
M337.378 -113.704
L337.378 -119.909
L416.038 -119.909
L416.038 -117.447" id="C1_a_1cafe0f6f6"/>
     <path d="
M472.848 -72.644
L472.848 -115.261
L490.328 -115.261
L490.328 -72.644" id="C1_b_77cb066a71"/>
     <path d="
M455.368 -72.644
L455.368 -120.622
L481.588 -120.622
L481.588 -115.261" id="C1_c_abfbbabe6d"/>
     <path d="
M376.708 -119.909
L376.708 -122.328
L468.478 -122.328
L468.478 -120.622" id="C1_d_ecc4072197"/>
     <path d="
M525.289 -72.644
L525.289 -105.641
L542.769 -105.641
L542.769 -72.644" id="C1_e_44290a735e"/>
     <path d="
M507.809 -72.644
L507.809 -119.054
L534.029 -119.054
L534.029 -105.641" id="C1_f_079f22a91a"/>
     <path d="
M630.169 -72.644
L630.169 -108.268
L647.649 -108.268
L647.649 -72.644" id="C1_10_446b6bfbb1"/>
     <path d="
M612.689 -72.644
L612.689 -111.055
L638.909 -111.055
L638.909 -108.268" id="C1_11_7077945d1f"/>
     <path d="
M595.209 -72.644
L595.209 -115.418
L625.799 -115.418
L625.799 -111.055" id="C1_12_79d5d28340"/>
     <path d="
M577.729 -72.644
L577.729 -117.728
L610.504 -117.728
L610.504 -115.418" id="C1_13_4aac21e546"/>
     <path d="
M560.249 -72.644
L560.249 -120.768
L594.117 -120.768
L594.117 -117.728" id="C1_14_8a83112eec"/>
     <path d="
M520.919 -119.054
L520.919 -125.815
L577.183 -125.815
L577.183 -120.768" id="C1_15_11afe67ba4"/>
     <path d="
M422.593 -122.328
L422.593 -127.277
L549.051 -127.277
L549.051 -125.815" id="C1_16_32a897780d"/>
     <path d="
M243.422 -123.493
L243.422 -127.83
L485.822 -127.83
L485.822 -127.277" id="C1_17_a7a2a556fb"/>
     <path d="
M210.647 -72.644
L210.647 -135.313
L364.622 -135.313
L364.622 -127.83" id="C1_18_b16bae6a09"/>
     <path d="
M717.57 -72.644
L717.57 -118.829
L735.05 -118.829
L735.05 -72.644" id="C1_19_6e6646dbec"/>
     <path d="
M787.49 -72.644
L787.49 -108.134
L804.97 -108.134
L804.97 -72.644" id="C1_1a_0f68de0600"/>
     <path d="
M822.45 -72.644
L822.45 -110.52
L839.93 -110.52
L839.93 -72.644" id="C1_1b_bc2bdb9bc8"/>
     <path d="
M796.23 -108.134
L796.23 -112.581
L831.19 -112.581
L831.19 -110.52" id="C1_1c_51a4b2c823"/>
     <path d="
M770.01 -72.644
L770.01 -113.407
L813.71 -113.407
L813.71 -112.581" id="C1_1d_6a61899f09"/>
     <path d="
M752.53 -72.644
L752.53 -116.824
L791.86 -116.824
L791.86 -113.407" id="C1_1e_de79b60e3e"/>
     <path d="
M909.851 -72.644
L909.851 -103.284
L927.331 -103.284
L927.331 -72.644" id="C1_1f_a6bfa9eb6a"/>
     <path d="
M892.371 -72.644
L892.371 -109.488
L918.591 -109.488
L918.591 -103.284" id="C1_20_96df171a0d"/>
     <path d="
M874.89 -72.644
L874.89 -113.901
L905.481 -113.901
L905.481 -109.488" id="C1_21_f4f1ab5dcd"/>
     <path d="
M857.41 -72.644
L857.41 -118.29
L890.186 -118.29
L890.186 -113.901" id="C1_22_b825c1d521"/>
     <path d="
M772.195 -116.824
L772.195 -120.117
L873.798 -120.117
L873.798 -118.29" id="C1_23_6418a49d3c"/>
     <path d="
M979.771 -72.644
L979.771 -109.828
L997.251 -109.828
L997.251 -72.644" id="C1_24_4c5b8bbc72"/>
     <path d="
M962.291 -72.644
L962.291 -111.639
L988.511 -111.639
L988.511 -109.828" id="C1_25_cd31f115eb"/>
     <path d="
M944.811 -72.644
L944.811 -120.269
L975.401 -120.269
L975.401 -111.639" id="C1_26_bbc5ac3a77"/>
     <path d="
M822.996 -120.117
L822.996 -123.839
L960.106 -123.839
L960.106 -120.269" id="C1_27_3a76d9bbd7"/>
     <path d="
M726.31 -118.829
L726.31 -124.543
L891.551 -124.543
L891.551 -123.839" id="C1_28_a1eb6496a7"/>
     <path d="
M700.09 -72.644
L700.09 -130.297
L808.93 -130.297
L808.93 -124.543" id="C1_29_653a57a040"/>
     <path d="
M682.609 -72.644
L682.609 -133.074
L754.51 -133.074
L754.51 -130.297" id="C1_2a_ab3bdb253b"/>
     <path d="
M1032.21 -72.644
L1032.21 -124.969
L1049.69 -124.969
L1049.69 -72.644" id="C1_2b_111cffb648"/>
     <path d="
M1014.73 -72.644
L1014.73 -133.589
L1040.95 -133.589
L1040.95 -124.969" id="C1_2c_19ab7cfdf5"/>
     <path d="
M718.56 -133.074
L718.56 -134.936
L1027.84 -134.936
L1027.84 -133.589" id="C1_2d_ca419592d6"/>
     <path d="
M665.129 -72.644
L665.129 -138.075
L873.201 -138.075
L873.201 -134.936" id="C1_2e_32d92139c4"/>
     <path d="
M287.635 -135.313
L287.635 -140.325
L769.165 -140.325
L769.165 -138.075" id="C1_2f_af89665bc7"/>
     <path d="
M193.167 -72.644
L193.167 -143.643
L528.4 -143.643
L528.4 -140.325" id="C1_30_3815218805"/>
     <path d="
M175.687 -72.644
L175.687 -149.321
L360.783 -149.321
L360.783 -143.643" id="C1_31_be0edb1d79"/>
    </defs>
    <g clip-path="url(#p922289d469)">
     <use style="fill:none;stroke:#ff0000;" x="0.0" xlink:href="#C1_0_909fdc2767" y="216.0"/>
    </g>
    <g clip-path="url(#p922289d469)">
     <use style="fill:none;stroke:#ff0000;" x="0.0" xlink:href="#C1_1_d67422bc9d" y="216.0"/>
    </g>
    <g clip-path="url(#p922289d469)">
     <use style="fill:none;stroke:#ff0000;" x="0.0" xlink:href="#C1_2_5668514d85" y="216.0"/>
    </g>
    <g clip-path="url(#p922289d469)">
     <use style="fill:none;stroke:#ff0000;" x="0.0" xlink:href="#C1_3_1d4a31753f" y="216.0"/>
    </g>
    <g clip-path="url(#p922289d469)">
     <use style="fill:none;stroke:#ff0000;" x="0.0" xlink:href="#C1_4_0bc9bd57d6" y="216.0"/>
    </g>
    <g clip-path="url(#p922289d469)">
     <use style="fill:none;stroke:#ff0000;" x="0.0" xlink:href="#C1_5_2db4cc4c55" y="216.0"/>
    </g>
    <g clip-path="url(#p922289d469)">
     <use style="fill:none;stroke:#ff0000;" x="0.0" xlink:href="#C1_6_0e10019da0" y="216.0"/>
    </g>
    <g clip-path="url(#p922289d469)">
     <use style="fill:none;stroke:#ff0000;" x="0.0" xlink:href="#C1_7_d124a1c652" y="216.0"/>
    </g>
    <g clip-path="url(#p922289d469)">
     <use style="fill:none;stroke:#ff0000;" x="0.0" xlink:href="#C1_8_9a7adda249" y="216.0"/>
    </g>
    <g clip-path="url(#p922289d469)">
     <use style="fill:none;stroke:#ff0000;" x="0.0" xlink:href="#C1_9_2b6b2d224c" y="216.0"/>
    </g>
    <g clip-path="url(#p922289d469)">
     <use style="fill:none;stroke:#ff0000;" x="0.0" xlink:href="#C1_a_1cafe0f6f6" y="216.0"/>
    </g>
    <g clip-path="url(#p922289d469)">
     <use style="fill:none;stroke:#ff0000;" x="0.0" xlink:href="#C1_b_77cb066a71" y="216.0"/>
    </g>
    <g clip-path="url(#p922289d469)">
     <use style="fill:none;stroke:#ff0000;" x="0.0" xlink:href="#C1_c_abfbbabe6d" y="216.0"/>
    </g>
    <g clip-path="url(#p922289d469)">
     <use style="fill:none;stroke:#ff0000;" x="0.0" xlink:href="#C1_d_ecc4072197" y="216.0"/>
    </g>
    <g clip-path="url(#p922289d469)">
     <use style="fill:none;stroke:#ff0000;" x="0.0" xlink:href="#C1_e_44290a735e" y="216.0"/>
    </g>
    <g clip-path="url(#p922289d469)">
     <use style="fill:none;stroke:#ff0000;" x="0.0" xlink:href="#C1_f_079f22a91a" y="216.0"/>
    </g>
    <g clip-path="url(#p922289d469)">
     <use style="fill:none;stroke:#ff0000;" x="0.0" xlink:href="#C1_10_446b6bfbb1" y="216.0"/>
    </g>
    <g clip-path="url(#p922289d469)">
     <use style="fill:none;stroke:#ff0000;" x="0.0" xlink:href="#C1_11_7077945d1f" y="216.0"/>
    </g>
    <g clip-path="url(#p922289d469)">
     <use style="fill:none;stroke:#ff0000;" x="0.0" xlink:href="#C1_12_79d5d28340" y="216.0"/>
    </g>
    <g clip-path="url(#p922289d469)">
     <use style="fill:none;stroke:#ff0000;" x="0.0" xlink:href="#C1_13_4aac21e546" y="216.0"/>
    </g>
    <g clip-path="url(#p922289d469)">
     <use style="fill:none;stroke:#ff0000;" x="0.0" xlink:href="#C1_14_8a83112eec" y="216.0"/>
    </g>
    <g clip-path="url(#p922289d469)">
     <use style="fill:none;stroke:#ff0000;" x="0.0" xlink:href="#C1_15_11afe67ba4" y="216.0"/>
    </g>
    <g clip-path="url(#p922289d469)">
     <use style="fill:none;stroke:#ff0000;" x="0.0" xlink:href="#C1_16_32a897780d" y="216.0"/>
    </g>
    <g clip-path="url(#p922289d469)">
     <use style="fill:none;stroke:#ff0000;" x="0.0" xlink:href="#C1_17_a7a2a556fb" y="216.0"/>
    </g>
    <g clip-path="url(#p922289d469)">
     <use style="fill:none;stroke:#ff0000;" x="0.0" xlink:href="#C1_18_b16bae6a09" y="216.0"/>
    </g>
    <g clip-path="url(#p922289d469)">
     <use style="fill:none;stroke:#ff0000;" x="0.0" xlink:href="#C1_19_6e6646dbec" y="216.0"/>
    </g>
    <g clip-path="url(#p922289d469)">
     <use style="fill:none;stroke:#ff0000;" x="0.0" xlink:href="#C1_1a_0f68de0600" y="216.0"/>
    </g>
    <g clip-path="url(#p922289d469)">
     <use style="fill:none;stroke:#ff0000;" x="0.0" xlink:href="#C1_1b_bc2bdb9bc8" y="216.0"/>
    </g>
    <g clip-path="url(#p922289d469)">
     <use style="fill:none;stroke:#ff0000;" x="0.0" xlink:href="#C1_1c_51a4b2c823" y="216.0"/>
    </g>
    <g clip-path="url(#p922289d469)">
     <use style="fill:none;stroke:#ff0000;" x="0.0" xlink:href="#C1_1d_6a61899f09" y="216.0"/>
    </g>
    <g clip-path="url(#p922289d469)">
     <use style="fill:none;stroke:#ff0000;" x="0.0" xlink:href="#C1_1e_de79b60e3e" y="216.0"/>
    </g>
    <g clip-path="url(#p922289d469)">
     <use style="fill:none;stroke:#ff0000;" x="0.0" xlink:href="#C1_1f_a6bfa9eb6a" y="216.0"/>
    </g>
    <g clip-path="url(#p922289d469)">
     <use style="fill:none;stroke:#ff0000;" x="0.0" xlink:href="#C1_20_96df171a0d" y="216.0"/>
    </g>
    <g clip-path="url(#p922289d469)">
     <use style="fill:none;stroke:#ff0000;" x="0.0" xlink:href="#C1_21_f4f1ab5dcd" y="216.0"/>
    </g>
    <g clip-path="url(#p922289d469)">
     <use style="fill:none;stroke:#ff0000;" x="0.0" xlink:href="#C1_22_b825c1d521" y="216.0"/>
    </g>
    <g clip-path="url(#p922289d469)">
     <use style="fill:none;stroke:#ff0000;" x="0.0" xlink:href="#C1_23_6418a49d3c" y="216.0"/>
    </g>
    <g clip-path="url(#p922289d469)">
     <use style="fill:none;stroke:#ff0000;" x="0.0" xlink:href="#C1_24_4c5b8bbc72" y="216.0"/>
    </g>
    <g clip-path="url(#p922289d469)">
     <use style="fill:none;stroke:#ff0000;" x="0.0" xlink:href="#C1_25_cd31f115eb" y="216.0"/>
    </g>
    <g clip-path="url(#p922289d469)">
     <use style="fill:none;stroke:#ff0000;" x="0.0" xlink:href="#C1_26_bbc5ac3a77" y="216.0"/>
    </g>
    <g clip-path="url(#p922289d469)">
     <use style="fill:none;stroke:#ff0000;" x="0.0" xlink:href="#C1_27_3a76d9bbd7" y="216.0"/>
    </g>
    <g clip-path="url(#p922289d469)">
     <use style="fill:none;stroke:#ff0000;" x="0.0" xlink:href="#C1_28_a1eb6496a7" y="216.0"/>
    </g>
    <g clip-path="url(#p922289d469)">
     <use style="fill:none;stroke:#ff0000;" x="0.0" xlink:href="#C1_29_653a57a040" y="216.0"/>
    </g>
    <g clip-path="url(#p922289d469)">
     <use style="fill:none;stroke:#ff0000;" x="0.0" xlink:href="#C1_2a_ab3bdb253b" y="216.0"/>
    </g>
    <g clip-path="url(#p922289d469)">
     <use style="fill:none;stroke:#ff0000;" x="0.0" xlink:href="#C1_2b_111cffb648" y="216.0"/>
    </g>
    <g clip-path="url(#p922289d469)">
     <use style="fill:none;stroke:#ff0000;" x="0.0" xlink:href="#C1_2c_19ab7cfdf5" y="216.0"/>
    </g>
    <g clip-path="url(#p922289d469)">
     <use style="fill:none;stroke:#ff0000;" x="0.0" xlink:href="#C1_2d_ca419592d6" y="216.0"/>
    </g>
    <g clip-path="url(#p922289d469)">
     <use style="fill:none;stroke:#ff0000;" x="0.0" xlink:href="#C1_2e_32d92139c4" y="216.0"/>
    </g>
    <g clip-path="url(#p922289d469)">
     <use style="fill:none;stroke:#ff0000;" x="0.0" xlink:href="#C1_2f_af89665bc7" y="216.0"/>
    </g>
    <g clip-path="url(#p922289d469)">
     <use style="fill:none;stroke:#ff0000;" x="0.0" xlink:href="#C1_30_3815218805" y="216.0"/>
    </g>
    <g clip-path="url(#p922289d469)">
     <use style="fill:none;stroke:#ff0000;" x="0.0" xlink:href="#C1_31_be0edb1d79" y="216.0"/>
    </g>
   </g>
   <g id="LineCollection_3">
    <defs>
     <path d="
M158.207 -72.644
L158.207 -159.908
L268.235 -159.908
L268.235 -149.321" id="C2_0_c4513d4387"/>
     <path d="
M131.987 -150.975
L131.987 -165.934
L213.221 -165.934
L213.221 -159.908" id="C2_1_d31addc550"/>
     <path d="
M105.766 -72.644
L105.766 -167.727
L172.604 -167.727
L172.604 -165.934" id="C2_2_482e22df42"/>
     <path d="
M88.2864 -72.644
L88.2864 -195.147
L139.185 -195.147
L139.185 -167.727" id="C2_3_c8b81289fb"/>
     <path d="
M70.8063 -72.644
L70.8063 -196.831
L113.736 -196.831
L113.736 -195.147" id="C2_4_fdb5026ffc"/>
    </defs>
    <g clip-path="url(#p922289d469)">
     <use style="fill:none;stroke:#0000ff;" x="0.0" xlink:href="#C2_0_c4513d4387" y="216.0"/>
    </g>
    <g clip-path="url(#p922289d469)">
     <use style="fill:none;stroke:#0000ff;" x="0.0" xlink:href="#C2_1_d31addc550" y="216.0"/>
    </g>
    <g clip-path="url(#p922289d469)">
     <use style="fill:none;stroke:#0000ff;" x="0.0" xlink:href="#C2_2_482e22df42" y="216.0"/>
    </g>
    <g clip-path="url(#p922289d469)">
     <use style="fill:none;stroke:#0000ff;" x="0.0" xlink:href="#C2_3_c8b81289fb" y="216.0"/>
    </g>
    <g clip-path="url(#p922289d469)">
     <use style="fill:none;stroke:#0000ff;" x="0.0" xlink:href="#C2_4_fdb5026ffc" y="216.0"/>
    </g>
   </g>
   <g id="matplotlib.axis_1">
    <g id="xtick_1">
     <g id="text_1">
      <!-- 3b07 -->
      <defs>
       <path d="
M40.5781 39.3125
Q47.6562 37.7969 51.625 33
Q55.6094 28.2188 55.6094 21.1875
Q55.6094 10.4062 48.1875 4.48438
Q40.7656 -1.42188 27.0938 -1.42188
Q22.5156 -1.42188 17.6562 -0.515625
Q12.7969 0.390625 7.625 2.20312
L7.625 11.7188
Q11.7188 9.32812 16.5938 8.10938
Q21.4844 6.89062 26.8125 6.89062
Q36.0781 6.89062 40.9375 10.5469
Q45.7969 14.2031 45.7969 21.1875
Q45.7969 27.6406 41.2812 31.2656
Q36.7656 34.9062 28.7188 34.9062
L20.2188 34.9062
L20.2188 43.0156
L29.1094 43.0156
Q36.375 43.0156 40.2344 45.9219
Q44.0938 48.8281 44.0938 54.2969
Q44.0938 59.9062 40.1094 62.9062
Q36.1406 65.9219 28.7188 65.9219
Q24.6562 65.9219 20.0156 65.0312
Q15.375 64.1562 9.8125 62.3125
L9.8125 71.0938
Q15.4375 72.6562 20.3438 73.4375
Q25.25 74.2188 29.5938 74.2188
Q40.8281 74.2188 47.3594 69.1094
Q53.9062 64.0156 53.9062 55.3281
Q53.9062 49.2656 50.4375 45.0938
Q46.9688 40.9219 40.5781 39.3125" id="BitstreamVeraSans-Roman-33"/>
       <path d="
M31.7812 66.4062
Q24.1719 66.4062 20.3281 58.9062
Q16.5 51.4219 16.5 36.375
Q16.5 21.3906 20.3281 13.8906
Q24.1719 6.39062 31.7812 6.39062
Q39.4531 6.39062 43.2812 13.8906
Q47.125 21.3906 47.125 36.375
Q47.125 51.4219 43.2812 58.9062
Q39.4531 66.4062 31.7812 66.4062
M31.7812 74.2188
Q44.0469 74.2188 50.5156 64.5156
Q56.9844 54.8281 56.9844 36.375
Q56.9844 17.9688 50.5156 8.26562
Q44.0469 -1.42188 31.7812 -1.42188
Q19.5312 -1.42188 13.0625 8.26562
Q6.59375 17.9688 6.59375 36.375
Q6.59375 54.8281 13.0625 64.5156
Q19.5312 74.2188 31.7812 74.2188" id="BitstreamVeraSans-Roman-30"/>
       <path d="
M8.20312 72.9062
L55.0781 72.9062
L55.0781 68.7031
L28.6094 0
L18.3125 0
L43.2188 64.5938
L8.20312 64.5938
z
" id="BitstreamVeraSans-Roman-37"/>
       <path d="
M48.6875 27.2969
Q48.6875 37.2031 44.6094 42.8438
Q40.5312 48.4844 33.4062 48.4844
Q26.2656 48.4844 22.1875 42.8438
Q18.1094 37.2031 18.1094 27.2969
Q18.1094 17.3906 22.1875 11.75
Q26.2656 6.10938 33.4062 6.10938
Q40.5312 6.10938 44.6094 11.75
Q48.6875 17.3906 48.6875 27.2969
M18.1094 46.3906
Q20.9531 51.2656 25.2656 53.625
Q29.5938 56 35.5938 56
Q45.5625 56 51.7812 48.0938
Q58.0156 40.1875 58.0156 27.2969
Q58.0156 14.4062 51.7812 6.48438
Q45.5625 -1.42188 35.5938 -1.42188
Q29.5938 -1.42188 25.2656 0.953125
Q20.9531 3.32812 18.1094 8.20312
L18.1094 0
L9.07812 0
L9.07812 75.9844
L18.1094 75.9844
z
" id="BitstreamVeraSans-Roman-62"/>
      </defs>
      <g transform="translate(67.845731749 197.318207814)rotate(-70.0)scale(0.2 -0.2)">
       <use xlink:href="#BitstreamVeraSans-Roman-33"/>
       <use x="63.623046875" xlink:href="#BitstreamVeraSans-Roman-62"/>
       <use x="127.099609375" xlink:href="#BitstreamVeraSans-Roman-30"/>
       <use x="190.72265625" xlink:href="#BitstreamVeraSans-Roman-37"/>
      </g>
     </g>
    </g>
    <g id="xtick_2">
     <g id="text_2">
      <!-- 7ahl -->
      <defs>
       <path d="
M34.2812 27.4844
Q23.3906 27.4844 19.1875 25
Q14.9844 22.5156 14.9844 16.5
Q14.9844 11.7188 18.1406 8.90625
Q21.2969 6.10938 26.7031 6.10938
Q34.1875 6.10938 38.7031 11.4062
Q43.2188 16.7031 43.2188 25.4844
L43.2188 27.4844
z

M52.2031 31.2031
L52.2031 0
L43.2188 0
L43.2188 8.29688
Q40.1406 3.32812 35.5469 0.953125
Q30.9531 -1.42188 24.3125 -1.42188
Q15.9219 -1.42188 10.9531 3.29688
Q6 8.01562 6 15.9219
Q6 25.1406 12.1719 29.8281
Q18.3594 34.5156 30.6094 34.5156
L43.2188 34.5156
L43.2188 35.4062
Q43.2188 41.6094 39.1406 45
Q35.0625 48.3906 27.6875 48.3906
Q23 48.3906 18.5469 47.2656
Q14.1094 46.1406 10.0156 43.8906
L10.0156 52.2031
Q14.9375 54.1094 19.5781 55.0469
Q24.2188 56 28.6094 56
Q40.4844 56 46.3438 49.8438
Q52.2031 43.7031 52.2031 31.2031" id="BitstreamVeraSans-Roman-61"/>
       <path d="
M54.8906 33.0156
L54.8906 0
L45.9062 0
L45.9062 32.7188
Q45.9062 40.4844 42.875 44.3281
Q39.8438 48.1875 33.7969 48.1875
Q26.5156 48.1875 22.3125 43.5469
Q18.1094 38.9219 18.1094 30.9062
L18.1094 0
L9.07812 0
L9.07812 75.9844
L18.1094 75.9844
L18.1094 46.1875
Q21.3438 51.125 25.7031 53.5625
Q30.0781 56 35.7969 56
Q45.2188 56 50.0469 50.1719
Q54.8906 44.3438 54.8906 33.0156" id="BitstreamVeraSans-Roman-68"/>
       <path d="
M9.42188 75.9844
L18.4062 75.9844
L18.4062 0
L9.42188 0
z
" id="BitstreamVeraSans-Roman-6c"/>
      </defs>
      <g transform="translate(86.6837493729 189.856461097)rotate(-70.0)scale(0.2 -0.2)">
       <use xlink:href="#BitstreamVeraSans-Roman-37"/>
       <use x="63.623046875" xlink:href="#BitstreamVeraSans-Roman-61"/>
       <use x="124.90234375" xlink:href="#BitstreamVeraSans-Roman-68"/>
       <use x="188.28125" xlink:href="#BitstreamVeraSans-Roman-6c"/>
      </g>
     </g>
    </g>
    <g id="xtick_3">
     <g id="text_3">
      <!-- 2lme -->
      <defs>
       <path d="
M19.1875 8.29688
L53.6094 8.29688
L53.6094 0
L7.32812 0
L7.32812 8.29688
Q12.9375 14.1094 22.625 23.8906
Q32.3281 33.6875 34.8125 36.5312
Q39.5469 41.8438 41.4219 45.5312
Q43.3125 49.2188 43.3125 52.7812
Q43.3125 58.5938 39.2344 62.25
Q35.1562 65.9219 28.6094 65.9219
Q23.9688 65.9219 18.8125 64.3125
Q13.6719 62.7031 7.8125 59.4219
L7.8125 69.3906
Q13.7656 71.7812 18.9375 73
Q24.125 74.2188 28.4219 74.2188
Q39.75 74.2188 46.4844 68.5469
Q53.2188 62.8906 53.2188 53.4219
Q53.2188 48.9219 51.5312 44.8906
Q49.8594 40.875 45.4062 35.4062
Q44.1875 33.9844 37.6406 27.2188
Q31.1094 20.4531 19.1875 8.29688" id="BitstreamVeraSans-Roman-32"/>
       <path d="
M52 44.1875
Q55.375 50.25 60.0625 53.125
Q64.75 56 71.0938 56
Q79.6406 56 84.2812 50.0156
Q88.9219 44.0469 88.9219 33.0156
L88.9219 0
L79.8906 0
L79.8906 32.7188
Q79.8906 40.5781 77.0938 44.375
Q74.3125 48.1875 68.6094 48.1875
Q61.625 48.1875 57.5625 43.5469
Q53.5156 38.9219 53.5156 30.9062
L53.5156 0
L44.4844 0
L44.4844 32.7188
Q44.4844 40.625 41.7031 44.4062
Q38.9219 48.1875 33.1094 48.1875
Q26.2188 48.1875 22.1562 43.5312
Q18.1094 38.875 18.1094 30.9062
L18.1094 0
L9.07812 0
L9.07812 54.6875
L18.1094 54.6875
L18.1094 46.1875
Q21.1875 51.2188 25.4844 53.6094
Q29.7812 56 35.6875 56
Q41.6562 56 45.8281 52.9688
Q50 49.9531 52 44.1875" id="BitstreamVeraSans-Roman-6d"/>
       <path d="
M56.2031 29.5938
L56.2031 25.2031
L14.8906 25.2031
Q15.4844 15.9219 20.4844 11.0625
Q25.4844 6.20312 34.4219 6.20312
Q39.5938 6.20312 44.4531 7.46875
Q49.3125 8.73438 54.1094 11.2812
L54.1094 2.78125
Q49.2656 0.734375 44.1875 -0.34375
Q39.1094 -1.42188 33.8906 -1.42188
Q20.7969 -1.42188 13.1562 6.1875
Q5.51562 13.8125 5.51562 26.8125
Q5.51562 40.2344 12.7656 48.1094
Q20.0156 56 32.3281 56
Q43.3594 56 49.7812 48.8906
Q56.2031 41.7969 56.2031 29.5938
M47.2188 32.2344
Q47.125 39.5938 43.0938 43.9844
Q39.0625 48.3906 32.4219 48.3906
Q24.9062 48.3906 20.3906 44.1406
Q15.875 39.8906 15.1875 32.1719
z
" id="BitstreamVeraSans-Roman-65"/>
      </defs>
      <g transform="translate(102.823014303 197.224238552)rotate(-70.0)scale(0.2 -0.2)">
       <use xlink:href="#BitstreamVeraSans-Roman-32"/>
       <use x="63.623046875" xlink:href="#BitstreamVeraSans-Roman-6c"/>
       <use x="91.40625" xlink:href="#BitstreamVeraSans-Roman-6d"/>
       <use x="188.818359375" xlink:href="#BitstreamVeraSans-Roman-65"/>
      </g>
     </g>
    </g>
    <g id="xtick_4">
     <g id="text_4">
      <!-- 2lhf -->
      <defs>
       <path d="
M37.1094 75.9844
L37.1094 68.5
L28.5156 68.5
Q23.6875 68.5 21.7969 66.5469
Q19.9219 64.5938 19.9219 59.5156
L19.9219 54.6875
L34.7188 54.6875
L34.7188 47.7031
L19.9219 47.7031
L19.9219 0
L10.8906 0
L10.8906 47.7031
L2.29688 47.7031
L2.29688 54.6875
L10.8906 54.6875
L10.8906 58.5
Q10.8906 67.625 15.1406 71.7969
Q19.3906 75.9844 28.6094 75.9844
z
" id="BitstreamVeraSans-Roman-66"/>
      </defs>
      <g transform="translate(122.120087089 187.240004456)rotate(-70.0)scale(0.2 -0.2)">
       <use xlink:href="#BitstreamVeraSans-Roman-32"/>
       <use x="63.623046875" xlink:href="#BitstreamVeraSans-Roman-6c"/>
       <use x="91.40625" xlink:href="#BitstreamVeraSans-Roman-68"/>
       <use x="154.78515625" xlink:href="#BitstreamVeraSans-Roman-66"/>
      </g>
     </g>
    </g>
    <g id="xtick_5">
     <g id="text_5">
      <!-- 3rbh -->
      <defs>
       <path d="
M41.1094 46.2969
Q39.5938 47.1719 37.8125 47.5781
Q36.0312 48 33.8906 48
Q26.2656 48 22.1875 43.0469
Q18.1094 38.0938 18.1094 28.8125
L18.1094 0
L9.07812 0
L9.07812 54.6875
L18.1094 54.6875
L18.1094 46.1875
Q20.9531 51.1719 25.4844 53.5781
Q30.0312 56 36.5312 56
Q37.4531 56 38.5781 55.875
Q39.7031 55.7656 41.0625 55.5156
z
" id="BitstreamVeraSans-Roman-72"/>
      </defs>
      <g transform="translate(138.54258745 193.051416008)rotate(-70.0)scale(0.2 -0.2)">
       <use xlink:href="#BitstreamVeraSans-Roman-33"/>
       <use x="63.623046875" xlink:href="#BitstreamVeraSans-Roman-72"/>
       <use x="104.736328125" xlink:href="#BitstreamVeraSans-Roman-62"/>
       <use x="168.212890625" xlink:href="#BitstreamVeraSans-Roman-68"/>
      </g>
     </g>
    </g>
    <g id="xtick_6">
     <g id="text_6">
      <!-- 3o44 -->
      <defs>
       <path d="
M30.6094 48.3906
Q23.3906 48.3906 19.1875 42.75
Q14.9844 37.1094 14.9844 27.2969
Q14.9844 17.4844 19.1562 11.8438
Q23.3438 6.20312 30.6094 6.20312
Q37.7969 6.20312 41.9844 11.8594
Q46.1875 17.5312 46.1875 27.2969
Q46.1875 37.0156 41.9844 42.7031
Q37.7969 48.3906 30.6094 48.3906
M30.6094 56
Q42.3281 56 49.0156 48.375
Q55.7188 40.7656 55.7188 27.2969
Q55.7188 13.875 49.0156 6.21875
Q42.3281 -1.42188 30.6094 -1.42188
Q18.8438 -1.42188 12.1719 6.21875
Q5.51562 13.875 5.51562 27.2969
Q5.51562 40.7656 12.1719 48.375
Q18.8438 56 30.6094 56" id="BitstreamVeraSans-Roman-6f"/>
       <path d="
M37.7969 64.3125
L12.8906 25.3906
L37.7969 25.3906
z

M35.2031 72.9062
L47.6094 72.9062
L47.6094 25.3906
L58.0156 25.3906
L58.0156 17.1875
L47.6094 17.1875
L47.6094 0
L37.7969 0
L37.7969 17.1875
L4.89062 17.1875
L4.89062 26.7031
z
" id="BitstreamVeraSans-Roman-34"/>
      </defs>
      <g transform="translate(155.224274952 197.438605931)rotate(-70.0)scale(0.2 -0.2)">
       <use xlink:href="#BitstreamVeraSans-Roman-33"/>
       <use x="63.623046875" xlink:href="#BitstreamVeraSans-Roman-6f"/>
       <use x="124.8046875" xlink:href="#BitstreamVeraSans-Roman-34"/>
       <use x="188.427734375" xlink:href="#BitstreamVeraSans-Roman-34"/>
      </g>
     </g>
    </g>
    <g id="xtick_7">
     <g id="text_7">
      <!-- 1thq -->
      <defs>
       <path d="
M18.3125 70.2188
L18.3125 54.6875
L36.8125 54.6875
L36.8125 47.7031
L18.3125 47.7031
L18.3125 18.0156
Q18.3125 11.3281 20.1406 9.42188
Q21.9688 7.51562 27.5938 7.51562
L36.8125 7.51562
L36.8125 0
L27.5938 0
Q17.1875 0 13.2344 3.875
Q9.28125 7.76562 9.28125 18.0156
L9.28125 47.7031
L2.6875 47.7031
L2.6875 54.6875
L9.28125 54.6875
L9.28125 70.2188
z
" id="BitstreamVeraSans-Roman-74"/>
       <path d="
M12.4062 8.29688
L28.5156 8.29688
L28.5156 63.9219
L10.9844 60.4062
L10.9844 69.3906
L28.4219 72.9062
L38.2812 72.9062
L38.2812 8.29688
L54.3906 8.29688
L54.3906 0
L12.4062 0
z
" id="BitstreamVeraSans-Roman-31"/>
       <path d="
M14.7969 27.2969
Q14.7969 17.3906 18.875 11.75
Q22.9531 6.10938 30.0781 6.10938
Q37.2031 6.10938 41.2969 11.75
Q45.4062 17.3906 45.4062 27.2969
Q45.4062 37.2031 41.2969 42.8438
Q37.2031 48.4844 30.0781 48.4844
Q22.9531 48.4844 18.875 42.8438
Q14.7969 37.2031 14.7969 27.2969
M45.4062 8.20312
Q42.5781 3.32812 38.25 0.953125
Q33.9375 -1.42188 27.875 -1.42188
Q17.9688 -1.42188 11.7344 6.48438
Q5.51562 14.4062 5.51562 27.2969
Q5.51562 40.1875 11.7344 48.0938
Q17.9688 56 27.875 56
Q33.9375 56 38.25 53.625
Q42.5781 51.2656 45.4062 46.3906
L45.4062 54.6875
L54.3906 54.6875
L54.3906 -20.7969
L45.4062 -20.7969
z
" id="BitstreamVeraSans-Roman-71"/>
      </defs>
      <g transform="translate(173.703705832 191.947277178)rotate(-70.0)scale(0.2 -0.2)">
       <use xlink:href="#BitstreamVeraSans-Roman-31"/>
       <use x="63.623046875" xlink:href="#BitstreamVeraSans-Roman-74"/>
       <use x="102.83203125" xlink:href="#BitstreamVeraSans-Roman-68"/>
       <use x="166.2109375" xlink:href="#BitstreamVeraSans-Roman-71"/>
      </g>
     </g>
    </g>
    <g id="xtick_8">
     <g id="text_8">
      <!-- 1yc9 -->
      <defs>
       <path d="
M10.9844 1.51562
L10.9844 10.5
Q14.7031 8.73438 18.5 7.8125
Q22.3125 6.89062 25.9844 6.89062
Q35.75 6.89062 40.8906 13.4531
Q46.0469 20.0156 46.7812 33.4062
Q43.9531 29.2031 39.5938 26.9531
Q35.25 24.7031 29.9844 24.7031
Q19.0469 24.7031 12.6719 31.3125
Q6.29688 37.9375 6.29688 49.4219
Q6.29688 60.6406 12.9375 67.4219
Q19.5781 74.2188 30.6094 74.2188
Q43.2656 74.2188 49.9219 64.5156
Q56.5938 54.8281 56.5938 36.375
Q56.5938 19.1406 48.4062 8.85938
Q40.2344 -1.42188 26.4219 -1.42188
Q22.7031 -1.42188 18.8906 -0.6875
Q15.0938 0.046875 10.9844 1.51562
M30.6094 32.4219
Q37.25 32.4219 41.125 36.9531
Q45.0156 41.5 45.0156 49.4219
Q45.0156 57.2812 41.125 61.8438
Q37.25 66.4062 30.6094 66.4062
Q23.9688 66.4062 20.0938 61.8438
Q16.2188 57.2812 16.2188 49.4219
Q16.2188 41.5 20.0938 36.9531
Q23.9688 32.4219 30.6094 32.4219" id="BitstreamVeraSans-Roman-39"/>
       <path d="
M48.7812 52.5938
L48.7812 44.1875
Q44.9688 46.2969 41.1406 47.3438
Q37.3125 48.3906 33.4062 48.3906
Q24.6562 48.3906 19.8125 42.8438
Q14.9844 37.3125 14.9844 27.2969
Q14.9844 17.2812 19.8125 11.7344
Q24.6562 6.20312 33.4062 6.20312
Q37.3125 6.20312 41.1406 7.25
Q44.9688 8.29688 48.7812 10.4062
L48.7812 2.09375
Q45.0156 0.34375 40.9844 -0.53125
Q36.9688 -1.42188 32.4219 -1.42188
Q20.0625 -1.42188 12.7812 6.34375
Q5.51562 14.1094 5.51562 27.2969
Q5.51562 40.6719 12.8594 48.3281
Q20.2188 56 33.0156 56
Q37.1562 56 41.1094 55.1406
Q45.0625 54.2969 48.7812 52.5938" id="BitstreamVeraSans-Roman-63"/>
       <path d="
M32.1719 -5.07812
Q28.375 -14.8438 24.75 -17.8125
Q21.1406 -20.7969 15.0938 -20.7969
L7.90625 -20.7969
L7.90625 -13.2812
L13.1875 -13.2812
Q16.8906 -13.2812 18.9375 -11.5156
Q21 -9.76562 23.4844 -3.21875
L25.0938 0.875
L2.98438 54.6875
L12.5 54.6875
L29.5938 11.9219
L46.6875 54.6875
L56.2031 54.6875
z
" id="BitstreamVeraSans-Roman-79"/>
      </defs>
      <g transform="translate(190.711915689 194.540241504)rotate(-70.0)scale(0.2 -0.2)">
       <use xlink:href="#BitstreamVeraSans-Roman-31"/>
       <use x="63.623046875" xlink:href="#BitstreamVeraSans-Roman-79"/>
       <use x="122.802734375" xlink:href="#BitstreamVeraSans-Roman-63"/>
       <use x="177.783203125" xlink:href="#BitstreamVeraSans-Roman-39"/>
      </g>
     </g>
    </g>
    <g id="xtick_9">
     <g id="text_9">
      <!-- 2wjr -->
      <defs>
       <path d="
M4.20312 54.6875
L13.1875 54.6875
L24.4219 12.0156
L35.5938 54.6875
L46.1875 54.6875
L57.4219 12.0156
L68.6094 54.6875
L77.5938 54.6875
L63.2812 0
L52.6875 0
L40.9219 44.8281
L29.1094 0
L18.5 0
z
" id="BitstreamVeraSans-Roman-77"/>
       <path d="
M9.42188 54.6875
L18.4062 54.6875
L18.4062 -0.984375
Q18.4062 -11.4219 14.4219 -16.1094
Q10.4531 -20.7969 1.60938 -20.7969
L-1.8125 -20.7969
L-1.8125 -13.1875
L0.59375 -13.1875
Q5.71875 -13.1875 7.5625 -10.8125
Q9.42188 -8.45312 9.42188 -0.984375
z

M9.42188 75.9844
L18.4062 75.9844
L18.4062 64.5938
L9.42188 64.5938
z
" id="BitstreamVeraSans-Roman-6a"/>
      </defs>
      <g transform="translate(208.754202073 191.451002013)rotate(-70.0)scale(0.2 -0.2)">
       <use xlink:href="#BitstreamVeraSans-Roman-32"/>
       <use x="63.623046875" xlink:href="#BitstreamVeraSans-Roman-77"/>
       <use x="145.41015625" xlink:href="#BitstreamVeraSans-Roman-6a"/>
       <use x="173.193359375" xlink:href="#BitstreamVeraSans-Roman-72"/>
      </g>
     </g>
    </g>
    <g id="xtick_10">
     <g id="text_10">
      <!-- 1p4t -->
      <defs>
       <path d="
M18.1094 8.20312
L18.1094 -20.7969
L9.07812 -20.7969
L9.07812 54.6875
L18.1094 54.6875
L18.1094 46.3906
Q20.9531 51.2656 25.2656 53.625
Q29.5938 56 35.5938 56
Q45.5625 56 51.7812 48.0938
Q58.0156 40.1875 58.0156 27.2969
Q58.0156 14.4062 51.7812 6.48438
Q45.5625 -1.42188 35.5938 -1.42188
Q29.5938 -1.42188 25.2656 0.953125
Q20.9531 3.32812 18.1094 8.20312
M48.6875 27.2969
Q48.6875 37.2031 44.6094 42.8438
Q40.5312 48.4844 33.4062 48.4844
Q26.2656 48.4844 22.1875 42.8438
Q18.1094 37.2031 18.1094 27.2969
Q18.1094 17.3906 22.1875 11.75
Q26.2656 6.10938 33.4062 6.10938
Q40.5312 6.10938 44.6094 11.75
Q48.6875 17.3906 48.6875 27.2969" id="BitstreamVeraSans-Roman-70"/>
      </defs>
      <g transform="translate(225.906167272 193.254037229)rotate(-70.0)scale(0.2 -0.2)">
       <use xlink:href="#BitstreamVeraSans-Roman-31"/>
       <use x="63.623046875" xlink:href="#BitstreamVeraSans-Roman-70"/>
       <use x="127.099609375" xlink:href="#BitstreamVeraSans-Roman-34"/>
       <use x="190.72265625" xlink:href="#BitstreamVeraSans-Roman-74"/>
      </g>
     </g>
    </g>
    <g id="xtick_11">
     <g id="text_11">
      <!-- 2omf -->
      <g transform="translate(242.174224163 199.914108679)rotate(-70.0)scale(0.2 -0.2)">
       <use xlink:href="#BitstreamVeraSans-Roman-32"/>
       <use x="63.623046875" xlink:href="#BitstreamVeraSans-Roman-6f"/>
       <use x="124.8046875" xlink:href="#BitstreamVeraSans-Roman-6d"/>
       <use x="222.216796875" xlink:href="#BitstreamVeraSans-Roman-66"/>
      </g>
     </g>
    </g>
    <g id="xtick_12">
     <g id="text_12">
      <!-- 2fcp -->
      <g transform="translate(261.278910617 190.987028782)rotate(-70.0)scale(0.2 -0.2)">
       <use xlink:href="#BitstreamVeraSans-Roman-32"/>
       <use x="63.623046875" xlink:href="#BitstreamVeraSans-Roman-66"/>
       <use x="98.828125" xlink:href="#BitstreamVeraSans-Roman-63"/>
       <use x="153.80859375" xlink:href="#BitstreamVeraSans-Roman-70"/>
      </g>
     </g>
    </g>
    <g id="xtick_13">
     <g id="text_13">
      <!-- 4k3c -->
      <defs>
       <path d="
M9.07812 75.9844
L18.1094 75.9844
L18.1094 31.1094
L44.9219 54.6875
L56.3906 54.6875
L27.3906 29.1094
L57.625 0
L45.9062 0
L18.1094 26.7031
L18.1094 0
L9.07812 0
z
" id="BitstreamVeraSans-Roman-6b"/>
      </defs>
      <g transform="translate(277.91944882 195.600332242)rotate(-70.0)scale(0.2 -0.2)">
       <use xlink:href="#BitstreamVeraSans-Roman-34"/>
       <use x="63.623046875" xlink:href="#BitstreamVeraSans-Roman-6b"/>
       <use x="121.533203125" xlink:href="#BitstreamVeraSans-Roman-33"/>
       <use x="185.15625" xlink:href="#BitstreamVeraSans-Roman-63"/>
      </g>
     </g>
    </g>
    <g id="xtick_14">
     <g id="text_14">
      <!-- 1fep -->
      <g transform="translate(296.140226967 191.530288578)rotate(-70.0)scale(0.2 -0.2)">
       <use xlink:href="#BitstreamVeraSans-Roman-31"/>
       <use x="63.623046875" xlink:href="#BitstreamVeraSans-Roman-66"/>
       <use x="98.828125" xlink:href="#BitstreamVeraSans-Roman-65"/>
       <use x="160.3515625" xlink:href="#BitstreamVeraSans-Roman-70"/>
      </g>
     </g>
    </g>
    <g id="xtick_15">
     <g id="text_15">
      <!-- 2o4v -->
      <defs>
       <path d="
M2.98438 54.6875
L12.5 54.6875
L29.5938 8.79688
L46.6875 54.6875
L56.2031 54.6875
L35.6875 0
L23.4844 0
z
" id="BitstreamVeraSans-Roman-76"/>
      </defs>
      <g transform="translate(312.596929343 197.153761605)rotate(-70.0)scale(0.2 -0.2)">
       <use xlink:href="#BitstreamVeraSans-Roman-32"/>
       <use x="63.623046875" xlink:href="#BitstreamVeraSans-Roman-6f"/>
       <use x="124.8046875" xlink:href="#BitstreamVeraSans-Roman-34"/>
       <use x="188.427734375" xlink:href="#BitstreamVeraSans-Roman-76"/>
      </g>
     </g>
    </g>
    <g id="xtick_16">
     <g id="text_16">
      <!-- 2mpr -->
      <g transform="translate(329.359312222 201.097534073)rotate(-70.0)scale(0.2 -0.2)">
       <use xlink:href="#BitstreamVeraSans-Roman-32"/>
       <use x="63.623046875" xlink:href="#BitstreamVeraSans-Roman-6d"/>
       <use x="161.03515625" xlink:href="#BitstreamVeraSans-Roman-70"/>
       <use x="224.51171875" xlink:href="#BitstreamVeraSans-Roman-72"/>
      </g>
     </g>
    </g>
    <g id="xtick_17">
     <g id="text_17">
      <!-- 1uyn -->
      <defs>
       <path d="
M54.8906 33.0156
L54.8906 0
L45.9062 0
L45.9062 32.7188
Q45.9062 40.4844 42.875 44.3281
Q39.8438 48.1875 33.7969 48.1875
Q26.5156 48.1875 22.3125 43.5469
Q18.1094 38.9219 18.1094 30.9062
L18.1094 0
L9.07812 0
L9.07812 54.6875
L18.1094 54.6875
L18.1094 46.1875
Q21.3438 51.125 25.7031 53.5625
Q30.0781 56 35.7969 56
Q45.2188 56 50.0469 50.1719
Q54.8906 44.3438 54.8906 33.0156" id="BitstreamVeraSans-Roman-6e"/>
       <path d="
M8.5 21.5781
L8.5 54.6875
L17.4844 54.6875
L17.4844 21.9219
Q17.4844 14.1562 20.5 10.2656
Q23.5312 6.39062 29.5938 6.39062
Q36.8594 6.39062 41.0781 11.0312
Q45.3125 15.6719 45.3125 23.6875
L45.3125 54.6875
L54.2969 54.6875
L54.2969 0
L45.3125 0
L45.3125 8.40625
Q42.0469 3.42188 37.7188 1
Q33.4062 -1.42188 27.6875 -1.42188
Q18.2656 -1.42188 13.375 4.4375
Q8.5 10.2969 8.5 21.5781" id="BitstreamVeraSans-Roman-75"/>
      </defs>
      <g transform="translate(347.804006681 195.797080384)rotate(-70.0)scale(0.2 -0.2)">
       <use xlink:href="#BitstreamVeraSans-Roman-31"/>
       <use x="63.623046875" xlink:href="#BitstreamVeraSans-Roman-75"/>
       <use x="127.001953125" xlink:href="#BitstreamVeraSans-Roman-79"/>
       <use x="186.181640625" xlink:href="#BitstreamVeraSans-Roman-6e"/>
      </g>
     </g>
    </g>
    <g id="xtick_18">
     <g id="text_18">
      <!-- 3csl -->
      <defs>
       <path d="
M44.2812 53.0781
L44.2812 44.5781
Q40.4844 46.5312 36.375 47.5
Q32.2812 48.4844 27.875 48.4844
Q21.1875 48.4844 17.8438 46.4375
Q14.5 44.3906 14.5 40.2812
Q14.5 37.1562 16.8906 35.375
Q19.2812 33.5938 26.5156 31.9844
L29.5938 31.2969
Q39.1562 29.25 43.1875 25.5156
Q47.2188 21.7812 47.2188 15.0938
Q47.2188 7.46875 41.1875 3.01562
Q35.1562 -1.42188 24.6094 -1.42188
Q20.2188 -1.42188 15.4531 -0.5625
Q10.6875 0.296875 5.42188 2
L5.42188 11.2812
Q10.4062 8.6875 15.2344 7.39062
Q20.0625 6.10938 24.8125 6.10938
Q31.1562 6.10938 34.5625 8.28125
Q37.9844 10.4531 37.9844 14.4062
Q37.9844 18.0625 35.5156 20.0156
Q33.0625 21.9688 24.7031 23.7812
L21.5781 24.5156
Q13.2344 26.2656 9.51562 29.9062
Q5.8125 33.5469 5.8125 39.8906
Q5.8125 47.6094 11.2812 51.7969
Q16.75 56 26.8125 56
Q31.7812 56 36.1719 55.2656
Q40.5781 54.5469 44.2812 53.0781" id="BitstreamVeraSans-Roman-73"/>
      </defs>
      <g transform="translate(366.946635995 186.661506187)rotate(-70.0)scale(0.2 -0.2)">
       <use xlink:href="#BitstreamVeraSans-Roman-33"/>
       <use x="63.623046875" xlink:href="#BitstreamVeraSans-Roman-63"/>
       <use x="118.603515625" xlink:href="#BitstreamVeraSans-Roman-73"/>
       <use x="170.703125" xlink:href="#BitstreamVeraSans-Roman-6c"/>
      </g>
     </g>
    </g>
    <g id="xtick_19">
     <g id="text_19">
      <!-- 1kmo -->
      <g transform="translate(381.615748716 202.107703641)rotate(-70.0)scale(0.2 -0.2)">
       <use xlink:href="#BitstreamVeraSans-Roman-31"/>
       <use x="63.623046875" xlink:href="#BitstreamVeraSans-Roman-6b"/>
       <use x="121.533203125" xlink:href="#BitstreamVeraSans-Roman-6d"/>
       <use x="218.9453125" xlink:href="#BitstreamVeraSans-Roman-6f"/>
      </g>
     </g>
    </g>
    <g id="xtick_20">
     <g id="text_20">
      <!-- 1bxw -->
      <defs>
       <path d="
M54.8906 54.6875
L35.1094 28.0781
L55.9062 0
L45.3125 0
L29.3906 21.4844
L13.4844 0
L2.875 0
L24.125 28.6094
L4.6875 54.6875
L15.2812 54.6875
L29.7812 35.2031
L44.2812 54.6875
z
" id="BitstreamVeraSans-Roman-78"/>
      </defs>
      <g transform="translate(399.46404555 200.084427967)rotate(-70.0)scale(0.2 -0.2)">
       <use xlink:href="#BitstreamVeraSans-Roman-31"/>
       <use x="63.623046875" xlink:href="#BitstreamVeraSans-Roman-62"/>
       <use x="127.099609375" xlink:href="#BitstreamVeraSans-Roman-78"/>
       <use x="186.279296875" xlink:href="#BitstreamVeraSans-Roman-77"/>
      </g>
     </g>
    </g>
    <g id="xtick_21">
     <g id="text_21">
      <!-- 3vzt -->
      <defs>
       <path d="
M5.51562 54.6875
L48.1875 54.6875
L48.1875 46.4844
L14.4062 7.17188
L48.1875 7.17188
L48.1875 0
L4.29688 0
L4.29688 8.20312
L38.0938 47.5156
L5.51562 47.5156
z
" id="BitstreamVeraSans-Roman-7a"/>
      </defs>
      <g transform="translate(418.600261986 190.984092242)rotate(-70.0)scale(0.2 -0.2)">
       <use xlink:href="#BitstreamVeraSans-Roman-33"/>
       <use x="63.623046875" xlink:href="#BitstreamVeraSans-Roman-76"/>
       <use x="122.802734375" xlink:href="#BitstreamVeraSans-Roman-7a"/>
       <use x="175.29296875" xlink:href="#BitstreamVeraSans-Roman-74"/>
      </g>
     </g>
    </g>
    <g id="xtick_22">
     <g id="text_22">
      <!-- 2f1t -->
      <g transform="translate(436.509481159 188.626051072)rotate(-70.0)scale(0.2 -0.2)">
       <use xlink:href="#BitstreamVeraSans-Roman-32"/>
       <use x="63.623046875" xlink:href="#BitstreamVeraSans-Roman-66"/>
       <use x="98.828125" xlink:href="#BitstreamVeraSans-Roman-31"/>
       <use x="162.451171875" xlink:href="#BitstreamVeraSans-Roman-74"/>
      </g>
     </g>
    </g>
    <g id="xtick_23">
     <g id="text_23">
      <!-- 1qj8 -->
      <defs>
       <path d="
M31.7812 34.625
Q24.75 34.625 20.7188 30.8594
Q16.7031 27.0938 16.7031 20.5156
Q16.7031 13.9219 20.7188 10.1562
Q24.75 6.39062 31.7812 6.39062
Q38.8125 6.39062 42.8594 10.1719
Q46.9219 13.9688 46.9219 20.5156
Q46.9219 27.0938 42.8906 30.8594
Q38.875 34.625 31.7812 34.625
M21.9219 38.8125
Q15.5781 40.375 12.0312 44.7188
Q8.5 49.0781 8.5 55.3281
Q8.5 64.0625 14.7188 69.1406
Q20.9531 74.2188 31.7812 74.2188
Q42.6719 74.2188 48.875 69.1406
Q55.0781 64.0625 55.0781 55.3281
Q55.0781 49.0781 51.5312 44.7188
Q48 40.375 41.7031 38.8125
Q48.8281 37.1562 52.7969 32.3125
Q56.7812 27.4844 56.7812 20.5156
Q56.7812 9.90625 50.3125 4.23438
Q43.8438 -1.42188 31.7812 -1.42188
Q19.7344 -1.42188 13.25 4.23438
Q6.78125 9.90625 6.78125 20.5156
Q6.78125 27.4844 10.7812 32.3125
Q14.7969 37.1562 21.9219 38.8125
M18.3125 54.3906
Q18.3125 48.7344 21.8438 45.5625
Q25.3906 42.3906 31.7812 42.3906
Q38.1406 42.3906 41.7188 45.5625
Q45.3125 48.7344 45.3125 54.3906
Q45.3125 60.0625 41.7188 63.2344
Q38.1406 66.4062 31.7812 66.4062
Q25.3906 66.4062 21.8438 63.2344
Q18.3125 60.0625 18.3125 54.3906" id="BitstreamVeraSans-Roman-38"/>
      </defs>
      <g transform="translate(453.690304307 190.270513158)rotate(-70.0)scale(0.2 -0.2)">
       <use xlink:href="#BitstreamVeraSans-Roman-31"/>
       <use x="63.623046875" xlink:href="#BitstreamVeraSans-Roman-71"/>
       <use x="127.099609375" xlink:href="#BitstreamVeraSans-Roman-6a"/>
       <use x="154.8828125" xlink:href="#BitstreamVeraSans-Roman-38"/>
      </g>
     </g>
    </g>
    <g id="xtick_24">
     <g id="text_24">
      <!-- 1i78 -->
      <defs>
       <path d="
M9.42188 54.6875
L18.4062 54.6875
L18.4062 0
L9.42188 0
z

M9.42188 75.9844
L18.4062 75.9844
L18.4062 64.5938
L9.42188 64.5938
z
" id="BitstreamVeraSans-Roman-69"/>
      </defs>
      <g transform="translate(471.165585422 190.296942013)rotate(-70.0)scale(0.2 -0.2)">
       <use xlink:href="#BitstreamVeraSans-Roman-31"/>
       <use x="63.623046875" xlink:href="#BitstreamVeraSans-Roman-69"/>
       <use x="91.40625" xlink:href="#BitstreamVeraSans-Roman-37"/>
       <use x="155.029296875" xlink:href="#BitstreamVeraSans-Roman-38"/>
      </g>
     </g>
    </g>
    <g id="xtick_25">
     <g id="text_25">
      <!-- 1e54 -->
      <defs>
       <path d="
M10.7969 72.9062
L49.5156 72.9062
L49.5156 64.5938
L19.8281 64.5938
L19.8281 46.7344
Q21.9688 47.4688 24.1094 47.8281
Q26.2656 48.1875 28.4219 48.1875
Q40.625 48.1875 47.75 41.5
Q54.8906 34.8125 54.8906 23.3906
Q54.8906 11.625 47.5625 5.09375
Q40.2344 -1.42188 26.9062 -1.42188
Q22.3125 -1.42188 17.5469 -0.640625
Q12.7969 0.140625 7.71875 1.70312
L7.71875 11.625
Q12.1094 9.23438 16.7969 8.0625
Q21.4844 6.89062 26.7031 6.89062
Q35.1562 6.89062 40.0781 11.3281
Q45.0156 15.7656 45.0156 23.3906
Q45.0156 31 40.0781 35.4375
Q35.1562 39.8906 26.7031 39.8906
Q22.75 39.8906 18.8125 39.0156
Q14.8906 38.1406 10.7969 36.2812
z
" id="BitstreamVeraSans-Roman-35"/>
      </defs>
      <g transform="translate(487.449140101 196.871853819)rotate(-70.0)scale(0.2 -0.2)">
       <use xlink:href="#BitstreamVeraSans-Roman-31"/>
       <use x="63.623046875" xlink:href="#BitstreamVeraSans-Roman-65"/>
       <use x="125.146484375" xlink:href="#BitstreamVeraSans-Roman-35"/>
       <use x="188.76953125" xlink:href="#BitstreamVeraSans-Roman-34"/>
      </g>
     </g>
    </g>
    <g id="xtick_26">
     <g id="text_26">
      <!-- 1k24 -->
      <g transform="translate(505.053213176 196.190576669)rotate(-70.0)scale(0.2 -0.2)">
       <use xlink:href="#BitstreamVeraSans-Roman-31"/>
       <use x="63.623046875" xlink:href="#BitstreamVeraSans-Roman-6b"/>
       <use x="121.533203125" xlink:href="#BitstreamVeraSans-Roman-32"/>
       <use x="185.15625" xlink:href="#BitstreamVeraSans-Roman-34"/>
      </g>
     </g>
    </g>
    <g id="xtick_27">
     <g id="text_27">
      <!-- 1ek9 -->
      <g transform="translate(522.653545407 195.529855295)rotate(-70.0)scale(0.2 -0.2)">
       <use xlink:href="#BitstreamVeraSans-Roman-31"/>
       <use x="63.623046875" xlink:href="#BitstreamVeraSans-Roman-65"/>
       <use x="125.146484375" xlink:href="#BitstreamVeraSans-Roman-6b"/>
       <use x="183.056640625" xlink:href="#BitstreamVeraSans-Roman-39"/>
      </g>
     </g>
    </g>
    <g id="xtick_28">
     <g id="text_28">
      <!-- 3pik -->
      <g transform="translate(540.947002834 191.060442268)rotate(-70.0)scale(0.2 -0.2)">
       <use xlink:href="#BitstreamVeraSans-Roman-33"/>
       <use x="63.623046875" xlink:href="#BitstreamVeraSans-Roman-70"/>
       <use x="127.099609375" xlink:href="#BitstreamVeraSans-Roman-69"/>
       <use x="154.8828125" xlink:href="#BitstreamVeraSans-Roman-6b"/>
      </g>
     </g>
    </g>
    <g id="xtick_29">
     <g id="text_29">
      <!-- 1t16 -->
      <defs>
       <path d="
M33.0156 40.375
Q26.375 40.375 22.4844 35.8281
Q18.6094 31.2969 18.6094 23.3906
Q18.6094 15.5312 22.4844 10.9531
Q26.375 6.39062 33.0156 6.39062
Q39.6562 6.39062 43.5312 10.9531
Q47.4062 15.5312 47.4062 23.3906
Q47.4062 31.2969 43.5312 35.8281
Q39.6562 40.375 33.0156 40.375
M52.5938 71.2969
L52.5938 62.3125
Q48.875 64.0625 45.0938 64.9844
Q41.3125 65.9219 37.5938 65.9219
Q27.8281 65.9219 22.6719 59.3281
Q17.5312 52.7344 16.7969 39.4062
Q19.6719 43.6562 24.0156 45.9219
Q28.375 48.1875 33.5938 48.1875
Q44.5781 48.1875 50.9531 41.5156
Q57.3281 34.8594 57.3281 23.3906
Q57.3281 12.1562 50.6875 5.35938
Q44.0469 -1.42188 33.0156 -1.42188
Q20.3594 -1.42188 13.6719 8.26562
Q6.98438 17.9688 6.98438 36.375
Q6.98438 53.6562 15.1875 63.9375
Q23.3906 74.2188 37.2031 74.2188
Q40.9219 74.2188 44.7031 73.4844
Q48.4844 72.75 52.5938 71.2969" id="BitstreamVeraSans-Roman-36"/>
      </defs>
      <g transform="translate(558.156683931 192.546331224)rotate(-70.0)scale(0.2 -0.2)">
       <use xlink:href="#BitstreamVeraSans-Roman-31"/>
       <use x="63.623046875" xlink:href="#BitstreamVeraSans-Roman-74"/>
       <use x="102.83203125" xlink:href="#BitstreamVeraSans-Roman-31"/>
       <use x="166.455078125" xlink:href="#BitstreamVeraSans-Roman-36"/>
      </g>
     </g>
    </g>
    <g id="xtick_30">
     <g id="text_30">
      <!-- 3dwo -->
      <defs>
       <path d="
M45.4062 46.3906
L45.4062 75.9844
L54.3906 75.9844
L54.3906 0
L45.4062 0
L45.4062 8.20312
Q42.5781 3.32812 38.25 0.953125
Q33.9375 -1.42188 27.875 -1.42188
Q17.9688 -1.42188 11.7344 6.48438
Q5.51562 14.4062 5.51562 27.2969
Q5.51562 40.1875 11.7344 48.0938
Q17.9688 56 27.875 56
Q33.9375 56 38.25 53.625
Q42.5781 51.2656 45.4062 46.3906
M14.7969 27.2969
Q14.7969 17.3906 18.875 11.75
Q22.9531 6.10938 30.0781 6.10938
Q37.2031 6.10938 41.2969 11.75
Q45.4062 17.3906 45.4062 27.2969
Q45.4062 37.2031 41.2969 42.8438
Q37.2031 48.4844 30.0781 48.4844
Q22.9531 48.4844 18.875 42.8438
Q14.7969 37.2031 14.7969 27.2969" id="BitstreamVeraSans-Roman-64"/>
      </defs>
      <g transform="translate(574.125473197 200.85086476)rotate(-70.0)scale(0.2 -0.2)">
       <use xlink:href="#BitstreamVeraSans-Roman-33"/>
       <use x="63.623046875" xlink:href="#BitstreamVeraSans-Roman-64"/>
       <use x="127.099609375" xlink:href="#BitstreamVeraSans-Roman-77"/>
       <use x="208.88671875" xlink:href="#BitstreamVeraSans-Roman-6f"/>
      </g>
     </g>
    </g>
    <g id="xtick_31">
     <g id="text_31">
      <!-- 1qd6 -->
      <g transform="translate(592.291207477 197.083284659)rotate(-70.0)scale(0.2 -0.2)">
       <use xlink:href="#BitstreamVeraSans-Roman-31"/>
       <use x="63.623046875" xlink:href="#BitstreamVeraSans-Roman-71"/>
       <use x="127.099609375" xlink:href="#BitstreamVeraSans-Roman-64"/>
       <use x="190.576171875" xlink:href="#BitstreamVeraSans-Roman-36"/>
      </g>
     </g>
    </g>
    <g id="xtick_32">
     <g id="text_32">
      <!-- 1a0s -->
      <g transform="translate(610.187600893 194.795720435)rotate(-70.0)scale(0.2 -0.2)">
       <use xlink:href="#BitstreamVeraSans-Roman-31"/>
       <use x="63.623046875" xlink:href="#BitstreamVeraSans-Roman-61"/>
       <use x="124.90234375" xlink:href="#BitstreamVeraSans-Roman-30"/>
       <use x="188.525390625" xlink:href="#BitstreamVeraSans-Roman-73"/>
      </g>
     </g>
    </g>
    <g id="xtick_33">
     <g id="text_33">
      <!-- 4gey -->
      <defs>
       <path d="
M45.4062 27.9844
Q45.4062 37.75 41.375 43.1094
Q37.3594 48.4844 30.0781 48.4844
Q22.8594 48.4844 18.8281 43.1094
Q14.7969 37.75 14.7969 27.9844
Q14.7969 18.2656 18.8281 12.8906
Q22.8594 7.51562 30.0781 7.51562
Q37.3594 7.51562 41.375 12.8906
Q45.4062 18.2656 45.4062 27.9844
M54.3906 6.78125
Q54.3906 -7.17188 48.1875 -13.9844
Q42 -20.7969 29.2031 -20.7969
Q24.4688 -20.7969 20.2656 -20.0938
Q16.0625 -19.3906 12.1094 -17.9219
L12.1094 -9.1875
Q16.0625 -11.3281 19.9219 -12.3438
Q23.7812 -13.375 27.7812 -13.375
Q36.625 -13.375 41.0156 -8.76562
Q45.4062 -4.15625 45.4062 5.17188
L45.4062 9.625
Q42.625 4.78125 38.2812 2.39062
Q33.9375 0 27.875 0
Q17.8281 0 11.6719 7.65625
Q5.51562 15.3281 5.51562 27.9844
Q5.51562 40.6719 11.6719 48.3281
Q17.8281 56 27.875 56
Q33.9375 56 38.2812 53.6094
Q42.625 51.2188 45.4062 46.3906
L45.4062 54.6875
L54.3906 54.6875
z
" id="BitstreamVeraSans-Roman-67"/>
      </defs>
      <g transform="translate(627.148248574 197.650036771)rotate(-70.0)scale(0.2 -0.2)">
       <use xlink:href="#BitstreamVeraSans-Roman-34"/>
       <use x="63.623046875" xlink:href="#BitstreamVeraSans-Roman-67"/>
       <use x="127.099609375" xlink:href="#BitstreamVeraSans-Roman-65"/>
       <use x="188.623046875" xlink:href="#BitstreamVeraSans-Roman-79"/>
      </g>
     </g>
    </g>
    <g id="xtick_34">
     <g id="text_34">
      <!-- 3kvn -->
      <g transform="translate(645.037694707 195.40064756)rotate(-70.0)scale(0.2 -0.2)">
       <use xlink:href="#BitstreamVeraSans-Roman-33"/>
       <use x="63.623046875" xlink:href="#BitstreamVeraSans-Roman-6b"/>
       <use x="121.533203125" xlink:href="#BitstreamVeraSans-Roman-76"/>
       <use x="180.712890625" xlink:href="#BitstreamVeraSans-Roman-6e"/>
      </g>
     </g>
    </g>
    <g id="xtick_35">
     <g id="text_35">
      <!-- 3fid -->
      <g transform="translate(664.385536107 185.137442217)rotate(-70.0)scale(0.2 -0.2)">
       <use xlink:href="#BitstreamVeraSans-Roman-33"/>
       <use x="63.623046875" xlink:href="#BitstreamVeraSans-Roman-66"/>
       <use x="98.828125" xlink:href="#BitstreamVeraSans-Roman-69"/>
       <use x="126.611328125" xlink:href="#BitstreamVeraSans-Roman-64"/>
      </g>
     </g>
    </g>
    <g id="xtick_36">
     <g id="text_36">
      <!-- 2gr8 -->
      <g transform="translate(680.350584527 193.462531529)rotate(-70.0)scale(0.2 -0.2)">
       <use xlink:href="#BitstreamVeraSans-Roman-32"/>
       <use x="63.623046875" xlink:href="#BitstreamVeraSans-Roman-67"/>
       <use x="127.099609375" xlink:href="#BitstreamVeraSans-Roman-72"/>
       <use x="168.212890625" xlink:href="#BitstreamVeraSans-Roman-38"/>
      </g>
     </g>
    </g>
    <g id="xtick_37">
     <g id="text_37">
      <!-- 3dzm -->
      <g transform="translate(696.352506994 201.58499962)rotate(-70.0)scale(0.2 -0.2)">
       <use xlink:href="#BitstreamVeraSans-Roman-33"/>
       <use x="63.623046875" xlink:href="#BitstreamVeraSans-Roman-64"/>
       <use x="127.099609375" xlink:href="#BitstreamVeraSans-Roman-7a"/>
       <use x="179.58984375" xlink:href="#BitstreamVeraSans-Roman-6d"/>
      </g>
     </g>
    </g>
    <g id="xtick_38">
     <g id="text_38">
      <!-- 2erv -->
      <g transform="translate(715.397339923 192.98681214)rotate(-70.0)scale(0.2 -0.2)">
       <use xlink:href="#BitstreamVeraSans-Roman-32"/>
       <use x="63.623046875" xlink:href="#BitstreamVeraSans-Roman-65"/>
       <use x="125.146484375" xlink:href="#BitstreamVeraSans-Roman-72"/>
       <use x="166.259765625" xlink:href="#BitstreamVeraSans-Roman-76"/>
      </g>
     </g>
    </g>
    <g id="xtick_39">
     <g id="text_39">
      <!-- 3szv -->
      <g transform="translate(732.821318017 193.295148781)rotate(-70.0)scale(0.2 -0.2)">
       <use xlink:href="#BitstreamVeraSans-Roman-33"/>
       <use x="63.623046875" xlink:href="#BitstreamVeraSans-Roman-73"/>
       <use x="115.72265625" xlink:href="#BitstreamVeraSans-Roman-7a"/>
       <use x="168.212890625" xlink:href="#BitstreamVeraSans-Roman-76"/>
      </g>
     </g>
    </g>
    <g id="xtick_40">
     <g id="text_40">
      <!-- 1tly -->
      <g transform="translate(751.702088159 185.598478909)rotate(-70.0)scale(0.2 -0.2)">
       <use xlink:href="#BitstreamVeraSans-Roman-31"/>
       <use x="63.623046875" xlink:href="#BitstreamVeraSans-Roman-74"/>
       <use x="102.83203125" xlink:href="#BitstreamVeraSans-Roman-6c"/>
       <use x="130.615234375" xlink:href="#BitstreamVeraSans-Roman-79"/>
      </g>
     </g>
    </g>
    <g id="xtick_41">
     <g id="text_41">
      <!-- 4c00 -->
      <g transform="translate(767.181361094 196.592882572)rotate(-70.0)scale(0.2 -0.2)">
       <use xlink:href="#BitstreamVeraSans-Roman-34"/>
       <use x="63.623046875" xlink:href="#BitstreamVeraSans-Roman-63"/>
       <use x="118.603515625" xlink:href="#BitstreamVeraSans-Roman-30"/>
       <use x="182.2265625" xlink:href="#BitstreamVeraSans-Roman-30"/>
      </g>
     </g>
    </g>
    <g id="xtick_42">
     <g id="text_42">
      <!-- 4e1s -->
      <g transform="translate(784.771539602 195.987955448)rotate(-70.0)scale(0.2 -0.2)">
       <use xlink:href="#BitstreamVeraSans-Roman-34"/>
       <use x="63.623046875" xlink:href="#BitstreamVeraSans-Roman-65"/>
       <use x="125.146484375" xlink:href="#BitstreamVeraSans-Roman-31"/>
       <use x="188.76953125" xlink:href="#BitstreamVeraSans-Roman-73"/>
      </g>
     </g>
    </g>
    <g id="xtick_43">
     <g id="text_43">
      <!-- 3v8x -->
      <g transform="translate(802.12818248 196.666296058)rotate(-70.0)scale(0.2 -0.2)">
       <use xlink:href="#BitstreamVeraSans-Roman-33"/>
       <use x="63.623046875" xlink:href="#BitstreamVeraSans-Roman-76"/>
       <use x="122.802734375" xlink:href="#BitstreamVeraSans-Roman-38"/>
       <use x="186.42578125" xlink:href="#BitstreamVeraSans-Roman-78"/>
      </g>
     </g>
    </g>
    <g id="xtick_44">
     <g id="text_44">
      <!-- 3syb -->
      <g transform="translate(819.930520357 194.895562776)rotate(-70.0)scale(0.2 -0.2)">
       <use xlink:href="#BitstreamVeraSans-Roman-33"/>
       <use x="63.623046875" xlink:href="#BitstreamVeraSans-Roman-73"/>
       <use x="115.72265625" xlink:href="#BitstreamVeraSans-Roman-79"/>
       <use x="174.90234375" xlink:href="#BitstreamVeraSans-Roman-62"/>
      </g>
     </g>
    </g>
    <g id="xtick_45">
     <g id="text_45">
      <!-- 1nqe -->
      <g transform="translate(837.054696419 196.851298043)rotate(-70.0)scale(0.2 -0.2)">
       <use xlink:href="#BitstreamVeraSans-Roman-31"/>
       <use x="63.623046875" xlink:href="#BitstreamVeraSans-Roman-6e"/>
       <use x="127.001953125" xlink:href="#BitstreamVeraSans-Roman-71"/>
       <use x="190.478515625" xlink:href="#BitstreamVeraSans-Roman-65"/>
      </g>
     </g>
    </g>
    <g id="xtick_46">
     <g id="text_46">
      <!-- 3aeh -->
      <g transform="translate(854.603191222 196.475420995)rotate(-70.0)scale(0.2 -0.2)">
       <use xlink:href="#BitstreamVeraSans-Roman-33"/>
       <use x="63.623046875" xlink:href="#BitstreamVeraSans-Roman-61"/>
       <use x="124.90234375" xlink:href="#BitstreamVeraSans-Roman-65"/>
       <use x="186.42578125" xlink:href="#BitstreamVeraSans-Roman-68"/>
      </g>
     </g>
    </g>
    <g id="xtick_47">
     <g id="text_47">
      <!-- 2f1c -->
      <g transform="translate(873.102395141 190.875440283)rotate(-70.0)scale(0.2 -0.2)">
       <use xlink:href="#BitstreamVeraSans-Roman-32"/>
       <use x="63.623046875" xlink:href="#BitstreamVeraSans-Roman-66"/>
       <use x="98.828125" xlink:href="#BitstreamVeraSans-Roman-31"/>
       <use x="162.451171875" xlink:href="#BitstreamVeraSans-Roman-63"/>
      </g>
     </g>
    </g>
    <g id="xtick_48">
     <g id="text_48">
      <!-- 2vqi -->
      <g transform="translate(890.805867821 189.647966797)rotate(-70.0)scale(0.2 -0.2)">
       <use xlink:href="#BitstreamVeraSans-Roman-32"/>
       <use x="63.623046875" xlink:href="#BitstreamVeraSans-Roman-76"/>
       <use x="122.802734375" xlink:href="#BitstreamVeraSans-Roman-71"/>
       <use x="186.279296875" xlink:href="#BitstreamVeraSans-Roman-69"/>
      </g>
     </g>
    </g>
    <g id="xtick_49">
     <g id="text_49">
      <!-- 2ynk -->
      <g transform="translate(906.94833919 196.998125015)rotate(-70.0)scale(0.2 -0.2)">
       <use xlink:href="#BitstreamVeraSans-Roman-32"/>
       <use x="63.623046875" xlink:href="#BitstreamVeraSans-Roman-79"/>
       <use x="122.802734375" xlink:href="#BitstreamVeraSans-Roman-6e"/>
       <use x="186.181640625" xlink:href="#BitstreamVeraSans-Roman-6b"/>
      </g>
     </g>
    </g>
    <g id="xtick_50">
     <g id="text_50">
      <!-- 1xkw -->
      <g transform="translate(924.057551871 199.036083387)rotate(-70.0)scale(0.2 -0.2)">
       <use xlink:href="#BitstreamVeraSans-Roman-31"/>
       <use x="63.623046875" xlink:href="#BitstreamVeraSans-Roman-78"/>
       <use x="122.802734375" xlink:href="#BitstreamVeraSans-Roman-6b"/>
       <use x="180.712890625" xlink:href="#BitstreamVeraSans-Roman-77"/>
      </g>
     </g>
    </g>
    <g id="xtick_51">
     <g id="text_51">
      <!-- 2por -->
      <g transform="translate(942.401243506 194.290635652)rotate(-70.0)scale(0.2 -0.2)">
       <use xlink:href="#BitstreamVeraSans-Roman-32"/>
       <use x="63.623046875" xlink:href="#BitstreamVeraSans-Roman-70"/>
       <use x="127.099609375" xlink:href="#BitstreamVeraSans-Roman-6f"/>
       <use x="188.28125" xlink:href="#BitstreamVeraSans-Roman-72"/>
      </g>
     </g>
    </g>
    <g id="xtick_52">
     <g id="text_52">
      <!-- 3rfz -->
      <g transform="translate(961.303389907 186.476504202)rotate(-70.0)scale(0.2 -0.2)">
       <use xlink:href="#BitstreamVeraSans-Roman-33"/>
       <use x="63.623046875" xlink:href="#BitstreamVeraSans-Roman-72"/>
       <use x="104.736328125" xlink:href="#BitstreamVeraSans-Roman-66"/>
       <use x="139.94140625" xlink:href="#BitstreamVeraSans-Roman-7a"/>
      </g>
     </g>
    </g>
    <g id="xtick_53">
     <g id="text_53">
      <!-- 3bs0 -->
      <g transform="translate(977.139646367 195.509299519)rotate(-70.0)scale(0.2 -0.2)">
       <use xlink:href="#BitstreamVeraSans-Roman-33"/>
       <use x="63.623046875" xlink:href="#BitstreamVeraSans-Roman-62"/>
       <use x="127.099609375" xlink:href="#BitstreamVeraSans-Roman-73"/>
       <use x="179.19921875" xlink:href="#BitstreamVeraSans-Roman-30"/>
      </g>
     </g>
    </g>
    <g id="xtick_54">
     <g id="text_54">
      <!-- 2qdz -->
      <g transform="translate(994.520871943 196.052559316)rotate(-70.0)scale(0.2 -0.2)">
       <use xlink:href="#BitstreamVeraSans-Roman-32"/>
       <use x="63.623046875" xlink:href="#BitstreamVeraSans-Roman-71"/>
       <use x="127.099609375" xlink:href="#BitstreamVeraSans-Roman-64"/>
       <use x="190.576171875" xlink:href="#BitstreamVeraSans-Roman-7a"/>
      </g>
     </g>
    </g>
    <g id="xtick_55">
     <g id="text_55">
      <!-- 2mlh -->
      <g transform="translate(1011.83262468 196.977569239)rotate(-70.0)scale(0.2 -0.2)">
       <use xlink:href="#BitstreamVeraSans-Roman-32"/>
       <use x="63.623046875" xlink:href="#BitstreamVeraSans-Roman-6d"/>
       <use x="161.03515625" xlink:href="#BitstreamVeraSans-Roman-6c"/>
       <use x="188.818359375" xlink:href="#BitstreamVeraSans-Roman-68"/>
      </g>
     </g>
    </g>
    <g id="xtick_56">
     <g id="text_56">
      <!-- 1prn -->
      <g transform="translate(1030.20196782 192.091167611)rotate(-70.0)scale(0.2 -0.2)">
       <use xlink:href="#BitstreamVeraSans-Roman-31"/>
       <use x="63.623046875" xlink:href="#BitstreamVeraSans-Roman-70"/>
       <use x="127.099609375" xlink:href="#BitstreamVeraSans-Roman-72"/>
       <use x="166.462890625" xlink:href="#BitstreamVeraSans-Roman-6e"/>
      </g>
     </g>
    </g>
    <g id="xtick_57">
     <g id="text_57">
      <!-- 4pr7 -->
      <g transform="translate(1047.40737367 193.600548883)rotate(-70.0)scale(0.2 -0.2)">
       <use xlink:href="#BitstreamVeraSans-Roman-34"/>
       <use x="63.623046875" xlink:href="#BitstreamVeraSans-Roman-70"/>
       <use x="127.099609375" xlink:href="#BitstreamVeraSans-Roman-72"/>
       <use x="168.212890625" xlink:href="#BitstreamVeraSans-Roman-37"/>
      </g>
     </g>
    </g>
   </g>
   <g id="matplotlib.axis_2">
    <g id="ytick_1">
     <g id="line2d_1">
      <defs>
       <path d="
M0 0
L4 0" id="m728421d6d4" style="stroke:#000000;stroke-width:0.5;"/>
      </defs>
      <g>
       <use style="stroke:#000000;stroke-width:0.5;" x="62.06625" xlink:href="#m728421d6d4" y="143.355963226"/>
      </g>
     </g>
     <g id="line2d_2">
      <defs>
       <path d="
M0 0
L-4 0" id="mcb0005524f" style="stroke:#000000;stroke-width:0.5;"/>
      </defs>
      <g>
       <use style="stroke:#000000;stroke-width:0.5;" x="1058.4314241" xlink:href="#mcb0005524f" y="143.355963226"/>
      </g>
     </g>
     <g id="text_58">
      <!-- 0 -->
      <g transform="translate(47.988125 148.874713226)scale(0.2 -0.2)">
       <use xlink:href="#BitstreamVeraSans-Roman-30"/>
      </g>
     </g>
    </g>
    <g id="ytick_2">
     <g id="line2d_3">
      <g>
       <use style="stroke:#000000;stroke-width:0.5;" x="62.06625" xlink:href="#m728421d6d4" y="126.106299258"/>
      </g>
     </g>
     <g id="line2d_4">
      <g>
       <use style="stroke:#000000;stroke-width:0.5;" x="1058.4314241" xlink:href="#mcb0005524f" y="126.106299258"/>
      </g>
     </g>
     <g id="text_59">
      <!-- 2 -->
      <g transform="translate(48.81 131.625049258)scale(0.2 -0.2)">
       <use xlink:href="#BitstreamVeraSans-Roman-32"/>
      </g>
     </g>
    </g>
    <g id="ytick_3">
     <g id="line2d_5">
      <g>
       <use style="stroke:#000000;stroke-width:0.5;" x="62.06625" xlink:href="#m728421d6d4" y="108.85663529"/>
      </g>
     </g>
     <g id="line2d_6">
      <g>
       <use style="stroke:#000000;stroke-width:0.5;" x="1058.4314241" xlink:href="#mcb0005524f" y="108.85663529"/>
      </g>
     </g>
     <g id="text_60">
      <!-- 4 -->
      <g transform="translate(47.44125 114.37538529)scale(0.2 -0.2)">
       <use xlink:href="#BitstreamVeraSans-Roman-34"/>
      </g>
     </g>
    </g>
    <g id="ytick_4">
     <g id="line2d_7">
      <g>
       <use style="stroke:#000000;stroke-width:0.5;" x="62.06625" xlink:href="#m728421d6d4" y="91.6069713223"/>
      </g>
     </g>
     <g id="line2d_8">
      <g>
       <use style="stroke:#000000;stroke-width:0.5;" x="1058.4314241" xlink:href="#mcb0005524f" y="91.6069713223"/>
      </g>
     </g>
     <g id="text_61">
      <!-- 6 -->
      <g transform="translate(47.9975 97.1257213223)scale(0.2 -0.2)">
       <use xlink:href="#BitstreamVeraSans-Roman-36"/>
      </g>
     </g>
    </g>
    <g id="ytick_5">
     <g id="line2d_9">
      <g>
       <use style="stroke:#000000;stroke-width:0.5;" x="62.06625" xlink:href="#m728421d6d4" y="74.3573073545"/>
      </g>
     </g>
     <g id="line2d_10">
      <g>
       <use style="stroke:#000000;stroke-width:0.5;" x="1058.4314241" xlink:href="#mcb0005524f" y="74.3573073545"/>
      </g>
     </g>
     <g id="text_62">
      <!-- 8 -->
      <g transform="translate(48.06625 79.8760573545)scale(0.2 -0.2)">
       <use xlink:href="#BitstreamVeraSans-Roman-38"/>
      </g>
     </g>
    </g>
    <g id="ytick_6">
     <g id="line2d_11">
      <g>
       <use style="stroke:#000000;stroke-width:0.5;" x="62.06625" xlink:href="#m728421d6d4" y="57.1076433866"/>
      </g>
     </g>
     <g id="line2d_12">
      <g>
       <use style="stroke:#000000;stroke-width:0.5;" x="1058.4314241" xlink:href="#mcb0005524f" y="57.1076433866"/>
      </g>
     </g>
     <g id="text_63">
      <!-- 10 -->
      <g transform="translate(36.14125 62.6263933866)scale(0.2 -0.2)">
       <use xlink:href="#BitstreamVeraSans-Roman-31"/>
       <use x="63.623046875" xlink:href="#BitstreamVeraSans-Roman-30"/>
      </g>
     </g>
    </g>
    <g id="ytick_7">
     <g id="line2d_13">
      <g>
       <use style="stroke:#000000;stroke-width:0.5;" x="62.06625" xlink:href="#m728421d6d4" y="39.8579794188"/>
      </g>
     </g>
     <g id="line2d_14">
      <g>
       <use style="stroke:#000000;stroke-width:0.5;" x="1058.4314241" xlink:href="#mcb0005524f" y="39.8579794188"/>
      </g>
     </g>
     <g id="text_64">
      <!-- 12 -->
      <g transform="translate(36.81625 45.3767294188)scale(0.2 -0.2)">
       <use xlink:href="#BitstreamVeraSans-Roman-31"/>
       <use x="63.623046875" xlink:href="#BitstreamVeraSans-Roman-32"/>
      </g>
     </g>
    </g>
    <g id="ytick_8">
     <g id="line2d_15">
      <g>
       <use style="stroke:#000000;stroke-width:0.5;" x="62.06625" xlink:href="#m728421d6d4" y="22.608315451"/>
      </g>
     </g>
     <g id="line2d_16">
      <g>
       <use style="stroke:#000000;stroke-width:0.5;" x="1058.4314241" xlink:href="#mcb0005524f" y="22.608315451"/>
      </g>
     </g>
     <g id="text_65">
      <!-- 14 -->
      <g transform="translate(35.935 28.127065451)scale(0.2 -0.2)">
       <use xlink:href="#BitstreamVeraSans-Roman-31"/>
       <use x="63.623046875" xlink:href="#BitstreamVeraSans-Roman-34"/>
      </g>
     </g>
    </g>
    <g id="text_66">
     <!-- Distance -->
     <defs>
      <path d="
M19.6719 64.7969
L19.6719 8.10938
L31.5938 8.10938
Q46.6875 8.10938 53.6875 14.9375
Q60.6875 21.7812 60.6875 36.5312
Q60.6875 51.1719 53.6875 57.9844
Q46.6875 64.7969 31.5938 64.7969
z

M9.8125 72.9062
L30.0781 72.9062
Q51.2656 72.9062 61.1719 64.0938
Q71.0938 55.2812 71.0938 36.5312
Q71.0938 17.6719 61.125 8.82812
Q51.1719 0 30.0781 0
L9.8125 0
z
" id="BitstreamVeraSans-Roman-44"/>
     </defs>
     <g transform="translate(26.775625 120.368919113)rotate(-90.0)scale(0.2 -0.2)">
      <use xlink:href="#BitstreamVeraSans-Roman-44"/>
      <use x="77.001953125" xlink:href="#BitstreamVeraSans-Roman-69"/>
      <use x="104.78515625" xlink:href="#BitstreamVeraSans-Roman-73"/>
      <use x="156.884765625" xlink:href="#BitstreamVeraSans-Roman-74"/>
      <use x="196.09375" xlink:href="#BitstreamVeraSans-Roman-61"/>
      <use x="257.373046875" xlink:href="#BitstreamVeraSans-Roman-6e"/>
      <use x="320.751953125" xlink:href="#BitstreamVeraSans-Roman-63"/>
      <use x="375.732421875" xlink:href="#BitstreamVeraSans-Roman-65"/>
     </g>
    </g>
   </g>
   <g id="patch_3">
    <path d="
M62.0663 12.96
L1058.43 12.96" style="fill:none;stroke:#000000;"/>
   </g>
   <g id="patch_4">
    <path d="
M1058.43 143.356
L1058.43 12.96" style="fill:none;stroke:#000000;"/>
   </g>
   <g id="patch_5">
    <path d="
M62.0663 143.356
L1058.43 143.356" style="fill:none;stroke:#000000;"/>
   </g>
   <g id="patch_6">
    <path d="
M62.0663 143.356
L62.0663 12.96" style="fill:none;stroke:#000000;"/>
   </g>
  </g>
 </g>
 <defs>
  <clipPath id="p922289d469">
   <rect height="130.395963226" width="996.365174098" x="62.06625" y="12.96"/>
  </clipPath>
 </defs>
</svg>
