<?xml version="1.0" encoding="utf-8" standalone="no"?>
<!DOCTYPE svg PUBLIC "-//W3C//DTD SVG 1.1//EN"
  "http://www.w3.org/Graphics/SVG/1.1/DTD/svg11.dtd">
<!-- Created with matplotlib (http://matplotlib.org/) -->
<svg height="432pt" version="1.1" viewBox="0 0 576 432" width="576pt" xmlns="http://www.w3.org/2000/svg" xmlns:xlink="http://www.w3.org/1999/xlink">
 <defs>
  <style type="text/css">
*{stroke-linecap:butt;stroke-linejoin:round;}
  </style>
 </defs>
 <g id="figure_1">
  <g id="patch_1">
   <path d="
M0 432
L576 432
L576 0
L0 0
z
" style="fill:#ffffff;"/>
  </g>
  <g id="axes_1">
   <g id="patch_2">
    <path d="
M72 388.8
L518.4 388.8
L518.4 43.2
L72 43.2
z
" style="fill:#ffffff;"/>
   </g>
   <g id="line2d_1">
    <defs>
     <path d="
M0 3
C0.795609 3 1.55874 2.6839 2.12132 2.12132
C2.6839 1.55874 3 0.795609 3 0
C3 -0.795609 2.6839 -1.55874 2.12132 -2.12132
C1.55874 -2.6839 0.795609 -3 0 -3
C-0.795609 -3 -1.55874 -2.6839 -2.12132 -2.12132
C-2.6839 -1.55874 -3 -0.795609 -3 0
C-3 0.795609 -2.6839 1.55874 -2.12132 2.12132
C-1.55874 2.6839 -0.795609 3 0 3
z
" id="m8596764c04" style="stroke:#000000;stroke-width:0.5;"/>
    </defs>
    <g clip-path="url(#p7ff5b81e1d)">
     <use style="fill:#4393c3;stroke:#000000;stroke-width:0.5;" x="79.5661016949" xlink:href="#m8596764c04" y="372.254282349"/>
     <use style="fill:#4393c3;stroke:#000000;stroke-width:0.5;" x="87.1322033898" xlink:href="#m8596764c04" y="371.975540838"/>
     <use style="fill:#4393c3;stroke:#000000;stroke-width:0.5;" x="94.6983050847" xlink:href="#m8596764c04" y="368.273210205"/>
     <use style="fill:#4393c3;stroke:#000000;stroke-width:0.5;" x="102.26440678" xlink:href="#m8596764c04" y="366.369481116"/>
     <use style="fill:#4393c3;stroke:#000000;stroke-width:0.5;" x="109.830508475" xlink:href="#m8596764c04" y="366.354333575"/>
     <use style="fill:#4393c3;stroke:#000000;stroke-width:0.5;" x="117.396610169" xlink:href="#m8596764c04" y="366.046669346"/>
     <use style="fill:#4393c3;stroke:#000000;stroke-width:0.5;" x="124.962711864" xlink:href="#m8596764c04" y="365.080734644"/>
     <use style="fill:#4393c3;stroke:#000000;stroke-width:0.5;" x="132.528813559" xlink:href="#m8596764c04" y="362.25101569"/>
     <use style="fill:#4393c3;stroke:#000000;stroke-width:0.5;" x="140.094915254" xlink:href="#m8596764c04" y="361.984159005"/>
     <use style="fill:#4393c3;stroke:#000000;stroke-width:0.5;" x="147.661016949" xlink:href="#m8596764c04" y="360.843352844"/>
     <use style="fill:#4393c3;stroke:#000000;stroke-width:0.5;" x="155.227118644" xlink:href="#m8596764c04" y="360.308191876"/>
     <use style="fill:#4393c3;stroke:#000000;stroke-width:0.5;" x="162.793220339" xlink:href="#m8596764c04" y="359.607334172"/>
     <use style="fill:#4393c3;stroke:#000000;stroke-width:0.5;" x="170.359322034" xlink:href="#m8596764c04" y="359.147277091"/>
     <use style="fill:#4393c3;stroke:#000000;stroke-width:0.5;" x="177.925423729" xlink:href="#m8596764c04" y="358.925638129"/>
     <use style="fill:#4393c3;stroke:#000000;stroke-width:0.5;" x="185.491525424" xlink:href="#m8596764c04" y="358.887301173"/>
     <use style="fill:#4393c3;stroke:#000000;stroke-width:0.5;" x="193.057627119" xlink:href="#m8596764c04" y="355.754338866"/>
     <use style="fill:#4393c3;stroke:#000000;stroke-width:0.5;" x="200.623728814" xlink:href="#m8596764c04" y="355.073457204"/>
     <use style="fill:#4393c3;stroke:#000000;stroke-width:0.5;" x="208.189830508" xlink:href="#m8596764c04" y="354.665106345"/>
     <use style="fill:#4393c3;stroke:#000000;stroke-width:0.5;" x="215.755932203" xlink:href="#m8596764c04" y="354.331925947"/>
     <use style="fill:#4393c3;stroke:#000000;stroke-width:0.5;" x="223.322033898" xlink:href="#m8596764c04" y="354.23453306"/>
     <use style="fill:#4393c3;stroke:#000000;stroke-width:0.5;" x="230.888135593" xlink:href="#m8596764c04" y="354.185894192"/>
     <use style="fill:#4393c3;stroke:#000000;stroke-width:0.5;" x="238.454237288" xlink:href="#m8596764c04" y="353.976572301"/>
     <use style="fill:#4393c3;stroke:#000000;stroke-width:0.5;" x="246.020338983" xlink:href="#m8596764c04" y="352.601591223"/>
     <use style="fill:#4393c3;stroke:#000000;stroke-width:0.5;" x="253.586440678" xlink:href="#m8596764c04" y="352.136287641"/>
     <use style="fill:#4393c3;stroke:#000000;stroke-width:0.5;" x="261.152542373" xlink:href="#m8596764c04" y="352.116031331"/>
     <use style="fill:#4393c3;stroke:#000000;stroke-width:0.5;" x="268.718644068" xlink:href="#m8596764c04" y="349.671591057"/>
     <use style="fill:#4393c3;stroke:#000000;stroke-width:0.5;" x="276.284745763" xlink:href="#m8596764c04" y="348.803049029"/>
     <use style="fill:#4393c3;stroke:#000000;stroke-width:0.5;" x="283.850847458" xlink:href="#m8596764c04" y="347.557784269"/>
     <use style="fill:#4393c3;stroke:#000000;stroke-width:0.5;" x="291.416949153" xlink:href="#m8596764c04" y="345.105638252"/>
     <use style="fill:#4393c3;stroke:#000000;stroke-width:0.5;" x="298.983050847" xlink:href="#m8596764c04" y="344.031008528"/>
     <use style="fill:#4393c3;stroke:#000000;stroke-width:0.5;" x="306.549152542" xlink:href="#m8596764c04" y="342.706754365"/>
     <use style="fill:#4393c3;stroke:#000000;stroke-width:0.5;" x="314.115254237" xlink:href="#m8596764c04" y="342.48881673"/>
     <use style="fill:#4393c3;stroke:#000000;stroke-width:0.5;" x="321.681355932" xlink:href="#m8596764c04" y="341.67207088"/>
     <use style="fill:#4393c3;stroke:#000000;stroke-width:0.5;" x="329.247457627" xlink:href="#m8596764c04" y="341.33429113"/>
     <use style="fill:#4393c3;stroke:#000000;stroke-width:0.5;" x="336.813559322" xlink:href="#m8596764c04" y="339.229600846"/>
     <use style="fill:#4393c3;stroke:#000000;stroke-width:0.5;" x="344.379661017" xlink:href="#m8596764c04" y="338.130247404"/>
     <use style="fill:#4393c3;stroke:#000000;stroke-width:0.5;" x="351.945762712" xlink:href="#m8596764c04" y="337.099298386"/>
     <use style="fill:#4393c3;stroke:#000000;stroke-width:0.5;" x="359.511864407" xlink:href="#m8596764c04" y="336.664154718"/>
     <use style="fill:#4393c3;stroke:#000000;stroke-width:0.5;" x="367.077966102" xlink:href="#m8596764c04" y="336.341841677"/>
     <use style="fill:#4393c3;stroke:#000000;stroke-width:0.5;" x="374.644067797" xlink:href="#m8596764c04" y="333.362933485"/>
     <use style="fill:#4393c3;stroke:#000000;stroke-width:0.5;" x="382.210169492" xlink:href="#m8596764c04" y="328.622830138"/>
     <use style="fill:#4393c3;stroke:#000000;stroke-width:0.5;" x="389.776271186" xlink:href="#m8596764c04" y="324.942817318"/>
     <use style="fill:#4393c3;stroke:#000000;stroke-width:0.5;" x="397.342372881" xlink:href="#m8596764c04" y="319.674329786"/>
     <use style="fill:#4393c3;stroke:#000000;stroke-width:0.5;" x="404.908474576" xlink:href="#m8596764c04" y="312.699978802"/>
     <use style="fill:#4393c3;stroke:#000000;stroke-width:0.5;" x="412.474576271" xlink:href="#m8596764c04" y="308.361100405"/>
     <use style="fill:#4393c3;stroke:#000000;stroke-width:0.5;" x="420.040677966" xlink:href="#m8596764c04" y="306.532394852"/>
     <use style="fill:#4393c3;stroke:#000000;stroke-width:0.5;" x="427.606779661" xlink:href="#m8596764c04" y="300.672897199"/>
     <use style="fill:#4393c3;stroke:#000000;stroke-width:0.5;" x="435.172881356" xlink:href="#m8596764c04" y="296.910890743"/>
     <use style="fill:#4393c3;stroke:#000000;stroke-width:0.5;" x="442.738983051" xlink:href="#m8596764c04" y="284.945223343"/>
     <use style="fill:#4393c3;stroke:#000000;stroke-width:0.5;" x="450.305084746" xlink:href="#m8596764c04" y="262.033718472"/>
     <use style="fill:#4393c3;stroke:#000000;stroke-width:0.5;" x="457.871186441" xlink:href="#m8596764c04" y="247.455847468"/>
     <use style="fill:#4393c3;stroke:#000000;stroke-width:0.5;" x="465.437288136" xlink:href="#m8596764c04" y="228.513517164"/>
     <use style="fill:#4393c3;stroke:#000000;stroke-width:0.5;" x="473.003389831" xlink:href="#m8596764c04" y="212.416084501"/>
     <use style="fill:#4393c3;stroke:#000000;stroke-width:0.5;" x="480.569491525" xlink:href="#m8596764c04" y="180.693911181"/>
     <use style="fill:#4393c3;stroke:#000000;stroke-width:0.5;" x="488.13559322" xlink:href="#m8596764c04" y="137.124975468"/>
     <use style="fill:#4393c3;stroke:#000000;stroke-width:0.5;" x="495.701694915" xlink:href="#m8596764c04" y="65.9917909189"/>
    </g>
   </g>
   <g id="matplotlib.axis_1"/>
   <g id="matplotlib.axis_2">
    <g id="ytick_1">
     <g id="line2d_2">
      <defs>
       <path d="
M0 0
L4 0" id="m728421d6d4" style="stroke:#000000;stroke-width:0.5;"/>
      </defs>
      <g>
       <use style="stroke:#000000;stroke-width:0.5;" x="72.0" xlink:href="#m728421d6d4" y="388.8"/>
      </g>
     </g>
     <g id="line2d_3">
      <defs>
       <path d="
M0 0
L-4 0" id="mcb0005524f" style="stroke:#000000;stroke-width:0.5;"/>
      </defs>
      <g>
       <use style="stroke:#000000;stroke-width:0.5;" x="518.4" xlink:href="#mcb0005524f" y="388.8"/>
      </g>
     </g>
     <g id="text_1">
      <!-- 0.00 -->
      <defs>
       <path d="
M31.7812 66.4062
Q24.1719 66.4062 20.3281 58.9062
Q16.5 51.4219 16.5 36.375
Q16.5 21.3906 20.3281 13.8906
Q24.1719 6.39062 31.7812 6.39062
Q39.4531 6.39062 43.2812 13.8906
Q47.125 21.3906 47.125 36.375
Q47.125 51.4219 43.2812 58.9062
Q39.4531 66.4062 31.7812 66.4062
M31.7812 74.2188
Q44.0469 74.2188 50.5156 64.5156
Q56.9844 54.8281 56.9844 36.375
Q56.9844 17.9688 50.5156 8.26562
Q44.0469 -1.42188 31.7812 -1.42188
Q19.5312 -1.42188 13.0625 8.26562
Q6.59375 17.9688 6.59375 36.375
Q6.59375 54.8281 13.0625 64.5156
Q19.5312 74.2188 31.7812 74.2188" id="BitstreamVeraSans-Roman-30"/>
       <path d="
M10.6875 12.4062
L21 12.4062
L21 0
L10.6875 0
z
" id="BitstreamVeraSans-Roman-2e"/>
      </defs>
      <g transform="translate(42.869375 392.11125)scale(0.12 -0.12)">
       <use xlink:href="#BitstreamVeraSans-Roman-30"/>
       <use x="63.623046875" xlink:href="#BitstreamVeraSans-Roman-2e"/>
       <use x="95.41015625" xlink:href="#BitstreamVeraSans-Roman-30"/>
       <use x="159.033203125" xlink:href="#BitstreamVeraSans-Roman-30"/>
      </g>
     </g>
    </g>
    <g id="ytick_2">
     <g id="line2d_4">
      <g>
       <use style="stroke:#000000;stroke-width:0.5;" x="72.0" xlink:href="#m728421d6d4" y="339.428571429"/>
      </g>
     </g>
     <g id="line2d_5">
      <g>
       <use style="stroke:#000000;stroke-width:0.5;" x="518.4" xlink:href="#mcb0005524f" y="339.428571429"/>
      </g>
     </g>
     <g id="text_2">
      <!-- 0.05 -->
      <defs>
       <path d="
M10.7969 72.9062
L49.5156 72.9062
L49.5156 64.5938
L19.8281 64.5938
L19.8281 46.7344
Q21.9688 47.4688 24.1094 47.8281
Q26.2656 48.1875 28.4219 48.1875
Q40.625 48.1875 47.75 41.5
Q54.8906 34.8125 54.8906 23.3906
Q54.8906 11.625 47.5625 5.09375
Q40.2344 -1.42188 26.9062 -1.42188
Q22.3125 -1.42188 17.5469 -0.640625
Q12.7969 0.140625 7.71875 1.70312
L7.71875 11.625
Q12.1094 9.23438 16.7969 8.0625
Q21.4844 6.89062 26.7031 6.89062
Q35.1562 6.89062 40.0781 11.3281
Q45.0156 15.7656 45.0156 23.3906
Q45.0156 31 40.0781 35.4375
Q35.1562 39.8906 26.7031 39.8906
Q22.75 39.8906 18.8125 39.0156
Q14.8906 38.1406 10.7969 36.2812
z
" id="BitstreamVeraSans-Roman-35"/>
      </defs>
      <g transform="translate(43.120625 342.739821429)scale(0.12 -0.12)">
       <use xlink:href="#BitstreamVeraSans-Roman-30"/>
       <use x="63.623046875" xlink:href="#BitstreamVeraSans-Roman-2e"/>
       <use x="95.41015625" xlink:href="#BitstreamVeraSans-Roman-30"/>
       <use x="159.033203125" xlink:href="#BitstreamVeraSans-Roman-35"/>
      </g>
     </g>
    </g>
    <g id="ytick_3">
     <g id="line2d_6">
      <g>
       <use style="stroke:#000000;stroke-width:0.5;" x="72.0" xlink:href="#m728421d6d4" y="290.057142857"/>
      </g>
     </g>
     <g id="line2d_7">
      <g>
       <use style="stroke:#000000;stroke-width:0.5;" x="518.4" xlink:href="#mcb0005524f" y="290.057142857"/>
      </g>
     </g>
     <g id="text_3">
      <!-- 0.10 -->
      <defs>
       <path d="
M12.4062 8.29688
L28.5156 8.29688
L28.5156 63.9219
L10.9844 60.4062
L10.9844 69.3906
L28.4219 72.9062
L38.2812 72.9062
L38.2812 8.29688
L54.3906 8.29688
L54.3906 0
L12.4062 0
z
" id="BitstreamVeraSans-Roman-31"/>
      </defs>
      <g transform="translate(42.869375 293.368392857)scale(0.12 -0.12)">
       <use xlink:href="#BitstreamVeraSans-Roman-30"/>
       <use x="63.623046875" xlink:href="#BitstreamVeraSans-Roman-2e"/>
       <use x="95.41015625" xlink:href="#BitstreamVeraSans-Roman-31"/>
       <use x="159.033203125" xlink:href="#BitstreamVeraSans-Roman-30"/>
      </g>
     </g>
    </g>
    <g id="ytick_4">
     <g id="line2d_8">
      <g>
       <use style="stroke:#000000;stroke-width:0.5;" x="72.0" xlink:href="#m728421d6d4" y="240.685714286"/>
      </g>
     </g>
     <g id="line2d_9">
      <g>
       <use style="stroke:#000000;stroke-width:0.5;" x="518.4" xlink:href="#mcb0005524f" y="240.685714286"/>
      </g>
     </g>
     <g id="text_4">
      <!-- 0.15 -->
      <g transform="translate(43.120625 243.996964286)scale(0.12 -0.12)">
       <use xlink:href="#BitstreamVeraSans-Roman-30"/>
       <use x="63.623046875" xlink:href="#BitstreamVeraSans-Roman-2e"/>
       <use x="95.41015625" xlink:href="#BitstreamVeraSans-Roman-31"/>
       <use x="159.033203125" xlink:href="#BitstreamVeraSans-Roman-35"/>
      </g>
     </g>
    </g>
    <g id="ytick_5">
     <g id="line2d_10">
      <g>
       <use style="stroke:#000000;stroke-width:0.5;" x="72.0" xlink:href="#m728421d6d4" y="191.314285714"/>
      </g>
     </g>
     <g id="line2d_11">
      <g>
       <use style="stroke:#000000;stroke-width:0.5;" x="518.4" xlink:href="#mcb0005524f" y="191.314285714"/>
      </g>
     </g>
     <g id="text_5">
      <!-- 0.20 -->
      <defs>
       <path d="
M19.1875 8.29688
L53.6094 8.29688
L53.6094 0
L7.32812 0
L7.32812 8.29688
Q12.9375 14.1094 22.625 23.8906
Q32.3281 33.6875 34.8125 36.5312
Q39.5469 41.8438 41.4219 45.5312
Q43.3125 49.2188 43.3125 52.7812
Q43.3125 58.5938 39.2344 62.25
Q35.1562 65.9219 28.6094 65.9219
Q23.9688 65.9219 18.8125 64.3125
Q13.6719 62.7031 7.8125 59.4219
L7.8125 69.3906
Q13.7656 71.7812 18.9375 73
Q24.125 74.2188 28.4219 74.2188
Q39.75 74.2188 46.4844 68.5469
Q53.2188 62.8906 53.2188 53.4219
Q53.2188 48.9219 51.5312 44.8906
Q49.8594 40.875 45.4062 35.4062
Q44.1875 33.9844 37.6406 27.2188
Q31.1094 20.4531 19.1875 8.29688" id="BitstreamVeraSans-Roman-32"/>
      </defs>
      <g transform="translate(42.869375 194.625535714)scale(0.12 -0.12)">
       <use xlink:href="#BitstreamVeraSans-Roman-30"/>
       <use x="63.623046875" xlink:href="#BitstreamVeraSans-Roman-2e"/>
       <use x="95.41015625" xlink:href="#BitstreamVeraSans-Roman-32"/>
       <use x="159.033203125" xlink:href="#BitstreamVeraSans-Roman-30"/>
      </g>
     </g>
    </g>
    <g id="ytick_6">
     <g id="line2d_12">
      <g>
       <use style="stroke:#000000;stroke-width:0.5;" x="72.0" xlink:href="#m728421d6d4" y="141.942857143"/>
      </g>
     </g>
     <g id="line2d_13">
      <g>
       <use style="stroke:#000000;stroke-width:0.5;" x="518.4" xlink:href="#mcb0005524f" y="141.942857143"/>
      </g>
     </g>
     <g id="text_6">
      <!-- 0.25 -->
      <g transform="translate(43.120625 145.254107143)scale(0.12 -0.12)">
       <use xlink:href="#BitstreamVeraSans-Roman-30"/>
       <use x="63.623046875" xlink:href="#BitstreamVeraSans-Roman-2e"/>
       <use x="95.41015625" xlink:href="#BitstreamVeraSans-Roman-32"/>
       <use x="159.033203125" xlink:href="#BitstreamVeraSans-Roman-35"/>
      </g>
     </g>
    </g>
    <g id="ytick_7">
     <g id="line2d_14">
      <g>
       <use style="stroke:#000000;stroke-width:0.5;" x="72.0" xlink:href="#m728421d6d4" y="92.5714285714"/>
      </g>
     </g>
     <g id="line2d_15">
      <g>
       <use style="stroke:#000000;stroke-width:0.5;" x="518.4" xlink:href="#mcb0005524f" y="92.5714285714"/>
      </g>
     </g>
     <g id="text_7">
      <!-- 0.30 -->
      <defs>
       <path d="
M40.5781 39.3125
Q47.6562 37.7969 51.625 33
Q55.6094 28.2188 55.6094 21.1875
Q55.6094 10.4062 48.1875 4.48438
Q40.7656 -1.42188 27.0938 -1.42188
Q22.5156 -1.42188 17.6562 -0.515625
Q12.7969 0.390625 7.625 2.20312
L7.625 11.7188
Q11.7188 9.32812 16.5938 8.10938
Q21.4844 6.89062 26.8125 6.89062
Q36.0781 6.89062 40.9375 10.5469
Q45.7969 14.2031 45.7969 21.1875
Q45.7969 27.6406 41.2812 31.2656
Q36.7656 34.9062 28.7188 34.9062
L20.2188 34.9062
L20.2188 43.0156
L29.1094 43.0156
Q36.375 43.0156 40.2344 45.9219
Q44.0938 48.8281 44.0938 54.2969
Q44.0938 59.9062 40.1094 62.9062
Q36.1406 65.9219 28.7188 65.9219
Q24.6562 65.9219 20.0156 65.0312
Q15.375 64.1562 9.8125 62.3125
L9.8125 71.0938
Q15.4375 72.6562 20.3438 73.4375
Q25.25 74.2188 29.5938 74.2188
Q40.8281 74.2188 47.3594 69.1094
Q53.9062 64.0156 53.9062 55.3281
Q53.9062 49.2656 50.4375 45.0938
Q46.9688 40.9219 40.5781 39.3125" id="BitstreamVeraSans-Roman-33"/>
      </defs>
      <g transform="translate(42.869375 95.8826785714)scale(0.12 -0.12)">
       <use xlink:href="#BitstreamVeraSans-Roman-30"/>
       <use x="63.623046875" xlink:href="#BitstreamVeraSans-Roman-2e"/>
       <use x="95.41015625" xlink:href="#BitstreamVeraSans-Roman-33"/>
       <use x="159.033203125" xlink:href="#BitstreamVeraSans-Roman-30"/>
      </g>
     </g>
    </g>
    <g id="ytick_8">
     <g id="line2d_16">
      <g>
       <use style="stroke:#000000;stroke-width:0.5;" x="72.0" xlink:href="#m728421d6d4" y="43.2"/>
      </g>
     </g>
     <g id="line2d_17">
      <g>
       <use style="stroke:#000000;stroke-width:0.5;" x="518.4" xlink:href="#mcb0005524f" y="43.2"/>
      </g>
     </g>
     <g id="text_8">
      <!-- 0.35 -->
      <g transform="translate(43.120625 46.51125)scale(0.12 -0.12)">
       <use xlink:href="#BitstreamVeraSans-Roman-30"/>
       <use x="63.623046875" xlink:href="#BitstreamVeraSans-Roman-2e"/>
       <use x="95.41015625" xlink:href="#BitstreamVeraSans-Roman-33"/>
       <use x="159.033203125" xlink:href="#BitstreamVeraSans-Roman-35"/>
      </g>
     </g>
    </g>
   </g>
   <g id="patch_3">
    <path d="
M72 43.2
L518.4 43.2" style="fill:none;stroke:#000000;"/>
   </g>
   <g id="patch_4">
    <path d="
M518.4 388.8
L518.4 43.2" style="fill:none;stroke:#000000;"/>
   </g>
   <g id="patch_5">
    <path d="
M72 388.8
L518.4 388.8" style="fill:none;stroke:#000000;"/>
   </g>
   <g id="patch_6">
    <path d="
M72 388.8
L72 43.2" style="fill:none;stroke:#000000;"/>
   </g>
  </g>
 </g>
 <defs>
  <clipPath id="p7ff5b81e1d">
   <rect height="345.6" width="446.4" x="72.0" y="43.2"/>
  </clipPath>
 </defs>
</svg>
