200
200
200
200
200
200
200
200
200
200
200
200
200
200
200
200
200
200
200
200
200
200
200
200
200
200
200
200
200
200
200
200
200
200
200
200
200
200
200
200
200
200
200
200
200
200
200
200
200
200
200
200
200
200
200
200
200
200
200
200
200
200
200
200
200
200
200
200
200
200
200
200
200
200
200
200
200
200
200
200
200
200
200
200
200
200
200
200
200
200
200
200
200
200
200
200
200
200
200
200
200
200
200
200
200
200
200
200
200
200
200
200
200
200
200
200
200
200
200
200
200
200
200
200
200
200
200
200
200
200
200
200
200
200
200
16
2
16
10
14
8
19
0
13
18
9
15
19
2
1
0
9
15
3
6
6
4
16
13
2
2
15
17
10
17
11
2
6
11
7
15
1
14
13
4
11
3
0
2
9
15
10
9
18
1
19
2
10
6
1
15
10
5
18
7
9
19
7
15
0
16
14
3
0
11
9
19
1
9
15
10
3
3
3
15
16
7
0
7
9
8
10
2
3
5
10
7
18
1
5
13
7
0
15
18
16
16
10
3
0
18
13
1
6
17
15
16
3
0
9
0
5
3
18
1
13
19
13
2
0
15
2
2
11
0
5
9
10
11
16
13
14
19
3
2
9
2
6
11
13
6
1
11
6
19
15
7
13
6
10
7
19
16
7
7
19
6
19
15
7
3
7
14
11
0
11
10
6
0
1
0
15
18
16
5
15
1
17
10
16
18
2
16
5
3
18
1
9
6
1
2
0
11
2
0
5
0
19
15
13
16
17
2
1
5
5
18
0
16
0
6
15
10
10
2
1
15
16
3
0
10
17
19
2
16
18
14
19
3
19
2
1
9
15
14
10
15
18
0
15
13
19
14
11
12
3
19
9
18
11
0
15
0
16
6
16
7
15
16
3
13
9
9
3
15
15
19
2
9
1
14
9
18
2
7
0
18
11
8
18
18
19
19
7
0
8
5
15
18
8
7
13
6
3
16
14
1
1
1
9
16
11
15
0
15
13
16
19
3
17
3
8
14
19
13
16
7
7
1
14
19
2
10
5
10
0
15
13
2
2
1
4
9
5
19
3
0
5
7
1
10
16
0
2
12
4
3
15
5
5
15
0
5
15
13
9
18
3
5
10
7
1
18
19
15
0
15
2
16
11
10
4
10
3
7
0
0
10
3
0
10
5
14
4
2
5
2
10
16
5
1
17
6
17
1
11
7
16
3
6
10
16
2
19
18
15
7
6
15
10
7
8
3
11
5
16
7
6
10
7
10
18
0
15
15
2
3
0
19
15
10
1
16
9
16
0
18
16
3
19
13
2
0
5
6
15
15
14
9
10
7
18
16
5
7
11
12
2
5
5
1
19
7
5
3
2
1
10
18
19
1
0
7
0
0
9
3
0
10
7
15
0
15
3
10
10
19
7
7
2
7
7
15
10
15
15
19
3
10
15
7
19
11
15
9
16
0
16
15
7
3
13
5
18
7
7
5
5
10
19
0
10
16
13
16
18
5
3
7
1
5
5
16
19
7
15
11
0
18
19
16
2
0
8
6
3
1
13
3
10
14
3
0
0
11
9
16
5
10
11
9
17
0
3
3
17
10
19
11
7
19
5
13
3
10
2
200
200
200
200
200
200
200
200
200
200
200
200
200
200
200
200
200
200
200
200
200
200
200
200
200
200
200
200
200
200
200
200
200
200
200
200
200
200
200
200
200
200
200
200
200
200
200
200
200
200
200
200
200
200
200
200
200
200
200
200
200
200
200
200
200
200
200
200
200
200
200
200
200
200
200
200
200
200
200
200
200
200
200
200
200
200
200
200
200
200
200
200
200
200
200
200
200
200
200
200
200
200
200
200
200
200
200
200
200
200
200
200
200
200
200
200
200
200
200
200
200
200
200
200
200
200
200
200
200
200
200
200
200
200
200
16
2
16
10
14
8
19
0
13
18
9
15
19
2
1
0
9
15
3
6
6
4
16
13
2
2
15
17
10
17
11
2
6
11
7
15
1
14
13
4
11
3
0
2
9
15
10
9
18
1
19
2
10
6
1
15
10
5
18
7
9
19
7
15
0
16
14
3
0
11
9
19
1
9
15
10
3
3
3
15
16
7
0
7
9
8
10
2
3
5
10
7
18
1
5
13
7
0
15
18
16
16
10
3
0
18
13
1
6
17
15
16
3
0
9
0
5
3
18
1
13
19
13
2
0
15
2
2
11
0
5
9
10
11
16
13
14
19
3
2
9
2
6
11
13
6
1
11
6
19
15
7
13
6
10
7
19
16
7
7
19
6
19
15
7
3
7
14
11
0
11
10
6
0
1
0
15
18
16
5
15
1
17
10
16
18
2
16
5
3
18
1
9
6
1
2
0
11
2
0
5
0
19
15
13
16
17
2
1
5
5
18
0
16
0
6
15
10
10
2
1
15
16
3
0
10
17
19
2
16
18
14
19
3
19
2
1
9
15
14
10
15
18
0
15
13
19
14
11
12
3
19
9
18
11
0
15
0
16
6
16
7
15
16
3
13
9
9
3
15
15
19
2
9
1
14
9
18
2
7
0
18
11
8
18
18
19
19
7
0
8
5
15
18
8
7
13
6
3
16
14
1
1
1
9
16
11
15
0
15
13
16
19
3
17
3
8
14
19
13
16
7
7
1
14
19
2
10
5
10
0
15
13
2
2
1
4
9
5
19
3
0
5
7
1
10
16
0
2
12
4
3
15
5
5
15
0
5
15
13
9
18
3
5
10
7
1
18
19
15
0
15
2
16
11
10
4
10
3
7
0
0
10
3
0
10
5
14
4
2
5
2
10
16
5
1
17
6
17
1
11
7
16
3
6
10
16
2
19
18
15
7
6
15
10
7
8
3
11
5
16
7
6
10
7
10
18
0
15
15
2
3
0
19
15
10
1
16
9
16
0
18
16
3
19
13
2
0
5
6
15
15
14
9
10
7
18
16
5
7
11
12
2
5
5
1
19
7
5
3
2
1
10
18
19
1
0
7
0
0
9
3
0
10
7
15
0
15
3
10
10
19
7
7
2
7
7
15
10
15
15
19
3
10
15
7
19
11
15
9
16
0
16
15
7
3
13
5
18
7
7
5
5
10
19
0
10
16
13
16
18
5
3
7
1
5
5
16
19
7
15
11
0
18
19
16
2
0
8
6
3
1
13
3
10
14
3
0
0
11
9
16
5
10
11
9
17
0
3
3
17
10
19
11
7
19
5
13
3
10
2
200
200
200
200
200
200
200
200
200
200
200
200
200
200
200
200
200
200
200
200
200
200
200
200
200
200
200
200
200
200
200
200
200
200
200
200
200
200
200
200
200
200
200
200
200
200
200
200
200
200
200
200
200
200
200
200
200
200
200
200
200
200
200
200
200
200
200
200
200
200
200
200
200
200
200
200
200
200
200
200
200
200
200
200
200
200
200
200
200
200
200
200
200
200
200
200
200
200
200
200
200
200
200
200
200
200
200
200
200
200
200
200
200
200
200
200
200
200
200
200
200
200
200
200
200
200
200
200
200
200
200
200
200
200
200
16
2
16
10
14
8
19
0
13
18
9
15
19
2
1
0
9
15
3
6
6
4
16
13
2
2
15
17
10
17
11
2
6
11
7
15
1
14
13
4
11
3
0
2
9
15
10
9
18
1
19
2
10
6
1
15
10
5
18
7
9
19
7
15
0
16
14
3
0
11
9
19
1
9
15
10
3
3
3
15
16
7
0
7
9
8
10
2
3
5
10
7
18
1
5
13
7
0
15
18
16
16
10
3
0
18
13
1
6
17
15
16
3
0
9
0
5
3
18
1
13
19
13
2
0
15
2
2
11
0
5
9
10
11
16
13
14
19
3
2
9
2
6
11
13
6
1
11
6
19
15
7
13
6
10
7
19
16
7
7
19
6
19
15
7
3
7
14
11
0
11
10
6
0
1
0
15
18
16
5
15
1
17
10
16
18
2
16
5
3
18
1
9
6
1
2
0
11
2
0
5
0
19
15
13
16
17
2
1
5
5
18
0
16
0
6
15
10
10
2
1
15
16
3
0
10
17
19
2
16
18
14
19
3
19
2
1
9
15
14
10
15
18
0
15
13
19
14
11
12
3
19
9
18
11
0
15
0
16
6
16
7
15
16
3
13
9
9
3
15
15
19
2
9
1
14
9
18
2
7
0
18
11
8
18
18
19
19
7
0
8
5
15
18
8
7
13
6
3
16
14
1
1
1
9
16
11
15
0
15
13
16
19
3
17
3
8
14
19
13
16
7
7
1
14
19
2
10
5
10
0
15
13
2
2
1
4
9
5
19
3
0
5
7
1
10
16
0
2
12
4
3
15
5
5
15
0
5
15
13
9
18
3
5
10
7
1
18
19
15
0
15
2
16
11
10
4
10
3
7
0
0
10
3
0
10
5
14
4
2
5
2
10
16
5
1
17
6
17
1
11
7
16
3
6
10
16
2
19
18
15
7
6
15
10
7
8
3
11
5
16
7
6
10
7
10
18
0
15
15
2
3
0
19
15
10
1
16
9
16
0
18
16
3
19
13
2
0
5
6
15
15
14
9
10
7
18
16
5
7
11
12
2
5
5
1
19
7
5
3
2
1
10
18
19
1
0
7
0
0
9
3
0
10
7
15
0
15
3
10
10
19
7
7
2
7
7
15
10
15
15
19
3
10
15
7
19
11
15
9
16
0
16
15
7
3
13
5
18
7
7
5
5
10
19
0
10
16
13
16
18
5
3
7
1
5
5
16
19
7
15
11
0
18
19
16
2
0
8
6
3
1
13
3
10
14
3
0
0
11
9
16
5
10
11
9
17
0
3
3
17
10
19
11
7
19
5
13
3
10
2
200
200
200
200
200
200
200
200
200
200
200
200
200
200
200
200
200
200
200
200
200
200
200
200
200
200
200
200
200
200
200
200
200
200
200
200
200
200
200
200
200
200
200
200
200
200
200
200
200
200
200
200
200
200
200
200
200
200
200
200
200
200
200
200
200
200
200
200
200
200
200
200
200
200
200
200
200
200
200
200
200
200
200
200
200
200
200
200
200
200
200
200
200
200
200
200
200
200
200
200
200
200
200
200
200
200
200
200
200
200
200
200
200
200
200
200
200
200
200
200
200
200
200
200
200
200
200
200
200
200
200
200
200
200
200
16
2
16
10
14
8
19
0
13
18
9
15
19
2
1
0
9
15
3
6
6
4
16
13
2
2
15
17
10
17
11
2
6
11
7
15
1
14
13
4
11
3
0
2
9
15
10
9
18
1
19
2
10
6
1
15
10
5
18
7
9
19
7
15
0
16
14
3
0
11
9
19
1
9
15
10
3
3
3
15
16
7
0
7
9
8
10
2
3
5
10
7
18
1
5
13
7
0
15
18
16
16
10
3
0
18
13
1
6
17
15
16
3
0
9
0
5
3
18
1
13
19
13
2
0
15
2
2
11
0
5
9
10
11
16
13
14
19
3
2
9
2
6
11
13
6
1
11
6
19
15
7
13
6
10
7
19
16
7
7
19
6
19
15
7
3
7
14
11
0
11
10
6
0
1
0
15
18
16
5
15
1
17
10
16
18
2
16
5
3
18
1
9
6
1
2
0
11
2
0
5
0
19
15
13
16
17
2
1
5
5
18
0
16
0
6
15
10
10
2
1
15
16
3
0
10
17
19
2
16
18
14
19
3
19
2
1
9
15
14
10
15
18
0
15
13
19
14
11
12
3
19
9
18
11
0
15
0
16
6
16
7
15
16
3
13
9
9
3
15
15
19
2
9
1
14
9
18
2
7
0
18
11
8
18
18
19
19
7
0
8
5
15
18
8
7
13
6
3
16
14
1
1
1
9
16
11
15
0
15
13
16
19
3
17
3
8
14
19
13
16
7
7
1
14
19
2
10
5
10
0
15
13
2
2
1
4
9
5
19
3
0
5
7
1
10
16
0
2
12
4
3
15
5
5
15
0
5
15
13
9
18
3
5
10
7
1
18
19
15
0
15
2
16
11
10
4
10
3
7
0
0
10
3
0
10
5
14
4
2
5
2
10
16
5
1
17
6
17
1
11
7
16
3
6
10
16
2
19
18
15
7
6
15
10
7
8
3
11
5
16
7
6
10
7
10
18
0
15
15
2
3
0
19
15
10
1
16
9
16
0
18
16
3
19
13
2
0
5
6
15
15
14
9
10
7
18
16
5
7
11
12
2
5
5
1
19
7
5
3
2
1
10
18
19
1
0
7
0
0
9
3
0
10
7
15
0
15
3
10
10
19
7
7
2
7
7
15
10
15
15
19
3
10
15
7
19
11
15
9
16
0
16
15
7
3
13
5
18
7
7
5
5
10
19
0
10
16
13
16
18
5
3
7
1
5
5
16
19
7
15
11
0
18
19
16
2
0
8
6
3
1
13
3
10
14
3
0
0
11
9
16
5
10
11
9
17
0
3
3
17
10
19
11
7
19
5
13
3
10
2
200
200
200
200
200
200
200
200
200
200
200
200
200
200
200
200
200
200
200
200
200
200
200
200
200
200
200
200
200
200
200
200
200
200
200
200
200
200
200
200
200
200
200
200
200
200
200
200
200
200
200
200
200
200
200
200
200
200
200
200
200
200
200
200
200
200
200
200
200
200
200
200
200
200
200
200
200
200
200
200
200
200
200
200
200
200
200
200
200
200
200
200
200
200
200
200
200
200
200
200
200
200
200
200
200
200
200
200
200
200
200
200
200
200
200
200
200
200
200
200
200
200
200
200
200
200
200
200
200
200
200
200
200
200
200
16
2
16
10
14
8
19
0
13
18
9
15
19
2
1
0
9
15
3
6
6
4
16
13
2
2
15
17
10
17
11
2
6
11
7
15
1
14
13
4
11
3
0
2
9
15
10
9
18
1
19
2
10
6
1
15
10
5
18
7
9
19
7
15
0
16
14
3
0
11
9
19
1
9
15
10
3
3
3
15
16
7
0
7
9
8
10
2
3
5
10
7
18
1
5
13
7
0
15
18
16
16
10
3
0
18
13
1
6
17
15
16
3
0
9
0
5
3
18
1
13
19
13
2
0
15
2
2
11
0
5
9
10
11
16
13
14
19
3
2
9
2
6
11
13
6
1
11
6
19
15
7
13
6
10
7
19
16
7
7
19
6
19
15
7
3
7
14
11
0
11
10
6
0
1
0
15
18
16
5
15
1
17
10
16
18
2
16
5
3
18
1
9
6
1
2
0
11
2
0
5
0
19
15
13
16
17
2
1
5
5
18
0
16
0
6
15
10
10
2
1
15
16
3
0
10
17
19
2
16
18
14
19
3
19
2
1
9
15
14
10
15
18
0
15
13
19
14
11
12
3
19
9
18
11
0
15
0
16
6
16
7
15
16
3
13
9
9
3
15
15
19
2
9
1
14
9
18
2
7
0
18
11
8
18
18
19
19
7
0
8
5
15
18
8
7
13
6
3
16
14
1
1
1
9
16
11
15
0
15
13
16
19
3
17
3
8
14
19
13
16
7
7
1
14
19
2
10
5
10
0
15
13
2
2
1
4
9
5
19
3
0
5
7
1
10
16
0
2
12
4
3
15
5
5
15
0
5
15
13
9
18
3
5
10
7
1
18
19
15
0
15
2
16
11
10
4
10
3
7
0
0
10
3
0
10
5
14
4
2
5
2
10
16
5
1
17
6
17
1
11
7
16
3
6
10
16
2
19
18
15
7
6
15
10
7
8
3
11
5
16
7
6
10
7
10
18
0
15
15
2
3
0
19
15
10
1
16
9
16
0
18
16
3
19
13
2
0
5
6
15
15
14
9
10
7
18
16
5
7
11
12
2
5
5
1
19
7
5
3
2
1
10
18
19
1
0
7
0
0
9
3
0
10
7
15
0
15
3
10
10
19
7
7
2
7
7
15
10
15
15
19
3
10
15
7
19
11
15
9
16
0
16
15
7
3
13
5
18
7
7
5
5
10
19
0
10
16
13
16
18
5
3
7
1
5
5
16
19
7
15
11
0
18
19
16
2
0
8
6
3
1
13
3
10
14
3
0
0
11
9
16
5
10
11
9
17
0
3
3
17
10
19
11
7
19
5
13
3
10
2
200
200
200
200
200
200
200
200
200
200
200
200
200
200
200
200
200
200
200
200
200
200
200
200
200
200
200
200
200
200
200
200
200
200
200
200
200
200
200
200
200
200
200
200
200
200
200
200
200
200
200
200
200
200
200
200
200
200
200
200
200
200
200
200
200
200
200
200
200
200
200
200
200
200
200
200
200
200
200
200
200
200
200
200
200
200
200
200
200
200
200
200
200
200
200
200
200
200
200
200
200
200
200
200
200
200
200
200
200
200
200
200
200
200
200
200
200
200
200
200
200
200
200
200
200
200
200
200
200
200
200
200
200
200
200
16
2
16
10
14
8
19
0
13
18
9
15
19
2
1
0
9
15
3
6
6
4
16
13
2
2
15
17
10
17
11
2
6
11
7
15
1
14
13
4
11
3
0
2
9
15
10
9
18
1
19
2
10
6
1
15
10
5
18
7
9
19
7
15
0
16
14
3
0
11
9
19
1
9
15
10
3
3
3
15
16
7
0
7
9
8
10
2
3
5
10
7
18
1
5
13
7
0
15
18
16
16
10
3
0
18
13
1
6
17
15
16
3
0
9
0
5
3
18
1
13
19
13
2
0
15
2
2
11
0
5
9
10
11
16
13
14
19
3
2
9
2
6
11
13
6
1
11
6
19
15
7
13
6
10
7
19
16
7
7
19
6
19
15
7
3
7
14
11
0
11
10
6
0
1
0
15
18
16
5
15
1
17
10
16
18
2
16
5
3
18
1
9
6
1
2
0
11
2
0
5
0
19
15
13
16
17
2
1
5
5
18
0
16
0
6
15
10
10
2
1
15
16
3
0
10
17
19
2
16
18
14
19
3
19
2
1
9
15
14
10
15
18
0
15
13
19
14
11
12
3
19
9
18
11
0
15
0
16
6
16
7
15
16
3
13
9
9
3
15
15
19
2
9
1
14
9
18
2
7
0
18
11
8
18
18
19
19
7
0
8
5
15
18
8
7
13
6
3
16
14
1
1
1
9
16
11
15
0
15
13
16
19
3
17
3
8
14
19
13
16
7
7
1
14
19
2
10
5
10
0
15
13
2
2
1
4
9
5
19
3
0
5
7
1
10
16
0
2
12
4
3
15
5
5
15
0
5
15
13
9
18
3
5
10
7
1
18
19
15
0
15
2
16
11
10
4
10
3
7
0
0
10
3
0
10
5
14
4
2
5
2
10
16
5
1
17
6
17
1
11
7
16
3
6
10
16
2
19
18
15
7
6
15
10
7
8
3
11
5
16
7
6
10
7
10
18
0
15
15
2
3
0
19
15
10
1
16
9
16
0
18
16
3
19
13
2
0
5
6
15
15
14
9
10
7
18
16
5
7
11
12
2
5
5
1
19
7
5
3
2
1
10
18
19
1
0
7
0
0
9
3
0
10
7
15
0
15
3
10
10
19
7
7
2
7
7
15
10
15
15
19
3
10
15
7
19
11
15
9
16
0
16
15
7
3
13
5
18
7
7
5
5
10
19
0
10
16
13
16
18
5
3
7
1
5
5
16
19
7
15
11
0
18
19
16
2
0
8
6
3
1
13
3
10
14
3
0
0
11
9
16
5
10
11
9
17
0
3
3
17
10
19
11
7
19
5
13
3
10
2
200
200
200
200
200
200
200
200
200
200
200
200
200
200
200
200
200
200
200
200
200
200
200
200
200
200
200
200
200
200
200
200
200
200
200
200
200
200
200
200
200
200
200
200
200
200
200
200
200
200
200
200
200
200
200
200
200
200
200
200
200
200
200
200
200
200
200
200
200
200
200
200
200
200
200
200
200
200
200
200
200
200
200
200
200
200
200
200
200
200
200
200
200
200
200
200
200
200
200
200
200
200
200
200
200
200
200
200
200
200
200
200
200
200
200
200
200
200
200
200
200
200
200
200
200
200
200
200
200
200
200
200
200
200
200
16
2
16
10
14
8
19
0
13
18
9
15
19
2
1
0
9
15
3
6
6
4
16
13
2
2
15
17
10
17
11
2
6
11
7
15
1
14
13
4
11
3
0
2
9
15
10
9
18
1
19
2
10
6
1
15
10
5
18
7
9
19
7
15
0
16
14
3
0
11
9
19
1
9
15
10
3
3
3
15
16
7
0
7
9
8
10
2
3
5
10
7
18
1
5
13
7
0
15
18
16
16
10
3
0
18
13
1
6
17
15
16
3
0
9
0
5
3
18
1
13
19
13
2
0
15
2
2
11
0
5
9
10
11
16
13
14
19
3
2
9
2
6
11
13
6
1
11
6
19
15
7
13
6
10
7
19
16
7
7
19
6
19
15
7
3
7
14
11
0
11
10
6
0
1
0
15
18
16
5
15
1
17
10
16
18
2
16
5
3
18
1
9
6
1
2
0
11
2
0
5
0
19
15
13
16
17
2
1
5
5
18
0
16
0
6
15
10
10
2
1
15
16
3
0
10
17
19
2
16
18
14
19
3
19
2
1
9
15
14
10
15
18
0
15
13
19
14
11
12
3
19
9
18
11
0
15
0
16
6
16
7
15
16
3
13
9
9
3
15
15
19
2
9
1
14
9
18
2
7
0
18
11
8
18
18
19
19
7
0
8
5
15
18
8
7
13
6
3
16
14
1
1
1
9
16
11
15
0
15
13
16
19
3
17
3
8
14
19
13
16
7
7
1
14
19
2
10
5
10
0
15
13
2
2
1
4
9
5
19
3
0
5
7
1
10
16
0
2
12
4
3
15
5
5
15
0
5
15
13
9
18
3
5
10
7
1
18
19
15
0
15
2
16
11
10
4
10
3
7
0
0
10
3
0
10
5
14
4
2
5
2
10
16
5
1
17
6
17
1
11
7
16
3
6
10
16
2
19
18
15
7
6
15
10
7
8
3
11
5
16
7
6
10
7
10
18
0
15
15
2
3
0
19
15
10
1
16
9
16
0
18
16
3
19
13
2
0
5
6
15
15
14
9
10
7
18
16
5
7
11
12
2
5
5
1
19
7
5
3
2
1
10
18
19
1
0
7
0
0
9
3
0
10
7
15
0
15
3
10
10
19
7
7
2
7
7
15
10
15
15
19
3
10
15
7
19
11
15
9
16
0
16
15
7
3
13
5
18
7
7
5
5
10
19
0
10
16
13
16
18
5
3
7
1
5
5
16
19
7
15
11
0
18
19
16
2
0
8
6
3
1
13
3
10
14
3
0
0
11
9
16
5
10
11
9
17
0
3
3
17
10
19
11
7
19
5
13
3
10
2
