## 1a0s
# single value: 
	420	L	 2	0.00571288507898
	343	G	-3	0.00621352252868
	473	W	 4	0.0253834429459
	418	Y	 4	0.0259877204629
	341	S	-1	0.0414191485785
	355	P	-1	0.0494031595674
	AAAAAAAAAAAAAAAAAAAAAAAAA
	VVVVVVVVVVVVVVVVVVVVVVVVV
	 83	V	 3	0.952353359744
	339	I	 1	0.960396237085
	188	F	 2	0.983546596855
# vector profile: 
	AAAAAAAAAAAAAAAAAAAAAAAAA
	VVVVVVVVVVVVVVVVVVVVVVVVV
	210	G	-1	0.952731408755
 [ 0.    0.11  0.16  0.06  0.    0.15  0.08  0.01  0.06  0.    0.    0.12  0.    0.    0.06  0.07  0.05  0.03  0.02  0.  ]
	442	F	-1	0.968651337644
 [ 0.    0.06  0.01  0.04  0.    0.01  0.06  0.05  0.03  0.13  0.04  0.    0.27  0.03  0.06  0.01  0.01  0.17  0.    0.02]
	377	F	 2	0.976226981431
 [ 0.    0.24  0.09  0.08  0.01  0.01  0.07  0.    0.29  0.03  0.    0.04  0.    0.    0.    0.07  0.04  0.    0.02  0.01]
	227	L	 1	0.979608032287
 [ 0.    0.08  0.13  0.06  0.11  0.11  0.04  0.01  0.08  0.    0.    0.1   0.02  0.01  0.03  0.05  0.03  0.1   0.04  0.  ]
	479	M	-2	0.985596970228
 [ 0.    0.11  0.08  0.29  0.    0.21  0.01  0.01  0.    0.01  0.    0.08  0.02  0.    0.01  0.1   0.01  0.04  0.02  0.  ]
	163	A	-1	0.98976646421
 [ 0.    0.11  0.1   0.13  0.    0.12  0.09  0.04  0.03  0.    0.02  0.16  0.    0.01  0.01  0.11  0.02  0.    0.    0.05]
	188	F	 2	0.996923710024
 [ 0.    0.1   0.19  0.18  0.03  0.04  0.08  0.01  0.04  0.04  0.05  0.06  0.01  0.04  0.02  0.06  0.03  0.    0.    0.03]
