## 1bxw
# single value: 
	 43	Y	-3	0.00491821990691
# vector profile: 
	AAAAAAAAAAAAAAAAAAAAAAAAA
	VVVVVVVVVVVVVVVVVVVVVVVVV
	 39	A	 1	0.962785088668
 [ 0.    0.04  0.06  0.03  0.04  0.09  0.    0.    0.25  0.01  0.03  0.09  0.05  0.07  0.04  0.01  0.02  0.08  0.08  0.01]
	 97	L	 1	0.965988361735
 [ 0.    0.05  0.16  0.13  0.09  0.1   0.04  0.    0.11  0.    0.    0.04  0.    0.02  0.03  0.05  0.02  0.08  0.08  0.  ]
	 83	L	-3	0.997384191109
 [ 0.    0.1   0.09  0.23  0.    0.01  0.22  0.02  0.17  0.01  0.    0.05  0.01  0.    0.08  0.02  0.    0.    0.    0.  ]
