## 1i78
# single value: 
	 12	I	-4	0.0185617264542
	112	F	 3	0.0438328291372
	 64	I	-4	0.0456666457237
	AAAAAAAAAAAAAAAAAAAAAAAAA
	VVVVVVVVVVVVVVVVVVVVVVVVV
	293	L	-1	0.987425161392
# vector profile: 
