## 1tly
# single value: 
	222	L	-3	0.00871715619155
	102	W	-3	0.0174028000759
	AAAAAAAAAAAAAAAAAAAAAAAAA
	VVVVVVVVVVVVVVVVVVVVVVVVV
	235	Y	 4	0.970056167093
	181	L	-4	0.99603955602
# vector profile: 
	AAAAAAAAAAAAAAAAAAAAAAAAA
	VVVVVVVVVVVVVVVVVVVVVVVVV
	181	L	-4	0.999999675837
 [ 0.    0.07  0.06  0.11  0.01  0.07  0.11  0.    0.04  0.04  0.03  0.04  0.01  0.06  0.12  0.05  0.07  0.06  0.02  0.02]
