## 2fcp
# single value: 
	284	Y	 0	0.0199971501799
	196	G	 1	0.0486139787699
	AAAAAAAAAAAAAAAAAAAAAAAAA
	VVVVVVVVVVVVVVVVVVVVVVVVV
	645	G	 3	0.986265285252
# vector profile: 
	AAAAAAAAAAAAAAAAAAAAAAAAA
	VVVVVVVVVVVVVVVVVVVVVVVVV
	357	V	 2	0.960928316575
 [ 0.    0.21  0.14  0.38  0.    0.    0.13  0.    0.    0.02  0.01  0.    0.    0.01  0.02  0.07  0.    0.    0.    0.02]
	645	G	 3	0.975575423248
 [ 0.    0.14  0.14  0.13  0.05  0.03  0.09  0.02  0.06  0.01  0.    0.05  0.01  0.    0.04  0.06  0.03  0.08  0.04  0.01]
	719	A	-1	0.978570383834
 [ 0.    0.09  0.08  0.07  0.01  0.13  0.13  0.03  0.06  0.01  0.    0.16  0.04  0.    0.09  0.05  0.04  0.01  0.    0.  ]
	491	V	-1	0.990807297261
 [ 0.    0.11  0.08  0.27  0.01  0.08  0.12  0.03  0.16  0.01  0.    0.    0.    0.    0.02  0.03  0.03  0.    0.04  0.  ]
	721	F	-3	0.992623348211
 [ 0.    0.17  0.12  0.12  0.    0.05  0.13  0.01  0.01  0.02  0.02  0.29  0.    0.01  0.    0.03  0.02  0.    0.    0.01]
	629	Y	-3	0.997049210199
 [ 0.    0.09  0.15  0.18  0.    0.12  0.08  0.03  0.02  0.03  0.01  0.13  0.01  0.    0.    0.08  0.03  0.03  0.01  0.01]
