## 2por
# single value: 
	163	V	-1	0.0413434071744
	AAAAAAAAAAAAAAAAAAAAAAAAA
	VVVVVVVVVVVVVVVVVVVVVVVVV
	152	V	 1	0.951016546892
	249	V	 2	0.953602175475
	281	I	 2	0.965208758032
	277	I	-2	0.966982978505
	 74	D	 3	0.990084830468
	238	S	-3	0.993050804619
	134	M	 3	0.998366238024
# vector profile: 
	AAAAAAAAAAAAAAAAAAAAAAAAA
	VVVVVVVVVVVVVVVVVVVVVVVVV
	197	V	-2	0.957694136533
 [ 0.    0.09  0.13  0.18  0.    0.06  0.09  0.02  0.01  0.03  0.05  0.16  0.01  0.02  0.05  0.05  0.02  0.01  0.    0.02]
	119	L	 1	0.964833588644
 [ 0.    0.08  0.11  0.09  0.    0.05  0.    0.    0.14  0.06  0.01  0.13  0.05  0.02  0.13  0.01  0.01  0.07  0.02  0.01]
	 43	A	-3	0.968537616058
 [ 0.    0.1   0.13  0.11  0.    0.09  0.09  0.01  0.07  0.02  0.01  0.22  0.01  0.    0.04  0.07  0.02  0.    0.    0.  ]
	 74	D	 3	0.97468680542
 [ 0.    0.28  0.16  0.18  0.03  0.01  0.08  0.01  0.    0.01  0.02  0.04  0.    0.    0.02  0.06  0.04  0.02  0.02  0.02]
	134	M	 3	0.977044960672
 [ 0.    0.04  0.19  0.13  0.03  0.15  0.06  0.    0.1   0.01  0.01  0.05  0.07  0.    0.    0.06  0.02  0.03  0.04  0.  ]
	238	S	-3	0.989801059092
 [ 0.    0.1   0.11  0.11  0.    0.17  0.12  0.03  0.01  0.02  0.    0.11  0.02  0.01  0.    0.1   0.05  0.02  0.    0.01]
	123	Y	-3	0.994091151049
 [ 0.    0.07  0.08  0.16  0.01  0.13  0.08  0.02  0.02  0.    0.    0.1   0.01  0.    0.17  0.06  0.04  0.03  0.01  0.  ]
	281	I	 2	0.995140906632
 [ 0.    0.07  0.13  0.12  0.    0.09  0.15  0.01  0.05  0.04  0.06  0.05  0.02  0.06  0.01  0.11  0.    0.02  0.01  0.01]
	167	Y	 3	0.995428406467
 [ 0.    0.24  0.15  0.16  0.04  0.03  0.03  0.01  0.01  0.01  0.01  0.07  0.01  0.    0.02  0.1   0.05  0.06  0.01  0.01]
