## 3csl
# single value: 
	495	Y	-3	0.00182481375531
	567	L	 2	0.0312772249674
	AAAAAAAAAAAAAAAAAAAAAAAAA
	VVVVVVVVVVVVVVVVVVVVVVVVV
	441	N	-2	0.966277874112
	859	G	 2	0.973269659396
	260	G	 2	0.981350783208
	580	L	-1	0.988651652095
	771	L	 0	0.989722684303
	435	Y	 4	0.995478487367
# vector profile: 
	AAAAAAAAAAAAAAAAAAAAAAAAA
	VVVVVVVVVVVVVVVVVVVVVVVVV
	626	F	 0	0.958752546365
 [ 0.    0.15  0.12  0.1   0.    0.09  0.07  0.01  0.03  0.    0.01  0.2   0.    0.    0.04  0.11  0.04  0.01  0.    0.  ]
	439	A	 0	0.987724787179
 [ 0.    0.13  0.22  0.03  0.    0.07  0.05  0.04  0.16  0.    0.01  0.11  0.    0.    0.02  0.1   0.03  0.02  0.    0.  ]
	435	Y	 4	0.990398930424
 [ 0.    0.02  0.04  0.05  0.15  0.05  0.    0.    0.11  0.08  0.04  0.04  0.03  0.08  0.07  0.    0.    0.08  0.11  0.06]
