## 3syb
# single value: 
	454	F	-1	0.0105099205692
	450	L	 3	0.0132981232467
	456	F	-3	0.0367992169886
	AAAAAAAAAAAAAAAAAAAAAAAAA
	VVVVVVVVVVVVVVVVVVVVVVVVV
	306	H	-4	0.950595488949
	180	T	 4	0.97499810793
	230	L	 2	0.9918028133
# vector profile: 
	AAAAAAAAAAAAAAAAAAAAAAAAA
	VVVVVVVVVVVVVVVVVVVVVVVVV
	104	V	 1	0.98757354346
 [ 0.    0.12  0.14  0.09  0.09  0.08  0.04  0.01  0.06  0.    0.    0.12  0.02  0.    0.02  0.05  0.03  0.09  0.04  0.01]
	230	L	 2	0.995840975125
 [ 0.    0.11  0.21  0.2   0.01  0.12  0.06  0.    0.    0.06  0.05  0.04  0.01  0.03  0.    0.05  0.    0.01  0.    0.03]
