## 4k3c
# single value: 
	598	L	 3	0.0361596595505
	AAAAAAAAAAAAAAAAAAAAAAAAA
	VVVVVVVVVVVVVVVVVVVVVVVVV
	630	T	-2	0.972257946432
# vector profile: 
	AAAAAAAAAAAAAAAAAAAAAAAAA
	VVVVVVVVVVVVVVVVVVVVVVVVV
	753	A	 4	0.956906669706
 [ 0.    0.03  0.08  0.01  0.    0.4   0.12  0.01  0.    0.    0.    0.09  0.09  0.    0.04  0.05  0.02  0.03  0.01  0.02]
	486	I	 1	0.965026006829
 [ 0.    0.16  0.13  0.18  0.05  0.03  0.06  0.03  0.06  0.01  0.01  0.09  0.    0.03  0.02  0.08  0.02  0.02  0.    0.02]
	699	L	-2	0.992513837021
 [ 0.    0.03  0.1   0.24  0.    0.22  0.06  0.01  0.    0.    0.    0.07  0.01  0.    0.13  0.11  0.01  0.    0.    0.  ]
	787	F	 3	0.996138445728
 [ 0.    0.12  0.16  0.14  0.02  0.07  0.09  0.    0.05  0.01  0.02  0.13  0.    0.    0.01  0.08  0.07  0.02  0.01  0.  ]
