12
1
7
15
0
19
14
14
16
18
0
3
10
7
11
15
0
1
3
19
13
16
11
7
18
7
13
7
10
9
11
10
3
10
11
16
11
15
6
2
7
10
6
13
16
15
15
7
15
0
2
16
6
16
16
11
19
16
7
15
10
6
16
11
18
1
17
16
6
18
7
10
16
13
16
6
11
17
2
16
3
2
16
10
7
16
6
9
16
19
6
3
5
10
0
1
7
10
11
10
16
13
3
15
15
13
15
14
2
16
7
11
11
2
0
11
9
11
16
7
18
11
1
6
8
9
2
10
7
4
3
12
3
13
3
9
0
7
14
15
9
1
7
0
10
19
10
7
18
6
7
17
10
0
7
18
5
12
2
13
6
16
0
11
15
1
19
16
5
15
2
13
0
19
7
18
11
16
3
6
13
5
10
8
16
2
19
2
3
7
16
6
13
7
7
15
9
18
5
11
19
2
11
11
10
6
16
0
19
2
10
0
17
16
0
7
2
15
2
16
1
13
7
9
0
0
11
18
5
9
3
14
3
0
4
13
15
0
11
19
2
2
15
15
10
9
7
10
7
18
16
5
16
10
11
14
7
9
11
10
16
10
15
0
10
10
3
7
11
2
19
2
0
7
7
8
11
10
7
10
7
10
6
13
5
0
1
15
8
8
8
8
8
8
