200
200
200
200
200
200
200
200
200
200
200
200
200
200
200
200
200
200
200
200
200
200
200
0
7
10
19
19
2
3
2
3
10
1
2
3
10
0
17
10
15
3
1
7
19
9
8
10
15
10
15
16
17
14
10
15
5
6
6
9
0
1
0
10
11
11
0
11
14
15
18
15
15
6
5
19
19
10
0
1
9
2
5
1
10
15
0
10
11
0
3
13
1
19
16
7
18
16
15
16
3
5
14
7
16
14
5
7
13
7
5
16
5
14
0
3
2
15
10
7
10
0
13
2
2
15
7
6
17
17
3
19
8
10
5
7
2
19
6
7
7
6
1
9
15
2
7
15
1
13
2
0
2
7
0
18
7
0
19
11
13
17
2
5
17
10
15
13
7
5
19
14
5
17
17
7
14
7
18
6
7
15
10
9
1
7
3
0
200
1
14
200
16
7
13
10
200
5
1
0
6
5
0
0
14
6
16
17
17
10
1
17
19
7
14
17
5
18
5
9
15
0
15
5
200
2
5
18
2
0
19
14
8
0
11
9
9
7
7
1
13
16
13
15
14
9
5
15
10
6
10
7
0
15
1
9
200
5
17
7
7
11
7
1
14
6
15
10
15
2
13
17
3
7
7
2
5
10
0
7
13
3
13
11
13
11
10
6
14
16
10
7
17
14
19
15
13
18
7
5
200
9
7
6
3
6
15
7
13
10
14
15
0
2
200
13
10
7
7
9
6
7
8
8
7
17
7
11
3
0
19
2
17
18
10
6
0
8
3
16
1
16
2
200
15
1
16
2
18
15
18
16
8
8
9
18
11
3
7
18
18
5
5
7
18
14
10
7
3
0
200
7
7
3
7
5
10
19
0
7
11
19
6
10
9
16
6
3
2
5
1
17
15
16
1
10
19
18
0
11
19
2
14
6
2
5
15
9
2
11
0
13
14
8
0
3
16
10
11
7
9
5
10
7
17
15
7
3
19
18
5
15
19
1
10
2
16
15
10
17
18
16
2
0
2
2
15
3
15
3
3
19
7
0
15
0
7
9
6
9
14
13
15
10
