200
200
200
200
200
200
200
200
10
15
3
17
17
8
5
15
19
2
19
19
7
15
18
8
16
1
13
7
14
5
9
1
2
3
16
18
10
6
18
6
0
13
0
11
11
3
17
13
3
13
18
7
18
0
3
0
14
19
14
10
13
12
6
9
6
14
1
13
15
9
3
11
10
16
2
16
3
10
15
13
7
14
13
11
6
17
18
13
0
2
2
18
9
18
3
12
7
1
2
11
3
7
1
5
15
16
17
18
12
7
10
7
16
3
9
3
16
7
10
14
12
15
10
15
12
2
19
18
0
11
18
5
17
5
2
18
7
0
0
2
6
2
6
17
3
7
18
1
13
11
9
11
18
13
19
14
9
16
3
10
17
7
7
5
10
15
18
9
7
13
16
2
13
3
17
7
15
3
10
7
3
3
15
7
2
0
9
2
7
9
11
16
1
16
2
2
15
9
0
15
15
8
9
10
0
10
2
18
3
8
17
8
18
15
19
19
0
1
18
17
8
3
7
7
5
17
2
3
3
0
6
10
2
13
7
2
7
2
13
2
19
1
15
16
7
17
7
7
18
10
19
19
7
18
2
13
8
8
8
