19
15
9
3
18
1
8
6
12
5
3
7
8
11
3
1
10
10
9
15
8
1
13
0
2
7
13
7
10
15
15
6
19
11
17
0
5
15
19
15
2
7
16
6
19
19
0
15
18
19
18
11
13
2
15
19
13
15
9
6
14
7
13
15
10
6
15
7
15
15
2
2
2
18
1
14
18
10
1
7
1
0
2
19
16
3
3
10
15
19
0
10
1
18
1
14
18
13
11
1
11
7
18
16
10
16
7
2
9
3
18
16
13
10
11
3
18
16
9
7
18
6
10
6
18
11
11
7
16
15
18
3
9
16
8
2
19
11
10
15
18
11
17
3
11
2
17
11
14
18
19
6
19
7
2
19
15
1
5
16
1
18
1
19
7
19
5
18
15
13
8
