1a0s [  2.42716188e-03   2.83184951e-07   1.16750716e-01   1.17948881e+01] True ['P', 'Q', 'R']
1bxw [  8.55676357e-12   4.49156793e-18   3.98166082e-03   1.17349890e+01] True A
1e54 [  9.71220750e-17   4.79506012e-03   5.00000000e+00   1.05000000e+01] True ['A', 'C', 'E']
1ek9 [  1.98278788e-16   1.22808134e-19  -2.29621493e-02   1.19320383e+01] True ['A', 'C', 'B']
1fep [  0.30778283   0.03833017   0.0674358   11.84882467] True A
1i78 [  9.19647827e-07   1.76806133e-06   1.88054407e-02   1.16978134e+01] True A
1k24 [  1.40052436e-10   5.41185770e-18   7.86573464e-03   1.19138707e+01] True A
1kmo [  6.76859679e-01   4.96501745e-04  -1.82021680e-04   1.16155432e+01] True A
1nqe [  2.08261552e-02   7.55709781e-04  -4.74817939e-03   1.19556181e+01] True A
1p4t [  4.74986068e-12   1.50185474e-17  -5.36657557e-01   1.12466595e+01] True A
1prn [  3.51701410e-02   2.32146308e-04   3.15507654e-01   1.14801136e+01] True ['A', 'B', 'C']
1qd6 [  2.14584351e-03   1.63138966e-04   4.19536752e-02   1.19321211e+01] True ['C', 'D']
1qj8 [  5.16553364e-02   2.27663365e-16  -8.88383651e-04   1.19618313e+01] True A
1t16 [  2.88278778e-08   1.30620230e-06  -4.40838827e-02   1.17130842e+01] True A
1thq [  9.07052748e-02   2.08099304e-14  -2.11759665e+00   1.21276362e+01] True A
1tly [  6.75855720e-03   4.30664853e-09  -1.98946614e-03   1.19935039e+01] True A
1uyn [  1.40072903e-08   2.27059106e-14   2.94115262e-02   1.16994161e+01] True X
1xkw [  5.35726567e-10   9.05034838e-19   5.46223998e-04   1.19774594e+01] True A
1yc9 [  0.30689089   0.02039858  -2.37299236  10.50038827] True ['A', 'B', 'C']
2erv [  1.90873230e-01   3.26725867e-09  -1.28844907e-02   1.14633168e+01] True A
2f1c [  2.25285563e-05   3.04538248e-06  -1.11634017e-03   1.19917901e+01] True A
2f1t [  4.57910926e-01   1.51284225e-02  -6.86314774e-03   1.16948995e+01] True A
2fcp [  6.72643202e-15   9.05439598e-19  -6.84915261e-04   1.19666847e+01] True A
2gr8 [  5.02116010e-12   4.20510714e-19  -6.83252282e-03   1.19638428e+01] True ['A', 'C', 'D']
2lhf [  7.83455507e-01   1.42481585e-08   4.38555865e-02   1.05000000e+01] True A
2lme [  1.62097030e-07   2.80046949e-18   2.66236202e-02   1.18846376e+01] True ['A', 'B', 'C']
2mlh [  6.77781351e-17   4.24721158e-19   2.33154824e-02   1.15923157e+01] True A
2mpr [  2.94216214e-10   3.99060550e-20   2.68174310e-01   1.16641742e+01] True ['A', 'B', 'C']
2o4v [  2.31567748e-03   1.37241631e-06   1.21562492e-03   1.19972380e+01] True ['A', 'B', 'C']
2omf [  1.01920843e-10   7.19686825e-18  -2.99954631e-02   1.17389963e+01] True ['A', 'B', 'C']
2por [  7.04051556e-03   6.59388976e-08   3.22773580e-01   1.16775402e+01] True ['A', 'B', 'C']
2qdz [  6.74768706e-06   1.08699640e-14  -3.12545899e-02   1.17621926e+01] True A
2vqi [  9.11588846e-09   1.16008416e-08   1.18312527e-02   1.18558347e+01] True A
2wjr [  0.63324532   0.02346213   0.0744458   11.62318877] True A
2ynk [  1.18546812e-10   3.80183119e-21  -1.34768065e-02   1.19694781e+01] True A
3aeh [  1.03809333e-02   2.50743639e-03   5.21061745e-02   1.14999629e+01] True A
3bs0 [  7.98876318e-01   5.32762201e-04  -1.78800689e-01   1.15303782e+01] True A
3csl [  8.43994664e-02   1.12845747e-04   5.95172724e-03   1.19516169e+01] True A
3dwo [  0.05930645   0.230735    -1.16488394  11.39154772] True X
3dzm [  9.41728007e-08   2.58301686e-08  -3.73734725e-01   1.17287381e+01] True A
3fid [  2.80900851e-01   3.61740421e-03  -3.99872810e-01   1.16090554e+01] True A
3kvn [  7.89956504e-01   1.43666929e-06   3.74601225e-02   1.14068685e+01] True A
3pik [ nan  nan  nan  nan] False ['A', 'B', 'C']
3rbh [  4.81412286e-02   1.77394425e-06   4.76895602e-02   1.15928832e+01] True A
3rfz [  1.02876333e-08   1.50273047e-17  -1.46193729e-01   1.17762031e+01] True B
3syb [  4.88258902e-10   2.45469809e-07   2.25411913e-02   1.18644589e+01] True A
3szv [  1.02564840e-01   5.61393328e-03   2.80393861e-02   1.19010179e+01] True A
3v8x [  3.37324403e-15   1.82519132e-19   4.69547262e-03   1.19843054e+01] True A
3vzt [  5.35653658e-03   1.12884560e-07   1.93590422e-01   1.16963846e+01] True ['A', 'B', 'C']
4c00 [  7.99228794e-03   3.73502022e-07   4.41083168e-03   1.19878435e+01] True A
4e1s [  0.24139313   0.02703306  -0.03047499  11.50613009] True A
4gey [  2.76429580e-02   6.00175643e-04   2.72225974e-02   1.19410922e+01] True A
4pr7 [  8.75142160e-03   5.74759265e-04  -2.59348292e-03   1.19927249e+01] True A
4q35 [  7.45239746e-02   2.47513768e-03   5.87640547e-02   1.18361355e+01] True A
4k3c [  5.08339402e-10   2.75419061e-18   1.73195778e-02   1.16866823e+01] True A
7ahl [  4.88085738e-01   3.32794734e-04  -3.65598945e-02   1.19418240e+01] True ['A', 'B', 'C', 'D', 'E', 'F', 'G']
3b07 [ nan  nan  nan  nan] False ['A', 'B', 'C', 'D', 'E', 'F', 'G', 'H']
3o44 [  2.56568853e-06   2.67483324e-11  -1.98858922e-02   1.18109243e+01] True ['A', 'B', 'C', 'D', 'E', 'F', 'G']
