1qd6
   ~~~~~~~~ -4 ~~~~~~~~~~~
   122 F 0.09
   164 A 0.08
   201 Y 0.07
   206 A 0.16
   267 D 0.12
   ## 206A
   ~~~~~~~~ -3 ~~~~~~~~~~~
   36 D 0.96
   75 F 0.34
   88 L 0.35
   136 V 0.34
   171 V 0.36
   229 Y 0.34
   235 V 0.36
   ## 36D
   ~~~~~~~~ -2 ~~~~~~~~~~~
   120 L 0.11
   162 L 0.09
   199 I 0.06
   208 L 0.09
   265 L 0.12
   ## 265L
   ~~~~~~~~ -1 ~~~~~~~~~~~
   38 N 0.20
   73 L 0.16
   90 A 0.15
   138 M 0.24
   173 V 0.14
   227 L 0.20
   237 L 0.31
   ## 237L
   ~~~~~~~~ 0 ~~~~~~~~~~~
   118 L 0.05
   160 T 0.11
   197 L 0.09
   210 A 0.06
   263 V 0.08
   ## 160T
   ~~~~~~~~ 1 ~~~~~~~~~~~
   40 L 0.32
   71 L 0.17
   92 Y 0.32
   140 Y 0.19
   175 P 0.31
   225 L 0.23
   239 T 0.19
   ## 
   ~~~~~~~~ 2 ~~~~~~~~~~~
   116 P 0.12
   158 L 0.12
   195 Y 0.12
   212 G 0.09
   261 V 0.11
   ## 
   ~~~~~~~~ 3 ~~~~~~~~~~~
   42 Y 0.66
   69 F 0.54
   94 Q 1.05
   142 H 0.96
   177 Y 0.68
   223 A 0.52
   241 V 0.68
   ## 94Q,142H
   ~~~~~~~~ 4 ~~~~~~~~~~~
   114 Y 0.19
   156 N 0.28
   193 G 0.19
   214 Y 0.24
   259 V 0.18
   ## 156N
1qd6 : 8 : 36, 94, 142, 156, 160, 206, 237, 265
show sphere, (1qd6 and resi 36+94+142+156+160+206+237+265)
########################################
2erv
   ~~~~~~~~ -4 ~~~~~~~~~~~
   1 A 0.11
   23 W 0.19
   77 P 0.16
   118 Q 0.15
   ## 23W
   ~~~~~~~~ -3 ~~~~~~~~~~~
   41 W 0.23
   66 F 0.24
   112 L 0.16
   148 I 0.17
   ## 
   ~~~~~~~~ -2 ~~~~~~~~~~~
   3 V 0.28
   21 L 0.30
   79 I 0.44
   120 V 0.27
   ## 79I
   ~~~~~~~~ -1 ~~~~~~~~~~~
   43 A 0.06
   64 P 0.06
   110 A 0.04
   146 Y 0.04
   ## 
   ~~~~~~~~ 0 ~~~~~~~~~~~
   5 A 0.11
   19 L 0.09
   81 A 0.18
   122 V 0.14
   ## 
   ~~~~~~~~ 1 ~~~~~~~~~~~
   45 Y 0.11
   62 F 0.11
   108 I 0.23
   144 L 0.11
   ## 108I
   ~~~~~~~~ 2 ~~~~~~~~~~~
   7 V 0.24
   17 Y 0.21
   83 I 0.50
   124 A 0.29
   ## 83I
   ~~~~~~~~ 3 ~~~~~~~~~~~
   47 Y 0.26
   60 L 0.25
   106 D 0.20
   142 Y 0.31
   ## 142Y
   ~~~~~~~~ 4 ~~~~~~~~~~~
   9 A 0.43
   15 M 0.41
   85 V 0.94
   126 H 0.49
   ## 85V
2erv : 6 : 23, 79, 83, 85, 108, 142
show sphere, (2erv and resi 23+79+83+85+108+142)
########################################
1i78
   ~~~~~~~~ -4 ~~~~~~~~~~~
   12 I 0.06
   64 I 0.11
   187 Y 0.09
   192 F 0.07
   245 A 0.07
   ## 64I
   ~~~~~~~~ -3 ~~~~~~~~~~~
   58 W 0.18
   118 G 0.12
   128 L 0.13
   239 Y 0.14
   295 Y 0.14
   ## 58W
   ~~~~~~~~ -2 ~~~~~~~~~~~
   14 A 0.05
   66 I 0.12
   185 G 0.08
   194 L 0.05
   247 V 0.07
   ## 66I
   ~~~~~~~~ -1 ~~~~~~~~~~~
   56 I 0.10
   116 I 0.07
   130 L 0.11
   237 A 0.09
   293 L 0.12
   ## 
   ~~~~~~~~ 0 ~~~~~~~~~~~
   16 I 0.07
   68 A 0.17
   183 L 0.06
   196 G 0.09
   249 V 0.06
   ## 68A
   ~~~~~~~~ 1 ~~~~~~~~~~~
   54 G 0.11
   114 L 0.10
   132 A 0.14
   235 V 0.13
   291 A 0.09
   ## 
   ~~~~~~~~ 2 ~~~~~~~~~~~
   18 L 0.11
   70 G 0.11
   181 I 0.12
   198 F 0.06
   251 G 0.09
   ## 
   ~~~~~~~~ 3 ~~~~~~~~~~~
   52 I 0.50
   112 F 0.35
   134 Y 0.56
   233 V 0.60
   289 T 0.45
   ## 
   ~~~~~~~~ 4 ~~~~~~~~~~~
   20 T 0.13
   72 T 0.16
   179 P 0.11
   200 Y 0.12
   253 W 0.13
   ## 72T
1i78 : 5 : 58, 64, 66, 68, 72
show sphere, (1i78 and resi 58+64+66+68+72)
########################################
1thq
   ~~~~~~~~ -4 ~~~~~~~~~~~
   67 H 0.55
   89 W 0.37
   131 V 0.87
   134 G 0.41
   161 F 0.38
   ## 131V
   ~~~~~~~~ -3 ~~~~~~~~~~~
   23 Y 0.33
   57 L 0.17
   107 F 0.25
   ## 
   ~~~~~~~~ -2 ~~~~~~~~~~~
   69 L 0.57
   87 Y 0.39
   129 A 1.11
   136 V 0.40
   159 F 0.40
   ## 129A
   ~~~~~~~~ -1 ~~~~~~~~~~~
   25 L 0.29
   55 F 0.17
   109 A 0.19
   ## 25L
   ~~~~~~~~ 0 ~~~~~~~~~~~
   71 A 0.34
   85 A 0.27
   127 P 0.80
   138 F 0.32
   157 M 0.27
   ## 127P
   ~~~~~~~~ 1 ~~~~~~~~~~~
   27 I 0.32
   53 G 0.28
   111 V 0.40
   ## 
   ~~~~~~~~ 2 ~~~~~~~~~~~
   73 A 0.37
   83 P 0.24
   125 L 0.41
   140 M 0.20
   155 A 0.20
   ## 
   ~~~~~~~~ 3 ~~~~~~~~~~~
   29 A 0.73
   51 W 0.52
   113 A 0.89
   ## 
   ~~~~~~~~ 4 ~~~~~~~~~~~
   75 K 0.42
   81 W 0.59
   123 P 0.88
   142 Y 0.37
   153 Y 0.40
   ## 123P
1thq : 5 : 25, 123, 127, 129, 131
show sphere, (1thq and resi 25+123+127+129+131)
########################################
3aeh
   ~~~~~~~~ -4 ~~~~~~~~~~~
   1116 A 0.24
   1155 L 0.49
   1188 G 0.23
   1194 A 0.24
   1289 K 0.44
   1298 L 0.19
   1349 T 0.18
   ## 1155L,1289K
   ~~~~~~~~ -3 ~~~~~~~~~~~
   1146 R 0.30
   1234 Y 0.94
   1244 V 0.37
   1343 A 0.31
   1375 Y 0.34
   ## 1234Y
   ~~~~~~~~ -2 ~~~~~~~~~~~
   1118 T 0.12
   1157 T 0.12
   1186 A 0.12
   1196 F 0.41
   1287 S 0.16
   1300 A 0.10
   1351 L 0.14
   ## 1196F
   ~~~~~~~~ -1 ~~~~~~~~~~~
   1144 A 0.17
   1232 V 0.38
   1246 P 0.16
   1341 L 0.15
   1373 I 0.18
   ## 1232V
   ~~~~~~~~ 0 ~~~~~~~~~~~
   1120 V 0.12
   1159 V 0.17
   1184 F 0.13
   1198 V 0.14
   1285 V 0.35
   1302 A 0.11
   1353 L 0.13
   ## 1159V,1285V
   ~~~~~~~~ 1 ~~~~~~~~~~~
   1142 M 0.08
   1230 A 0.05
   1248 A 0.05
   1339 V 0.08
   1371 A 0.09
   ## 
   ~~~~~~~~ 2 ~~~~~~~~~~~
   1122 L 0.14
   1161 A 0.22
   1182 G 0.09
   1200 A 0.11
   1283 T 0.17
   1304 L 0.10
   1355 V 0.13
   ## 1161A
   ~~~~~~~~ 3 ~~~~~~~~~~~
   1140 L 0.67
   1228 A 0.29
   1250 L 0.33
   1337 Y 0.47
   1369 I 0.36
   ## 1140L
   ~~~~~~~~ 4 ~~~~~~~~~~~
   1124 N 0.29
   1163 Y 0.25
   1180 W 0.19
   1202 Y 0.17
   1281 G 0.40
   1306 Y 0.15
   1357 R 0.18
   ## 1281G
3aeh : 10 : 1140, 1155, 1159, 1161, 1196, 1232, 1234, 1281, 1285, 1289
show sphere, (3aeh and resi 1140+1155+1159+1161+1196+1232+1234+1281+1285+1289)
########################################
3fid
   ~~~~~~~~ -4 ~~~~~~~~~~~
   1 S 0.21
   91 S 0.20
   97 L 0.21
   264 S 0.58
   296 F 0.22
   ## 264S
   ~~~~~~~~ -3 ~~~~~~~~~~~
   43 H 0.70
   51 L 0.42
   153 P 0.36
   160 V 0.45
   189 N 0.78
   215 L 0.45
   263 Y 0.56
   ## 189N
   ~~~~~~~~ -2 ~~~~~~~~~~~
   3 L 0.11
   89 W 0.19
   99 Y 0.09
   266 V 0.14
   294 F 0.08
   ## 89W
   ~~~~~~~~ -1 ~~~~~~~~~~~
   41 Y 0.15
   53 F 0.17
   151 L 0.45
   162 V 0.15
   187 L 0.26
   217 Y 0.13
   261 I 0.20
   ## 151L,187L
   ~~~~~~~~ 0 ~~~~~~~~~~~
   5 I 0.13
   87 L 0.23
   101 L 0.11
   268 F 0.12
   292 I 0.14
   ## 87L
   ~~~~~~~~ 1 ~~~~~~~~~~~
   39 L 0.18
   55 I 0.23
   149 V 0.61
   164 F 0.24
   185 V 0.19
   219 V 0.21
   259 A 0.29
   ## 149V,259A
   ~~~~~~~~ 2 ~~~~~~~~~~~
   7 V 0.16
   85 T 0.18
   103 T 0.13
   270 L 0.36
   290 G 0.14
   ## 270L
   ~~~~~~~~ 3 ~~~~~~~~~~~
   37 L 0.18
   57 Q 0.15
   147 G 0.17
   166 P 0.44
   183 A 0.19
   221 A 0.18
   257 V 0.22
   ## 166P,257V
   ~~~~~~~~ 4 ~~~~~~~~~~~
   9 N 0.38
   83 L 0.37
   105 I 0.35
   272 L 0.96
   288 I 0.33
   ## 272L
3fid : 12 : 87, 89, 149, 151, 166, 187, 189, 257, 259, 264, 270, 272
show sphere, (3fid and resi 87+89+149+151+166+187+189+257+259+264+270+272)
########################################
3kvn
   ~~~~~~~~ -4 ~~~~~~~~~~~
   382 Y 0.10
   423 Y 0.17
   428 W 0.36
   532 Y 0.10
   538 T 0.10
   595 L 0.10
   620 L 0.12
   ## 423Y,428W
   ~~~~~~~~ -3 ~~~~~~~~~~~
   349 G 0.66
   390 A 0.37
   474 Y 0.28
   486 L 0.32
   589 Q 0.28
   ## 349G
   ~~~~~~~~ -2 ~~~~~~~~~~~
   380 G 0.06
   421 V 0.06
   430 A 0.08
   530 G 0.07
   540 L 0.18
   597 L 0.06
   618 L 0.06
   ## 430A,540L
   ~~~~~~~~ -1 ~~~~~~~~~~~
   351 V 0.20
   392 V 0.14
   472 L 0.18
   488 P 0.16
   587 F 0.14
   ## 
   ~~~~~~~~ 0 ~~~~~~~~~~~
   378 L 0.03
   419 A 0.03
   432 A 0.05
   528 L 0.04
   542 A 0.04
   599 G 0.05
   616 L 0.03
   ## 
   ~~~~~~~~ 1 ~~~~~~~~~~~
   353 G 0.40
   394 A 0.14
   470 A 0.14
   490 V 0.18
   585 L 0.18
   ## 353G
   ~~~~~~~~ 2 ~~~~~~~~~~~
   376 L 0.12
   417 A 0.13
   434 L 0.40
   526 A 0.22
   544 Y 0.13
   601 Y 0.13
   614 V 0.14
   ## 434L,526A
   ~~~~~~~~ 3 ~~~~~~~~~~~
   355 G 0.32
   396 F 0.17
   468 F 0.19
   492 A 0.31
   583 V 0.18
   ## 
   ~~~~~~~~ 4 ~~~~~~~~~~~
   374 Y 0.14
   415 Y 0.12
   436 G 0.12
   524 L 0.13
   546 H 0.11
   603 W 0.30
   612 Q 0.09
   ## 603W
3kvn : 9 : 349, 353, 423, 428, 430, 434, 526, 540, 603
show sphere, (3kvn and resi 349+353+423+428+430+434+526+540+603)
########################################
