0.0 0.81514668435 0.638215649867 0.137372413793 0.24295596817 0.289759681698 0.192171087533 0.0885668435013 -0.412965517241 -1.09659681698 -1.44693209549 1.20555411141 -0.451957559682 -1.62274721485 -0.277682228117 0.585641909814 0.0425175066313 -1.24259867374 -0.880161007958 -0.922788859416
0.0 1.30694946524 1.18070187166 1.20164411765 0.345537433155 0.898787433155 0.958643315508 0.327313903743 -0.121147326203 -1.15107459893 -1.56566550802 1.64527032086 -0.580466042781 -1.41150294118 0.45065026738 0.95044197861 0.335315240642 -0.774501069519 -0.534051336898 -0.941240374332
0.0 2.23175449735 2.34054074074 2.6777010582 0.369914550265 1.87786481481 2.02083359788 0.752348941799 0.409111904762 -1.44127830688 -1.97861216931 2.85423756614 -0.737812433862 -1.52758756614 1.11916269841 1.7102457672 0.83263994709 -0.380514550265 -0.248588888889 -1.15369973545
0.0 2.28453983957 2.37214224599 2.55926122995 0.505520320856 1.78821283422 1.8165 0.722702139037 0.996994652406 -1.1341540107 -1.60687139037 2.81115882353 -0.543322994652 -1.18834090909 0.933782085561 1.68097379679 0.842893048128 -0.26734144385 -0.189406417112 -0.957486631016
0.0 2.4332037037 2.53456269841 3.02673650794 0.459926455026 1.99707724868 2.15126428571 0.844193386243 1.57407328042 -1.33941746032 -1.84808915344 3.08913386243 -0.71611984127 -1.34092513228 1.30702962963 1.82490185185 0.981879365079 -0.196963227513 -0.20384973545 -1.00456058201
0.0 2.20787005348 2.30511684492 2.68810962567 0.289907219251 1.56743048128 1.8830526738 0.800361229947 0.889545989305 -1.15326122995 -1.6016802139 2.33422700535 -0.642447326203 -1.14798796791 1.03492352941 1.71371336898 0.926754812834 -0.265372459893 -0.118373796791 -0.920409625668
0.0 2.14248650794 2.38893068783 2.6697047619 0.24213015873 1.04490449735 1.97353386243 0.828741798942 0.574382539683 -1.42511031746 -1.88492460317 1.59352910053 -0.795245238095 -1.41633677249 0.989921693122 1.70964417989 0.887953439153 -0.364903174603 -0.161714285714 -1.09982724868
0.0 0.635509090909 0.803234224599 0.958893315508 -0.599393315508 0.306573529412 0.835860160428 0.464814705882 -0.12961684492 -0.93916631016 -1.2699157754 0.523057219251 -0.679355614973 -1.2530973262 0.547809090909 0.714612299465 0.251173529412 -0.866244117647 -0.752481818182 -0.770901604278
0.0 0.146355026455 0.102421693122 0.499148941799 -1.47827751323 -0.0809724867725 0.55426957672 0.413125925926 -0.492341005291 -0.940847354497 -1.06546402116 0.20261957672 -0.796975396825 -1.48000449735 0.362523544974 0.421362433862 0.0115076719577 -1.39453148148 -1.18397460317 -0.780085185185
