200
200
200
200
200
200
200
200
200
200
200
12
3
9
8
8
8
8
8
8
8
8
8
8
6
2
19
5
0
7
5
0
5
6
11
5
10
3
16
9
5
19
11
0
11
11
5
11
16
1
1
3
2
6
19
16
7
10
7
11
10
19
11
15
15
3
16
10
15
11
6
5
19
10
2
9
1
3
10
16
1
18
3
14
7
9
0
19
19
6
5
7
1
7
0
15
15
7
18
15
9
1
7
12
3
11
2
1
19
15
10
16
19
3
7
19
15
5
9
5
15
18
16
0
5
0
0
10
7
7
16
1
16
0
7
15
15
7
0
9
2
6
9
6
18
6
2
19
11
0
19
6
9
15
11
7
15
2
15
19
6
5
7
15
7
0
10
0
7
15
19
0
13
5
16
11
16
0
3
3
19
9
7
6
7
1
5
17
7
9
5
15
11
16
0
18
15
7
11
2
1
7
10
16
5
15
9
0
10
0
7
1
9
7
7
0
6
0
10
10
9
8
16
7
1
1
0
7
6
9
1
0
8
6
3
0
7
1
7
19
5
15
13
2
1
10
19
14
19
6
3
15
15
2
18
0
18
13
9
19
11
6
6
4
11
2
7
15
18
6
16
4
11
0
2
14
11
11
3
19
19
7
11
3
6
1
5
16
19
15
16
1
3
18
16
7
14
2
1
13
10
0
3
14
10
15
18
6
15
1
15
17
10
13
1
14
7
13
1
13
6
2
11
1
8
18
9
7
7
9
10
6
8
16
5
5
16
13
3
16
1
3
12
16
19
14
0
13
10
16
11
0
19
13
3
0
2
11
11
5
0
7
15
10
14
7
2
7
11
18
0
7
2
8
11
18
7
7
10
13
16
2
7
6
2
7
0
10
19
7
0
6
18
7
16
7
19
13
18
3
6
16
8
16
11
15
1
18
7
10
6
18
19
18
16
2
0
3
11
3
16
17
0
3
18
0
1
10
15
18
3
1
5
7
19
7
10
3
2
8
13
5
5
16
8
4
15
0
3
7
15
3
11
18
4
1
14
15
0
3
11
14
13
15
18
18
11
15
3
1
19
9
18
7
6
15
8
1
10
10
5
0
0
13
11
11
15
13
3
16
0
11
9
1
8
2
10
15
19
2
10
7
13
3
1
13
7
15
2
10
1
8
5
3
18
18
18
5
8
0
2
1
0
18
15
15
2
16
14
14
5
2
2
7
11
11
9
15
14
2
7
15
6
16
15
14
18
17
19
16
9
7
1
7
2
19
19
16
7
5
9
4
1
10
7
2
2
16
18
16
3
4
16
14
1
15
9
2
7
11
15
18
18
0
0
19
1
3
2
19
1
10
7
1
17
0
3
19
7
0
7
10
1
18
3
18
1
15
16
8
15
3
3
7
15
19
15
16
7
16
8
1
16
10
15
17
2
0
7
9
19
10
11
14
16
3
17
10
3
10
16
18
1
16
15
16
7
13
1
10
14
15
13
0
6
12
18
7
17
1
0
7
19
5
15
11
0
19
11
9
3
14
6
11
15
13
2
11
6
0
7
9
19
13
11
7
3
13
7
2
10
6
0
15
17
13
2
2
0
18
1
3
10
9
19
1
7
18
6
0
5
9
11
3
7
11
6
6
0
11
7
3
14
0
18
10
2
0
5
15
0
1
9
16
7
9
2
9
10
7
11
9
3
17
2
7
19
17
3
11
10
14
6
7
17
18
15
16
13
0
18
2
1
19
1
19
1
3
9
11
11
1
0
3
1
16
3
9
5
15
8
10
13
3
0
9
5
14
15
1
18
19
19
7
10
7
18
3
5
14
6
7
11
17
7
19
2
7
12
10
16
18
15
11
0
11
6
9
16
6
10
10
7
15
1
0
10
10
2
7
2
15
1
2
16
11
0
16
0
1
1
16
1
14
17
18
9
19
3
19
15
7
18
18
16
19
11
11
8
13
16
10
1
0
7
19
18
2
10
10
2
18
1
18
19
16
17
6
2
19
1
5
16
0
7
7
0
19
2
5
8
11
2
19
7
19
18
2
1
18
0
0
14
7
1
2
18
16
13
15
10
6
18
11
13
