0
1
16
7
10
13
5
14
0
9
7
17
15
15
10
6
7
17
15
7
15
10
0
13
11
6
16
2
10
13
7
10
0
8
5
19
15
10
3
10
0
13
9
5
2
3
0
1
3
2
10
15
13
15
0
0
18
16
19
14
17
10
18
10
3
18
10
3
10
11
6
19
1
16
15
10
0
13
15
10
18
15
16
14
9
7
2
16
11
10
10
3
7
16
16
3
16
7
17
6
18
16
6
1
1
16
7
0
15
10
15
10
15
1
14
10
15
1
3
10
15
2
10
1
16
15
10
7
10
15
10
1
1
15
16
18
10
10
6
19
18
3
14
2
0
14
4
3
0
16
7
0
3
16
15
14
14
4
3
14
14
7
0
15
16
18
11
3
14
16
8
19
1
16
10
10
14
3
0
7
17
16
19
1
10
3
16
16
10
0
18
10
3
19
3
3
14
1
13
1
16
5
7
18
6
0
15
10
0
16
7
10
7
10
15
10
14
3
0
7
7
1
15
13
13
19
14
10
19
0
16
7
11
16
18
10
14
10
3
0
6
11
1
5
0
10
0
13
1
10
15
0
7
16
10
10
7
18
14
14
6
15
6
1
13
18
10
15
7
7
7
15
6
0
10
10
10
1
7
18
6
3
1
11
18
7
7
10
15
13
0
16
0
15
19
6
18
1
18
3
13
1
10
15
14
5
7
7
16
2
10
18
7
9
10
13
16
3
10
7
10
0
3
2
16
7
7
19
11
17
7
0
7
9
7
19
5
10
3
10
3
19
13
7
0
10
10
14
15
10
1
10
3
18
0
13
15
14
6
15
14
16
7
1
9
8
13
1
9
7
14
12
13
