200
200
5
10
10
14
7
0
1
3
10
2
1
9
3
3
1
5
1
11
6
5
10
5
1
3
9
6
1
0
0
16
15
7
8
16
19
16
19
8
0
19
3
10
3
13
7
19
6
7
1
10
13
3
14
0
14
10
19
5
3
18
10
2
1
14
10
3
2
6
5
10
13
10
10
19
11
0
10
15
0
0
10
18
3
1
7
18
0
16
15
9
19
16
13
19
14
14
7
19
19
3
7
19
10
11
10
11
19
6
17
7
1
9
11
7
17
10
9
3
7
11
14
10
6
7
16
1
3
1
12
12
19
13
15
0
12
14
7
17
5
3
11
19
10
2
19
13
3
9
3
5
0
9
18
2
9
2
2
7
7
11
16
7
2
9
16
9
19
14
0
3
6
18
7
18
15
18
10
3
10
5
10
5
1
1
0
10
14
1
19
15
10
7
12
3
2
15
7
14
7
16
14
6
2
7
1
18
11
18
2
0
15
19
16
0
2
3
10
10
7
10
2
3
16
10
7
10
18
9
7
2
1
18
18
1
3
0
7
8
3
0
6
1
2
18
3
10
12
18
15
19
14
10
7
1
16
1
10
3
10
5
16
7
18
15
16
18
1
2
10
10
11
16
1
18
7
5
18
5
15
0
7
2
15
1
15
13
7
10
11
0
16
1
10
10
18
1
3
16
1
15
5
13
15
19
18
7
7
10
11
10
1
5
2
11
2
18
10
0
7
16
1
10
3
19
15
15
11
8
18
15
3
19
16
19
7
12
5
18
15
16
5
1
7
0
2
0
18
13
7
3
10
15
13
16
1
7
19
7
19
7
2
19
15
1
13
2
7
15
10
0
17
16
1
18
12
0
10
0
7
5
14
9
5
17
0
15
5
10
7
13
5
18
15
1
5
5
10
10
2
15
18
5
9
16
19
7
3
6
18
16
19
1
7
18
2
10
1
16
15
5
15
7
3
15
7
19
18
10
15
2
16
10
16
19
14
19
5
13
15
10
10
7
11
5
0
15
19
0
14
13
19
7
0
3
19
7
0
10
11
15
2
8
14
3
0
1
16
9
1
12
0
7
10
0
0
7
19
1
13
3
10
14
18
0
1
12
15
13
16
18
15
11
14
19
7
0
5
14
7
7
0
14
1
0
14
19
17
10
18
9
2
0
7
10
15
13
