12
11
10
11
5
9
0
15
0
10
12
12
10
7
9
15
14
10
0
13
0
3
13
16
9
5
3
9
1
19
6
7
10
5
1
16
6
14
15
16
19
13
2
18
10
14
19
11
19
7
3
16
18
2
3
16
8
7
15
0
9
9
11
15
10
18
0
16
7
13
13
3
3
19
1
19
6
16
0
3
7
5
10
10
10
16
19
9
6
1
14
16
9
7
15
10
2
9
16
7
0
11
12
10
5
2
3
0
9
11
11
2
10
6
15
13
7
10
0
5
15
5
18
13
2
5
0
16
10
2
5
0
19
0
7
10
11
6
6
18
10
7
1
7
11
10
2
9
5
9
16
14
11
19
16
11
10
0
1
2
1
19
3
9
3
9
16
9
3
6
7
11
15
0
11
9
16
3
9
6
13
6
7
2
5
19
18
15
3
1
11
10
12
1
5
12
15
10
16
6
7
7
9
17
16
17
10
16
1
15
3
1
13
3
1
5
11
13
0
5
3
12
6
11
19
16
3
13
18
5
2
2
7
18
13
3
13
1
9
10
3
16
3
9
5
16
2
6
3
11
16
1
5
16
9
11
9
16
19
8
6
7
7
1
13
1
17
7
11
19
15
9
6
7
3
16
2
6
19
14
11
0
6
10
6
11
10
10
16
12
11
14
7
11
17
18
6
1
5
5
12
16
0
19
10
7
6
9
5
2
1
12
7
15
0
7
18
0
18
15
6
9
15
19
5
14
10
14
2
0
7
16
11
16
19
3
13
19
10
8
9
6
14
7
1
11
9
18
19
2
6
9
8
9
16
7
2
2
11
16
1
3
6
19
19
1
1
6
10
1
5
12
6
15
0
14
18
3
16
15
11
10
5
1
15
11
6
1
19
6
10
10
7
18
13
3
2
19
5
13
3
0
19
14
10
0
7
16
14
3
11
19
3
10
2
12
15
10
16
6
1
15
16
7
15
10
3
10
15
0
7
17
19
5
3
16
7
10
19
12
15
0
7
19
15
5
3
2
10
13
7
16
7
11
15
0
0
10
1
0
15
1
15
11
16
16
10
2
7
15
10
15
13
16
3
14
18
13
16
0
3
7
19
15
10
7
18
3
9
18
7
11
0
13
3
14
1
11
0
15
16
15
19
11
5
18
11
16
16
16
0
7
7
7
19
1
12
7
9
14
19
16
6
18
3
1
19
2
13
7
10
0
0
6
8
10
16
19
2
16
18
2
11
0
14
11
1
18
0
3
13
9
1
11
18
7
11
16
3
7
0
3
7
15
13
11
7
10
10
18
11
7
16
19
7
17
7
1
2
11
16
3
15
0
15
17
14
16
1
7
18
10
16
7
19
2
0
6
9
0
10
14
7
15
11
10
5
18
18
15
0
16
8
2
5
16
17
13
13
14
10
15
11
16
13
16
10
12
10
7
7
6
19
7
9
0
7
7
18
7
1
16
11
6
9
14
13
13
6
2
13
18
7
7
7
10
7
15
19
1
7
18
6
15
7
16
10
7
14
11
19
18
3
6
18
7
6
11
9
15
18
7
7
2
11
11
0
2
19
15
0
6
10
10
13
14
12
14
7
0
11
3
0
1
16
19
1
10
15
10
13
0
3
0
7
15
19
17
3
7
1
16
18
16
0
0
6
2
7
2
2
11
15
19
18
15
6
2
0
8
11
15
16
13
16
2
6
10
1
18
15
0
7
7
0
19
16
17
10
15
14
10
7
14
12
11
13
15
18
0
18
14
10
11
11
11
14
6
3
6
9
5
1
13
5
13
5
10
7
16
16
13
