6
2
10
12
5
19
18
5
5
0
1
10
15
2
14
6
10
1
11
15
0
0
3
1
3
0
0
13
6
11
9
2
6
0
1
15
14
10
10
14
5
10
7
10
7
0
3
18
16
18
15
2
7
18
1
3
0
2
7
9
2
15
2
0
16
15
0
15
10
5
10
16
5
15
9
13
3
12
15
11
17
1
0
10
16
10
5
6
11
0
0
7
9
5
3
19
16
18
5
16
3
5
5
16
10
9
10
2
16
0
16
0
18
13
2
19
10
2
0
9
3
19
10
15
18
16
5
0
5
11
6
0
9
18
1
5
10
3
5
16
16
5
1
13
2
19
7
10
19
0
9
16
3
19
5
2
0
1
0
5
18
3
16
19
10
0
2
6
10
16
0
1
2
2
10
3
2
0
19
6
5
10
1
5
9
16
7
2
18
18
14
6
10
0
0
10
2
19
6
2
13
11
16
3
11
14
5
14
19
2
0
10
10
11
6
0
6
11
1
2
10
15
10
10
5
0
1
10
15
5
3
10
0
1
6
5
9
1
5
0
5
3
7
8
10
14
16
10
3
10
16
0
15
16
7
9
15
3
16
15
18
15
7
15
11
16
1
7
0
0
7
16
5
18
3
3
15
2
12
7
5
2
11
19
7
10
15
13
15
10
14
9
18
5
7
7
12
19
2
15
5
19
11
5
0
5
18
2
13
19
7
0
15
6
5
10
6
15
0
8
1
15
19
19
5
16
19
1
15
15
13
2
2
9
2
0
15
9
15
15
9
2
0
18
11
5
0
19
19
15
0
5
15
15
10
3
0
12
6
0
7
18
15
19
7
16
1
16
9
19
3
19
10
3
0
16
16
16
10
18
2
0
11
5
6
10
0
2
0
1
18
2
18
10
9
2
5
10
2
9
11
15
0
10
7
16
10
2
6
5
3
10
10
0
10
2
2
0
10
15
11
14
19
15
16
2
14
6
6
2
10
12
5
19
18
5
5
0
1
10
15
2
14
6
10
1
11
15
0
0
3
1
3
0
0
13
6
11
9
2
6
0
1
15
14
10
10
14
5
10
7
10
7
0
3
18
16
18
15
2
7
18
1
3
0
2
7
9
2
15
2
0
16
15
0
15
10
5
10
16
5
15
9
13
3
12
15
11
17
1
0
10
16
10
5
6
11
0
0
7
9
5
3
19
16
18
5
16
3
5
5
16
10
9
10
2
16
0
16
0
18
13
2
19
10
2
0
9
3
19
10
15
18
16
5
0
5
11
6
0
9
18
1
5
10
3
5
16
16
5
1
13
2
19
7
10
19
0
9
16
3
19
5
2
0
1
0
5
18
3
16
19
10
0
2
6
10
16
0
1
2
2
10
3
2
0
19
6
5
10
1
5
9
16
7
2
18
18
14
6
10
0
0
10
2
19
6
2
13
11
16
3
11
14
5
14
19
2
0
10
10
11
6
0
6
11
1
2
10
15
10
10
5
0
1
10
15
5
3
10
0
1
6
5
9
1
5
0
5
3
7
8
10
14
16
10
3
10
16
0
15
16
7
9
15
3
16
15
18
15
7
15
11
16
1
7
0
0
7
16
5
18
3
3
15
2
12
7
5
2
11
19
7
10
15
13
15
10
14
9
18
5
7
7
12
19
2
15
5
19
11
5
0
5
18
2
13
19
7
0
15
6
5
10
6
15
0
8
1
15
19
19
5
16
19
1
15
15
13
2
2
9
2
0
15
9
15
15
9
2
0
18
11
5
0
19
19
15
0
5
15
15
10
3
0
12
6
0
7
18
15
19
7
16
1
16
9
19
3
19
10
3
0
16
16
16
10
18
2
0
11
5
6
10
0
2
0
1
18
2
18
10
9
2
5
10
2
9
11
15
0
10
7
16
10
2
6
5
3
10
10
0
10
2
2
0
10
15
11
14
19
15
16
2
14
6
6
2
10
12
5
19
18
5
5
0
1
10
15
2
14
6
10
1
11
15
0
0
3
1
3
0
0
13
6
11
9
2
6
0
1
15
14
10
10
14
5
10
7
10
7
0
3
18
16
18
15
2
7
18
1
3
0
2
7
9
2
15
2
0
16
15
0
15
10
5
10
16
5
15
9
13
3
12
15
11
17
1
0
10
16
10
5
6
11
0
0
7
9
5
3
19
16
18
5
16
3
5
5
16
10
9
10
2
16
0
16
0
18
13
2
19
10
2
0
9
3
19
10
15
18
16
5
0
5
11
6
0
9
18
1
5
10
3
5
16
16
5
1
13
2
19
7
10
19
0
9
16
3
19
5
2
0
1
0
5
18
3
16
19
10
0
2
6
10
16
0
1
2
2
10
3
2
0
19
6
5
10
1
5
9
16
7
2
18
18
14
6
10
0
0
10
2
19
6
2
13
11
16
3
11
14
5
14
19
2
0
10
10
11
6
0
6
11
1
2
10
15
10
10
5
0
1
10
15
5
3
10
0
1
6
5
9
1
5
0
5
3
7
8
10
14
16
10
3
10
16
0
15
16
7
9
15
3
16
15
18
15
7
15
11
16
1
7
0
0
7
16
5
18
3
3
15
2
12
7
5
2
11
19
7
10
15
13
15
10
14
9
18
5
7
7
12
19
2
15
5
19
11
5
0
5
18
2
13
19
7
0
15
6
5
10
6
15
0
8
1
15
19
19
5
16
19
1
15
15
13
2
2
9
2
0
15
9
15
15
9
2
0
18
11
5
0
19
19
15
0
5
15
15
10
3
0
12
6
0
7
18
15
19
7
16
1
16
9
19
3
19
10
3
0
16
16
16
10
18
2
0
11
5
6
10
0
2
0
1
18
2
18
10
9
2
5
10
2
9
11
15
0
10
7
16
10
2
6
5
3
10
10
0
10
2
2
0
10
15
11
14
19
15
16
2
14
6
