200
200
200
200
200
200
200
200
200
200
200
200
200
200
200
200
200
200
6
15
0
17
7
14
0
0
16
9
0
0
1
5
15
0
16
7
16
11
16
3
16
14
9
5
11
19
14
5
15
9
15
19
19
16
0
6
6
12
0
10
8
5
14
11
15
19
11
6
0
10
15
18
16
14
7
19
15
19
7
16
1
7
0
15
2
16
18
3
8
10
9
9
1
7
13
0
0
6
7
5
15
5
2
2
18
10
2
7
10
11
10
5
7
2
13
18
2
3
0
19
9
3
14
18
12
10
6
1
0
6
9
12
1
7
14
19
15
19
10
18
7
11
15
15
14
7
7
10
10
2
12
19
15
11
1
14
16
16
6
14
10
11
6
19
5
13
11
0
7
16
3
15
10
13
5
16
7
13
3
13
15
3
15
10
3
3
3
7
19
18
15
18
1
10
16
7
10
0
1
15
0
2
0
5
5
11
7
15
6
6
5
1
18
0
9
0
14
0
13
16
17
1
14
3
3
11
16
2
13
16
13
10
15
18
13
5
2
6
14
6
16
7
18
18
7
17
10
14
11
6
7
16
19
6
14
10
14
2
7
11
1
10
14
16
3
13
2
6
7
0
11
2
2
16
18
15
1
2
6
11
12
19
7
18
15
13
3
8
6
13
2
3
16
13
16
19
1
5
2
10
1
13
0
6
2
11
16
15
5
2
15
19
18
7
18
7
19
200
15
3
14
0
2
0
18
15
11
5
200
0
0
10
0
14
0
3
11
7
8
18
10
0
1
11
18
19
19
3
3
6
11
10
5
2
13
15
19
3
16
5
10
5
15
11
13
0
16
7
3
9
3
8
16
10
10
16
7
19
3
13
12
1
12
1
2
3
9
2
0
17
13
7
18
3
3
15
19
14
10
10
2
10
18
2
14
15
8
8
8
8
8
8
7
15
19
2
16
3
13
3
13
2
0
11
3
14
0
2
15
7
14
18
1
9
10
2
11
5
11
5
16
7
19
18
19
5
3
5
0
5
17
3
11
19
10
19
16
10
7
7
1
18
3
17
0
3
5
6
15
10
2
1
19
0
7
16
16
3
11
1
3
3
11
5
13
16
17
1
7
7
19
2
18
10
13
3
2
7
19
16
14
18
13
15
18
15
6
15
13
6
14
15
15
5
19
7
11
3
7
2
9
13
0
14
15
11
7
11
5
18
6
19
7
19
11
18
19
14
6
3
1
14
9
19
19
16
7
0
19
18
2
10
16
11
16
2
2
10
12
0
3
14
6
7
15
13
13
15
19
6
7
7
6
9
1
0
1
7
19
6
9
6
0
11
0
0
10
15
0
15
19
2
19
19
7
15
18
16
18
16
3
0
6
18
16
16
3
16
16
18
11
7
2
16
14
0
5
19
14
11
8
12
0
15
10
17
0
3
18
16
13
13
3
7
14
10
15
7
10
16
10
7
16
7
7
1
18
16
7
15
15
18
7
3
14
0
2
15
13
11
19
7
15
18
16
19
19
3
0
10
19
1
18
3
10
0
1
19
7
12
0
7
15
2
19
0
10
8
19
2
2
10
13
3
1
6
18
19
0
15
200
13
2
16
18
7
200
13
17
7
0
6
1
5
19
19
0
16
0
16
13
1
13
