<?xml version="1.0" standalone="no"?>
<!DOCTYPE svg PUBLIC "-//W3C//DTD SVG 1.1//EN"
  "http://www.w3.org/Graphics/SVG/1.1/DTD/svg11.dtd">
<!-- Created with matplotlib (http://matplotlib.sourceforge.net/) -->
<svg width="576pt" height="432pt" viewBox="0 0 576 432"
   xmlns="http://www.w3.org/2000/svg"
   xmlns:xlink="http://www.w3.org/1999/xlink"
   version="1.1"
   id="svg1">
<g id="figure1">
<g id="patch1">
<path style="fill: #ffffff; stroke: #ffffff; stroke-width: 1.000000; stroke-linejoin: round; stroke-linecap: square;  opacity: 1.000000"  d="M0.000000 432.000000L576.000000 432.000000L576.000000 0.000000
L0.000000 0.000000L0.000000 432.000000"/>
</g>
<g id="axes1">
<g id="patch2">
<path style="fill: #ffffff; opacity: 1.000000"  d="M72.000000 388.800000L518.400000 388.800000L518.400000 43.200000
L72.000000 43.200000L72.000000 388.800000"/>
</g>
<g id="LineCollection1">
<defs>
<path id="coll0_0_2d85c28e81a8ba75d7f9d3e833638d85" d="M96.800000 -123.866651L96.800000 -163.512448"/>
<path id="coll0_1_85f16e753c767c5ddf4919da9b926526" d="M146.400000 -116.228147L146.400000 -163.334900"/>
<path id="coll0_2_6038cf3e0e84d11381684c36d71fffbf" d="M196.000000 -103.842444L196.000000 -148.536914"/>
<path id="coll0_3_c2f62baa21f4fc2e912667cc3dc34401" d="M245.600000 -110.812002L245.600000 -166.038522"/>
<path id="coll0_4_9c77126e6b10f9e036f787ca9e17b8fe" d="M295.200000 -106.622745L295.200000 -154.348757"/>
<path id="coll0_5_f8cdc56f940088fb3b73b15e07c9e266" d="M344.800000 -110.426918L344.800000 -166.765333"/>
<path id="coll0_6_b99dcb634e5ca515b37a5a78cf019127" d="M394.400000 -104.548672L394.400000 -153.998005"/>
<path id="coll0_7_09deca22a807c974b23a94161fa37c9d" d="M444.000000 -122.795601L444.000000 -176.236230"/>
<path id="coll0_8_38f890b76c9eaf2cc6aa41b23380473b" d="M493.600000 -137.429704L493.600000 -175.060893"/>
</defs>
<defs>
  <clipPath id="p50431ccdcb28178602d99d9270004dde">
<rect x="72.000000" y="43.200000" width="446.400000" height="345.600000"/>
  </clipPath>
</defs><g clip-path="url(#p50431ccdcb28178602d99d9270004dde)"><use style="fill: none; stroke: #74add1; stroke-width: 1.000000; stroke-linejoin: round; stroke-linecap: butt;  opacity: 1.000000" xlink:href="#coll0_0_2d85c28e81a8ba75d7f9d3e833638d85" x="0.000000" y="432.000000"/>
</g><g clip-path="url(#p50431ccdcb28178602d99d9270004dde)"><use style="fill: none; stroke: #74add1; stroke-width: 1.000000; stroke-linejoin: round; stroke-linecap: butt;  opacity: 1.000000" xlink:href="#coll0_1_85f16e753c767c5ddf4919da9b926526" x="0.000000" y="432.000000"/>
</g><g clip-path="url(#p50431ccdcb28178602d99d9270004dde)"><use style="fill: none; stroke: #74add1; stroke-width: 1.000000; stroke-linejoin: round; stroke-linecap: butt;  opacity: 1.000000" xlink:href="#coll0_2_6038cf3e0e84d11381684c36d71fffbf" x="0.000000" y="432.000000"/>
</g><g clip-path="url(#p50431ccdcb28178602d99d9270004dde)"><use style="fill: none; stroke: #74add1; stroke-width: 1.000000; stroke-linejoin: round; stroke-linecap: butt;  opacity: 1.000000" xlink:href="#coll0_3_c2f62baa21f4fc2e912667cc3dc34401" x="0.000000" y="432.000000"/>
</g><g clip-path="url(#p50431ccdcb28178602d99d9270004dde)"><use style="fill: none; stroke: #74add1; stroke-width: 1.000000; stroke-linejoin: round; stroke-linecap: butt;  opacity: 1.000000" xlink:href="#coll0_4_9c77126e6b10f9e036f787ca9e17b8fe" x="0.000000" y="432.000000"/>
</g><g clip-path="url(#p50431ccdcb28178602d99d9270004dde)"><use style="fill: none; stroke: #74add1; stroke-width: 1.000000; stroke-linejoin: round; stroke-linecap: butt;  opacity: 1.000000" xlink:href="#coll0_5_f8cdc56f940088fb3b73b15e07c9e266" x="0.000000" y="432.000000"/>
</g><g clip-path="url(#p50431ccdcb28178602d99d9270004dde)"><use style="fill: none; stroke: #74add1; stroke-width: 1.000000; stroke-linejoin: round; stroke-linecap: butt;  opacity: 1.000000" xlink:href="#coll0_6_b99dcb634e5ca515b37a5a78cf019127" x="0.000000" y="432.000000"/>
</g><g clip-path="url(#p50431ccdcb28178602d99d9270004dde)"><use style="fill: none; stroke: #74add1; stroke-width: 1.000000; stroke-linejoin: round; stroke-linecap: butt;  opacity: 1.000000" xlink:href="#coll0_7_09deca22a807c974b23a94161fa37c9d" x="0.000000" y="432.000000"/>
</g><g clip-path="url(#p50431ccdcb28178602d99d9270004dde)"><use style="fill: none; stroke: #74add1; stroke-width: 1.000000; stroke-linejoin: round; stroke-linecap: butt;  opacity: 1.000000" xlink:href="#coll0_8_38f890b76c9eaf2cc6aa41b23380473b" x="0.000000" y="432.000000"/>
</g></g>
<g id="LineCollection2">
<defs>
<path id="coll1_0_a9a9ca590fd92b38efa674407fe29f3c" d="M96.800000 -144.576000L96.800000 -158.400000"/>
<path id="coll1_1_10f25095211aabad349df50b28b97dc1" d="M196.000000 -117.257143L196.000000 -123.181714"/>
<path id="coll1_2_eee96c48826dd7360c381216a801bfc5" d="M295.200000 -128.448000L295.200000 -135.030857"/>
<path id="coll1_3_3e39dc5ee4f49781d26347348168b7d5" d="M394.400000 -98.166857L394.400000 -111.990857"/>
<path id="coll1_4_dba571ecc619fd7a8dfc084bc1750d45" d="M444.000000 -127.460571L444.000000 -134.701714"/>
<path id="coll1_5_6b1ef88547cfe2649270bcbbc66cbe90" d="M493.600000 -150.171429L493.600000 -152.804571"/>
</defs>
<g clip-path="url(#p50431ccdcb28178602d99d9270004dde)"><use style="fill: none; stroke: #f46d43; stroke-width: 1.000000; stroke-linejoin: round; stroke-linecap: butt;  opacity: 1.000000" xlink:href="#coll1_0_a9a9ca590fd92b38efa674407fe29f3c" x="0.000000" y="432.000000"/>
</g><g clip-path="url(#p50431ccdcb28178602d99d9270004dde)"><use style="fill: none; stroke: #f46d43; stroke-width: 1.000000; stroke-linejoin: round; stroke-linecap: butt;  opacity: 1.000000" xlink:href="#coll1_1_10f25095211aabad349df50b28b97dc1" x="0.000000" y="432.000000"/>
</g><g clip-path="url(#p50431ccdcb28178602d99d9270004dde)"><use style="fill: none; stroke: #f46d43; stroke-width: 1.000000; stroke-linejoin: round; stroke-linecap: butt;  opacity: 1.000000" xlink:href="#coll1_2_eee96c48826dd7360c381216a801bfc5" x="0.000000" y="432.000000"/>
</g><g clip-path="url(#p50431ccdcb28178602d99d9270004dde)"><use style="fill: none; stroke: #f46d43; stroke-width: 1.000000; stroke-linejoin: round; stroke-linecap: butt;  opacity: 1.000000" xlink:href="#coll1_3_3e39dc5ee4f49781d26347348168b7d5" x="0.000000" y="432.000000"/>
</g><g clip-path="url(#p50431ccdcb28178602d99d9270004dde)"><use style="fill: none; stroke: #f46d43; stroke-width: 1.000000; stroke-linejoin: round; stroke-linecap: butt;  opacity: 1.000000" xlink:href="#coll1_4_dba571ecc619fd7a8dfc084bc1750d45" x="0.000000" y="432.000000"/>
</g><g clip-path="url(#p50431ccdcb28178602d99d9270004dde)"><use style="fill: none; stroke: #f46d43; stroke-width: 1.000000; stroke-linejoin: round; stroke-linecap: butt;  opacity: 1.000000" xlink:href="#coll1_5_6b1ef88547cfe2649270bcbbc66cbe90" x="0.000000" y="432.000000"/>
</g></g>
<g id="LineCollection3">
<defs>
<path id="coll2_0_7af3ca40020c81d0daf0cbad6c14f78b" d="M96.800000 -192.862382L96.800000 -243.426131"/>
<path id="coll2_1_dff259cab4a73480e375383613f048b4" d="M146.400000 -198.448961L146.400000 -270.214227"/>
<path id="coll2_2_e31a9cf8aa12bfc17f84119d81a0d467" d="M196.000000 -221.631039L196.000000 -307.910743"/>
<path id="coll2_3_019ee1f2bfcef26422d8ee5ff07a2b87" d="M245.600000 -229.925476L245.600000 -303.091089"/>
<path id="coll2_4_4c38c88aba7e0b90ec4053c46af44819" d="M295.200000 -227.139659L295.200000 -315.663236"/>
<path id="coll2_5_76e0d60fb91f42a2f8e3c334e1d19087" d="M344.800000 -223.566739L344.800000 -304.402764"/>
<path id="coll2_6_a531632872e53a4d510127e595af42f2" d="M394.400000 -217.478917L394.400000 -306.186480"/>
<path id="coll2_7_9da8de67e608ca62183393fa526f2027" d="M444.000000 -176.348363L444.000000 -248.114864"/>
<path id="coll2_8_b4873b2856f8c54dc2bc6494a5ecead4" d="M493.600000 -174.131010L493.600000 -218.131904"/>
</defs>
<g clip-path="url(#p50431ccdcb28178602d99d9270004dde)"><use style="fill: none; stroke: #5aae61; stroke-width: 1.000000; stroke-linejoin: round; stroke-linecap: butt;  opacity: 1.000000" xlink:href="#coll2_0_7af3ca40020c81d0daf0cbad6c14f78b" x="0.000000" y="432.000000"/>
</g><g clip-path="url(#p50431ccdcb28178602d99d9270004dde)"><use style="fill: none; stroke: #5aae61; stroke-width: 1.000000; stroke-linejoin: round; stroke-linecap: butt;  opacity: 1.000000" xlink:href="#coll2_1_dff259cab4a73480e375383613f048b4" x="0.000000" y="432.000000"/>
</g><g clip-path="url(#p50431ccdcb28178602d99d9270004dde)"><use style="fill: none; stroke: #5aae61; stroke-width: 1.000000; stroke-linejoin: round; stroke-linecap: butt;  opacity: 1.000000" xlink:href="#coll2_2_e31a9cf8aa12bfc17f84119d81a0d467" x="0.000000" y="432.000000"/>
</g><g clip-path="url(#p50431ccdcb28178602d99d9270004dde)"><use style="fill: none; stroke: #5aae61; stroke-width: 1.000000; stroke-linejoin: round; stroke-linecap: butt;  opacity: 1.000000" xlink:href="#coll2_3_019ee1f2bfcef26422d8ee5ff07a2b87" x="0.000000" y="432.000000"/>
</g><g clip-path="url(#p50431ccdcb28178602d99d9270004dde)"><use style="fill: none; stroke: #5aae61; stroke-width: 1.000000; stroke-linejoin: round; stroke-linecap: butt;  opacity: 1.000000" xlink:href="#coll2_4_4c38c88aba7e0b90ec4053c46af44819" x="0.000000" y="432.000000"/>
</g><g clip-path="url(#p50431ccdcb28178602d99d9270004dde)"><use style="fill: none; stroke: #5aae61; stroke-width: 1.000000; stroke-linejoin: round; stroke-linecap: butt;  opacity: 1.000000" xlink:href="#coll2_5_76e0d60fb91f42a2f8e3c334e1d19087" x="0.000000" y="432.000000"/>
</g><g clip-path="url(#p50431ccdcb28178602d99d9270004dde)"><use style="fill: none; stroke: #5aae61; stroke-width: 1.000000; stroke-linejoin: round; stroke-linecap: butt;  opacity: 1.000000" xlink:href="#coll2_6_a531632872e53a4d510127e595af42f2" x="0.000000" y="432.000000"/>
</g><g clip-path="url(#p50431ccdcb28178602d99d9270004dde)"><use style="fill: none; stroke: #5aae61; stroke-width: 1.000000; stroke-linejoin: round; stroke-linecap: butt;  opacity: 1.000000" xlink:href="#coll2_7_9da8de67e608ca62183393fa526f2027" x="0.000000" y="432.000000"/>
</g><g clip-path="url(#p50431ccdcb28178602d99d9270004dde)"><use style="fill: none; stroke: #5aae61; stroke-width: 1.000000; stroke-linejoin: round; stroke-linecap: butt;  opacity: 1.000000" xlink:href="#coll2_8_b4873b2856f8c54dc2bc6494a5ecead4" x="0.000000" y="432.000000"/>
</g></g>
<g id="LineCollection4">
<defs>
<path id="coll3_0_0c9ccd9cb199756f3639d268942d3e82" d="M96.800000 -208.758857L96.800000 -226.532571"/>
<path id="coll3_1_c3afb782451b9787f51cd8eb8c4c241e" d="M196.000000 -264.713143L196.000000 -272.612571"/>
<path id="coll3_2_83cfcff255b42d6983d483263fd30924" d="M295.200000 -309.805714L295.200000 -317.046857"/>
<path id="coll3_3_14f8b8eb374b8c04408dd73377444c8b" d="M394.400000 -286.765714L394.400000 -297.298286"/>
<path id="coll3_4_6bc778d5f632ed5b0d3b57c4db078f79" d="M444.000000 -251.876571L444.000000 -267.017143"/>
<path id="coll3_5_2beffe4bd4cb78c7363d1df6455c8d7a" d="M493.600000 -210.733714L493.600000 -212.050286"/>
</defs>
<g clip-path="url(#p50431ccdcb28178602d99d9270004dde)"><use style="fill: none; stroke: #9970ab; stroke-width: 1.000000; stroke-linejoin: round; stroke-linecap: butt;  opacity: 1.000000" xlink:href="#coll3_0_0c9ccd9cb199756f3639d268942d3e82" x="0.000000" y="432.000000"/>
</g><g clip-path="url(#p50431ccdcb28178602d99d9270004dde)"><use style="fill: none; stroke: #9970ab; stroke-width: 1.000000; stroke-linejoin: round; stroke-linecap: butt;  opacity: 1.000000" xlink:href="#coll3_1_c3afb782451b9787f51cd8eb8c4c241e" x="0.000000" y="432.000000"/>
</g><g clip-path="url(#p50431ccdcb28178602d99d9270004dde)"><use style="fill: none; stroke: #9970ab; stroke-width: 1.000000; stroke-linejoin: round; stroke-linecap: butt;  opacity: 1.000000" xlink:href="#coll3_2_83cfcff255b42d6983d483263fd30924" x="0.000000" y="432.000000"/>
</g><g clip-path="url(#p50431ccdcb28178602d99d9270004dde)"><use style="fill: none; stroke: #9970ab; stroke-width: 1.000000; stroke-linejoin: round; stroke-linecap: butt;  opacity: 1.000000" xlink:href="#coll3_3_14f8b8eb374b8c04408dd73377444c8b" x="0.000000" y="432.000000"/>
</g><g clip-path="url(#p50431ccdcb28178602d99d9270004dde)"><use style="fill: none; stroke: #9970ab; stroke-width: 1.000000; stroke-linejoin: round; stroke-linecap: butt;  opacity: 1.000000" xlink:href="#coll3_4_6bc778d5f632ed5b0d3b57c4db078f79" x="0.000000" y="432.000000"/>
</g><g clip-path="url(#p50431ccdcb28178602d99d9270004dde)"><use style="fill: none; stroke: #9970ab; stroke-width: 1.000000; stroke-linejoin: round; stroke-linecap: butt;  opacity: 1.000000" xlink:href="#coll3_5_2beffe4bd4cb78c7363d1df6455c8d7a" x="0.000000" y="432.000000"/>
</g></g>
<g id="line2d1">
<path style="fill: none; stroke: #74add1; stroke-width: 2.000000; stroke-linejoin: round; stroke-linecap: square;  opacity: 1.000000" clip-path="url(#p50431ccdcb28178602d99d9270004dde)" d="M96.800000 288.805686L146.400000 294.009877L196.000000 297.918885
L245.600000 300.199305L295.200000 300.517730L344.800000 298.540755
L394.400000 293.934973L444.000000 286.366979L493.600000 275.503365"/>
</g>
<g id="line2d2">
<defs><path id="m0b517c67081e98f9e80fd3877dbcb783" d="M3.000000 0.000000L-3.000000 -0.000000"/></defs>
<g clip-path="url(#p50431ccdcb28178602d99d9270004dde)"><use style="fill: none; stroke: #74add1; stroke-width: 0.500000; stroke-linejoin: round; stroke-linecap: butt;  opacity: 1.000000" xlink:href="#m0b517c67081e98f9e80fd3877dbcb783" x="96.800000" y="308.133349"/>
<use style="fill: none; stroke: #74add1; stroke-width: 0.500000; stroke-linejoin: round; stroke-linecap: butt;  opacity: 1.000000" xlink:href="#m0b517c67081e98f9e80fd3877dbcb783" x="146.400000" y="315.771853"/>
<use style="fill: none; stroke: #74add1; stroke-width: 0.500000; stroke-linejoin: round; stroke-linecap: butt;  opacity: 1.000000" xlink:href="#m0b517c67081e98f9e80fd3877dbcb783" x="196.000000" y="328.157556"/>
<use style="fill: none; stroke: #74add1; stroke-width: 0.500000; stroke-linejoin: round; stroke-linecap: butt;  opacity: 1.000000" xlink:href="#m0b517c67081e98f9e80fd3877dbcb783" x="245.600000" y="321.187998"/>
<use style="fill: none; stroke: #74add1; stroke-width: 0.500000; stroke-linejoin: round; stroke-linecap: butt;  opacity: 1.000000" xlink:href="#m0b517c67081e98f9e80fd3877dbcb783" x="295.200000" y="325.377255"/>
<use style="fill: none; stroke: #74add1; stroke-width: 0.500000; stroke-linejoin: round; stroke-linecap: butt;  opacity: 1.000000" xlink:href="#m0b517c67081e98f9e80fd3877dbcb783" x="344.800000" y="321.573082"/>
<use style="fill: none; stroke: #74add1; stroke-width: 0.500000; stroke-linejoin: round; stroke-linecap: butt;  opacity: 1.000000" xlink:href="#m0b517c67081e98f9e80fd3877dbcb783" x="394.400000" y="327.451328"/>
<use style="fill: none; stroke: #74add1; stroke-width: 0.500000; stroke-linejoin: round; stroke-linecap: butt;  opacity: 1.000000" xlink:href="#m0b517c67081e98f9e80fd3877dbcb783" x="444.000000" y="309.204399"/>
<use style="fill: none; stroke: #74add1; stroke-width: 0.500000; stroke-linejoin: round; stroke-linecap: butt;  opacity: 1.000000" xlink:href="#m0b517c67081e98f9e80fd3877dbcb783" x="493.600000" y="294.570296"/>
</g></g>
<g id="line2d3">
<g clip-path="url(#p50431ccdcb28178602d99d9270004dde)"><use style="fill: none; stroke: #74add1; stroke-width: 0.500000; stroke-linejoin: round; stroke-linecap: butt;  opacity: 1.000000" xlink:href="#m0b517c67081e98f9e80fd3877dbcb783" x="96.800000" y="268.487552"/>
<use style="fill: none; stroke: #74add1; stroke-width: 0.500000; stroke-linejoin: round; stroke-linecap: butt;  opacity: 1.000000" xlink:href="#m0b517c67081e98f9e80fd3877dbcb783" x="146.400000" y="268.665100"/>
<use style="fill: none; stroke: #74add1; stroke-width: 0.500000; stroke-linejoin: round; stroke-linecap: butt;  opacity: 1.000000" xlink:href="#m0b517c67081e98f9e80fd3877dbcb783" x="196.000000" y="283.463086"/>
<use style="fill: none; stroke: #74add1; stroke-width: 0.500000; stroke-linejoin: round; stroke-linecap: butt;  opacity: 1.000000" xlink:href="#m0b517c67081e98f9e80fd3877dbcb783" x="245.600000" y="265.961478"/>
<use style="fill: none; stroke: #74add1; stroke-width: 0.500000; stroke-linejoin: round; stroke-linecap: butt;  opacity: 1.000000" xlink:href="#m0b517c67081e98f9e80fd3877dbcb783" x="295.200000" y="277.651243"/>
<use style="fill: none; stroke: #74add1; stroke-width: 0.500000; stroke-linejoin: round; stroke-linecap: butt;  opacity: 1.000000" xlink:href="#m0b517c67081e98f9e80fd3877dbcb783" x="344.800000" y="265.234667"/>
<use style="fill: none; stroke: #74add1; stroke-width: 0.500000; stroke-linejoin: round; stroke-linecap: butt;  opacity: 1.000000" xlink:href="#m0b517c67081e98f9e80fd3877dbcb783" x="394.400000" y="278.001995"/>
<use style="fill: none; stroke: #74add1; stroke-width: 0.500000; stroke-linejoin: round; stroke-linecap: butt;  opacity: 1.000000" xlink:href="#m0b517c67081e98f9e80fd3877dbcb783" x="444.000000" y="255.763770"/>
<use style="fill: none; stroke: #74add1; stroke-width: 0.500000; stroke-linejoin: round; stroke-linecap: butt;  opacity: 1.000000" xlink:href="#m0b517c67081e98f9e80fd3877dbcb783" x="493.600000" y="256.939107"/>
</g></g>
<g id="line2d4">
<defs><path id="mb419c4c5302a18cc6082bcc201b83d12" d="M0.000000 4.000000C1.060812 4.000000 2.078319 3.578535 2.828427 2.828427
C3.578535 2.078319 4.000000 1.060812 4.000000 0.000000
C4.000000 -1.060812 3.578535 -2.078319 2.828427 -2.828427
C2.078319 -3.578535 1.060812 -4.000000 0.000000 -4.000000
C-1.060812 -4.000000 -2.078319 -3.578535 -2.828427 -2.828427
C-3.578535 -2.078319 -4.000000 -1.060812 -4.000000 0.000000
C-4.000000 1.060812 -3.578535 2.078319 -2.828427 2.828427
C-2.078319 3.578535 -1.060812 4.000000 0.000000 4.000000z"/></defs>
<g clip-path="url(#p50431ccdcb28178602d99d9270004dde)"><use style="fill: #74add1; stroke: #000000; stroke-width: 0.500000; stroke-linejoin: round; stroke-linecap: butt;  opacity: 1.000000" xlink:href="#mb419c4c5302a18cc6082bcc201b83d12" x="96.800000" y="288.310451"/>
<use style="fill: #74add1; stroke: #000000; stroke-width: 0.500000; stroke-linejoin: round; stroke-linecap: butt;  opacity: 1.000000" xlink:href="#mb419c4c5302a18cc6082bcc201b83d12" x="146.400000" y="292.218476"/>
<use style="fill: #74add1; stroke: #000000; stroke-width: 0.500000; stroke-linejoin: round; stroke-linecap: butt;  opacity: 1.000000" xlink:href="#mb419c4c5302a18cc6082bcc201b83d12" x="196.000000" y="305.810321"/>
<use style="fill: #74add1; stroke: #000000; stroke-width: 0.500000; stroke-linejoin: round; stroke-linecap: butt;  opacity: 1.000000" xlink:href="#mb419c4c5302a18cc6082bcc201b83d12" x="245.600000" y="293.574738"/>
<use style="fill: #74add1; stroke: #000000; stroke-width: 0.500000; stroke-linejoin: round; stroke-linecap: butt;  opacity: 1.000000" xlink:href="#mb419c4c5302a18cc6082bcc201b83d12" x="295.200000" y="301.514249"/>
<use style="fill: #74add1; stroke: #000000; stroke-width: 0.500000; stroke-linejoin: round; stroke-linecap: butt;  opacity: 1.000000" xlink:href="#mb419c4c5302a18cc6082bcc201b83d12" x="344.800000" y="293.403874"/>
<use style="fill: #74add1; stroke: #000000; stroke-width: 0.500000; stroke-linejoin: round; stroke-linecap: butt;  opacity: 1.000000" xlink:href="#mb419c4c5302a18cc6082bcc201b83d12" x="394.400000" y="302.726661"/>
<use style="fill: #74add1; stroke: #000000; stroke-width: 0.500000; stroke-linejoin: round; stroke-linecap: butt;  opacity: 1.000000" xlink:href="#mb419c4c5302a18cc6082bcc201b83d12" x="444.000000" y="282.484085"/>
<use style="fill: #74add1; stroke: #000000; stroke-width: 0.500000; stroke-linejoin: round; stroke-linecap: butt;  opacity: 1.000000" xlink:href="#mb419c4c5302a18cc6082bcc201b83d12" x="493.600000" y="275.754701"/>
</g></g>
<g id="line2d5">
<g clip-path="url(#p50431ccdcb28178602d99d9270004dde)"><use style="fill: none; stroke: #f46d43; stroke-width: 0.500000; stroke-linejoin: round; stroke-linecap: butt;  opacity: 1.000000" xlink:href="#m0b517c67081e98f9e80fd3877dbcb783" x="96.800000" y="287.424000"/>
<use style="fill: none; stroke: #f46d43; stroke-width: 0.500000; stroke-linejoin: round; stroke-linecap: butt;  opacity: 1.000000" xlink:href="#m0b517c67081e98f9e80fd3877dbcb783" x="196.000000" y="314.742857"/>
<use style="fill: none; stroke: #f46d43; stroke-width: 0.500000; stroke-linejoin: round; stroke-linecap: butt;  opacity: 1.000000" xlink:href="#m0b517c67081e98f9e80fd3877dbcb783" x="295.200000" y="303.552000"/>
<use style="fill: none; stroke: #f46d43; stroke-width: 0.500000; stroke-linejoin: round; stroke-linecap: butt;  opacity: 1.000000" xlink:href="#m0b517c67081e98f9e80fd3877dbcb783" x="394.400000" y="333.833143"/>
<use style="fill: none; stroke: #f46d43; stroke-width: 0.500000; stroke-linejoin: round; stroke-linecap: butt;  opacity: 1.000000" xlink:href="#m0b517c67081e98f9e80fd3877dbcb783" x="444.000000" y="304.539429"/>
<use style="fill: none; stroke: #f46d43; stroke-width: 0.500000; stroke-linejoin: round; stroke-linecap: butt;  opacity: 1.000000" xlink:href="#m0b517c67081e98f9e80fd3877dbcb783" x="493.600000" y="281.828571"/>
</g></g>
<g id="line2d6">
<g clip-path="url(#p50431ccdcb28178602d99d9270004dde)"><use style="fill: none; stroke: #f46d43; stroke-width: 0.500000; stroke-linejoin: round; stroke-linecap: butt;  opacity: 1.000000" xlink:href="#m0b517c67081e98f9e80fd3877dbcb783" x="96.800000" y="273.600000"/>
<use style="fill: none; stroke: #f46d43; stroke-width: 0.500000; stroke-linejoin: round; stroke-linecap: butt;  opacity: 1.000000" xlink:href="#m0b517c67081e98f9e80fd3877dbcb783" x="196.000000" y="308.818286"/>
<use style="fill: none; stroke: #f46d43; stroke-width: 0.500000; stroke-linejoin: round; stroke-linecap: butt;  opacity: 1.000000" xlink:href="#m0b517c67081e98f9e80fd3877dbcb783" x="295.200000" y="296.969143"/>
<use style="fill: none; stroke: #f46d43; stroke-width: 0.500000; stroke-linejoin: round; stroke-linecap: butt;  opacity: 1.000000" xlink:href="#m0b517c67081e98f9e80fd3877dbcb783" x="394.400000" y="320.009143"/>
<use style="fill: none; stroke: #f46d43; stroke-width: 0.500000; stroke-linejoin: round; stroke-linecap: butt;  opacity: 1.000000" xlink:href="#m0b517c67081e98f9e80fd3877dbcb783" x="444.000000" y="297.298286"/>
<use style="fill: none; stroke: #f46d43; stroke-width: 0.500000; stroke-linejoin: round; stroke-linecap: butt;  opacity: 1.000000" xlink:href="#m0b517c67081e98f9e80fd3877dbcb783" x="493.600000" y="279.195429"/>
</g></g>
<g id="line2d7">
<g clip-path="url(#p50431ccdcb28178602d99d9270004dde)"><use style="fill: #f46d43; stroke: #000000; stroke-width: 0.500000; stroke-linejoin: round; stroke-linecap: butt;  opacity: 1.000000" xlink:href="#mb419c4c5302a18cc6082bcc201b83d12" x="96.800000" y="280.512000"/>
<use style="fill: #f46d43; stroke: #000000; stroke-width: 0.500000; stroke-linejoin: round; stroke-linecap: butt;  opacity: 1.000000" xlink:href="#mb419c4c5302a18cc6082bcc201b83d12" x="196.000000" y="311.780571"/>
<use style="fill: #f46d43; stroke: #000000; stroke-width: 0.500000; stroke-linejoin: round; stroke-linecap: butt;  opacity: 1.000000" xlink:href="#mb419c4c5302a18cc6082bcc201b83d12" x="295.200000" y="300.260571"/>
<use style="fill: #f46d43; stroke: #000000; stroke-width: 0.500000; stroke-linejoin: round; stroke-linecap: butt;  opacity: 1.000000" xlink:href="#mb419c4c5302a18cc6082bcc201b83d12" x="394.400000" y="326.921143"/>
<use style="fill: #f46d43; stroke: #000000; stroke-width: 0.500000; stroke-linejoin: round; stroke-linecap: butt;  opacity: 1.000000" xlink:href="#mb419c4c5302a18cc6082bcc201b83d12" x="444.000000" y="300.918857"/>
<use style="fill: #f46d43; stroke: #000000; stroke-width: 0.500000; stroke-linejoin: round; stroke-linecap: butt;  opacity: 1.000000" xlink:href="#mb419c4c5302a18cc6082bcc201b83d12" x="493.600000" y="280.512000"/>
</g></g>
<g id="line2d8">
<path style="fill: none; stroke: #5aae61; stroke-width: 2.000000; stroke-linejoin: round; stroke-linecap: square;  opacity: 1.000000" clip-path="url(#p50431ccdcb28178602d99d9270004dde)" d="M96.800000 216.314277L146.400000 191.190599L196.000000 173.178564
L245.600000 162.745704L295.200000 160.359549L344.800000 166.487629
L394.400000 181.597476L444.000000 206.156619L493.600000 240.632589"/>
</g>
<g id="line2d9">
<g clip-path="url(#p50431ccdcb28178602d99d9270004dde)"><use style="fill: none; stroke: #5aae61; stroke-width: 0.500000; stroke-linejoin: round; stroke-linecap: butt;  opacity: 1.000000" xlink:href="#m0b517c67081e98f9e80fd3877dbcb783" x="96.800000" y="239.137618"/>
<use style="fill: none; stroke: #5aae61; stroke-width: 0.500000; stroke-linejoin: round; stroke-linecap: butt;  opacity: 1.000000" xlink:href="#m0b517c67081e98f9e80fd3877dbcb783" x="146.400000" y="233.551039"/>
<use style="fill: none; stroke: #5aae61; stroke-width: 0.500000; stroke-linejoin: round; stroke-linecap: butt;  opacity: 1.000000" xlink:href="#m0b517c67081e98f9e80fd3877dbcb783" x="196.000000" y="210.368961"/>
<use style="fill: none; stroke: #5aae61; stroke-width: 0.500000; stroke-linejoin: round; stroke-linecap: butt;  opacity: 1.000000" xlink:href="#m0b517c67081e98f9e80fd3877dbcb783" x="245.600000" y="202.074524"/>
<use style="fill: none; stroke: #5aae61; stroke-width: 0.500000; stroke-linejoin: round; stroke-linecap: butt;  opacity: 1.000000" xlink:href="#m0b517c67081e98f9e80fd3877dbcb783" x="295.200000" y="204.860341"/>
<use style="fill: none; stroke: #5aae61; stroke-width: 0.500000; stroke-linejoin: round; stroke-linecap: butt;  opacity: 1.000000" xlink:href="#m0b517c67081e98f9e80fd3877dbcb783" x="344.800000" y="208.433261"/>
<use style="fill: none; stroke: #5aae61; stroke-width: 0.500000; stroke-linejoin: round; stroke-linecap: butt;  opacity: 1.000000" xlink:href="#m0b517c67081e98f9e80fd3877dbcb783" x="394.400000" y="214.521083"/>
<use style="fill: none; stroke: #5aae61; stroke-width: 0.500000; stroke-linejoin: round; stroke-linecap: butt;  opacity: 1.000000" xlink:href="#m0b517c67081e98f9e80fd3877dbcb783" x="444.000000" y="255.651637"/>
<use style="fill: none; stroke: #5aae61; stroke-width: 0.500000; stroke-linejoin: round; stroke-linecap: butt;  opacity: 1.000000" xlink:href="#m0b517c67081e98f9e80fd3877dbcb783" x="493.600000" y="257.868990"/>
</g></g>
<g id="line2d10">
<g clip-path="url(#p50431ccdcb28178602d99d9270004dde)"><use style="fill: none; stroke: #5aae61; stroke-width: 0.500000; stroke-linejoin: round; stroke-linecap: butt;  opacity: 1.000000" xlink:href="#m0b517c67081e98f9e80fd3877dbcb783" x="96.800000" y="188.573869"/>
<use style="fill: none; stroke: #5aae61; stroke-width: 0.500000; stroke-linejoin: round; stroke-linecap: butt;  opacity: 1.000000" xlink:href="#m0b517c67081e98f9e80fd3877dbcb783" x="146.400000" y="161.785773"/>
<use style="fill: none; stroke: #5aae61; stroke-width: 0.500000; stroke-linejoin: round; stroke-linecap: butt;  opacity: 1.000000" xlink:href="#m0b517c67081e98f9e80fd3877dbcb783" x="196.000000" y="124.089257"/>
<use style="fill: none; stroke: #5aae61; stroke-width: 0.500000; stroke-linejoin: round; stroke-linecap: butt;  opacity: 1.000000" xlink:href="#m0b517c67081e98f9e80fd3877dbcb783" x="245.600000" y="128.908911"/>
<use style="fill: none; stroke: #5aae61; stroke-width: 0.500000; stroke-linejoin: round; stroke-linecap: butt;  opacity: 1.000000" xlink:href="#m0b517c67081e98f9e80fd3877dbcb783" x="295.200000" y="116.336764"/>
<use style="fill: none; stroke: #5aae61; stroke-width: 0.500000; stroke-linejoin: round; stroke-linecap: butt;  opacity: 1.000000" xlink:href="#m0b517c67081e98f9e80fd3877dbcb783" x="344.800000" y="127.597236"/>
<use style="fill: none; stroke: #5aae61; stroke-width: 0.500000; stroke-linejoin: round; stroke-linecap: butt;  opacity: 1.000000" xlink:href="#m0b517c67081e98f9e80fd3877dbcb783" x="394.400000" y="125.813520"/>
<use style="fill: none; stroke: #5aae61; stroke-width: 0.500000; stroke-linejoin: round; stroke-linecap: butt;  opacity: 1.000000" xlink:href="#m0b517c67081e98f9e80fd3877dbcb783" x="444.000000" y="183.885136"/>
<use style="fill: none; stroke: #5aae61; stroke-width: 0.500000; stroke-linejoin: round; stroke-linecap: butt;  opacity: 1.000000" xlink:href="#m0b517c67081e98f9e80fd3877dbcb783" x="493.600000" y="213.868096"/>
</g></g>
<g id="line2d11">
<g clip-path="url(#p50431ccdcb28178602d99d9270004dde)"><use style="fill: #5aae61; stroke: #000000; stroke-width: 0.500000; stroke-linejoin: round; stroke-linecap: butt;  opacity: 1.000000" xlink:href="#mb419c4c5302a18cc6082bcc201b83d12" x="96.800000" y="213.855743"/>
<use style="fill: #5aae61; stroke: #000000; stroke-width: 0.500000; stroke-linejoin: round; stroke-linecap: butt;  opacity: 1.000000" xlink:href="#mb419c4c5302a18cc6082bcc201b83d12" x="146.400000" y="197.668406"/>
<use style="fill: #5aae61; stroke: #000000; stroke-width: 0.500000; stroke-linejoin: round; stroke-linecap: butt;  opacity: 1.000000" xlink:href="#mb419c4c5302a18cc6082bcc201b83d12" x="196.000000" y="167.229109"/>
<use style="fill: #5aae61; stroke: #000000; stroke-width: 0.500000; stroke-linejoin: round; stroke-linecap: butt;  opacity: 1.000000" xlink:href="#mb419c4c5302a18cc6082bcc201b83d12" x="245.600000" y="165.491717"/>
<use style="fill: #5aae61; stroke: #000000; stroke-width: 0.500000; stroke-linejoin: round; stroke-linecap: butt;  opacity: 1.000000" xlink:href="#mb419c4c5302a18cc6082bcc201b83d12" x="295.200000" y="160.598552"/>
<use style="fill: #5aae61; stroke: #000000; stroke-width: 0.500000; stroke-linejoin: round; stroke-linecap: butt;  opacity: 1.000000" xlink:href="#mb419c4c5302a18cc6082bcc201b83d12" x="344.800000" y="168.015249"/>
<use style="fill: #5aae61; stroke: #000000; stroke-width: 0.500000; stroke-linejoin: round; stroke-linecap: butt;  opacity: 1.000000" xlink:href="#mb419c4c5302a18cc6082bcc201b83d12" x="394.400000" y="170.167301"/>
<use style="fill: #5aae61; stroke: #000000; stroke-width: 0.500000; stroke-linejoin: round; stroke-linecap: butt;  opacity: 1.000000" xlink:href="#mb419c4c5302a18cc6082bcc201b83d12" x="444.000000" y="219.768386"/>
<use style="fill: #5aae61; stroke: #000000; stroke-width: 0.500000; stroke-linejoin: round; stroke-linecap: butt;  opacity: 1.000000" xlink:href="#mb419c4c5302a18cc6082bcc201b83d12" x="493.600000" y="235.868543"/>
</g></g>
<g id="line2d12">
<g clip-path="url(#p50431ccdcb28178602d99d9270004dde)"><use style="fill: none; stroke: #9970ab; stroke-width: 0.500000; stroke-linejoin: round; stroke-linecap: butt;  opacity: 1.000000" xlink:href="#m0b517c67081e98f9e80fd3877dbcb783" x="96.800000" y="223.241143"/>
<use style="fill: none; stroke: #9970ab; stroke-width: 0.500000; stroke-linejoin: round; stroke-linecap: butt;  opacity: 1.000000" xlink:href="#m0b517c67081e98f9e80fd3877dbcb783" x="196.000000" y="167.286857"/>
<use style="fill: none; stroke: #9970ab; stroke-width: 0.500000; stroke-linejoin: round; stroke-linecap: butt;  opacity: 1.000000" xlink:href="#m0b517c67081e98f9e80fd3877dbcb783" x="295.200000" y="122.194286"/>
<use style="fill: none; stroke: #9970ab; stroke-width: 0.500000; stroke-linejoin: round; stroke-linecap: butt;  opacity: 1.000000" xlink:href="#m0b517c67081e98f9e80fd3877dbcb783" x="394.400000" y="145.234286"/>
<use style="fill: none; stroke: #9970ab; stroke-width: 0.500000; stroke-linejoin: round; stroke-linecap: butt;  opacity: 1.000000" xlink:href="#m0b517c67081e98f9e80fd3877dbcb783" x="444.000000" y="180.123429"/>
<use style="fill: none; stroke: #9970ab; stroke-width: 0.500000; stroke-linejoin: round; stroke-linecap: butt;  opacity: 1.000000" xlink:href="#m0b517c67081e98f9e80fd3877dbcb783" x="493.600000" y="221.266286"/>
</g></g>
<g id="line2d13">
<g clip-path="url(#p50431ccdcb28178602d99d9270004dde)"><use style="fill: none; stroke: #9970ab; stroke-width: 0.500000; stroke-linejoin: round; stroke-linecap: butt;  opacity: 1.000000" xlink:href="#m0b517c67081e98f9e80fd3877dbcb783" x="96.800000" y="205.467429"/>
<use style="fill: none; stroke: #9970ab; stroke-width: 0.500000; stroke-linejoin: round; stroke-linecap: butt;  opacity: 1.000000" xlink:href="#m0b517c67081e98f9e80fd3877dbcb783" x="196.000000" y="159.387429"/>
<use style="fill: none; stroke: #9970ab; stroke-width: 0.500000; stroke-linejoin: round; stroke-linecap: butt;  opacity: 1.000000" xlink:href="#m0b517c67081e98f9e80fd3877dbcb783" x="295.200000" y="114.953143"/>
<use style="fill: none; stroke: #9970ab; stroke-width: 0.500000; stroke-linejoin: round; stroke-linecap: butt;  opacity: 1.000000" xlink:href="#m0b517c67081e98f9e80fd3877dbcb783" x="394.400000" y="134.701714"/>
<use style="fill: none; stroke: #9970ab; stroke-width: 0.500000; stroke-linejoin: round; stroke-linecap: butt;  opacity: 1.000000" xlink:href="#m0b517c67081e98f9e80fd3877dbcb783" x="444.000000" y="164.982857"/>
<use style="fill: none; stroke: #9970ab; stroke-width: 0.500000; stroke-linejoin: round; stroke-linecap: butt;  opacity: 1.000000" xlink:href="#m0b517c67081e98f9e80fd3877dbcb783" x="493.600000" y="219.949714"/>
</g></g>
<g id="line2d14">
<g clip-path="url(#p50431ccdcb28178602d99d9270004dde)"><use style="fill: #9970ab; stroke: #000000; stroke-width: 0.500000; stroke-linejoin: round; stroke-linecap: butt;  opacity: 1.000000" xlink:href="#mb419c4c5302a18cc6082bcc201b83d12" x="96.800000" y="214.354286"/>
<use style="fill: #9970ab; stroke: #000000; stroke-width: 0.500000; stroke-linejoin: round; stroke-linecap: butt;  opacity: 1.000000" xlink:href="#mb419c4c5302a18cc6082bcc201b83d12" x="196.000000" y="163.337143"/>
<use style="fill: #9970ab; stroke: #000000; stroke-width: 0.500000; stroke-linejoin: round; stroke-linecap: butt;  opacity: 1.000000" xlink:href="#mb419c4c5302a18cc6082bcc201b83d12" x="295.200000" y="118.573714"/>
<use style="fill: #9970ab; stroke: #000000; stroke-width: 0.500000; stroke-linejoin: round; stroke-linecap: butt;  opacity: 1.000000" xlink:href="#mb419c4c5302a18cc6082bcc201b83d12" x="394.400000" y="139.968000"/>
<use style="fill: #9970ab; stroke: #000000; stroke-width: 0.500000; stroke-linejoin: round; stroke-linecap: butt;  opacity: 1.000000" xlink:href="#mb419c4c5302a18cc6082bcc201b83d12" x="444.000000" y="172.553143"/>
<use style="fill: #9970ab; stroke: #000000; stroke-width: 0.500000; stroke-linejoin: round; stroke-linecap: butt;  opacity: 1.000000" xlink:href="#mb419c4c5302a18cc6082bcc201b83d12" x="493.600000" y="220.608000"/>
</g></g>
<g id="line2d15">
<path style="fill: none; stroke: #808080; stroke-width: 1.000000; stroke-linejoin: round; stroke-linecap: butt; stroke-dasharray: 6.000000,6.000000; stroke-dashoffset: 0.000000; opacity: 1.000000" clip-path="url(#p50431ccdcb28178602d99d9270004dde)" d="M72.000000 240.685714L518.400000 240.685714"/>
</g>
<g id="matplotlib.axis1">
<g id="xtick1">
<g id="line2d16">
<defs><path id="m30e32995789d870ad79a2e54c91cf9c6" d="M0.000000 0.000000L0.000000 -4.000000"/></defs>
<g ><use style="fill: none; stroke: #000000; stroke-width: 0.500000; stroke-linejoin: round; stroke-linecap: butt;  opacity: 1.000000" xlink:href="#m30e32995789d870ad79a2e54c91cf9c6" x="96.800000" y="388.800000"/>
</g></g>
<g id="line2d17">
<defs><path id="m9281cae24120827b11d5ea8a7ad3e96b" d="M0.000000 0.000000L0.000000 4.000000"/></defs>
<g ><use style="fill: none; stroke: #000000; stroke-width: 0.500000; stroke-linejoin: round; stroke-linecap: butt;  opacity: 1.000000" xlink:href="#m9281cae24120827b11d5ea8a7ad3e96b" x="96.800000" y="43.200000"/>
</g></g>
<g id="text1">
<defs>
<path id="c_6a8d56c819c37117ab4cf023bec22a5a" d="M10.593750 -35.500000l62.593750 0.000000l0.000000 8.296875l-62.593750 0.000000z"/>
<path id="c_a0416418d96557a09b8c1332d34883ba" d="M37.796875 -64.312500l-24.906250 38.921875l24.906250 0.000000zM35.203125 -72.906250l12.406250 0.000000l0.000000 47.515625l10.406250 0.000000l0.000000 8.203125l-10.406250 0.000000l0.000000 17.187500l-9.812500 0.000000l0.000000 -17.187500l-32.906250 0.000000l0.000000 -9.515625z"/>
</defs>
<g style="fill: #000000; opacity: 1.000000" transform="translate(88.917188,401.550000)scale(0.120000)">
<use xlink:href="#c_6a8d56c819c37117ab4cf023bec22a5a"/>
<use xlink:href="#c_a0416418d96557a09b8c1332d34883ba" x="83.789062"/>
</g>
</g>
</g>
<g id="xtick2">
<g id="line2d18">
<g ><use style="fill: none; stroke: #000000; stroke-width: 0.500000; stroke-linejoin: round; stroke-linecap: butt;  opacity: 1.000000" xlink:href="#m30e32995789d870ad79a2e54c91cf9c6" x="196.000000" y="388.800000"/>
</g></g>
<g id="line2d19">
<g ><use style="fill: none; stroke: #000000; stroke-width: 0.500000; stroke-linejoin: round; stroke-linecap: butt;  opacity: 1.000000" xlink:href="#m9281cae24120827b11d5ea8a7ad3e96b" x="196.000000" y="43.200000"/>
</g></g>
<g id="text2">
<defs>
<path id="c_ed3f3ed3ebfbd18bcb9c012009a68ad1" d="M19.187500 -8.296875l34.421875 0.000000l0.000000 8.296875l-46.281250 0.000000l0.000000 -8.296875q5.609375 -5.812500 15.296875 -15.593750q9.703125 -9.796875 12.187500 -12.640625q4.734375 -5.312500 6.609375 -9.000000q1.890625 -3.687500 1.890625 -7.250000q0.000000 -5.812500 -4.078125 -9.468750q-4.078125 -3.671875 -10.625000 -3.671875q-4.640625 0.000000 -9.796875 1.609375q-5.140625 1.609375 -11.000000 4.890625l0.000000 -9.968750q5.953125 -2.390625 11.125000 -3.609375q5.187500 -1.218750 9.484375 -1.218750q11.328125 0.000000 18.062500 5.671875q6.734375 5.656250 6.734375 15.125000q0.000000 4.500000 -1.687500 8.531250q-1.671875 4.015625 -6.125000 9.484375q-1.218750 1.421875 -7.765625 8.187500q-6.531250 6.765625 -18.453125 18.921875"/>
</defs>
<g style="fill: #000000; opacity: 1.000000" transform="translate(188.382812,401.706250)scale(0.120000)">
<use xlink:href="#c_6a8d56c819c37117ab4cf023bec22a5a"/>
<use xlink:href="#c_ed3f3ed3ebfbd18bcb9c012009a68ad1" x="83.789062"/>
</g>
</g>
</g>
<g id="xtick3">
<g id="line2d20">
<g ><use style="fill: none; stroke: #000000; stroke-width: 0.500000; stroke-linejoin: round; stroke-linecap: butt;  opacity: 1.000000" xlink:href="#m30e32995789d870ad79a2e54c91cf9c6" x="295.200000" y="388.800000"/>
</g></g>
<g id="line2d21">
<g ><use style="fill: none; stroke: #000000; stroke-width: 0.500000; stroke-linejoin: round; stroke-linecap: butt;  opacity: 1.000000" xlink:href="#m9281cae24120827b11d5ea8a7ad3e96b" x="295.200000" y="43.200000"/>
</g></g>
<g id="text3">
<defs>
<path id="c_7a2040fe3b94fcd41d0a72c84e93b115" d="M31.781250 -66.406250q-7.609375 0.000000 -11.453125 7.500000q-3.828125 7.484375 -3.828125 22.531250q0.000000 14.984375 3.828125 22.484375q3.843750 7.500000 11.453125 7.500000q7.671875 0.000000 11.500000 -7.500000q3.843750 -7.500000 3.843750 -22.484375q0.000000 -15.046875 -3.843750 -22.531250q-3.828125 -7.500000 -11.500000 -7.500000M31.781250 -74.218750q12.265625 0.000000 18.734375 9.703125q6.468750 9.687500 6.468750 28.140625q0.000000 18.406250 -6.468750 28.109375q-6.468750 9.687500 -18.734375 9.687500q-12.250000 0.000000 -18.718750 -9.687500q-6.468750 -9.703125 -6.468750 -28.109375q0.000000 -18.453125 6.468750 -28.140625q6.468750 -9.703125 18.718750 -9.703125"/>
</defs>
<g style="fill: #000000; opacity: 1.000000" transform="translate(292.176562,401.706250)scale(0.120000)">
<use xlink:href="#c_7a2040fe3b94fcd41d0a72c84e93b115"/>
</g>
</g>
</g>
<g id="xtick4">
<g id="line2d22">
<g ><use style="fill: none; stroke: #000000; stroke-width: 0.500000; stroke-linejoin: round; stroke-linecap: butt;  opacity: 1.000000" xlink:href="#m30e32995789d870ad79a2e54c91cf9c6" x="394.400000" y="388.800000"/>
</g></g>
<g id="line2d23">
<g ><use style="fill: none; stroke: #000000; stroke-width: 0.500000; stroke-linejoin: round; stroke-linecap: butt;  opacity: 1.000000" xlink:href="#m9281cae24120827b11d5ea8a7ad3e96b" x="394.400000" y="43.200000"/>
</g></g>
<g id="text4">
<g style="fill: #000000; opacity: 1.000000" transform="translate(391.618750,401.706250)scale(0.120000)">
<use xlink:href="#c_ed3f3ed3ebfbd18bcb9c012009a68ad1"/>
</g>
</g>
</g>
<g id="xtick5">
<g id="line2d24">
<g ><use style="fill: none; stroke: #000000; stroke-width: 0.500000; stroke-linejoin: round; stroke-linecap: butt;  opacity: 1.000000" xlink:href="#m30e32995789d870ad79a2e54c91cf9c6" x="493.600000" y="388.800000"/>
</g></g>
<g id="line2d25">
<g ><use style="fill: none; stroke: #000000; stroke-width: 0.500000; stroke-linejoin: round; stroke-linecap: butt;  opacity: 1.000000" xlink:href="#m9281cae24120827b11d5ea8a7ad3e96b" x="493.600000" y="43.200000"/>
</g></g>
<g id="text5">
<g style="fill: #000000; opacity: 1.000000" transform="translate(490.412500,401.550000)scale(0.120000)">
<use xlink:href="#c_a0416418d96557a09b8c1332d34883ba"/>
</g>
</g>
</g>
<g id="text6">
<defs>
<path id="c_d821beae607506e87470f334d9ff47af" d="M45.406250 -46.390625l0.000000 -29.593750l8.984375 0.000000l0.000000 75.984375l-8.984375 0.000000l0.000000 -8.203125q-2.828125 4.875000 -7.156250 7.250000q-4.312500 2.375000 -10.375000 2.375000q-9.906250 0.000000 -16.140625 -7.906250q-6.218750 -7.921875 -6.218750 -20.812500q0.000000 -12.890625 6.218750 -20.796875q6.234375 -7.906250 16.140625 -7.906250q6.062500 0.000000 10.375000 2.375000q4.328125 2.359375 7.156250 7.234375M14.796875 -27.296875q0.000000 9.906250 4.078125 15.546875q4.078125 5.640625 11.203125 5.640625q7.125000 0.000000 11.218750 -5.640625q4.109375 -5.640625 4.109375 -15.546875q0.000000 -9.906250 -4.109375 -15.546875q-4.093750 -5.640625 -11.218750 -5.640625q-7.125000 0.000000 -11.203125 5.640625q-4.078125 5.640625 -4.078125 15.546875"/>
<path id="c_0bce5afba2dc6b9024b26277c38ad8e8" d="M56.203125 -29.593750l0.000000 4.390625l-41.312500 0.000000q0.593750 9.281250 5.593750 14.140625q5.000000 4.859375 13.937500 4.859375q5.171875 0.000000 10.031250 -1.265625q4.859375 -1.265625 9.656250 -3.812500l0.000000 8.500000q-4.843750 2.046875 -9.921875 3.125000q-5.078125 1.078125 -10.296875 1.078125q-13.093750 0.000000 -20.734375 -7.609375q-7.640625 -7.625000 -7.640625 -20.625000q0.000000 -13.421875 7.250000 -21.296875q7.250000 -7.890625 19.562500 -7.890625q11.031250 0.000000 17.453125 7.109375q6.421875 7.093750 6.421875 19.296875M47.218750 -32.234375q-0.093750 -7.359375 -4.125000 -11.750000q-4.031250 -4.406250 -10.671875 -4.406250q-7.515625 0.000000 -12.031250 4.250000q-4.515625 4.250000 -5.203125 11.968750z"/>
<path id="c_f15a64fcd463ef4629c48bab42cde24c" d="M18.109375 -8.203125l0.000000 29.000000l-9.031250 0.000000l0.000000 -75.484375l9.031250 0.000000l0.000000 8.296875q2.843750 -4.875000 7.156250 -7.234375q4.328125 -2.375000 10.328125 -2.375000q9.968750 0.000000 16.187500 7.906250q6.234375 7.906250 6.234375 20.796875q0.000000 12.890625 -6.234375 20.812500q-6.218750 7.906250 -16.187500 7.906250q-6.000000 0.000000 -10.328125 -2.375000q-4.312500 -2.375000 -7.156250 -7.250000M48.687500 -27.296875q0.000000 -9.906250 -4.078125 -15.546875q-4.078125 -5.640625 -11.203125 -5.640625q-7.140625 0.000000 -11.218750 5.640625q-4.078125 5.640625 -4.078125 15.546875q0.000000 9.906250 4.078125 15.546875q4.078125 5.640625 11.218750 5.640625q7.125000 0.000000 11.203125 -5.640625q4.078125 -5.640625 4.078125 -15.546875"/>
<path id="c_0f8c41144cfbf448378cb6fd1cc8e549" d="M18.312500 -70.218750l0.000000 15.531250l18.500000 0.000000l0.000000 6.984375l-18.500000 0.000000l0.000000 29.687500q0.000000 6.687500 1.828125 8.593750q1.828125 1.906250 7.453125 1.906250l9.218750 0.000000l0.000000 7.515625l-9.218750 0.000000q-10.406250 0.000000 -14.359375 -3.875000q-3.953125 -3.890625 -3.953125 -14.140625l0.000000 -29.687500l-6.593750 0.000000l0.000000 -6.984375l6.593750 0.000000l0.000000 -15.531250z"/>
<path id="c_74d54c94aa871ec39e2bc6697dde6c00" d="M54.890625 -33.015625l0.000000 33.015625l-8.984375 0.000000l0.000000 -32.718750q0.000000 -7.765625 -3.031250 -11.609375q-3.031250 -3.859375 -9.078125 -3.859375q-7.281250 0.000000 -11.484375 4.640625q-4.203125 4.625000 -4.203125 12.640625l0.000000 30.906250l-9.031250 0.000000l0.000000 -75.984375l9.031250 0.000000l0.000000 29.796875q3.234375 -4.937500 7.593750 -7.375000q4.375000 -2.437500 10.093750 -2.437500q9.421875 0.000000 14.250000 5.828125q4.843750 5.828125 4.843750 17.156250"/>
</defs>
<g style="fill: #000000; opacity: 1.000000" transform="translate(278.559375,416.003125)scale(0.120000)">
<use xlink:href="#c_d821beae607506e87470f334d9ff47af"/>
<use xlink:href="#c_0bce5afba2dc6b9024b26277c38ad8e8" x="63.476562"/>
<use xlink:href="#c_f15a64fcd463ef4629c48bab42cde24c" x="125.000000"/>
<use xlink:href="#c_0f8c41144cfbf448378cb6fd1cc8e549" x="188.476562"/>
<use xlink:href="#c_74d54c94aa871ec39e2bc6697dde6c00" x="227.685547"/>
</g>
</g>
</g>
<g id="matplotlib.axis2">
<g id="ytick1">
<g id="line2d26">
<defs><path id="m3400efa6b1638b3fea9e19e898273957" d="M0.000000 0.000000L4.000000 0.000000"/></defs>
<g ><use style="fill: none; stroke: #000000; stroke-width: 0.500000; stroke-linejoin: round; stroke-linecap: butt;  opacity: 1.000000" xlink:href="#m3400efa6b1638b3fea9e19e898273957" x="72.000000" y="372.342857"/>
</g></g>
<g id="line2d27">
<defs><path id="m20b58b2501143cb5e0a5e8f1ef6f1643" d="M0.000000 0.000000L-4.000000 0.000000"/></defs>
<g ><use style="fill: none; stroke: #000000; stroke-width: 0.500000; stroke-linejoin: round; stroke-linecap: butt;  opacity: 1.000000" xlink:href="#m20b58b2501143cb5e0a5e8f1ef6f1643" x="518.400000" y="372.342857"/>
</g></g>
<g id="text7">
<g style="fill: #000000; opacity: 1.000000" transform="translate(52.234375,376.717857)scale(0.120000)">
<use xlink:href="#c_6a8d56c819c37117ab4cf023bec22a5a"/>
<use xlink:href="#c_a0416418d96557a09b8c1332d34883ba" x="83.789062"/>
</g>
</g>
</g>
<g id="ytick2">
<g id="line2d28">
<g ><use style="fill: none; stroke: #000000; stroke-width: 0.500000; stroke-linejoin: round; stroke-linecap: butt;  opacity: 1.000000" xlink:href="#m3400efa6b1638b3fea9e19e898273957" x="72.000000" y="306.514286"/>
</g></g>
<g id="line2d29">
<g ><use style="fill: none; stroke: #000000; stroke-width: 0.500000; stroke-linejoin: round; stroke-linecap: butt;  opacity: 1.000000" xlink:href="#m20b58b2501143cb5e0a5e8f1ef6f1643" x="518.400000" y="306.514286"/>
</g></g>
<g id="text8">
<g style="fill: #000000; opacity: 1.000000" transform="translate(52.765625,310.967411)scale(0.120000)">
<use xlink:href="#c_6a8d56c819c37117ab4cf023bec22a5a"/>
<use xlink:href="#c_ed3f3ed3ebfbd18bcb9c012009a68ad1" x="83.789062"/>
</g>
</g>
</g>
<g id="ytick3">
<g id="line2d30">
<g ><use style="fill: none; stroke: #000000; stroke-width: 0.500000; stroke-linejoin: round; stroke-linecap: butt;  opacity: 1.000000" xlink:href="#m3400efa6b1638b3fea9e19e898273957" x="72.000000" y="240.685714"/>
</g></g>
<g id="line2d31">
<g ><use style="fill: none; stroke: #000000; stroke-width: 0.500000; stroke-linejoin: round; stroke-linecap: butt;  opacity: 1.000000" xlink:href="#m20b58b2501143cb5e0a5e8f1ef6f1643" x="518.400000" y="240.685714"/>
</g></g>
<g id="text9">
<g style="fill: #000000; opacity: 1.000000" transform="translate(61.953125,245.052902)scale(0.120000)">
<use xlink:href="#c_7a2040fe3b94fcd41d0a72c84e93b115"/>
</g>
</g>
</g>
<g id="ytick4">
<g id="line2d32">
<g ><use style="fill: none; stroke: #000000; stroke-width: 0.500000; stroke-linejoin: round; stroke-linecap: butt;  opacity: 1.000000" xlink:href="#m3400efa6b1638b3fea9e19e898273957" x="72.000000" y="174.857143"/>
</g></g>
<g id="line2d33">
<g ><use style="fill: none; stroke: #000000; stroke-width: 0.500000; stroke-linejoin: round; stroke-linecap: butt;  opacity: 1.000000" xlink:href="#m20b58b2501143cb5e0a5e8f1ef6f1643" x="518.400000" y="174.857143"/>
</g></g>
<g id="text10">
<g style="fill: #000000; opacity: 1.000000" transform="translate(62.437500,179.310268)scale(0.120000)">
<use xlink:href="#c_ed3f3ed3ebfbd18bcb9c012009a68ad1"/>
</g>
</g>
</g>
<g id="ytick5">
<g id="line2d34">
<g ><use style="fill: none; stroke: #000000; stroke-width: 0.500000; stroke-linejoin: round; stroke-linecap: butt;  opacity: 1.000000" xlink:href="#m3400efa6b1638b3fea9e19e898273957" x="72.000000" y="109.028571"/>
</g></g>
<g id="line2d35">
<g ><use style="fill: none; stroke: #000000; stroke-width: 0.500000; stroke-linejoin: round; stroke-linecap: butt;  opacity: 1.000000" xlink:href="#m20b58b2501143cb5e0a5e8f1ef6f1643" x="518.400000" y="109.028571"/>
</g></g>
<g id="text11">
<g style="fill: #000000; opacity: 1.000000" transform="translate(61.625000,113.403571)scale(0.120000)">
<use xlink:href="#c_a0416418d96557a09b8c1332d34883ba"/>
</g>
</g>
</g>
<g id="ytick6">
<g id="line2d36">
<g ><use style="fill: none; stroke: #000000; stroke-width: 0.500000; stroke-linejoin: round; stroke-linecap: butt;  opacity: 1.000000" xlink:href="#m3400efa6b1638b3fea9e19e898273957" x="72.000000" y="43.200000"/>
</g></g>
<g id="line2d37">
<g ><use style="fill: none; stroke: #000000; stroke-width: 0.500000; stroke-linejoin: round; stroke-linecap: butt;  opacity: 1.000000" xlink:href="#m20b58b2501143cb5e0a5e8f1ef6f1643" x="518.400000" y="43.200000"/>
</g></g>
<g id="text12">
<defs>
<path id="c_cc8d6d580d1b10c8632f7a42cd53db8a" d="M33.015625 -40.375000q-6.640625 0.000000 -10.531250 4.546875q-3.875000 4.531250 -3.875000 12.437500q0.000000 7.859375 3.875000 12.437500q3.890625 4.562500 10.531250 4.562500q6.640625 0.000000 10.515625 -4.562500q3.875000 -4.578125 3.875000 -12.437500q0.000000 -7.906250 -3.875000 -12.437500q-3.875000 -4.546875 -10.515625 -4.546875M52.593750 -71.296875l0.000000 8.984375q-3.718750 -1.750000 -7.500000 -2.671875q-3.781250 -0.937500 -7.500000 -0.937500q-9.765625 0.000000 -14.921875 6.593750q-5.140625 6.593750 -5.875000 19.921875q2.875000 -4.250000 7.218750 -6.515625q4.359375 -2.265625 9.578125 -2.265625q10.984375 0.000000 17.359375 6.671875q6.375000 6.656250 6.375000 18.125000q0.000000 11.234375 -6.640625 18.031250q-6.640625 6.781250 -17.671875 6.781250q-12.656250 0.000000 -19.343750 -9.687500q-6.687500 -9.703125 -6.687500 -28.109375q0.000000 -17.281250 8.203125 -27.562500q8.203125 -10.281250 22.015625 -10.281250q3.718750 0.000000 7.500000 0.734375q3.781250 0.734375 7.890625 2.187500"/>
</defs>
<g style="fill: #000000; opacity: 1.000000" transform="translate(61.968750,47.567187)scale(0.120000)">
<use xlink:href="#c_cc8d6d580d1b10c8632f7a42cd53db8a"/>
</g>
</g>
</g>
<g id="text13">
<defs>
<path id="c_9eb9544ae91764ad8b972c8707bee50e" d="M39.406250 -71.781250l-4.546875 20.265625l12.796875 0.000000l4.640625 -20.265625l7.031250 0.000000l-4.546875 20.265625l14.796875 0.000000l-1.703125 7.515625l-14.796875 0.000000l-3.609375 16.312500l14.937500 0.000000l-1.562500 7.468750l-15.093750 0.000000l-4.531250 20.218750l-7.031250 0.000000l4.484375 -20.218750l-12.843750 0.000000l-4.531250 20.218750l-7.078125 0.000000l4.578125 -20.218750l-14.500000 0.000000l1.609375 -7.468750l14.500000 0.000000l3.718750 -16.312500l-14.796875 0.000000l1.703125 -7.515625l14.796875 0.000000l4.500000 -20.265625zM46.000000 -44.000000l-12.796875 0.000000l-3.656250 16.312500l12.843750 0.000000z"/>
<path id="c_769037bd4b0bc998a20a80d73738b079" d="M49.125000 -10.890625l3.421875 -19.093750l-14.562500 0.000000l1.375000 -8.109375l23.234375 0.000000l-5.656250 32.093750q-5.812500 3.562500 -12.718750 5.500000q-6.906250 1.921875 -13.890625 1.921875q-12.359375 0.000000 -19.328125 -7.609375q-6.953125 -7.625000 -6.953125 -21.203125q0.000000 -11.281250 4.218750 -21.453125q4.234375 -10.187500 11.750000 -16.984375q4.687500 -4.234375 10.250000 -6.312500q5.578125 -2.078125 12.406250 -2.078125q6.156250 0.000000 11.796875 1.734375q5.640625 1.734375 10.765625 5.203125l-1.750000 10.500000q-3.968750 -4.593750 -9.296875 -7.015625q-5.312500 -2.421875 -11.312500 -2.421875q-7.031250 0.000000 -12.328125 2.968750q-5.296875 2.953125 -9.500000 9.140625q-3.562500 5.281250 -5.625000 12.437500q-2.046875 7.156250 -2.046875 14.578125q0.000000 10.203125 4.703125 15.359375q4.718750 5.140625 14.046875 5.140625q4.640625 0.000000 9.015625 -1.093750q4.375000 -1.109375 7.984375 -3.203125"/>
<path id="c_7efa9804c2b4c09a4b614b91fdebee3d" d="M31.000000 -75.875000q-6.531250 11.218750 -9.718750 22.218750q-3.171875 10.984375 -3.171875 22.265625q0.000000 11.265625 3.203125 22.328125q3.203125 11.062500 9.687500 22.250000l-7.812500 0.000000q-7.312500 -11.484375 -10.953125 -22.562500q-3.640625 -11.078125 -3.640625 -22.015625q0.000000 -10.890625 3.609375 -21.921875q3.625000 -11.046875 10.984375 -22.562500z"/>
<path id="c_dcb78ab3124be785176d70a27dde1356" d="M9.078125 -75.984375l9.031250 0.000000l0.000000 44.875000l26.812500 -23.578125l11.468750 0.000000l-29.000000 25.578125l30.234375 29.109375l-11.718750 0.000000l-27.796875 -26.703125l0.000000 26.703125l-9.031250 0.000000z"/>
<path id="c_d650c37394b681142a10dfc54356d478" d="M48.781250 -52.593750l0.000000 8.406250q-3.812500 -2.109375 -7.640625 -3.156250q-3.828125 -1.046875 -7.734375 -1.046875q-8.750000 0.000000 -13.593750 5.546875q-4.828125 5.531250 -4.828125 15.546875q0.000000 10.015625 4.828125 15.562500q4.843750 5.531250 13.593750 5.531250q3.906250 0.000000 7.734375 -1.046875q3.828125 -1.046875 7.640625 -3.156250l0.000000 8.312500q-3.765625 1.750000 -7.796875 2.625000q-4.015625 0.890625 -8.562500 0.890625q-12.359375 0.000000 -19.640625 -7.765625q-7.265625 -7.765625 -7.265625 -20.953125q0.000000 -13.375000 7.343750 -21.031250q7.359375 -7.671875 20.156250 -7.671875q4.140625 0.000000 8.093750 0.859375q3.953125 0.843750 7.671875 2.546875"/>
<path id="c_01d93a582460e35a7945ca50d148ffeb" d="M34.281250 -27.484375q-10.890625 0.000000 -15.093750 2.484375q-4.203125 2.484375 -4.203125 8.500000q0.000000 4.781250 3.156250 7.593750q3.156250 2.796875 8.562500 2.796875q7.484375 0.000000 12.000000 -5.296875q4.515625 -5.296875 4.515625 -14.078125l0.000000 -2.000000zM52.203125 -31.203125l0.000000 31.203125l-8.984375 0.000000l0.000000 -8.296875q-3.078125 4.968750 -7.671875 7.343750q-4.593750 2.375000 -11.234375 2.375000q-8.390625 0.000000 -13.359375 -4.718750q-4.953125 -4.718750 -4.953125 -12.625000q0.000000 -9.218750 6.171875 -13.906250q6.187500 -4.687500 18.437500 -4.687500l12.609375 0.000000l0.000000 -0.890625q0.000000 -6.203125 -4.078125 -9.593750q-4.078125 -3.390625 -11.453125 -3.390625q-4.687500 0.000000 -9.140625 1.125000q-4.437500 1.125000 -8.531250 3.375000l0.000000 -8.312500q4.921875 -1.906250 9.562500 -2.843750q4.640625 -0.953125 9.031250 -0.953125q11.875000 0.000000 17.734375 6.156250q5.859375 6.140625 5.859375 18.640625"/>
<path id="c_5099edb83619131346ae654950954dea" d="M9.421875 -75.984375l8.984375 0.000000l0.000000 75.984375l-8.984375 0.000000z"/>
<path id="c_9c6d5cbc59c6231647eb409cc6b37bb3" d="M25.390625 -72.906250l8.296875 0.000000l-25.390625 82.187500l-8.296875 0.000000z"/>
<path id="c_4653c6dfde66c7610eae0911760d3490" d="M52.000000 -44.187500q3.375000 -6.062500 8.062500 -8.937500q4.687500 -2.875000 11.031250 -2.875000q8.546875 0.000000 13.187500 5.984375q4.640625 5.968750 4.640625 17.000000l0.000000 33.015625l-9.031250 0.000000l0.000000 -32.718750q0.000000 -7.859375 -2.796875 -11.656250q-2.781250 -3.812500 -8.484375 -3.812500q-6.984375 0.000000 -11.046875 4.640625q-4.046875 4.625000 -4.046875 12.640625l0.000000 30.906250l-9.031250 0.000000l0.000000 -32.718750q0.000000 -7.906250 -2.781250 -11.687500q-2.781250 -3.781250 -8.593750 -3.781250q-6.890625 0.000000 -10.953125 4.656250q-4.046875 4.656250 -4.046875 12.625000l0.000000 30.906250l-9.031250 0.000000l0.000000 -54.687500l9.031250 0.000000l0.000000 8.500000q3.078125 -5.031250 7.375000 -7.421875q4.296875 -2.390625 10.203125 -2.390625q5.968750 0.000000 10.140625 3.031250q4.171875 3.015625 6.171875 8.781250"/>
<path id="c_f05dd90d41f04bb96ef1ca503cc2044b" d="M30.609375 -48.390625q-7.218750 0.000000 -11.421875 5.640625q-4.203125 5.640625 -4.203125 15.453125q0.000000 9.812500 4.171875 15.453125q4.187500 5.640625 11.453125 5.640625q7.187500 0.000000 11.375000 -5.656250q4.203125 -5.671875 4.203125 -15.437500q0.000000 -9.718750 -4.203125 -15.406250q-4.187500 -5.687500 -11.375000 -5.687500M30.609375 -56.000000q11.718750 0.000000 18.406250 7.625000q6.703125 7.609375 6.703125 21.078125q0.000000 13.421875 -6.703125 21.078125q-6.687500 7.640625 -18.406250 7.640625q-11.765625 0.000000 -18.437500 -7.640625q-6.656250 -7.656250 -6.656250 -21.078125q0.000000 -13.468750 6.656250 -21.078125q6.671875 -7.625000 18.437500 -7.625000"/>
<path id="c_e96974be642f6eac0427d72f9cec6c19" d="M8.015625 -75.875000l7.812500 0.000000q7.312500 11.515625 10.953125 22.562500q3.640625 11.031250 3.640625 21.921875q0.000000 10.937500 -3.640625 22.015625q-3.640625 11.078125 -10.953125 22.562500l-7.812500 0.000000q6.484375 -11.187500 9.687500 -22.250000q3.203125 -11.062500 3.203125 -22.328125q0.000000 -11.281250 -3.203125 -22.265625q-3.203125 -11.000000 -9.687500 -22.218750"/>
</defs>
<g id="mathtext1">
<g style="fill: #000000" transform="translate(47.234375,261.000000)rotate(-90.0)">
<use xlink:href="#c_9eb9544ae91764ad8b972c8707bee50e" transform="translate(0.000000,-2.875000)scale(0.120000)"/>
<use xlink:href="#c_9eb9544ae91764ad8b972c8707bee50e" transform="translate(9.046875,-2.875000)scale(0.120000)"/>
<use xlink:href="#c_769037bd4b0bc998a20a80d73738b079" transform="translate(18.093750,-2.875000)scale(0.120000)"/>
<use xlink:href="#c_7efa9804c2b4c09a4b614b91fdebee3d" transform="translate(29.616211,-2.875000)scale(0.120000)"/>
<use xlink:href="#c_dcb78ab3124be785176d70a27dde1356" transform="translate(34.297852,-2.875000)scale(0.120000)"/>
<use xlink:href="#c_d650c37394b681142a10dfc54356d478" transform="translate(41.247070,-2.875000)scale(0.120000)"/>
<use xlink:href="#c_01d93a582460e35a7945ca50d148ffeb" transform="translate(47.844727,-2.875000)scale(0.120000)"/>
<use xlink:href="#c_5099edb83619131346ae654950954dea" transform="translate(55.198242,-2.875000)scale(0.120000)"/>
<use xlink:href="#c_9c6d5cbc59c6231647eb409cc6b37bb3" transform="translate(58.532227,-2.875000)scale(0.120000)"/>
<use xlink:href="#c_4653c6dfde66c7610eae0911760d3490" transform="translate(62.575195,-2.875000)scale(0.120000)"/>
<use xlink:href="#c_f05dd90d41f04bb96ef1ca503cc2044b" transform="translate(74.264648,-2.875000)scale(0.120000)"/>
<use xlink:href="#c_5099edb83619131346ae654950954dea" transform="translate(81.606445,-2.875000)scale(0.120000)"/>
<use xlink:href="#c_e96974be642f6eac0427d72f9cec6c19" transform="translate(84.940430,-2.875000)scale(0.120000)"/>
</g>
</g>
</g>
</g>
<g id="patch3">
<path style="fill: none; stroke: #000000; stroke-width: 1.000000; stroke-linejoin: round; stroke-linecap: square;  opacity: 1.000000"  d="M72.000000 43.200000L518.400000 43.200000"/>
</g>
<g id="patch4">
<path style="fill: none; stroke: #000000; stroke-width: 1.000000; stroke-linejoin: round; stroke-linecap: square;  opacity: 1.000000"  d="M518.400000 388.800000L518.400000 43.200000"/>
</g>
<g id="patch5">
<path style="fill: none; stroke: #000000; stroke-width: 1.000000; stroke-linejoin: round; stroke-linecap: square;  opacity: 1.000000"  d="M72.000000 388.800000L518.400000 388.800000"/>
</g>
<g id="patch6">
<path style="fill: none; stroke: #000000; stroke-width: 1.000000; stroke-linejoin: round; stroke-linecap: square;  opacity: 1.000000"  d="M72.000000 388.800000L72.000000 43.200000"/>
</g>
<g id="text14">
<defs>
<path id="c_3b86f9879deccc43ffac57ae939fe3b7" d="M59.515625 -10.406250l0.000000 -19.578125l-16.109375 0.000000l0.000000 -8.109375l25.875000 0.000000l0.000000 31.312500q-5.703125 4.046875 -12.593750 6.125000q-6.875000 2.078125 -14.687500 2.078125q-17.093750 0.000000 -26.750000 -9.984375q-9.640625 -10.000000 -9.640625 -27.812500q0.000000 -17.875000 9.640625 -27.859375q9.656250 -9.984375 26.750000 -9.984375q7.125000 0.000000 13.546875 1.765625q6.421875 1.750000 11.843750 5.171875l0.000000 10.500000q-5.468750 -4.640625 -11.625000 -6.984375q-6.156250 -2.343750 -12.937500 -2.343750q-13.390625 0.000000 -20.109375 7.468750q-6.703125 7.468750 -6.703125 22.265625q0.000000 14.750000 6.703125 22.218750q6.718750 7.468750 20.109375 7.468750q5.218750 0.000000 9.312500 -0.906250q4.109375 -0.906250 7.375000 -2.812500"/>
<path id="c_9e4b30cbdf32072672ded72e9074c4c9" d="M-0.296875 -72.906250l61.671875 0.000000l0.000000 8.312500l-25.875000 0.000000l0.000000 64.593750l-9.906250 0.000000l0.000000 -64.593750l-25.890625 0.000000z"/>
<path id="c_5d9b0d099c491f27a9f40b391fa98eef" d="M9.812500 -72.906250l41.890625 0.000000l0.000000 8.312500l-32.031250 0.000000l0.000000 21.484375l28.906250 0.000000l0.000000 8.296875l-28.906250 0.000000l0.000000 34.812500l-9.859375 0.000000z"/>
<path id="c_dbe439baa035de1a298d0549b22269d8" d="M9.812500 -72.906250l46.093750 0.000000l0.000000 8.312500l-36.234375 0.000000l0.000000 21.578125l34.718750 0.000000l0.000000 8.296875l-34.718750 0.000000l0.000000 26.421875l37.109375 0.000000l0.000000 8.296875l-46.968750 0.000000z"/>
<path id="c_518d586bee075aa0153eaebfcb5ab11f" d="M19.671875 -64.796875l0.000000 27.390625l12.406250 0.000000q6.890625 0.000000 10.640625 -3.562500q3.765625 -3.562500 3.765625 -10.156250q0.000000 -6.546875 -3.765625 -10.109375q-3.750000 -3.562500 -10.640625 -3.562500zM9.812500 -72.906250l22.265625 0.000000q12.265625 0.000000 18.531250 5.546875q6.281250 5.546875 6.281250 16.234375q0.000000 10.796875 -6.281250 16.312500q-6.265625 5.515625 -18.531250 5.515625l-12.406250 0.000000l0.000000 29.296875l-9.859375 0.000000z"/>
<path id="c_d41d8cd98f00b204e9800998ecf8427e" d=""/>
<path id="c_07e3f33241aff50afcba519606f2a979" d="M9.812500 -72.906250l9.859375 0.000000l0.000000 64.609375l35.500000 0.000000l0.000000 8.296875l-45.359375 0.000000z"/>
<path id="c_3b515ad41f960e225ec85275856806ca" d="M8.500000 -21.578125l0.000000 -33.109375l8.984375 0.000000l0.000000 32.765625q0.000000 7.765625 3.015625 11.656250q3.031250 3.875000 9.093750 3.875000q7.265625 0.000000 11.484375 -4.640625q4.234375 -4.640625 4.234375 -12.656250l0.000000 -31.000000l8.984375 0.000000l0.000000 54.687500l-8.984375 0.000000l0.000000 -8.406250q-3.265625 4.984375 -7.593750 7.406250q-4.312500 2.421875 -10.031250 2.421875q-9.421875 0.000000 -14.312500 -5.859375q-4.875000 -5.859375 -4.875000 -17.140625M31.109375 -56.000000z"/>
</defs>
<g style="fill: #74add1; opacity: 1.000000" transform="translate(81.920000,345.777054)scale(0.160000)">
<use xlink:href="#c_3b86f9879deccc43ffac57ae939fe3b7"/>
<use xlink:href="#c_0bce5afba2dc6b9024b26277c38ad8e8" x="77.490234"/>
<use xlink:href="#c_9e4b30cbdf32072672ded72e9074c4c9" x="139.013672"/>
<use xlink:href="#c_5d9b0d099c491f27a9f40b391fa98eef" x="200.097656"/>
<use xlink:href="#c_dbe439baa035de1a298d0549b22269d8" x="257.617188"/>
<use xlink:href="#c_518d586bee075aa0153eaebfcb5ab11f" x="320.800781"/>
<use xlink:href="#c_d41d8cd98f00b204e9800998ecf8427e" x="381.103516"/>
<use xlink:href="#c_07e3f33241aff50afcba519606f2a979" x="412.890625"/>
<use xlink:href="#c_0bce5afba2dc6b9024b26277c38ad8e8" x="466.853516"/>
<use xlink:href="#c_3b515ad41f960e225ec85275856806ca" x="528.376953"/>
</g>
</g>
<g id="text15">
<defs>
<path id="c_72234ddc5dcad8d05c893ef0371171da" d="M9.812500 -72.906250l14.703125 0.000000l18.593750 49.609375l18.703125 -49.609375l14.703125 0.000000l0.000000 72.906250l-9.625000 0.000000l0.000000 -64.015625l-18.796875 50.000000l-9.906250 0.000000l-18.796875 -50.000000l0.000000 64.015625l-9.578125 0.000000z"/>
<path id="c_7b26b13f539f13a4c64eef23b6952d29" d="M4.890625 -31.390625l26.312500 0.000000l0.000000 8.000000l-26.312500 0.000000z"/>
<path id="c_8e0810ad13fe20a2a87a2619799b154d" d="M44.281250 -53.078125l0.000000 8.500000q-3.796875 -1.953125 -7.906250 -2.921875q-4.093750 -0.984375 -8.500000 -0.984375q-6.687500 0.000000 -10.031250 2.046875q-3.343750 2.046875 -3.343750 6.156250q0.000000 3.125000 2.390625 4.906250q2.390625 1.781250 9.625000 3.390625l3.078125 0.687500q9.562500 2.046875 13.593750 5.781250q4.031250 3.734375 4.031250 10.421875q0.000000 7.625000 -6.031250 12.078125q-6.031250 4.437500 -16.578125 4.437500q-4.390625 0.000000 -9.156250 -0.859375q-4.765625 -0.859375 -10.031250 -2.562500l0.000000 -9.281250q4.984375 2.593750 9.812500 3.890625q4.828125 1.281250 9.578125 1.281250q6.343750 0.000000 9.750000 -2.171875q3.421875 -2.171875 3.421875 -6.125000q0.000000 -3.656250 -2.468750 -5.609375q-2.453125 -1.953125 -10.812500 -3.765625l-3.125000 -0.734375q-8.343750 -1.750000 -12.062500 -5.390625q-3.703125 -3.640625 -3.703125 -9.984375q0.000000 -7.718750 5.468750 -11.906250q5.468750 -4.203125 15.531250 -4.203125q4.968750 0.000000 9.359375 0.734375q4.406250 0.718750 8.109375 2.187500"/>
</defs>
<g style="fill: #f46d43; opacity: 1.000000" transform="translate(81.920000,378.691339)scale(0.160000)">
<use xlink:href="#c_72234ddc5dcad8d05c893ef0371171da"/>
<use xlink:href="#c_5d9b0d099c491f27a9f40b391fa98eef" x="86.279297"/>
<use xlink:href="#c_7b26b13f539f13a4c64eef23b6952d29" x="143.798828"/>
<use xlink:href="#c_8e0810ad13fe20a2a87a2619799b154d" x="179.882812"/>
<use xlink:href="#c_d650c37394b681142a10dfc54356d478" x="231.982422"/>
<use xlink:href="#c_01d93a582460e35a7945ca50d148ffeb" x="286.962891"/>
<use xlink:href="#c_5099edb83619131346ae654950954dea" x="348.242188"/>
<use xlink:href="#c_0bce5afba2dc6b9024b26277c38ad8e8" x="376.025391"/>
<use xlink:href="#c_d41d8cd98f00b204e9800998ecf8427e" x="437.548828"/>
<use xlink:href="#c_07e3f33241aff50afcba519606f2a979" x="469.335938"/>
<use xlink:href="#c_0bce5afba2dc6b9024b26277c38ad8e8" x="523.298828"/>
<use xlink:href="#c_3b515ad41f960e225ec85275856806ca" x="584.822266"/>
</g>
</g>
<g id="text16">
<defs>
<path id="c_6023715d605f81e6eb43b7f9d77e7c51" d="M34.187500 -63.187500l-13.390625 36.281250l26.812500 0.000000zM28.609375 -72.906250l11.187500 0.000000l27.781250 72.906250l-10.250000 0.000000l-6.640625 -18.703125l-32.859375 0.000000l-6.640625 18.703125l-10.406250 0.000000z"/>
<path id="c_6ec8d5749226675394676a5d2a3b468b" d="M41.109375 -46.296875q-1.515625 -0.875000 -3.296875 -1.281250q-1.781250 -0.421875 -3.921875 -0.421875q-7.625000 0.000000 -11.703125 4.953125q-4.078125 4.953125 -4.078125 14.234375l0.000000 28.812500l-9.031250 0.000000l0.000000 -54.687500l9.031250 0.000000l0.000000 8.500000q2.843750 -4.984375 7.375000 -7.390625q4.546875 -2.421875 11.046875 -2.421875q0.921875 0.000000 2.046875 0.125000q1.125000 0.109375 2.484375 0.359375z"/>
<path id="c_e3864de5dabf2f8dd9eee74726882ec1" d="M45.406250 -27.984375q0.000000 -9.765625 -4.031250 -15.125000q-4.015625 -5.375000 -11.296875 -5.375000q-7.218750 0.000000 -11.250000 5.375000q-4.031250 5.359375 -4.031250 15.125000q0.000000 9.718750 4.031250 15.093750q4.031250 5.375000 11.250000 5.375000q7.281250 0.000000 11.296875 -5.375000q4.031250 -5.375000 4.031250 -15.093750M54.390625 -6.781250q0.000000 13.953125 -6.203125 20.765625q-6.187500 6.812500 -18.984375 6.812500q-4.734375 0.000000 -8.937500 -0.703125q-4.203125 -0.703125 -8.156250 -2.171875l0.000000 -8.734375q3.953125 2.140625 7.812500 3.156250q3.859375 1.031250 7.859375 1.031250q8.843750 0.000000 13.234375 -4.609375q4.390625 -4.609375 4.390625 -13.937500l0.000000 -4.453125q-2.781250 4.843750 -7.125000 7.234375q-4.343750 2.390625 -10.406250 2.390625q-10.046875 0.000000 -16.203125 -7.656250q-6.156250 -7.671875 -6.156250 -20.328125q0.000000 -12.687500 6.156250 -20.343750q6.156250 -7.671875 16.203125 -7.671875q6.062500 0.000000 10.406250 2.390625q4.343750 2.390625 7.125000 7.218750l0.000000 -8.296875l8.984375 0.000000z"/>
</defs>
<g style="fill: #5aae61; opacity: 1.000000" transform="translate(81.920000,72.786161)scale(0.160000)">
<use xlink:href="#c_3b86f9879deccc43ffac57ae939fe3b7"/>
<use xlink:href="#c_0bce5afba2dc6b9024b26277c38ad8e8" x="77.490234"/>
<use xlink:href="#c_9e4b30cbdf32072672ded72e9074c4c9" x="139.013672"/>
<use xlink:href="#c_5d9b0d099c491f27a9f40b391fa98eef" x="200.097656"/>
<use xlink:href="#c_dbe439baa035de1a298d0549b22269d8" x="257.617188"/>
<use xlink:href="#c_518d586bee075aa0153eaebfcb5ab11f" x="320.800781"/>
<use xlink:href="#c_d41d8cd98f00b204e9800998ecf8427e" x="381.103516"/>
<use xlink:href="#c_6023715d605f81e6eb43b7f9d77e7c51" x="412.890625"/>
<use xlink:href="#c_6ec8d5749226675394676a5d2a3b468b" x="481.298828"/>
<use xlink:href="#c_e3864de5dabf2f8dd9eee74726882ec1" x="520.662109"/>
</g>
</g>
<g id="text17">
<g style="fill: #9970ab; opacity: 1.000000" transform="translate(81.920000,105.700446)scale(0.160000)">
<use xlink:href="#c_72234ddc5dcad8d05c893ef0371171da"/>
<use xlink:href="#c_5d9b0d099c491f27a9f40b391fa98eef" x="86.279297"/>
<use xlink:href="#c_7b26b13f539f13a4c64eef23b6952d29" x="143.798828"/>
<use xlink:href="#c_8e0810ad13fe20a2a87a2619799b154d" x="179.882812"/>
<use xlink:href="#c_d650c37394b681142a10dfc54356d478" x="231.982422"/>
<use xlink:href="#c_01d93a582460e35a7945ca50d148ffeb" x="286.962891"/>
<use xlink:href="#c_5099edb83619131346ae654950954dea" x="348.242188"/>
<use xlink:href="#c_0bce5afba2dc6b9024b26277c38ad8e8" x="376.025391"/>
<use xlink:href="#c_d41d8cd98f00b204e9800998ecf8427e" x="437.548828"/>
<use xlink:href="#c_6023715d605f81e6eb43b7f9d77e7c51" x="469.335938"/>
<use xlink:href="#c_6ec8d5749226675394676a5d2a3b468b" x="537.744141"/>
<use xlink:href="#c_e3864de5dabf2f8dd9eee74726882ec1" x="577.107422"/>
</g>
</g>
</g>
</g>
</svg>
