<?xml version="1.0" encoding="utf-8" standalone="no"?>
<!DOCTYPE svg PUBLIC "-//W3C//DTD SVG 1.1//EN"
  "http://www.w3.org/Graphics/SVG/1.1/DTD/svg11.dtd">
<!-- Created with matplotlib (http://matplotlib.org/) -->
<svg height="619pt" version="1.1" viewBox="0 0 618 619" width="618pt" xmlns="http://www.w3.org/2000/svg" xmlns:xlink="http://www.w3.org/1999/xlink">
 <defs>
  <style type="text/css">
*{stroke-linecap:butt;stroke-linejoin:round;stroke-miterlimit:100000;}
  </style>
 </defs>
 <g id="figure_1">
  <g id="patch_1">
   <path d="M 0 619.563125 
L 618.890625 619.563125 
L 618.890625 0 
L 0 0 
z
" style="fill:#ffffff;"/>
  </g>
  <g id="axes_1">
   <g id="patch_2">
    <path d="M 53.690625 589.006875 
L 611.690625 589.006875 
L 611.690625 13.006875 
L 53.690625 13.006875 
z
" style="fill:#ffffff;"/>
   </g>
   <g id="patch_3">
    <path clip-path="url(#p471771d56b)" d="M 61.896507 506.069294 
L 72.837684 506.069294 
L 72.837684 373.006875 
L 61.896507 373.006875 
z
" style="fill:#2b8cbe;stroke:#000000;stroke-linejoin:miter;"/>
   </g>
   <g id="patch_4">
    <path clip-path="url(#p471771d56b)" d="M 89.249449 469.553485 
L 100.190625 469.553485 
L 100.190625 373.006875 
L 89.249449 373.006875 
z
" style="fill:#2b8cbe;stroke:#000000;stroke-linejoin:miter;"/>
   </g>
   <g id="patch_5">
    <path clip-path="url(#p471771d56b)" d="M 116.60239 469.444932 
L 127.543566 469.444932 
L 127.543566 373.006875 
L 116.60239 373.006875 
z
" style="fill:#2b8cbe;stroke:#000000;stroke-linejoin:miter;"/>
   </g>
   <g id="patch_6">
    <path clip-path="url(#p471771d56b)" d="M 143.955331 445.335237 
L 154.896507 445.335237 
L 154.896507 373.006875 
L 143.955331 373.006875 
z
" style="fill:#2b8cbe;stroke:#000000;stroke-linejoin:miter;"/>
   </g>
   <g id="patch_7">
    <path clip-path="url(#p471771d56b)" d="M 171.308272 424.567504 
L 182.249449 424.567504 
L 182.249449 373.006875 
L 171.308272 373.006875 
z
" style="fill:#2b8cbe;stroke:#000000;stroke-linejoin:miter;"/>
   </g>
   <g id="patch_8">
    <path clip-path="url(#p471771d56b)" d="M 198.661213 387.684056 
L 209.60239 387.684056 
L 209.60239 373.006875 
L 198.661213 373.006875 
z
" style="fill:#2b8cbe;stroke:#000000;stroke-linejoin:miter;"/>
   </g>
   <g id="patch_9">
    <path clip-path="url(#p471771d56b)" d="M 226.014154 387.188227 
L 236.955331 387.188227 
L 236.955331 373.006875 
L 226.014154 373.006875 
z
" style="fill:#2b8cbe;stroke:#000000;stroke-linejoin:miter;"/>
   </g>
   <g id="patch_10">
    <path clip-path="url(#p471771d56b)" d="M 253.367096 373.006875 
L 264.308272 373.006875 
L 264.308272 373.006875 
L 253.367096 373.006875 
z
" style="fill:#2b8cbe;stroke:#000000;stroke-linejoin:miter;"/>
   </g>
   <g id="patch_11">
    <path clip-path="url(#p471771d56b)" d="M 280.720037 373.006875 
L 291.661213 373.006875 
L 291.661213 339.89217 
L 280.720037 339.89217 
z
" style="fill:#2b8cbe;stroke:#000000;stroke-linejoin:miter;"/>
   </g>
   <g id="patch_12">
    <path clip-path="url(#p471771d56b)" d="M 308.072978 373.006875 
L 319.014154 373.006875 
L 319.014154 312.224951 
L 308.072978 312.224951 
z
" style="fill:#2b8cbe;stroke:#000000;stroke-linejoin:miter;"/>
   </g>
   <g id="patch_13">
    <path clip-path="url(#p471771d56b)" d="M 335.425919 373.006875 
L 346.367096 373.006875 
L 346.367096 302.311561 
L 335.425919 302.311561 
z
" style="fill:#2b8cbe;stroke:#000000;stroke-linejoin:miter;"/>
   </g>
   <g id="patch_14">
    <path clip-path="url(#p471771d56b)" d="M 362.77886 373.006875 
L 373.720037 373.006875 
L 373.720037 278.900742 
L 362.77886 278.900742 
z
" style="fill:#2b8cbe;stroke:#000000;stroke-linejoin:miter;"/>
   </g>
   <g id="patch_15">
    <path clip-path="url(#p471771d56b)" d="M 390.131801 373.006875 
L 401.072978 373.006875 
L 401.072978 259.673599 
L 390.131801 259.673599 
z
" style="fill:#2b8cbe;stroke:#000000;stroke-linejoin:miter;"/>
   </g>
   <g id="patch_16">
    <path clip-path="url(#p471771d56b)" d="M 417.484743 373.006875 
L 428.425919 373.006875 
L 428.425919 241.613942 
L 417.484743 241.613942 
z
" style="fill:#2b8cbe;stroke:#000000;stroke-linejoin:miter;"/>
   </g>
   <g id="patch_17">
    <path clip-path="url(#p471771d56b)" d="M 444.837684 373.006875 
L 455.77886 373.006875 
L 455.77886 229.217313 
L 444.837684 229.217313 
z
" style="fill:#2b8cbe;stroke:#000000;stroke-linejoin:miter;"/>
   </g>
   <g id="patch_18">
    <path clip-path="url(#p471771d56b)" d="M 472.190625 373.006875 
L 483.131801 373.006875 
L 483.131801 218.115846 
L 472.190625 218.115846 
z
" style="fill:#2b8cbe;stroke:#000000;stroke-linejoin:miter;"/>
   </g>
   <g id="patch_19">
    <path clip-path="url(#p471771d56b)" d="M 499.543566 373.006875 
L 510.484743 373.006875 
L 510.484743 197.816208 
L 499.543566 197.816208 
z
" style="fill:#2b8cbe;stroke:#000000;stroke-linejoin:miter;"/>
   </g>
   <g id="patch_20">
    <path clip-path="url(#p471771d56b)" d="M 526.896507 373.006875 
L 537.837684 373.006875 
L 537.837684 190.518361 
L 526.896507 190.518361 
z
" style="fill:#2b8cbe;stroke:#000000;stroke-linejoin:miter;"/>
   </g>
   <g id="patch_21">
    <path clip-path="url(#p471771d56b)" d="M 554.249449 373.006875 
L 565.190625 373.006875 
L 565.190625 155.081846 
L 554.249449 155.081846 
z
" style="fill:#2b8cbe;stroke:#000000;stroke-linejoin:miter;"/>
   </g>
   <g id="patch_22">
    <path clip-path="url(#p471771d56b)" d="M 581.60239 373.006875 
L 592.543566 373.006875 
L 592.543566 150.589237 
L 581.60239 150.589237 
z
" style="fill:#2b8cbe;stroke:#000000;stroke-linejoin:miter;"/>
   </g>
   <g id="patch_23">
    <path clip-path="url(#p471771d56b)" d="M 72.837684 412.606875 
L 83.77886 412.606875 
L 83.77886 373.006875 
L 72.837684 373.006875 
z
" style="fill:#e34a33;stroke:#000000;stroke-linejoin:miter;"/>
   </g>
   <g id="patch_24">
    <path clip-path="url(#p471771d56b)" d="M 100.190625 396.046875 
L 111.131801 396.046875 
L 111.131801 373.006875 
L 100.190625 373.006875 
z
" style="fill:#e34a33;stroke:#000000;stroke-linejoin:miter;"/>
   </g>
   <g id="patch_25">
    <path clip-path="url(#p471771d56b)" d="M 127.543566 416.206875 
L 138.484743 416.206875 
L 138.484743 373.006875 
L 127.543566 373.006875 
z
" style="fill:#e34a33;stroke:#000000;stroke-linejoin:miter;"/>
   </g>
   <g id="patch_26">
    <path clip-path="url(#p471771d56b)" d="M 154.896507 395.326875 
L 165.837684 395.326875 
L 165.837684 373.006875 
L 154.896507 373.006875 
z
" style="fill:#e34a33;stroke:#000000;stroke-linejoin:miter;"/>
   </g>
   <g id="patch_27">
    <path clip-path="url(#p471771d56b)" d="M 182.249449 380.206875 
L 193.190625 380.206875 
L 193.190625 373.006875 
L 182.249449 373.006875 
z
" style="fill:#e34a33;stroke:#000000;stroke-linejoin:miter;"/>
   </g>
   <g id="patch_28">
    <path clip-path="url(#p471771d56b)" d="M 209.60239 373.006875 
L 220.543566 373.006875 
L 220.543566 324.046875 
L 209.60239 324.046875 
z
" style="fill:#e34a33;stroke:#000000;stroke-linejoin:miter;"/>
   </g>
   <g id="patch_29">
    <path clip-path="url(#p471771d56b)" d="M 236.955331 373.006875 
L 247.896507 373.006875 
L 247.896507 351.406875 
L 236.955331 351.406875 
z
" style="fill:#e34a33;stroke:#000000;stroke-linejoin:miter;"/>
   </g>
   <g id="patch_30">
    <path clip-path="url(#p471771d56b)" d="M 264.308272 373.006875 
L 275.249449 373.006875 
L 275.249449 365.086875 
L 264.308272 365.086875 
z
" style="fill:#e34a33;stroke:#000000;stroke-linejoin:miter;"/>
   </g>
   <g id="patch_31">
    <path clip-path="url(#p471771d56b)" d="M 291.661213 382.366875 
L 302.60239 382.366875 
L 302.60239 373.006875 
L 291.661213 373.006875 
z
" style="fill:#e34a33;stroke:#000000;stroke-linejoin:miter;"/>
   </g>
   <g id="patch_32">
    <path clip-path="url(#p471771d56b)" d="M 319.014154 373.006875 
L 329.955331 373.006875 
L 329.955331 319.726875 
L 319.014154 319.726875 
z
" style="fill:#e34a33;stroke:#000000;stroke-linejoin:miter;"/>
   </g>
   <g id="patch_33">
    <path clip-path="url(#p471771d56b)" d="M 346.367096 373.006875 
L 357.308272 373.006875 
L 357.308272 335.566875 
L 346.367096 335.566875 
z
" style="fill:#e34a33;stroke:#000000;stroke-linejoin:miter;"/>
   </g>
   <g id="patch_34">
    <path clip-path="url(#p471771d56b)" d="M 373.720037 373.006875 
L 384.661213 373.006875 
L 384.661213 212.446875 
L 373.720037 212.446875 
z
" style="fill:#e34a33;stroke:#000000;stroke-linejoin:miter;"/>
   </g>
   <g id="patch_35">
    <path clip-path="url(#p471771d56b)" d="M 401.072978 373.006875 
L 412.014154 373.006875 
L 412.014154 224.686875 
L 401.072978 224.686875 
z
" style="fill:#e34a33;stroke:#000000;stroke-linejoin:miter;"/>
   </g>
   <g id="patch_36">
    <path clip-path="url(#p471771d56b)" d="M 428.425919 373.006875 
L 439.367096 373.006875 
L 439.367096 312.526875 
L 428.425919 312.526875 
z
" style="fill:#e34a33;stroke:#000000;stroke-linejoin:miter;"/>
   </g>
   <g id="patch_37">
    <path clip-path="url(#p471771d56b)" d="M 455.77886 373.006875 
L 466.720037 373.006875 
L 466.720037 203.086875 
L 455.77886 203.086875 
z
" style="fill:#e34a33;stroke:#000000;stroke-linejoin:miter;"/>
   </g>
   <g id="patch_38">
    <path clip-path="url(#p471771d56b)" d="M 483.131801 373.006875 
L 494.072978 373.006875 
L 494.072978 180.046875 
L 483.131801 180.046875 
z
" style="fill:#e34a33;stroke:#000000;stroke-linejoin:miter;"/>
   </g>
   <g id="patch_39">
    <path clip-path="url(#p471771d56b)" d="M 510.484743 373.006875 
L 521.425919 373.006875 
L 521.425919 187.246875 
L 510.484743 187.246875 
z
" style="fill:#e34a33;stroke:#000000;stroke-linejoin:miter;"/>
   </g>
   <g id="patch_40">
    <path clip-path="url(#p471771d56b)" d="M 537.837684 373.006875 
L 548.77886 373.006875 
L 548.77886 225.406875 
L 537.837684 225.406875 
z
" style="fill:#e34a33;stroke:#000000;stroke-linejoin:miter;"/>
   </g>
   <g id="patch_41">
    <path clip-path="url(#p471771d56b)" d="M 565.190625 373.006875 
L 576.131801 373.006875 
L 576.131801 121.726875 
L 565.190625 121.726875 
z
" style="fill:#e34a33;stroke:#000000;stroke-linejoin:miter;"/>
   </g>
   <g id="patch_42">
    <path clip-path="url(#p471771d56b)" d="M 592.543566 373.006875 
L 603.484743 373.006875 
L 603.484743 177.886875 
L 592.543566 177.886875 
z
" style="fill:#e34a33;stroke:#000000;stroke-linejoin:miter;"/>
   </g>
   <g id="LineCollection_1">
    <path clip-path="url(#p471771d56b)" d="M 67.367096 558.269619 
L 67.367096 506.069294 
" style="fill:none;stroke:#2b8cbe;"/>
    <path clip-path="url(#p471771d56b)" d="M 94.720037 521.346934 
L 94.720037 469.553485 
" style="fill:none;stroke:#2b8cbe;"/>
    <path clip-path="url(#p471771d56b)" d="M 122.072978 524.815524 
L 122.072978 469.444932 
" style="fill:none;stroke:#2b8cbe;"/>
    <path clip-path="url(#p471771d56b)" d="M 149.425919 492.936454 
L 149.425919 445.335237 
" style="fill:none;stroke:#2b8cbe;"/>
    <path clip-path="url(#p471771d56b)" d="M 176.77886 473.538239 
L 176.77886 424.567504 
" style="fill:none;stroke:#2b8cbe;"/>
    <path clip-path="url(#p471771d56b)" d="M 204.131801 426.328494 
L 204.131801 387.684056 
" style="fill:none;stroke:#2b8cbe;"/>
    <path clip-path="url(#p471771d56b)" d="M 231.484743 433.972925 
L 231.484743 387.188227 
" style="fill:none;stroke:#2b8cbe;"/>
    <path clip-path="url(#p471771d56b)" d="M 258.837684 373.006875 
L 258.837684 373.006875 
" style="fill:none;stroke:#2b8cbe;"/>
    <path clip-path="url(#p471771d56b)" d="M 286.190625 339.89217 
L 286.190625 314.80522 
" style="fill:none;stroke:#2b8cbe;"/>
    <path clip-path="url(#p471771d56b)" d="M 313.543566 312.224951 
L 313.543566 270.785807 
" style="fill:none;stroke:#2b8cbe;"/>
    <path clip-path="url(#p471771d56b)" d="M 340.896507 302.311561 
L 340.896507 256.753154 
" style="fill:none;stroke:#2b8cbe;"/>
    <path clip-path="url(#p471771d56b)" d="M 368.249449 278.900742 
L 368.249449 211.702388 
" style="fill:none;stroke:#2b8cbe;"/>
    <path clip-path="url(#p471771d56b)" d="M 395.60239 259.673599 
L 395.60239 177.433629 
" style="fill:none;stroke:#2b8cbe;"/>
    <path clip-path="url(#p471771d56b)" d="M 422.955331 241.613942 
L 422.955331 169.690353 
" style="fill:none;stroke:#2b8cbe;"/>
    <path clip-path="url(#p471771d56b)" d="M 450.308272 229.217313 
L 450.308272 130.918691 
" style="fill:none;stroke:#2b8cbe;"/>
    <path clip-path="url(#p471771d56b)" d="M 477.661213 218.115846 
L 477.661213 137.247307 
" style="fill:none;stroke:#2b8cbe;"/>
    <path clip-path="url(#p471771d56b)" d="M 505.014154 197.816208 
L 505.014154 100.993546 
" style="fill:none;stroke:#2b8cbe;"/>
    <path clip-path="url(#p471771d56b)" d="M 532.367096 190.518361 
L 532.367096 98.603842 
" style="fill:none;stroke:#2b8cbe;"/>
    <path clip-path="url(#p471771d56b)" d="M 559.720037 155.081846 
L 559.720037 56.265791 
" style="fill:none;stroke:#2b8cbe;"/>
    <path clip-path="url(#p471771d56b)" d="M 587.072978 150.589237 
L 587.072978 31.045177 
" style="fill:none;stroke:#2b8cbe;"/>
   </g>
   <g id="LineCollection_2">
    <path clip-path="url(#p471771d56b)" d="M 78.308272 412.606875 
L 78.308272 412.606875 
" style="fill:none;stroke:#e34a33;"/>
    <path clip-path="url(#p471771d56b)" d="M 105.661213 396.046875 
L 105.661213 396.046875 
" style="fill:none;stroke:#e34a33;"/>
    <path clip-path="url(#p471771d56b)" d="M 133.014154 416.206875 
L 133.014154 416.206875 
" style="fill:none;stroke:#e34a33;"/>
    <path clip-path="url(#p471771d56b)" d="M 160.367096 395.326875 
L 160.367096 395.326875 
" style="fill:none;stroke:#e34a33;"/>
    <path clip-path="url(#p471771d56b)" d="M 187.720037 380.206875 
L 187.720037 380.206875 
" style="fill:none;stroke:#e34a33;"/>
    <path clip-path="url(#p471771d56b)" d="M 215.072978 324.046875 
L 215.072978 324.046875 
" style="fill:none;stroke:#e34a33;"/>
    <path clip-path="url(#p471771d56b)" d="M 242.425919 351.406875 
L 242.425919 351.406875 
" style="fill:none;stroke:#e34a33;"/>
    <path clip-path="url(#p471771d56b)" d="M 269.77886 365.086875 
L 269.77886 365.086875 
" style="fill:none;stroke:#e34a33;"/>
    <path clip-path="url(#p471771d56b)" d="M 297.131801 382.366875 
L 297.131801 382.366875 
" style="fill:none;stroke:#e34a33;"/>
    <path clip-path="url(#p471771d56b)" d="M 324.484743 319.726875 
L 324.484743 319.726875 
" style="fill:none;stroke:#e34a33;"/>
    <path clip-path="url(#p471771d56b)" d="M 351.837684 335.566875 
L 351.837684 335.566875 
" style="fill:none;stroke:#e34a33;"/>
    <path clip-path="url(#p471771d56b)" d="M 379.190625 212.446875 
L 379.190625 212.446875 
" style="fill:none;stroke:#e34a33;"/>
    <path clip-path="url(#p471771d56b)" d="M 406.543566 224.686875 
L 406.543566 224.686875 
" style="fill:none;stroke:#e34a33;"/>
    <path clip-path="url(#p471771d56b)" d="M 433.896507 312.526875 
L 433.896507 312.526875 
" style="fill:none;stroke:#e34a33;"/>
    <path clip-path="url(#p471771d56b)" d="M 461.249449 203.086875 
L 461.249449 203.086875 
" style="fill:none;stroke:#e34a33;"/>
    <path clip-path="url(#p471771d56b)" d="M 488.60239 180.046875 
L 488.60239 180.046875 
" style="fill:none;stroke:#e34a33;"/>
    <path clip-path="url(#p471771d56b)" d="M 515.955331 187.246875 
L 515.955331 187.246875 
" style="fill:none;stroke:#e34a33;"/>
    <path clip-path="url(#p471771d56b)" d="M 543.308272 225.406875 
L 543.308272 225.406875 
" style="fill:none;stroke:#e34a33;"/>
    <path clip-path="url(#p471771d56b)" d="M 570.661213 121.726875 
L 570.661213 121.726875 
" style="fill:none;stroke:#e34a33;"/>
    <path clip-path="url(#p471771d56b)" d="M 598.014154 177.886875 
L 598.014154 177.886875 
" style="fill:none;stroke:#e34a33;"/>
   </g>
   <g id="line2d_1">
    <defs>
     <path d="M 3 0 
L -3 -0 
" id="m72010f0f59" style="stroke:#2b8cbe;stroke-width:0.5;"/>
    </defs>
    <g clip-path="url(#p471771d56b)">
     <use style="fill:#2b8cbe;stroke:#2b8cbe;stroke-width:0.5;" x="67.3670955882" xlink:href="#m72010f0f59" y="558.269619404"/>
     <use style="fill:#2b8cbe;stroke:#2b8cbe;stroke-width:0.5;" x="94.7200367647" xlink:href="#m72010f0f59" y="521.346933882"/>
     <use style="fill:#2b8cbe;stroke:#2b8cbe;stroke-width:0.5;" x="122.072977941" xlink:href="#m72010f0f59" y="524.815524082"/>
     <use style="fill:#2b8cbe;stroke:#2b8cbe;stroke-width:0.5;" x="149.425919118" xlink:href="#m72010f0f59" y="492.936453994"/>
     <use style="fill:#2b8cbe;stroke:#2b8cbe;stroke-width:0.5;" x="176.778860294" xlink:href="#m72010f0f59" y="473.538239145"/>
     <use style="fill:#2b8cbe;stroke:#2b8cbe;stroke-width:0.5;" x="204.131801471" xlink:href="#m72010f0f59" y="426.328493977"/>
     <use style="fill:#2b8cbe;stroke:#2b8cbe;stroke-width:0.5;" x="231.484742647" xlink:href="#m72010f0f59" y="433.972925369"/>
     <use style="fill:#2b8cbe;stroke:#2b8cbe;stroke-width:0.5;" x="258.837683824" xlink:href="#m72010f0f59" y="373.006875"/>
     <use style="fill:#2b8cbe;stroke:#2b8cbe;stroke-width:0.5;" x="286.190625" xlink:href="#m72010f0f59" y="339.892170238"/>
     <use style="fill:#2b8cbe;stroke:#2b8cbe;stroke-width:0.5;" x="313.543566176" xlink:href="#m72010f0f59" y="312.224951191"/>
     <use style="fill:#2b8cbe;stroke:#2b8cbe;stroke-width:0.5;" x="340.896507353" xlink:href="#m72010f0f59" y="302.311560714"/>
     <use style="fill:#2b8cbe;stroke:#2b8cbe;stroke-width:0.5;" x="368.249448529" xlink:href="#m72010f0f59" y="278.900741667"/>
     <use style="fill:#2b8cbe;stroke:#2b8cbe;stroke-width:0.5;" x="395.602389706" xlink:href="#m72010f0f59" y="259.67359881"/>
     <use style="fill:#2b8cbe;stroke:#2b8cbe;stroke-width:0.5;" x="422.955330882" xlink:href="#m72010f0f59" y="241.613941667"/>
     <use style="fill:#2b8cbe;stroke:#2b8cbe;stroke-width:0.5;" x="450.308272059" xlink:href="#m72010f0f59" y="229.217313095"/>
     <use style="fill:#2b8cbe;stroke:#2b8cbe;stroke-width:0.5;" x="477.661213235" xlink:href="#m72010f0f59" y="218.115846429"/>
     <use style="fill:#2b8cbe;stroke:#2b8cbe;stroke-width:0.5;" x="505.014154412" xlink:href="#m72010f0f59" y="197.816208334"/>
     <use style="fill:#2b8cbe;stroke:#2b8cbe;stroke-width:0.5;" x="532.367095588" xlink:href="#m72010f0f59" y="190.518360714"/>
     <use style="fill:#2b8cbe;stroke:#2b8cbe;stroke-width:0.5;" x="559.720036765" xlink:href="#m72010f0f59" y="155.081846428"/>
     <use style="fill:#2b8cbe;stroke:#2b8cbe;stroke-width:0.5;" x="587.072977941" xlink:href="#m72010f0f59" y="150.589236905"/>
    </g>
   </g>
   <g id="line2d_2">
    <g clip-path="url(#p471771d56b)">
     <use style="fill:#2b8cbe;stroke:#2b8cbe;stroke-width:0.5;" x="67.3670955882" xlink:href="#m72010f0f59" y="506.069294048"/>
     <use style="fill:#2b8cbe;stroke:#2b8cbe;stroke-width:0.5;" x="94.7200367647" xlink:href="#m72010f0f59" y="469.553484524"/>
     <use style="fill:#2b8cbe;stroke:#2b8cbe;stroke-width:0.5;" x="122.072977941" xlink:href="#m72010f0f59" y="469.444932143"/>
     <use style="fill:#2b8cbe;stroke:#2b8cbe;stroke-width:0.5;" x="149.425919118" xlink:href="#m72010f0f59" y="445.335236905"/>
     <use style="fill:#2b8cbe;stroke:#2b8cbe;stroke-width:0.5;" x="176.778860294" xlink:href="#m72010f0f59" y="424.567503571"/>
     <use style="fill:#2b8cbe;stroke:#2b8cbe;stroke-width:0.5;" x="204.131801471" xlink:href="#m72010f0f59" y="387.684055952"/>
     <use style="fill:#2b8cbe;stroke:#2b8cbe;stroke-width:0.5;" x="231.484742647" xlink:href="#m72010f0f59" y="387.188227381"/>
     <use style="fill:#2b8cbe;stroke:#2b8cbe;stroke-width:0.5;" x="258.837683824" xlink:href="#m72010f0f59" y="373.006875"/>
     <use style="fill:#2b8cbe;stroke:#2b8cbe;stroke-width:0.5;" x="286.190625" xlink:href="#m72010f0f59" y="314.80521976"/>
     <use style="fill:#2b8cbe;stroke:#2b8cbe;stroke-width:0.5;" x="313.543566176" xlink:href="#m72010f0f59" y="270.785806858"/>
     <use style="fill:#2b8cbe;stroke:#2b8cbe;stroke-width:0.5;" x="340.896507353" xlink:href="#m72010f0f59" y="256.753154361"/>
     <use style="fill:#2b8cbe;stroke:#2b8cbe;stroke-width:0.5;" x="368.249448529" xlink:href="#m72010f0f59" y="211.702388115"/>
     <use style="fill:#2b8cbe;stroke:#2b8cbe;stroke-width:0.5;" x="395.602389706" xlink:href="#m72010f0f59" y="177.433628624"/>
     <use style="fill:#2b8cbe;stroke:#2b8cbe;stroke-width:0.5;" x="422.955330882" xlink:href="#m72010f0f59" y="169.690352623"/>
     <use style="fill:#2b8cbe;stroke:#2b8cbe;stroke-width:0.5;" x="450.308272059" xlink:href="#m72010f0f59" y="130.918691325"/>
     <use style="fill:#2b8cbe;stroke:#2b8cbe;stroke-width:0.5;" x="477.661213235" xlink:href="#m72010f0f59" y="137.247307152"/>
     <use style="fill:#2b8cbe;stroke:#2b8cbe;stroke-width:0.5;" x="505.014154412" xlink:href="#m72010f0f59" y="100.993545899"/>
     <use style="fill:#2b8cbe;stroke:#2b8cbe;stroke-width:0.5;" x="532.367095588" xlink:href="#m72010f0f59" y="98.6038416178"/>
     <use style="fill:#2b8cbe;stroke:#2b8cbe;stroke-width:0.5;" x="559.720036765" xlink:href="#m72010f0f59" y="56.2657905552"/>
     <use style="fill:#2b8cbe;stroke:#2b8cbe;stroke-width:0.5;" x="587.072977941" xlink:href="#m72010f0f59" y="31.0451768422"/>
    </g>
   </g>
   <g id="line2d_3">
    <defs>
     <path d="M 3 0 
L -3 -0 
" id="m48534f40ed" style="stroke:#e34a33;stroke-width:0.5;"/>
    </defs>
    <g clip-path="url(#p471771d56b)">
     <use style="fill:#e34a33;stroke:#e34a33;stroke-width:0.5;" x="78.3082720588" xlink:href="#m48534f40ed" y="412.606875"/>
     <use style="fill:#e34a33;stroke:#e34a33;stroke-width:0.5;" x="105.661213235" xlink:href="#m48534f40ed" y="396.046875"/>
     <use style="fill:#e34a33;stroke:#e34a33;stroke-width:0.5;" x="133.014154412" xlink:href="#m48534f40ed" y="416.206875"/>
     <use style="fill:#e34a33;stroke:#e34a33;stroke-width:0.5;" x="160.367095588" xlink:href="#m48534f40ed" y="395.326875"/>
     <use style="fill:#e34a33;stroke:#e34a33;stroke-width:0.5;" x="187.720036765" xlink:href="#m48534f40ed" y="380.206875"/>
     <use style="fill:#e34a33;stroke:#e34a33;stroke-width:0.5;" x="215.072977941" xlink:href="#m48534f40ed" y="324.046875"/>
     <use style="fill:#e34a33;stroke:#e34a33;stroke-width:0.5;" x="242.425919118" xlink:href="#m48534f40ed" y="351.406875"/>
     <use style="fill:#e34a33;stroke:#e34a33;stroke-width:0.5;" x="269.778860294" xlink:href="#m48534f40ed" y="365.086875"/>
     <use style="fill:#e34a33;stroke:#e34a33;stroke-width:0.5;" x="297.131801471" xlink:href="#m48534f40ed" y="382.366875"/>
     <use style="fill:#e34a33;stroke:#e34a33;stroke-width:0.5;" x="324.484742647" xlink:href="#m48534f40ed" y="319.726875"/>
     <use style="fill:#e34a33;stroke:#e34a33;stroke-width:0.5;" x="351.837683824" xlink:href="#m48534f40ed" y="335.566875"/>
     <use style="fill:#e34a33;stroke:#e34a33;stroke-width:0.5;" x="379.190625" xlink:href="#m48534f40ed" y="212.446875"/>
     <use style="fill:#e34a33;stroke:#e34a33;stroke-width:0.5;" x="406.543566176" xlink:href="#m48534f40ed" y="224.686875"/>
     <use style="fill:#e34a33;stroke:#e34a33;stroke-width:0.5;" x="433.896507353" xlink:href="#m48534f40ed" y="312.526875"/>
     <use style="fill:#e34a33;stroke:#e34a33;stroke-width:0.5;" x="461.249448529" xlink:href="#m48534f40ed" y="203.086875"/>
     <use style="fill:#e34a33;stroke:#e34a33;stroke-width:0.5;" x="488.602389706" xlink:href="#m48534f40ed" y="180.046875"/>
     <use style="fill:#e34a33;stroke:#e34a33;stroke-width:0.5;" x="515.955330882" xlink:href="#m48534f40ed" y="187.246875"/>
     <use style="fill:#e34a33;stroke:#e34a33;stroke-width:0.5;" x="543.308272059" xlink:href="#m48534f40ed" y="225.406875"/>
     <use style="fill:#e34a33;stroke:#e34a33;stroke-width:0.5;" x="570.661213235" xlink:href="#m48534f40ed" y="121.726875"/>
     <use style="fill:#e34a33;stroke:#e34a33;stroke-width:0.5;" x="598.014154412" xlink:href="#m48534f40ed" y="177.886875"/>
    </g>
   </g>
   <g id="line2d_4">
    <g clip-path="url(#p471771d56b)">
     <use style="fill:#e34a33;stroke:#e34a33;stroke-width:0.5;" x="78.3082720588" xlink:href="#m48534f40ed" y="412.606875"/>
     <use style="fill:#e34a33;stroke:#e34a33;stroke-width:0.5;" x="105.661213235" xlink:href="#m48534f40ed" y="396.046875"/>
     <use style="fill:#e34a33;stroke:#e34a33;stroke-width:0.5;" x="133.014154412" xlink:href="#m48534f40ed" y="416.206875"/>
     <use style="fill:#e34a33;stroke:#e34a33;stroke-width:0.5;" x="160.367095588" xlink:href="#m48534f40ed" y="395.326875"/>
     <use style="fill:#e34a33;stroke:#e34a33;stroke-width:0.5;" x="187.720036765" xlink:href="#m48534f40ed" y="380.206875"/>
     <use style="fill:#e34a33;stroke:#e34a33;stroke-width:0.5;" x="215.072977941" xlink:href="#m48534f40ed" y="324.046875"/>
     <use style="fill:#e34a33;stroke:#e34a33;stroke-width:0.5;" x="242.425919118" xlink:href="#m48534f40ed" y="351.406875"/>
     <use style="fill:#e34a33;stroke:#e34a33;stroke-width:0.5;" x="269.778860294" xlink:href="#m48534f40ed" y="365.086875"/>
     <use style="fill:#e34a33;stroke:#e34a33;stroke-width:0.5;" x="297.131801471" xlink:href="#m48534f40ed" y="382.366875"/>
     <use style="fill:#e34a33;stroke:#e34a33;stroke-width:0.5;" x="324.484742647" xlink:href="#m48534f40ed" y="319.726875"/>
     <use style="fill:#e34a33;stroke:#e34a33;stroke-width:0.5;" x="351.837683824" xlink:href="#m48534f40ed" y="335.566875"/>
     <use style="fill:#e34a33;stroke:#e34a33;stroke-width:0.5;" x="379.190625" xlink:href="#m48534f40ed" y="212.446875"/>
     <use style="fill:#e34a33;stroke:#e34a33;stroke-width:0.5;" x="406.543566176" xlink:href="#m48534f40ed" y="224.686875"/>
     <use style="fill:#e34a33;stroke:#e34a33;stroke-width:0.5;" x="433.896507353" xlink:href="#m48534f40ed" y="312.526875"/>
     <use style="fill:#e34a33;stroke:#e34a33;stroke-width:0.5;" x="461.249448529" xlink:href="#m48534f40ed" y="203.086875"/>
     <use style="fill:#e34a33;stroke:#e34a33;stroke-width:0.5;" x="488.602389706" xlink:href="#m48534f40ed" y="180.046875"/>
     <use style="fill:#e34a33;stroke:#e34a33;stroke-width:0.5;" x="515.955330882" xlink:href="#m48534f40ed" y="187.246875"/>
     <use style="fill:#e34a33;stroke:#e34a33;stroke-width:0.5;" x="543.308272059" xlink:href="#m48534f40ed" y="225.406875"/>
     <use style="fill:#e34a33;stroke:#e34a33;stroke-width:0.5;" x="570.661213235" xlink:href="#m48534f40ed" y="121.726875"/>
     <use style="fill:#e34a33;stroke:#e34a33;stroke-width:0.5;" x="598.014154412" xlink:href="#m48534f40ed" y="177.886875"/>
    </g>
   </g>
   <g id="patch_43">
    <path d="M 53.690625 13.006875 
L 611.690625 13.006875 
" style="fill:none;stroke:#000000;stroke-linecap:square;stroke-linejoin:miter;"/>
   </g>
   <g id="patch_44">
    <path d="M 611.690625 589.006875 
L 611.690625 13.006875 
" style="fill:none;stroke:#000000;stroke-linecap:square;stroke-linejoin:miter;"/>
   </g>
   <g id="patch_45">
    <path d="M 53.690625 589.006875 
L 611.690625 589.006875 
" style="fill:none;stroke:#000000;stroke-linecap:square;stroke-linejoin:miter;"/>
   </g>
   <g id="patch_46">
    <path d="M 53.690625 589.006875 
L 53.690625 13.006875 
" style="fill:none;stroke:#000000;stroke-linecap:square;stroke-linejoin:miter;"/>
   </g>
   <g id="matplotlib.axis_1">
    <g id="xtick_1">
     <g id="line2d_5">
      <defs>
       <path d="M 0 0 
L 0 -4 
" id="m4fd3f921f7" style="stroke:#000000;stroke-width:0.5;"/>
      </defs>
      <g>
       <use style="stroke:#000000;stroke-width:0.5;" x="72.8376838235" xlink:href="#m4fd3f921f7" y="589.006875"/>
      </g>
     </g>
     <g id="line2d_6">
      <defs>
       <path d="M 0 0 
L 0 4 
" id="m7e5e10bfa9" style="stroke:#000000;stroke-width:0.5;"/>
      </defs>
      <g>
       <use style="stroke:#000000;stroke-width:0.5;" x="72.8376838235" xlink:href="#m7e5e10bfa9" y="13.006875"/>
      </g>
     </g>
     <g id="text_1">
      <!-- L -->
      <defs>
       <path d="M 9.8125 72.90625 
L 19.671875 72.90625 
L 19.671875 8.296875 
L 55.171875 8.296875 
L 55.171875 0 
L 9.8125 0 
z
" id="BitstreamVeraSans-Roman-4c"/>
      </defs>
      <g transform="translate(67.2658088235 608.20375)scale(0.2 -0.2)">
       <use xlink:href="#BitstreamVeraSans-Roman-4c"/>
      </g>
     </g>
    </g>
    <g id="xtick_2">
     <g id="line2d_7">
      <g>
       <use style="stroke:#000000;stroke-width:0.5;" x="100.190625" xlink:href="#m4fd3f921f7" y="589.006875"/>
      </g>
     </g>
     <g id="line2d_8">
      <g>
       <use style="stroke:#000000;stroke-width:0.5;" x="100.190625" xlink:href="#m7e5e10bfa9" y="13.006875"/>
      </g>
     </g>
     <g id="text_2">
      <!-- F -->
      <defs>
       <path d="M 9.8125 72.90625 
L 51.703125 72.90625 
L 51.703125 64.59375 
L 19.671875 64.59375 
L 19.671875 43.109375 
L 48.578125 43.109375 
L 48.578125 34.8125 
L 19.671875 34.8125 
L 19.671875 0 
L 9.8125 0 
z
" id="BitstreamVeraSans-Roman-46"/>
      </defs>
      <g transform="translate(94.4390625 608.20375)scale(0.2 -0.2)">
       <use xlink:href="#BitstreamVeraSans-Roman-46"/>
      </g>
     </g>
    </g>
    <g id="xtick_3">
     <g id="line2d_9">
      <g>
       <use style="stroke:#000000;stroke-width:0.5;" x="127.543566176" xlink:href="#m4fd3f921f7" y="589.006875"/>
      </g>
     </g>
     <g id="line2d_10">
      <g>
       <use style="stroke:#000000;stroke-width:0.5;" x="127.543566176" xlink:href="#m7e5e10bfa9" y="13.006875"/>
      </g>
     </g>
     <g id="text_3">
      <!-- I -->
      <defs>
       <path d="M 9.8125 72.90625 
L 19.671875 72.90625 
L 19.671875 0 
L 9.8125 0 
z
" id="BitstreamVeraSans-Roman-49"/>
      </defs>
      <g transform="translate(124.593566176 608.20375)scale(0.2 -0.2)">
       <use xlink:href="#BitstreamVeraSans-Roman-49"/>
      </g>
     </g>
    </g>
    <g id="xtick_4">
     <g id="line2d_11">
      <g>
       <use style="stroke:#000000;stroke-width:0.5;" x="154.896507353" xlink:href="#m4fd3f921f7" y="589.006875"/>
      </g>
     </g>
     <g id="line2d_12">
      <g>
       <use style="stroke:#000000;stroke-width:0.5;" x="154.896507353" xlink:href="#m7e5e10bfa9" y="13.006875"/>
      </g>
     </g>
     <g id="text_4">
      <!-- V -->
      <defs>
       <path d="M 28.609375 0 
L 0.78125 72.90625 
L 11.078125 72.90625 
L 34.1875 11.53125 
L 57.328125 72.90625 
L 67.578125 72.90625 
L 39.796875 0 
z
" id="BitstreamVeraSans-Roman-56"/>
      </defs>
      <g transform="translate(148.055882353 608.20375)scale(0.2 -0.2)">
       <use xlink:href="#BitstreamVeraSans-Roman-56"/>
      </g>
     </g>
    </g>
    <g id="xtick_5">
     <g id="line2d_13">
      <g>
       <use style="stroke:#000000;stroke-width:0.5;" x="182.249448529" xlink:href="#m4fd3f921f7" y="589.006875"/>
      </g>
     </g>
     <g id="line2d_14">
      <g>
       <use style="stroke:#000000;stroke-width:0.5;" x="182.249448529" xlink:href="#m7e5e10bfa9" y="13.006875"/>
      </g>
     </g>
     <g id="text_5">
      <!-- M -->
      <defs>
       <path d="M 9.8125 72.90625 
L 24.515625 72.90625 
L 43.109375 23.296875 
L 61.8125 72.90625 
L 76.515625 72.90625 
L 76.515625 0 
L 66.890625 0 
L 66.890625 64.015625 
L 48.09375 14.015625 
L 38.1875 14.015625 
L 19.390625 64.015625 
L 19.390625 0 
L 9.8125 0 
z
" id="BitstreamVeraSans-Roman-4d"/>
      </defs>
      <g transform="translate(173.621323529 608.20375)scale(0.2 -0.2)">
       <use xlink:href="#BitstreamVeraSans-Roman-4d"/>
      </g>
     </g>
    </g>
    <g id="xtick_6">
     <g id="line2d_15">
      <g>
       <use style="stroke:#000000;stroke-width:0.5;" x="209.602389706" xlink:href="#m4fd3f921f7" y="589.006875"/>
      </g>
     </g>
     <g id="line2d_16">
      <g>
       <use style="stroke:#000000;stroke-width:0.5;" x="209.602389706" xlink:href="#m7e5e10bfa9" y="13.006875"/>
      </g>
     </g>
     <g id="text_6">
      <!-- Y -->
      <defs>
       <path d="M -0.203125 72.90625 
L 10.40625 72.90625 
L 30.609375 42.921875 
L 50.6875 72.90625 
L 61.28125 72.90625 
L 35.5 34.71875 
L 35.5 0 
L 25.59375 0 
L 25.59375 34.71875 
z
" id="BitstreamVeraSans-Roman-59"/>
      </defs>
      <g transform="translate(203.494577206 608.20375)scale(0.2 -0.2)">
       <use xlink:href="#BitstreamVeraSans-Roman-59"/>
      </g>
     </g>
    </g>
    <g id="xtick_7">
     <g id="line2d_17">
      <g>
       <use style="stroke:#000000;stroke-width:0.5;" x="236.955330882" xlink:href="#m4fd3f921f7" y="589.006875"/>
      </g>
     </g>
     <g id="line2d_18">
      <g>
       <use style="stroke:#000000;stroke-width:0.5;" x="236.955330882" xlink:href="#m7e5e10bfa9" y="13.006875"/>
      </g>
     </g>
     <g id="text_7">
      <!-- W -->
      <defs>
       <path d="M 3.328125 72.90625 
L 13.28125 72.90625 
L 28.609375 11.28125 
L 43.890625 72.90625 
L 54.984375 72.90625 
L 70.3125 11.28125 
L 85.59375 72.90625 
L 95.609375 72.90625 
L 77.296875 0 
L 64.890625 0 
L 49.515625 63.28125 
L 33.984375 0 
L 21.578125 0 
z
" id="BitstreamVeraSans-Roman-57"/>
      </defs>
      <g transform="translate(227.067830882 608.20375)scale(0.2 -0.2)">
       <use xlink:href="#BitstreamVeraSans-Roman-57"/>
      </g>
     </g>
    </g>
    <g id="xtick_8">
     <g id="line2d_19">
      <g>
       <use style="stroke:#000000;stroke-width:0.5;" x="264.308272059" xlink:href="#m4fd3f921f7" y="589.006875"/>
      </g>
     </g>
     <g id="line2d_20">
      <g>
       <use style="stroke:#000000;stroke-width:0.5;" x="264.308272059" xlink:href="#m7e5e10bfa9" y="13.006875"/>
      </g>
     </g>
     <g id="text_8">
      <!-- A -->
      <defs>
       <path d="M 34.1875 63.1875 
L 20.796875 26.90625 
L 47.609375 26.90625 
z
M 28.609375 72.90625 
L 39.796875 72.90625 
L 67.578125 0 
L 57.328125 0 
L 50.6875 18.703125 
L 17.828125 18.703125 
L 11.1875 0 
L 0.78125 0 
z
" id="BitstreamVeraSans-Roman-41"/>
      </defs>
      <g transform="translate(257.467647059 608.20375)scale(0.2 -0.2)">
       <use xlink:href="#BitstreamVeraSans-Roman-41"/>
      </g>
     </g>
    </g>
    <g id="xtick_9">
     <g id="line2d_21">
      <g>
       <use style="stroke:#000000;stroke-width:0.5;" x="291.661213235" xlink:href="#m4fd3f921f7" y="589.006875"/>
      </g>
     </g>
     <g id="line2d_22">
      <g>
       <use style="stroke:#000000;stroke-width:0.5;" x="291.661213235" xlink:href="#m7e5e10bfa9" y="13.006875"/>
      </g>
     </g>
     <g id="text_9">
      <!-- C -->
      <defs>
       <path d="M 64.40625 67.28125 
L 64.40625 56.890625 
Q 59.421875 61.53125 53.78125 63.8125 
Q 48.140625 66.109375 41.796875 66.109375 
Q 29.296875 66.109375 22.65625 58.46875 
Q 16.015625 50.828125 16.015625 36.375 
Q 16.015625 21.96875 22.65625 14.328125 
Q 29.296875 6.6875 41.796875 6.6875 
Q 48.140625 6.6875 53.78125 8.984375 
Q 59.421875 11.28125 64.40625 15.921875 
L 64.40625 5.609375 
Q 59.234375 2.09375 53.4375 0.328125 
Q 47.65625 -1.421875 41.21875 -1.421875 
Q 24.65625 -1.421875 15.125 8.703125 
Q 5.609375 18.84375 5.609375 36.375 
Q 5.609375 53.953125 15.125 64.078125 
Q 24.65625 74.21875 41.21875 74.21875 
Q 47.75 74.21875 53.53125 72.484375 
Q 59.328125 70.75 64.40625 67.28125 
" id="BitstreamVeraSans-Roman-43"/>
      </defs>
      <g transform="translate(284.678400735 608.20375)scale(0.2 -0.2)">
       <use xlink:href="#BitstreamVeraSans-Roman-43"/>
      </g>
     </g>
    </g>
    <g id="xtick_10">
     <g id="line2d_23">
      <g>
       <use style="stroke:#000000;stroke-width:0.5;" x="319.014154412" xlink:href="#m4fd3f921f7" y="589.006875"/>
      </g>
     </g>
     <g id="line2d_24">
      <g>
       <use style="stroke:#000000;stroke-width:0.5;" x="319.014154412" xlink:href="#m7e5e10bfa9" y="13.006875"/>
      </g>
     </g>
     <g id="text_10">
      <!-- G -->
      <defs>
       <path d="M 59.515625 10.40625 
L 59.515625 29.984375 
L 43.40625 29.984375 
L 43.40625 38.09375 
L 69.28125 38.09375 
L 69.28125 6.78125 
Q 63.578125 2.734375 56.6875 0.65625 
Q 49.8125 -1.421875 42 -1.421875 
Q 24.90625 -1.421875 15.25 8.5625 
Q 5.609375 18.5625 5.609375 36.375 
Q 5.609375 54.25 15.25 64.234375 
Q 24.90625 74.21875 42 74.21875 
Q 49.125 74.21875 55.546875 72.453125 
Q 61.96875 70.703125 67.390625 67.28125 
L 67.390625 56.78125 
Q 61.921875 61.421875 55.765625 63.765625 
Q 49.609375 66.109375 42.828125 66.109375 
Q 29.4375 66.109375 22.71875 58.640625 
Q 16.015625 51.171875 16.015625 36.375 
Q 16.015625 21.625 22.71875 14.15625 
Q 29.4375 6.6875 42.828125 6.6875 
Q 48.046875 6.6875 52.140625 7.59375 
Q 56.25 8.5 59.515625 10.40625 
" id="BitstreamVeraSans-Roman-47"/>
      </defs>
      <g transform="translate(311.265716912 608.20375)scale(0.2 -0.2)">
       <use xlink:href="#BitstreamVeraSans-Roman-47"/>
      </g>
     </g>
    </g>
    <g id="xtick_11">
     <g id="line2d_25">
      <g>
       <use style="stroke:#000000;stroke-width:0.5;" x="346.367095588" xlink:href="#m4fd3f921f7" y="589.006875"/>
      </g>
     </g>
     <g id="line2d_26">
      <g>
       <use style="stroke:#000000;stroke-width:0.5;" x="346.367095588" xlink:href="#m7e5e10bfa9" y="13.006875"/>
      </g>
     </g>
     <g id="text_11">
      <!-- T -->
      <defs>
       <path d="M -0.296875 72.90625 
L 61.375 72.90625 
L 61.375 64.59375 
L 35.5 64.59375 
L 35.5 0 
L 25.59375 0 
L 25.59375 64.59375 
L -0.296875 64.59375 
z
" id="BitstreamVeraSans-Roman-54"/>
      </defs>
      <g transform="translate(340.259283088 608.20375)scale(0.2 -0.2)">
       <use xlink:href="#BitstreamVeraSans-Roman-54"/>
      </g>
     </g>
    </g>
    <g id="xtick_12">
     <g id="line2d_27">
      <g>
       <use style="stroke:#000000;stroke-width:0.5;" x="373.720036765" xlink:href="#m4fd3f921f7" y="589.006875"/>
      </g>
     </g>
     <g id="line2d_28">
      <g>
       <use style="stroke:#000000;stroke-width:0.5;" x="373.720036765" xlink:href="#m7e5e10bfa9" y="13.006875"/>
      </g>
     </g>
     <g id="text_12">
      <!-- P -->
      <defs>
       <path d="M 19.671875 64.796875 
L 19.671875 37.40625 
L 32.078125 37.40625 
Q 38.96875 37.40625 42.71875 40.96875 
Q 46.484375 44.53125 46.484375 51.125 
Q 46.484375 57.671875 42.71875 61.234375 
Q 38.96875 64.796875 32.078125 64.796875 
z
M 9.8125 72.90625 
L 32.078125 72.90625 
Q 44.34375 72.90625 50.609375 67.359375 
Q 56.890625 61.8125 56.890625 51.125 
Q 56.890625 40.328125 50.609375 34.8125 
Q 44.34375 29.296875 32.078125 29.296875 
L 19.671875 29.296875 
L 19.671875 0 
L 9.8125 0 
z
" id="BitstreamVeraSans-Roman-50"/>
      </defs>
      <g transform="translate(367.690349265 608.20375)scale(0.2 -0.2)">
       <use xlink:href="#BitstreamVeraSans-Roman-50"/>
      </g>
     </g>
    </g>
    <g id="xtick_13">
     <g id="line2d_29">
      <g>
       <use style="stroke:#000000;stroke-width:0.5;" x="401.072977941" xlink:href="#m4fd3f921f7" y="589.006875"/>
      </g>
     </g>
     <g id="line2d_30">
      <g>
       <use style="stroke:#000000;stroke-width:0.5;" x="401.072977941" xlink:href="#m7e5e10bfa9" y="13.006875"/>
      </g>
     </g>
     <g id="text_13">
      <!-- H -->
      <defs>
       <path d="M 9.8125 72.90625 
L 19.671875 72.90625 
L 19.671875 43.015625 
L 55.515625 43.015625 
L 55.515625 72.90625 
L 65.375 72.90625 
L 65.375 0 
L 55.515625 0 
L 55.515625 34.71875 
L 19.671875 34.71875 
L 19.671875 0 
L 9.8125 0 
z
" id="BitstreamVeraSans-Roman-48"/>
      </defs>
      <g transform="translate(393.552665441 608.20375)scale(0.2 -0.2)">
       <use xlink:href="#BitstreamVeraSans-Roman-48"/>
      </g>
     </g>
    </g>
    <g id="xtick_14">
     <g id="line2d_31">
      <g>
       <use style="stroke:#000000;stroke-width:0.5;" x="428.425919118" xlink:href="#m4fd3f921f7" y="589.006875"/>
      </g>
     </g>
     <g id="line2d_32">
      <g>
       <use style="stroke:#000000;stroke-width:0.5;" x="428.425919118" xlink:href="#m7e5e10bfa9" y="13.006875"/>
      </g>
     </g>
     <g id="text_14">
      <!-- S -->
      <defs>
       <path d="M 53.515625 70.515625 
L 53.515625 60.890625 
Q 47.90625 63.578125 42.921875 64.890625 
Q 37.9375 66.21875 33.296875 66.21875 
Q 25.25 66.21875 20.875 63.09375 
Q 16.5 59.96875 16.5 54.203125 
Q 16.5 49.359375 19.40625 46.890625 
Q 22.3125 44.4375 30.421875 42.921875 
L 36.375 41.703125 
Q 47.40625 39.59375 52.65625 34.296875 
Q 57.90625 29 57.90625 20.125 
Q 57.90625 9.515625 50.796875 4.046875 
Q 43.703125 -1.421875 29.984375 -1.421875 
Q 24.8125 -1.421875 18.96875 -0.25 
Q 13.140625 0.921875 6.890625 3.21875 
L 6.890625 13.375 
Q 12.890625 10.015625 18.65625 8.296875 
Q 24.421875 6.59375 29.984375 6.59375 
Q 38.421875 6.59375 43.015625 9.90625 
Q 47.609375 13.234375 47.609375 19.390625 
Q 47.609375 24.75 44.3125 27.78125 
Q 41.015625 30.8125 33.5 32.328125 
L 27.484375 33.5 
Q 16.453125 35.6875 11.515625 40.375 
Q 6.59375 45.0625 6.59375 53.421875 
Q 6.59375 63.09375 13.40625 68.65625 
Q 20.21875 74.21875 32.171875 74.21875 
Q 37.3125 74.21875 42.625 73.28125 
Q 47.953125 72.359375 53.515625 70.515625 
" id="BitstreamVeraSans-Roman-53"/>
      </defs>
      <g transform="translate(422.077481618 608.20375)scale(0.2 -0.2)">
       <use xlink:href="#BitstreamVeraSans-Roman-53"/>
      </g>
     </g>
    </g>
    <g id="xtick_15">
     <g id="line2d_33">
      <g>
       <use style="stroke:#000000;stroke-width:0.5;" x="455.778860294" xlink:href="#m4fd3f921f7" y="589.006875"/>
      </g>
     </g>
     <g id="line2d_34">
      <g>
       <use style="stroke:#000000;stroke-width:0.5;" x="455.778860294" xlink:href="#m7e5e10bfa9" y="13.006875"/>
      </g>
     </g>
     <g id="text_15">
      <!-- Q -->
      <defs>
       <path d="M 39.40625 66.21875 
Q 28.65625 66.21875 22.328125 58.203125 
Q 16.015625 50.203125 16.015625 36.375 
Q 16.015625 22.609375 22.328125 14.59375 
Q 28.65625 6.59375 39.40625 6.59375 
Q 50.140625 6.59375 56.421875 14.59375 
Q 62.703125 22.609375 62.703125 36.375 
Q 62.703125 50.203125 56.421875 58.203125 
Q 50.140625 66.21875 39.40625 66.21875 
M 53.21875 1.3125 
L 66.21875 -12.890625 
L 54.296875 -12.890625 
L 43.5 -1.21875 
Q 41.890625 -1.3125 41.03125 -1.359375 
Q 40.1875 -1.421875 39.40625 -1.421875 
Q 24.03125 -1.421875 14.8125 8.859375 
Q 5.609375 19.140625 5.609375 36.375 
Q 5.609375 53.65625 14.8125 63.9375 
Q 24.03125 74.21875 39.40625 74.21875 
Q 54.734375 74.21875 63.90625 63.9375 
Q 73.09375 53.65625 73.09375 36.375 
Q 73.09375 23.6875 67.984375 14.640625 
Q 62.890625 5.609375 53.21875 1.3125 
" id="BitstreamVeraSans-Roman-51"/>
      </defs>
      <g transform="translate(447.906985294 608.20375)scale(0.2 -0.2)">
       <use xlink:href="#BitstreamVeraSans-Roman-51"/>
      </g>
     </g>
    </g>
    <g id="xtick_16">
     <g id="line2d_35">
      <g>
       <use style="stroke:#000000;stroke-width:0.5;" x="483.131801471" xlink:href="#m4fd3f921f7" y="589.006875"/>
      </g>
     </g>
     <g id="line2d_36">
      <g>
       <use style="stroke:#000000;stroke-width:0.5;" x="483.131801471" xlink:href="#m7e5e10bfa9" y="13.006875"/>
      </g>
     </g>
     <g id="text_16">
      <!-- E -->
      <defs>
       <path d="M 9.8125 72.90625 
L 55.90625 72.90625 
L 55.90625 64.59375 
L 19.671875 64.59375 
L 19.671875 43.015625 
L 54.390625 43.015625 
L 54.390625 34.71875 
L 19.671875 34.71875 
L 19.671875 8.296875 
L 56.78125 8.296875 
L 56.78125 0 
L 9.8125 0 
z
" id="BitstreamVeraSans-Roman-45"/>
      </defs>
      <g transform="translate(476.813051471 608.20375)scale(0.2 -0.2)">
       <use xlink:href="#BitstreamVeraSans-Roman-45"/>
      </g>
     </g>
    </g>
    <g id="xtick_17">
     <g id="line2d_37">
      <g>
       <use style="stroke:#000000;stroke-width:0.5;" x="510.484742647" xlink:href="#m4fd3f921f7" y="589.006875"/>
      </g>
     </g>
     <g id="line2d_38">
      <g>
       <use style="stroke:#000000;stroke-width:0.5;" x="510.484742647" xlink:href="#m7e5e10bfa9" y="13.006875"/>
      </g>
     </g>
     <g id="text_17">
      <!-- R -->
      <defs>
       <path d="M 44.390625 34.1875 
Q 47.5625 33.109375 50.5625 29.59375 
Q 53.5625 26.078125 56.59375 19.921875 
L 66.609375 0 
L 56 0 
L 46.6875 18.703125 
Q 43.0625 26.03125 39.671875 28.421875 
Q 36.28125 30.8125 30.421875 30.8125 
L 19.671875 30.8125 
L 19.671875 0 
L 9.8125 0 
L 9.8125 72.90625 
L 32.078125 72.90625 
Q 44.578125 72.90625 50.734375 67.671875 
Q 56.890625 62.453125 56.890625 51.90625 
Q 56.890625 45.015625 53.6875 40.46875 
Q 50.484375 35.9375 44.390625 34.1875 
M 19.671875 64.796875 
L 19.671875 38.921875 
L 32.078125 38.921875 
Q 39.203125 38.921875 42.84375 42.21875 
Q 46.484375 45.515625 46.484375 51.90625 
Q 46.484375 58.296875 42.84375 61.546875 
Q 39.203125 64.796875 32.078125 64.796875 
z
" id="BitstreamVeraSans-Roman-52"/>
      </defs>
      <g transform="translate(503.536305147 608.20375)scale(0.2 -0.2)">
       <use xlink:href="#BitstreamVeraSans-Roman-52"/>
      </g>
     </g>
    </g>
    <g id="xtick_18">
     <g id="line2d_39">
      <g>
       <use style="stroke:#000000;stroke-width:0.5;" x="537.837683824" xlink:href="#m4fd3f921f7" y="589.006875"/>
      </g>
     </g>
     <g id="line2d_40">
      <g>
       <use style="stroke:#000000;stroke-width:0.5;" x="537.837683824" xlink:href="#m7e5e10bfa9" y="13.006875"/>
      </g>
     </g>
     <g id="text_18">
      <!-- N -->
      <defs>
       <path d="M 9.8125 72.90625 
L 23.09375 72.90625 
L 55.421875 11.921875 
L 55.421875 72.90625 
L 64.984375 72.90625 
L 64.984375 0 
L 51.703125 0 
L 19.390625 60.984375 
L 19.390625 0 
L 9.8125 0 
z
" id="BitstreamVeraSans-Roman-4e"/>
      </defs>
      <g transform="translate(530.356433824 608.20375)scale(0.2 -0.2)">
       <use xlink:href="#BitstreamVeraSans-Roman-4e"/>
      </g>
     </g>
    </g>
    <g id="xtick_19">
     <g id="line2d_41">
      <g>
       <use style="stroke:#000000;stroke-width:0.5;" x="565.190625" xlink:href="#m4fd3f921f7" y="589.006875"/>
      </g>
     </g>
     <g id="line2d_42">
      <g>
       <use style="stroke:#000000;stroke-width:0.5;" x="565.190625" xlink:href="#m7e5e10bfa9" y="13.006875"/>
      </g>
     </g>
     <g id="text_19">
      <!-- D -->
      <defs>
       <path d="M 19.671875 64.796875 
L 19.671875 8.109375 
L 31.59375 8.109375 
Q 46.6875 8.109375 53.6875 14.9375 
Q 60.6875 21.78125 60.6875 36.53125 
Q 60.6875 51.171875 53.6875 57.984375 
Q 46.6875 64.796875 31.59375 64.796875 
z
M 9.8125 72.90625 
L 30.078125 72.90625 
Q 51.265625 72.90625 61.171875 64.09375 
Q 71.09375 55.28125 71.09375 36.53125 
Q 71.09375 17.671875 61.125 8.828125 
Q 51.171875 0 30.078125 0 
L 9.8125 0 
z
" id="BitstreamVeraSans-Roman-44"/>
      </defs>
      <g transform="translate(557.490625 608.20375)scale(0.2 -0.2)">
       <use xlink:href="#BitstreamVeraSans-Roman-44"/>
      </g>
     </g>
    </g>
    <g id="xtick_20">
     <g id="line2d_43">
      <g>
       <use style="stroke:#000000;stroke-width:0.5;" x="592.543566176" xlink:href="#m4fd3f921f7" y="589.006875"/>
      </g>
     </g>
     <g id="line2d_44">
      <g>
       <use style="stroke:#000000;stroke-width:0.5;" x="592.543566176" xlink:href="#m7e5e10bfa9" y="13.006875"/>
      </g>
     </g>
     <g id="text_20">
      <!-- K -->
      <defs>
       <path d="M 9.8125 72.90625 
L 19.671875 72.90625 
L 19.671875 42.09375 
L 52.390625 72.90625 
L 65.09375 72.90625 
L 28.90625 38.921875 
L 67.671875 0 
L 54.6875 0 
L 19.671875 35.109375 
L 19.671875 0 
L 9.8125 0 
z
" id="BitstreamVeraSans-Roman-4b"/>
      </defs>
      <g transform="translate(585.985753676 608.20375)scale(0.2 -0.2)">
       <use xlink:href="#BitstreamVeraSans-Roman-4b"/>
      </g>
     </g>
    </g>
   </g>
   <g id="matplotlib.axis_2">
    <g id="ytick_1">
     <g id="line2d_45">
      <defs>
       <path d="M 0 0 
L 4 0 
" id="mb8e7f0ae8f" style="stroke:#000000;stroke-width:0.5;"/>
      </defs>
      <g>
       <use style="stroke:#000000;stroke-width:0.5;" x="53.690625" xlink:href="#mb8e7f0ae8f" y="589.006875"/>
      </g>
     </g>
     <g id="line2d_46">
      <defs>
       <path d="M 0 0 
L -4 0 
" id="mce9de4da1c" style="stroke:#000000;stroke-width:0.5;"/>
      </defs>
      <g>
       <use style="stroke:#000000;stroke-width:0.5;" x="611.690625" xlink:href="#mce9de4da1c" y="589.006875"/>
      </g>
     </g>
     <g id="text_21">
      <!-- −3 -->
      <defs>
       <path d="M 10.59375 35.5 
L 73.1875 35.5 
L 73.1875 27.203125 
L 10.59375 27.203125 
z
" id="BitstreamVeraSans-Roman-2212"/>
       <path d="M 40.578125 39.3125 
Q 47.65625 37.796875 51.625 33 
Q 55.609375 28.21875 55.609375 21.1875 
Q 55.609375 10.40625 48.1875 4.484375 
Q 40.765625 -1.421875 27.09375 -1.421875 
Q 22.515625 -1.421875 17.65625 -0.515625 
Q 12.796875 0.390625 7.625 2.203125 
L 7.625 11.71875 
Q 11.71875 9.328125 16.59375 8.109375 
Q 21.484375 6.890625 26.8125 6.890625 
Q 36.078125 6.890625 40.9375 10.546875 
Q 45.796875 14.203125 45.796875 21.1875 
Q 45.796875 27.640625 41.28125 31.265625 
Q 36.765625 34.90625 28.71875 34.90625 
L 20.21875 34.90625 
L 20.21875 43.015625 
L 29.109375 43.015625 
Q 36.375 43.015625 40.234375 45.921875 
Q 44.09375 48.828125 44.09375 54.296875 
Q 44.09375 59.90625 40.109375 62.90625 
Q 36.140625 65.921875 28.71875 65.921875 
Q 24.65625 65.921875 20.015625 65.03125 
Q 15.375 64.15625 9.8125 62.3125 
L 9.8125 71.09375 
Q 15.4375 72.65625 20.34375 73.4375 
Q 25.25 74.21875 29.59375 74.21875 
Q 40.828125 74.21875 47.359375 69.109375 
Q 53.90625 64.015625 53.90625 55.328125 
Q 53.90625 49.265625 50.4375 45.09375 
Q 46.96875 40.921875 40.578125 39.3125 
" id="BitstreamVeraSans-Roman-33"/>
      </defs>
      <g transform="translate(32.0 592.318125)scale(0.12 -0.12)">
       <use xlink:href="#BitstreamVeraSans-Roman-2212"/>
       <use x="83.7890625" xlink:href="#BitstreamVeraSans-Roman-33"/>
      </g>
     </g>
    </g>
    <g id="ytick_2">
     <g id="line2d_47">
      <g>
       <use style="stroke:#000000;stroke-width:0.5;" x="53.690625" xlink:href="#mb8e7f0ae8f" y="517.006875"/>
      </g>
     </g>
     <g id="line2d_48">
      <g>
       <use style="stroke:#000000;stroke-width:0.5;" x="611.690625" xlink:href="#mce9de4da1c" y="517.006875"/>
      </g>
     </g>
     <g id="text_22">
      <!-- −2 -->
      <defs>
       <path d="M 19.1875 8.296875 
L 53.609375 8.296875 
L 53.609375 0 
L 7.328125 0 
L 7.328125 8.296875 
Q 12.9375 14.109375 22.625 23.890625 
Q 32.328125 33.6875 34.8125 36.53125 
Q 39.546875 41.84375 41.421875 45.53125 
Q 43.3125 49.21875 43.3125 52.78125 
Q 43.3125 58.59375 39.234375 62.25 
Q 35.15625 65.921875 28.609375 65.921875 
Q 23.96875 65.921875 18.8125 64.3125 
Q 13.671875 62.703125 7.8125 59.421875 
L 7.8125 69.390625 
Q 13.765625 71.78125 18.9375 73 
Q 24.125 74.21875 28.421875 74.21875 
Q 39.75 74.21875 46.484375 68.546875 
Q 53.21875 62.890625 53.21875 53.421875 
Q 53.21875 48.921875 51.53125 44.890625 
Q 49.859375 40.875 45.40625 35.40625 
Q 44.1875 33.984375 37.640625 27.21875 
Q 31.109375 20.453125 19.1875 8.296875 
" id="BitstreamVeraSans-Roman-32"/>
      </defs>
      <g transform="translate(32.0 520.318125)scale(0.12 -0.12)">
       <use xlink:href="#BitstreamVeraSans-Roman-2212"/>
       <use x="83.7890625" xlink:href="#BitstreamVeraSans-Roman-32"/>
      </g>
     </g>
    </g>
    <g id="ytick_3">
     <g id="line2d_49">
      <g>
       <use style="stroke:#000000;stroke-width:0.5;" x="53.690625" xlink:href="#mb8e7f0ae8f" y="445.006875"/>
      </g>
     </g>
     <g id="line2d_50">
      <g>
       <use style="stroke:#000000;stroke-width:0.5;" x="611.690625" xlink:href="#mce9de4da1c" y="445.006875"/>
      </g>
     </g>
     <g id="text_23">
      <!-- −1 -->
      <defs>
       <path d="M 12.40625 8.296875 
L 28.515625 8.296875 
L 28.515625 63.921875 
L 10.984375 60.40625 
L 10.984375 69.390625 
L 28.421875 72.90625 
L 38.28125 72.90625 
L 38.28125 8.296875 
L 54.390625 8.296875 
L 54.390625 0 
L 12.40625 0 
z
" id="BitstreamVeraSans-Roman-31"/>
      </defs>
      <g transform="translate(32.0 448.318125)scale(0.12 -0.12)">
       <use xlink:href="#BitstreamVeraSans-Roman-2212"/>
       <use x="83.7890625" xlink:href="#BitstreamVeraSans-Roman-31"/>
      </g>
     </g>
    </g>
    <g id="ytick_4">
     <g id="line2d_51">
      <g>
       <use style="stroke:#000000;stroke-width:0.5;" x="53.690625" xlink:href="#mb8e7f0ae8f" y="373.006875"/>
      </g>
     </g>
     <g id="line2d_52">
      <g>
       <use style="stroke:#000000;stroke-width:0.5;" x="611.690625" xlink:href="#mce9de4da1c" y="373.006875"/>
      </g>
     </g>
     <g id="text_24">
      <!-- 0 -->
      <defs>
       <path d="M 31.78125 66.40625 
Q 24.171875 66.40625 20.328125 58.90625 
Q 16.5 51.421875 16.5 36.375 
Q 16.5 21.390625 20.328125 13.890625 
Q 24.171875 6.390625 31.78125 6.390625 
Q 39.453125 6.390625 43.28125 13.890625 
Q 47.125 21.390625 47.125 36.375 
Q 47.125 51.421875 43.28125 58.90625 
Q 39.453125 66.40625 31.78125 66.40625 
M 31.78125 74.21875 
Q 44.046875 74.21875 50.515625 64.515625 
Q 56.984375 54.828125 56.984375 36.375 
Q 56.984375 17.96875 50.515625 8.265625 
Q 44.046875 -1.421875 31.78125 -1.421875 
Q 19.53125 -1.421875 13.0625 8.265625 
Q 6.59375 17.96875 6.59375 36.375 
Q 6.59375 54.828125 13.0625 64.515625 
Q 19.53125 74.21875 31.78125 74.21875 
" id="BitstreamVeraSans-Roman-30"/>
      </defs>
      <g transform="translate(42.055625 376.318125)scale(0.12 -0.12)">
       <use xlink:href="#BitstreamVeraSans-Roman-30"/>
      </g>
     </g>
    </g>
    <g id="ytick_5">
     <g id="line2d_53">
      <g>
       <use style="stroke:#000000;stroke-width:0.5;" x="53.690625" xlink:href="#mb8e7f0ae8f" y="301.006875"/>
      </g>
     </g>
     <g id="line2d_54">
      <g>
       <use style="stroke:#000000;stroke-width:0.5;" x="611.690625" xlink:href="#mce9de4da1c" y="301.006875"/>
      </g>
     </g>
     <g id="text_25">
      <!-- 1 -->
      <g transform="translate(42.055625 304.318125)scale(0.12 -0.12)">
       <use xlink:href="#BitstreamVeraSans-Roman-31"/>
      </g>
     </g>
    </g>
    <g id="ytick_6">
     <g id="line2d_55">
      <g>
       <use style="stroke:#000000;stroke-width:0.5;" x="53.690625" xlink:href="#mb8e7f0ae8f" y="229.006875"/>
      </g>
     </g>
     <g id="line2d_56">
      <g>
       <use style="stroke:#000000;stroke-width:0.5;" x="611.690625" xlink:href="#mce9de4da1c" y="229.006875"/>
      </g>
     </g>
     <g id="text_26">
      <!-- 2 -->
      <g transform="translate(42.055625 232.318125)scale(0.12 -0.12)">
       <use xlink:href="#BitstreamVeraSans-Roman-32"/>
      </g>
     </g>
    </g>
    <g id="ytick_7">
     <g id="line2d_57">
      <g>
       <use style="stroke:#000000;stroke-width:0.5;" x="53.690625" xlink:href="#mb8e7f0ae8f" y="157.006875"/>
      </g>
     </g>
     <g id="line2d_58">
      <g>
       <use style="stroke:#000000;stroke-width:0.5;" x="611.690625" xlink:href="#mce9de4da1c" y="157.006875"/>
      </g>
     </g>
     <g id="text_27">
      <!-- 3 -->
      <g transform="translate(42.055625 160.318125)scale(0.12 -0.12)">
       <use xlink:href="#BitstreamVeraSans-Roman-33"/>
      </g>
     </g>
    </g>
    <g id="ytick_8">
     <g id="line2d_59">
      <g>
       <use style="stroke:#000000;stroke-width:0.5;" x="53.690625" xlink:href="#mb8e7f0ae8f" y="85.006875"/>
      </g>
     </g>
     <g id="line2d_60">
      <g>
       <use style="stroke:#000000;stroke-width:0.5;" x="611.690625" xlink:href="#mce9de4da1c" y="85.006875"/>
      </g>
     </g>
     <g id="text_28">
      <!-- 4 -->
      <defs>
       <path d="M 37.796875 64.3125 
L 12.890625 25.390625 
L 37.796875 25.390625 
z
M 35.203125 72.90625 
L 47.609375 72.90625 
L 47.609375 25.390625 
L 58.015625 25.390625 
L 58.015625 17.1875 
L 47.609375 17.1875 
L 47.609375 0 
L 37.796875 0 
L 37.796875 17.1875 
L 4.890625 17.1875 
L 4.890625 26.703125 
z
" id="BitstreamVeraSans-Roman-34"/>
      </defs>
      <g transform="translate(42.055625 88.318125)scale(0.12 -0.12)">
       <use xlink:href="#BitstreamVeraSans-Roman-34"/>
      </g>
     </g>
    </g>
    <g id="ytick_9">
     <g id="line2d_61">
      <g>
       <use style="stroke:#000000;stroke-width:0.5;" x="53.690625" xlink:href="#mb8e7f0ae8f" y="13.006875"/>
      </g>
     </g>
     <g id="line2d_62">
      <g>
       <use style="stroke:#000000;stroke-width:0.5;" x="611.690625" xlink:href="#mce9de4da1c" y="13.006875"/>
      </g>
     </g>
     <g id="text_29">
      <!-- 5 -->
      <defs>
       <path d="M 10.796875 72.90625 
L 49.515625 72.90625 
L 49.515625 64.59375 
L 19.828125 64.59375 
L 19.828125 46.734375 
Q 21.96875 47.46875 24.109375 47.828125 
Q 26.265625 48.1875 28.421875 48.1875 
Q 40.625 48.1875 47.75 41.5 
Q 54.890625 34.8125 54.890625 23.390625 
Q 54.890625 11.625 47.5625 5.09375 
Q 40.234375 -1.421875 26.90625 -1.421875 
Q 22.3125 -1.421875 17.546875 -0.640625 
Q 12.796875 0.140625 7.71875 1.703125 
L 7.71875 11.625 
Q 12.109375 9.234375 16.796875 8.0625 
Q 21.484375 6.890625 26.703125 6.890625 
Q 35.15625 6.890625 40.078125 11.328125 
Q 45.015625 15.765625 45.015625 23.390625 
Q 45.015625 31 40.078125 35.4375 
Q 35.15625 39.890625 26.703125 39.890625 
Q 22.75 39.890625 18.8125 39.015625 
Q 14.890625 38.140625 10.796875 36.28125 
z
" id="BitstreamVeraSans-Roman-35"/>
      </defs>
      <g transform="translate(42.055625 16.318125)scale(0.12 -0.12)">
       <use xlink:href="#BitstreamVeraSans-Roman-35"/>
      </g>
     </g>
    </g>
    <g id="text_30">
     <!-- $\Delta\Delta G^{210}$(kcal/mol) -->
     <defs>
      <path d="M 4.984375 0 
L 4.984375 2.6875 
Q 4.984375 2.9375 5.171875 3.21875 
L 20.703125 20.40625 
Q 24.21875 24.21875 26.40625 26.796875 
Q 28.609375 29.390625 30.75 32.765625 
Q 32.90625 36.140625 34.15625 39.625 
Q 35.40625 43.109375 35.40625 47.015625 
Q 35.40625 51.125 33.890625 54.859375 
Q 32.375 58.59375 29.375 60.84375 
Q 26.375 63.09375 22.125 63.09375 
Q 17.78125 63.09375 14.3125 60.46875 
Q 10.84375 57.859375 9.421875 53.71875 
Q 9.8125 53.8125 10.5 53.8125 
Q 12.75 53.8125 14.328125 52.296875 
Q 15.921875 50.78125 15.921875 48.390625 
Q 15.921875 46.09375 14.328125 44.5 
Q 12.75 42.921875 10.5 42.921875 
Q 8.15625 42.921875 6.5625 44.546875 
Q 4.984375 46.1875 4.984375 48.390625 
Q 4.984375 52.15625 6.390625 55.4375 
Q 7.8125 58.734375 10.46875 61.296875 
Q 13.140625 63.875 16.484375 65.234375 
Q 19.828125 66.609375 23.578125 66.609375 
Q 29.296875 66.609375 34.21875 64.1875 
Q 39.15625 61.765625 42.03125 57.34375 
Q 44.921875 52.9375 44.921875 47.015625 
Q 44.921875 42.671875 43.015625 38.765625 
Q 41.109375 34.859375 38.125 31.65625 
Q 35.15625 28.46875 30.515625 24.40625 
Q 25.875 20.359375 24.421875 19 
L 13.09375 8.109375 
L 22.703125 8.109375 
Q 29.78125 8.109375 34.546875 8.21875 
Q 39.3125 8.34375 39.59375 8.59375 
Q 40.765625 9.859375 42 17.828125 
L 44.921875 17.828125 
L 42.09375 0 
z
" id="Cmr10-32"/>
      <path d="M 9.28125 0 
L 9.28125 3.515625 
Q 21.78125 3.515625 21.78125 6.6875 
L 21.78125 59.1875 
Q 16.609375 56.6875 8.6875 56.6875 
L 8.6875 60.203125 
Q 20.953125 60.203125 27.203125 66.609375 
L 28.609375 66.609375 
Q 28.953125 66.609375 29.265625 66.328125 
Q 29.59375 66.0625 29.59375 65.71875 
L 29.59375 6.6875 
Q 29.59375 3.515625 42.09375 3.515625 
L 42.09375 0 
z
" id="Cmr10-31"/>
      <path d="M 25 -2.203125 
Q 12.75 -2.203125 8.328125 7.875 
Q 3.90625 17.96875 3.90625 31.890625 
Q 3.90625 40.578125 5.484375 48.234375 
Q 7.078125 55.90625 11.78125 61.25 
Q 16.5 66.609375 25 66.609375 
Q 31.59375 66.609375 35.78125 63.375 
Q 39.984375 60.15625 42.1875 55.046875 
Q 44.390625 49.953125 45.1875 44.109375 
Q 46 38.28125 46 31.890625 
Q 46 23.296875 44.40625 15.796875 
Q 42.828125 8.296875 38.1875 3.046875 
Q 33.546875 -2.203125 25 -2.203125 
M 25 0.390625 
Q 30.5625 0.390625 33.296875 6.09375 
Q 36.03125 11.8125 36.671875 18.75 
Q 37.3125 25.6875 37.3125 33.5 
Q 37.3125 41.015625 36.671875 47.359375 
Q 36.03125 53.71875 33.3125 58.859375 
Q 30.609375 64.015625 25 64.015625 
Q 19.34375 64.015625 16.609375 58.828125 
Q 13.875 53.65625 13.234375 47.328125 
Q 12.59375 41.015625 12.59375 33.5 
Q 12.59375 27.9375 12.859375 23 
Q 13.140625 18.0625 14.3125 12.8125 
Q 15.484375 7.5625 18.09375 3.96875 
Q 20.703125 0.390625 25 0.390625 
" id="Cmr10-30"/>
      <path d="M 8.015625 75.875 
L 15.828125 75.875 
Q 23.140625 64.359375 26.78125 53.3125 
Q 30.421875 42.28125 30.421875 31.390625 
Q 30.421875 20.453125 26.78125 9.375 
Q 23.140625 -1.703125 15.828125 -13.1875 
L 8.015625 -13.1875 
Q 14.5 -2 17.703125 9.0625 
Q 20.90625 20.125 20.90625 31.390625 
Q 20.90625 42.671875 17.703125 53.65625 
Q 14.5 64.65625 8.015625 75.875 
" id="BitstreamVeraSans-Roman-29"/>
      <path d="M 31 75.875 
Q 24.46875 64.65625 21.28125 53.65625 
Q 18.109375 42.671875 18.109375 31.390625 
Q 18.109375 20.125 21.3125 9.0625 
Q 24.515625 -2 31 -13.1875 
L 23.1875 -13.1875 
Q 15.875 -1.703125 12.234375 9.375 
Q 8.59375 20.453125 8.59375 31.390625 
Q 8.59375 42.28125 12.203125 53.3125 
Q 15.828125 64.359375 23.1875 75.875 
z
" id="BitstreamVeraSans-Roman-28"/>
      <path d="M 5.421875 0 
Q 4.59375 0 4.59375 0.78125 
Q 4.640625 0.875 4.65625 0.921875 
Q 4.6875 0.984375 4.6875 1.125 
L 39.109375 70.515625 
Q 39.546875 71.578125 40.921875 71.578125 
L 42.28125 71.578125 
Q 43.65625 71.578125 44.09375 70.515625 
L 78.515625 1.125 
Q 78.5625 1.03125 78.578125 0.953125 
Q 78.609375 0.875 78.609375 0.78125 
Q 78.609375 0 77.78125 0 
z
M 12.015625 8.015625 
L 64.703125 8.015625 
L 38.375 61.078125 
z
" id="Cmr10-a2"/>
      <path d="M 9.421875 75.984375 
L 18.40625 75.984375 
L 18.40625 0 
L 9.421875 0 
z
" id="BitstreamVeraSans-Roman-6c"/>
      <path d="M 9.078125 75.984375 
L 18.109375 75.984375 
L 18.109375 31.109375 
L 44.921875 54.6875 
L 56.390625 54.6875 
L 27.390625 29.109375 
L 57.625 0 
L 45.90625 0 
L 18.109375 26.703125 
L 18.109375 0 
L 9.078125 0 
z
" id="BitstreamVeraSans-Roman-6b"/>
      <path d="M 14.59375 21.921875 
Q 14.59375 15.71875 17.0625 11.046875 
Q 19.53125 6.390625 24.171875 3.84375 
Q 28.8125 1.3125 34.90625 1.3125 
Q 40.875 1.3125 46.234375 4.125 
Q 51.609375 6.9375 52.984375 12.203125 
L 55.171875 20.796875 
Q 55.21875 21.09375 55.265625 21.40625 
Q 55.328125 21.734375 55.328125 21.921875 
Q 55.328125 22.953125 54.6875 23.09375 
Q 52.203125 23.78125 44.671875 23.78125 
Q 43.703125 23.78125 43.703125 25.09375 
Q 44 26.3125 44.234375 26.796875 
Q 44.484375 27.296875 45.40625 27.296875 
L 71.1875 27.296875 
Q 72.21875 27.296875 72.21875 25.984375 
Q 72.171875 25.734375 72.015625 25.140625 
Q 71.875 24.5625 71.625 24.171875 
Q 71.390625 23.78125 70.90625 23.78125 
Q 67.578125 23.78125 66.03125 23.234375 
Q 64.5 22.703125 63.921875 20.40625 
L 61.71875 11.8125 
L 58.890625 0.6875 
Q 58.734375 0 58.015625 0 
Q 57.171875 0 55.609375 2.25 
Q 54.046875 4.5 53.421875 6 
Q 49.953125 1.90625 44.140625 -0.140625 
Q 38.328125 -2.203125 32.171875 -2.203125 
Q 24.421875 -2.203125 18.1875 1.3125 
Q 11.96875 4.828125 8.515625 11.078125 
Q 5.078125 17.328125 5.078125 25.203125 
Q 5.078125 33.59375 8.8125 41.765625 
Q 12.546875 49.953125 18.9375 56.421875 
Q 25.34375 62.890625 33.46875 66.703125 
Q 41.609375 70.515625 49.90625 70.515625 
Q 53.21875 70.515625 56.265625 69.484375 
Q 59.328125 68.453125 61.9375 66.421875 
Q 64.546875 64.40625 66.21875 61.71875 
L 74.125 70.3125 
Q 74.125 70.515625 74.609375 70.515625 
L 75.203125 70.515625 
Q 75.59375 70.515625 75.859375 70.1875 
Q 76.125 69.875 76.125 69.484375 
L 69.28125 42.484375 
Q 69.28125 41.796875 68.5 41.796875 
L 66.703125 41.796875 
Q 65.921875 41.796875 65.921875 42.921875 
Q 66.3125 45.125 66.3125 48.09375 
Q 66.3125 53.03125 64.640625 57.375 
Q 62.984375 61.71875 59.46875 64.359375 
Q 55.953125 67 50.875 67 
Q 42.828125 67 35.984375 62.921875 
Q 29.15625 58.84375 24.40625 52.140625 
Q 19.671875 45.453125 17.125 37.4375 
Q 14.59375 29.4375 14.59375 21.921875 
" id="Cmmi10-47"/>
      <path d="M 30.609375 48.390625 
Q 23.390625 48.390625 19.1875 42.75 
Q 14.984375 37.109375 14.984375 27.296875 
Q 14.984375 17.484375 19.15625 11.84375 
Q 23.34375 6.203125 30.609375 6.203125 
Q 37.796875 6.203125 41.984375 11.859375 
Q 46.1875 17.53125 46.1875 27.296875 
Q 46.1875 37.015625 41.984375 42.703125 
Q 37.796875 48.390625 30.609375 48.390625 
M 30.609375 56 
Q 42.328125 56 49.015625 48.375 
Q 55.71875 40.765625 55.71875 27.296875 
Q 55.71875 13.875 49.015625 6.21875 
Q 42.328125 -1.421875 30.609375 -1.421875 
Q 18.84375 -1.421875 12.171875 6.21875 
Q 5.515625 13.875 5.515625 27.296875 
Q 5.515625 40.765625 12.171875 48.375 
Q 18.84375 56 30.609375 56 
" id="BitstreamVeraSans-Roman-6f"/>
      <path d="M 25.390625 72.90625 
L 33.6875 72.90625 
L 8.296875 -9.28125 
L 0 -9.28125 
z
" id="BitstreamVeraSans-Roman-2f"/>
      <path d="M 52 44.1875 
Q 55.375 50.25 60.0625 53.125 
Q 64.75 56 71.09375 56 
Q 79.640625 56 84.28125 50.015625 
Q 88.921875 44.046875 88.921875 33.015625 
L 88.921875 0 
L 79.890625 0 
L 79.890625 32.71875 
Q 79.890625 40.578125 77.09375 44.375 
Q 74.3125 48.1875 68.609375 48.1875 
Q 61.625 48.1875 57.5625 43.546875 
Q 53.515625 38.921875 53.515625 30.90625 
L 53.515625 0 
L 44.484375 0 
L 44.484375 32.71875 
Q 44.484375 40.625 41.703125 44.40625 
Q 38.921875 48.1875 33.109375 48.1875 
Q 26.21875 48.1875 22.15625 43.53125 
Q 18.109375 38.875 18.109375 30.90625 
L 18.109375 0 
L 9.078125 0 
L 9.078125 54.6875 
L 18.109375 54.6875 
L 18.109375 46.1875 
Q 21.1875 51.21875 25.484375 53.609375 
Q 29.78125 56 35.6875 56 
Q 41.65625 56 45.828125 52.96875 
Q 50 49.953125 52 44.1875 
" id="BitstreamVeraSans-Roman-6d"/>
      <path d="M 34.28125 27.484375 
Q 23.390625 27.484375 19.1875 25 
Q 14.984375 22.515625 14.984375 16.5 
Q 14.984375 11.71875 18.140625 8.90625 
Q 21.296875 6.109375 26.703125 6.109375 
Q 34.1875 6.109375 38.703125 11.40625 
Q 43.21875 16.703125 43.21875 25.484375 
L 43.21875 27.484375 
z
M 52.203125 31.203125 
L 52.203125 0 
L 43.21875 0 
L 43.21875 8.296875 
Q 40.140625 3.328125 35.546875 0.953125 
Q 30.953125 -1.421875 24.3125 -1.421875 
Q 15.921875 -1.421875 10.953125 3.296875 
Q 6 8.015625 6 15.921875 
Q 6 25.140625 12.171875 29.828125 
Q 18.359375 34.515625 30.609375 34.515625 
L 43.21875 34.515625 
L 43.21875 35.40625 
Q 43.21875 41.609375 39.140625 45 
Q 35.0625 48.390625 27.6875 48.390625 
Q 23 48.390625 18.546875 47.265625 
Q 14.109375 46.140625 10.015625 43.890625 
L 10.015625 52.203125 
Q 14.9375 54.109375 19.578125 55.046875 
Q 24.21875 56 28.609375 56 
Q 40.484375 56 46.34375 49.84375 
Q 52.203125 43.703125 52.203125 31.203125 
" id="BitstreamVeraSans-Roman-61"/>
      <path d="M 48.78125 52.59375 
L 48.78125 44.1875 
Q 44.96875 46.296875 41.140625 47.34375 
Q 37.3125 48.390625 33.40625 48.390625 
Q 24.65625 48.390625 19.8125 42.84375 
Q 14.984375 37.3125 14.984375 27.296875 
Q 14.984375 17.28125 19.8125 11.734375 
Q 24.65625 6.203125 33.40625 6.203125 
Q 37.3125 6.203125 41.140625 7.25 
Q 44.96875 8.296875 48.78125 10.40625 
L 48.78125 2.09375 
Q 45.015625 0.34375 40.984375 -0.53125 
Q 36.96875 -1.421875 32.421875 -1.421875 
Q 20.0625 -1.421875 12.78125 6.34375 
Q 5.515625 14.109375 5.515625 27.296875 
Q 5.515625 40.671875 12.859375 48.328125 
Q 20.21875 56 33.015625 56 
Q 37.15625 56 41.109375 55.140625 
Q 45.0625 54.296875 48.78125 52.59375 
" id="BitstreamVeraSans-Roman-63"/>
     </defs>
     <g transform="translate(22.840625 387.906875)rotate(-90.0)scale(0.2 -0.2)">
      <use transform="translate(0.0 0.109375)" xlink:href="#Cmr10-a2"/>
      <use transform="translate(83.30078125 0.109375)" xlink:href="#Cmr10-a2"/>
      <use transform="translate(166.6015625 0.109375)" xlink:href="#Cmmi10-47"/>
      <use transform="translate(257.04703125 38.3734375)scale(0.7)" xlink:href="#Cmr10-32"/>
      <use transform="translate(292.04703125 38.3734375)scale(0.7)" xlink:href="#Cmr10-31"/>
      <use transform="translate(327.04703125 38.3734375)scale(0.7)" xlink:href="#Cmr10-30"/>
      <use transform="translate(368.424375 0.109375)" xlink:href="#BitstreamVeraSans-Roman-28"/>
      <use transform="translate(407.438046875 0.109375)" xlink:href="#BitstreamVeraSans-Roman-6b"/>
      <use transform="translate(465.348203125 0.109375)" xlink:href="#BitstreamVeraSans-Roman-63"/>
      <use transform="translate(520.328671875 0.109375)" xlink:href="#BitstreamVeraSans-Roman-61"/>
      <use transform="translate(581.60796875 0.109375)" xlink:href="#BitstreamVeraSans-Roman-6c"/>
      <use transform="translate(609.391171875 0.109375)" xlink:href="#BitstreamVeraSans-Roman-2f"/>
      <use transform="translate(643.082578125 0.109375)" xlink:href="#BitstreamVeraSans-Roman-6d"/>
      <use transform="translate(740.4946875 0.109375)" xlink:href="#BitstreamVeraSans-Roman-6f"/>
      <use transform="translate(801.676328125 0.109375)" xlink:href="#BitstreamVeraSans-Roman-6c"/>
      <use transform="translate(829.45953125 0.109375)" xlink:href="#BitstreamVeraSans-Roman-29"/>
     </g>
    </g>
   </g>
   <g id="legend_1">
    <g id="patch_47">
     <path d="M 63.690625 87.719375 
L 252.478125 87.719375 
L 252.478125 23.006875 
L 63.690625 23.006875 
z
" style="fill:#ffffff;stroke:#000000;stroke-linejoin:miter;"/>
    </g>
    <g id="patch_48">
     <path d="M 71.690625 46.20375 
L 111.690625 46.20375 
L 111.690625 32.20375 
L 71.690625 32.20375 
z
" style="fill:#2b8cbe;stroke:#000000;stroke-linejoin:miter;"/>
    </g>
    <g id="text_31">
     <!-- GetFEP-mid -->
     <defs>
      <path d="M 56.203125 29.59375 
L 56.203125 25.203125 
L 14.890625 25.203125 
Q 15.484375 15.921875 20.484375 11.0625 
Q 25.484375 6.203125 34.421875 6.203125 
Q 39.59375 6.203125 44.453125 7.46875 
Q 49.3125 8.734375 54.109375 11.28125 
L 54.109375 2.78125 
Q 49.265625 0.734375 44.1875 -0.34375 
Q 39.109375 -1.421875 33.890625 -1.421875 
Q 20.796875 -1.421875 13.15625 6.1875 
Q 5.515625 13.8125 5.515625 26.8125 
Q 5.515625 40.234375 12.765625 48.109375 
Q 20.015625 56 32.328125 56 
Q 43.359375 56 49.78125 48.890625 
Q 56.203125 41.796875 56.203125 29.59375 
M 47.21875 32.234375 
Q 47.125 39.59375 43.09375 43.984375 
Q 39.0625 48.390625 32.421875 48.390625 
Q 24.90625 48.390625 20.390625 44.140625 
Q 15.875 39.890625 15.1875 32.171875 
z
" id="BitstreamVeraSans-Roman-65"/>
      <path d="M 45.40625 46.390625 
L 45.40625 75.984375 
L 54.390625 75.984375 
L 54.390625 0 
L 45.40625 0 
L 45.40625 8.203125 
Q 42.578125 3.328125 38.25 0.953125 
Q 33.9375 -1.421875 27.875 -1.421875 
Q 17.96875 -1.421875 11.734375 6.484375 
Q 5.515625 14.40625 5.515625 27.296875 
Q 5.515625 40.1875 11.734375 48.09375 
Q 17.96875 56 27.875 56 
Q 33.9375 56 38.25 53.625 
Q 42.578125 51.265625 45.40625 46.390625 
M 14.796875 27.296875 
Q 14.796875 17.390625 18.875 11.75 
Q 22.953125 6.109375 30.078125 6.109375 
Q 37.203125 6.109375 41.296875 11.75 
Q 45.40625 17.390625 45.40625 27.296875 
Q 45.40625 37.203125 41.296875 42.84375 
Q 37.203125 48.484375 30.078125 48.484375 
Q 22.953125 48.484375 18.875 42.84375 
Q 14.796875 37.203125 14.796875 27.296875 
" id="BitstreamVeraSans-Roman-64"/>
      <path d="M 18.3125 70.21875 
L 18.3125 54.6875 
L 36.8125 54.6875 
L 36.8125 47.703125 
L 18.3125 47.703125 
L 18.3125 18.015625 
Q 18.3125 11.328125 20.140625 9.421875 
Q 21.96875 7.515625 27.59375 7.515625 
L 36.8125 7.515625 
L 36.8125 0 
L 27.59375 0 
Q 17.1875 0 13.234375 3.875 
Q 9.28125 7.765625 9.28125 18.015625 
L 9.28125 47.703125 
L 2.6875 47.703125 
L 2.6875 54.6875 
L 9.28125 54.6875 
L 9.28125 70.21875 
z
" id="BitstreamVeraSans-Roman-74"/>
      <path d="M 9.421875 54.6875 
L 18.40625 54.6875 
L 18.40625 0 
L 9.421875 0 
z
M 9.421875 75.984375 
L 18.40625 75.984375 
L 18.40625 64.59375 
L 9.421875 64.59375 
z
" id="BitstreamVeraSans-Roman-69"/>
      <path d="M 4.890625 31.390625 
L 31.203125 31.390625 
L 31.203125 23.390625 
L 4.890625 23.390625 
z
" id="BitstreamVeraSans-Roman-2d"/>
     </defs>
     <g transform="translate(127.690625 46.20375)scale(0.2 -0.2)">
      <use xlink:href="#BitstreamVeraSans-Roman-47"/>
      <use x="77.490234375" xlink:href="#BitstreamVeraSans-Roman-65"/>
      <use x="139.013671875" xlink:href="#BitstreamVeraSans-Roman-74"/>
      <use x="178.22265625" xlink:href="#BitstreamVeraSans-Roman-46"/>
      <use x="235.7421875" xlink:href="#BitstreamVeraSans-Roman-45"/>
      <use x="298.92578125" xlink:href="#BitstreamVeraSans-Roman-50"/>
      <use x="359.197265625" xlink:href="#BitstreamVeraSans-Roman-2d"/>
      <use x="395.28125" xlink:href="#BitstreamVeraSans-Roman-6d"/>
      <use x="492.693359375" xlink:href="#BitstreamVeraSans-Roman-69"/>
      <use x="520.4765625" xlink:href="#BitstreamVeraSans-Roman-64"/>
     </g>
    </g>
    <g id="patch_49">
     <path d="M 71.690625 75.56 
L 111.690625 75.56 
L 111.690625 61.56 
L 71.690625 61.56 
z
" style="fill:#e34a33;stroke:#000000;stroke-linejoin:miter;"/>
    </g>
    <g id="text_32">
     <!-- H-scale -->
     <defs>
      <path d="M 44.28125 53.078125 
L 44.28125 44.578125 
Q 40.484375 46.53125 36.375 47.5 
Q 32.28125 48.484375 27.875 48.484375 
Q 21.1875 48.484375 17.84375 46.4375 
Q 14.5 44.390625 14.5 40.28125 
Q 14.5 37.15625 16.890625 35.375 
Q 19.28125 33.59375 26.515625 31.984375 
L 29.59375 31.296875 
Q 39.15625 29.25 43.1875 25.515625 
Q 47.21875 21.78125 47.21875 15.09375 
Q 47.21875 7.46875 41.1875 3.015625 
Q 35.15625 -1.421875 24.609375 -1.421875 
Q 20.21875 -1.421875 15.453125 -0.5625 
Q 10.6875 0.296875 5.421875 2 
L 5.421875 11.28125 
Q 10.40625 8.6875 15.234375 7.390625 
Q 20.0625 6.109375 24.8125 6.109375 
Q 31.15625 6.109375 34.5625 8.28125 
Q 37.984375 10.453125 37.984375 14.40625 
Q 37.984375 18.0625 35.515625 20.015625 
Q 33.0625 21.96875 24.703125 23.78125 
L 21.578125 24.515625 
Q 13.234375 26.265625 9.515625 29.90625 
Q 5.8125 33.546875 5.8125 39.890625 
Q 5.8125 47.609375 11.28125 51.796875 
Q 16.75 56 26.8125 56 
Q 31.78125 56 36.171875 55.265625 
Q 40.578125 54.546875 44.28125 53.078125 
" id="BitstreamVeraSans-Roman-73"/>
     </defs>
     <g transform="translate(127.690625 75.56)scale(0.2 -0.2)">
      <use xlink:href="#BitstreamVeraSans-Roman-48"/>
      <use x="75.1953125" xlink:href="#BitstreamVeraSans-Roman-2d"/>
      <use x="111.279296875" xlink:href="#BitstreamVeraSans-Roman-73"/>
      <use x="163.37890625" xlink:href="#BitstreamVeraSans-Roman-63"/>
      <use x="218.359375" xlink:href="#BitstreamVeraSans-Roman-61"/>
      <use x="279.638671875" xlink:href="#BitstreamVeraSans-Roman-6c"/>
      <use x="307.421875" xlink:href="#BitstreamVeraSans-Roman-65"/>
     </g>
    </g>
   </g>
  </g>
 </g>
 <defs>
  <clipPath id="p471771d56b">
   <rect height="576.0" width="558.0" x="53.690625" y="13.006875"/>
  </clipPath>
 </defs>
</svg>
