%!PS-Adobe-3.0 EPSF-3.0
%%Title: hydro.eps
%%Creator: matplotlib version 1.3.1, http://matplotlib.org/
%%CreationDate: Fri Jan  1 13:06:20 2016
%%Orientation: portrait
%%BoundingBox: -5 -211 617 1003
%%EndComments
%%BeginProlog
/mpldict 10 dict def
mpldict begin
/m { moveto } bind def
/l { lineto } bind def
/r { rlineto } bind def
/c { curveto } bind def
/cl { closepath } bind def
/box {
m
1 index 0 r
0 exch r
neg 0 r
cl
} bind def
/clipbox {
box
clip
newpath
} bind def
%!PS-Adobe-3.0 Resource-Font
%%Title: Bitstream Vera Sans
%%Copyright: Copyright (c) 2003 by Bitstream, Inc. All Rights Reserved.
%%Creator: Converted from TrueType to type 3 by PPR
25 dict begin
/_d{bind def}bind def
/_m{moveto}_d
/_l{lineto}_d
/_cl{closepath eofill}_d
/_c{curveto}_d
/_sc{7 -1 roll{setcachedevice}{pop pop pop pop pop pop}ifelse}_d
/_e{exec}_d
/FontName /BitstreamVeraSans-Roman def
/PaintType 0 def
/FontMatrix[.001 0 0 .001 0 0]def
/FontBBox[-183 -236 1287 928]def
/FontType 3 def
/Encoding [ /space /parenleft /parenright /hyphen /slash /zero /one /two /three /four /five /six /A /C /D /E /F /G /H /I /K /L /M /N /O /P /Q /R /S /T /V /W /Y /a /c /e /g /i /k /l /m /n /o /r /s /u /minus ] def
/FontInfo 10 dict dup begin
/FamilyName (Bitstream Vera Sans) def
/FullName (Bitstream Vera Sans) def
/Notice (Copyright (c) 2003 by Bitstream, Inc. All Rights Reserved. Bitstream Vera is a trademark of Bitstream, Inc.) def
/Weight (Roman) def
/Version (Release 1.10) def
/ItalicAngle 0.0 def
/isFixedPitch false def
/UnderlinePosition -213 def
/UnderlineThickness 143 def
end readonly def
/CharStrings 47 dict dup begin
/space{318 0 0 0 0 0 _sc
}_d
/parenleft{390 0 86 -131 310 759 _sc
310 759 _m
266 683 234 609 213 536 _c
191 463 181 389 181 314 _c
181 238 191 164 213 91 _c
234 17 266 -56 310 -131 _c
232 -131 _l
183 -54 146 20 122 94 _c
98 168 86 241 86 314 _c
86 386 98 459 122 533 _c
146 607 182 682 232 759 _c
310 759 _l
_cl}_d
/parenright{390 0 80 -131 304 759 _sc
80 759 _m
158 759 _l
206 682 243 607 267 533 _c
291 459 304 386 304 314 _c
304 241 291 168 267 94 _c
243 20 206 -54 158 -131 _c
80 -131 _l
123 -56 155 17 177 91 _c
198 164 209 238 209 314 _c
209 389 198 463 177 536 _c
155 609 123 683 80 759 _c
_cl}_d
/hyphen{361 0 49 234 312 314 _sc
49 314 _m
312 314 _l
312 234 _l
49 234 _l
49 314 _l
_cl}_d
/slash{337 0 0 -92 337 729 _sc
254 729 _m
337 729 _l
83 -92 _l
0 -92 _l
254 729 _l
_cl}_d
/zero{636 0 66 -13 570 742 _sc
318 664 _m
267 664 229 639 203 589 _c
177 539 165 464 165 364 _c
165 264 177 189 203 139 _c
229 89 267 64 318 64 _c
369 64 407 89 433 139 _c
458 189 471 264 471 364 _c
471 464 458 539 433 589 _c
407 639 369 664 318 664 _c
318 742 _m
399 742 461 709 505 645 _c
548 580 570 486 570 364 _c
570 241 548 147 505 83 _c
461 19 399 -13 318 -13 _c
236 -13 173 19 130 83 _c
87 147 66 241 66 364 _c
66 486 87 580 130 645 _c
173 709 236 742 318 742 _c
_cl}_d
/one{636 0 110 0 544 729 _sc
124 83 _m
285 83 _l
285 639 _l
110 604 _l
110 694 _l
284 729 _l
383 729 _l
383 83 _l
544 83 _l
544 0 _l
124 0 _l
124 83 _l
_cl}_d
/two{{636 0 73 0 536 742 _sc
192 83 _m
536 83 _l
536 0 _l
73 0 _l
73 83 _l
110 121 161 173 226 239 _c
290 304 331 346 348 365 _c
380 400 402 430 414 455 _c
426 479 433 504 433 528 _c
433 566 419 598 392 622 _c
365 646 330 659 286 659 _c
255 659 222 653 188 643 _c
154 632 117 616 78 594 _c
78 694 _l
118 710 155 722 189 730 _c
223 738 255 742 284 742 _c
}_e{359 742 419 723 464 685 _c
509 647 532 597 532 534 _c
532 504 526 475 515 449 _c
504 422 484 390 454 354 _c
446 344 420 317 376 272 _c
332 227 271 164 192 83 _c
_cl}_e}_d
/three{{636 0 76 -13 556 742 _sc
406 393 _m
453 383 490 362 516 330 _c
542 298 556 258 556 212 _c
556 140 531 84 482 45 _c
432 6 362 -13 271 -13 _c
240 -13 208 -10 176 -4 _c
144 1 110 10 76 22 _c
76 117 _l
103 101 133 89 166 81 _c
198 73 232 69 268 69 _c
330 69 377 81 409 105 _c
441 129 458 165 458 212 _c
458 254 443 288 413 312 _c
383 336 341 349 287 349 _c
}_e{202 349 _l
202 430 _l
291 430 _l
339 430 376 439 402 459 _c
428 478 441 506 441 543 _c
441 580 427 609 401 629 _c
374 649 336 659 287 659 _c
260 659 231 656 200 650 _c
169 644 135 635 98 623 _c
98 711 _l
135 721 170 729 203 734 _c
235 739 266 742 296 742 _c
370 742 429 725 473 691 _c
517 657 539 611 539 553 _c
539 513 527 479 504 451 _c
481 423 448 403 406 393 _c
_cl}_e}_d
/four{636 0 49 0 580 729 _sc
378 643 _m
129 254 _l
378 254 _l
378 643 _l
352 729 _m
476 729 _l
476 254 _l
580 254 _l
580 172 _l
476 172 _l
476 0 _l
378 0 _l
378 172 _l
49 172 _l
49 267 _l
352 729 _l
_cl}_d
/five{{636 0 77 -13 549 729 _sc
108 729 _m
495 729 _l
495 646 _l
198 646 _l
198 467 _l
212 472 227 476 241 478 _c
255 480 270 482 284 482 _c
365 482 429 459 477 415 _c
525 370 549 310 549 234 _c
549 155 524 94 475 51 _c
426 8 357 -13 269 -13 _c
238 -13 207 -10 175 -6 _c
143 -1 111 6 77 17 _c
77 116 _l
106 100 136 88 168 80 _c
199 72 232 69 267 69 _c
}_e{323 69 368 83 401 113 _c
433 143 450 183 450 234 _c
450 284 433 324 401 354 _c
368 384 323 399 267 399 _c
241 399 214 396 188 390 _c
162 384 135 375 108 363 _c
108 729 _l
_cl}_e}_d
/six{{636 0 70 -13 573 742 _sc
330 404 _m
286 404 251 388 225 358 _c
199 328 186 286 186 234 _c
186 181 199 139 225 109 _c
251 79 286 64 330 64 _c
374 64 409 79 435 109 _c
461 139 474 181 474 234 _c
474 286 461 328 435 358 _c
409 388 374 404 330 404 _c
526 713 _m
526 623 _l
501 635 476 644 451 650 _c
425 656 400 659 376 659 _c
310 659 260 637 226 593 _c
}_e{192 549 172 482 168 394 _c
187 422 211 444 240 459 _c
269 474 301 482 336 482 _c
409 482 467 459 509 415 _c
551 371 573 310 573 234 _c
573 159 550 99 506 54 _c
462 9 403 -13 330 -13 _c
246 -13 181 19 137 83 _c
92 147 70 241 70 364 _c
70 479 97 571 152 639 _c
206 707 280 742 372 742 _c
396 742 421 739 447 735 _c
472 730 498 723 526 713 _c
_cl}_e}_d
/A{684 0 8 0 676 729 _sc
342 632 _m
208 269 _l
476 269 _l
342 632 _l
286 729 _m
398 729 _l
676 0 _l
573 0 _l
507 187 _l
178 187 _l
112 0 _l
8 0 _l
286 729 _l
_cl}_d
/C{{698 0 56 -13 644 742 _sc
644 673 _m
644 569 _l
610 599 575 622 537 638 _c
499 653 460 661 418 661 _c
334 661 270 635 226 584 _c
182 533 160 460 160 364 _c
160 268 182 194 226 143 _c
270 92 334 67 418 67 _c
460 67 499 74 537 90 _c
575 105 610 128 644 159 _c
644 56 _l
609 32 572 15 534 4 _c
496 -7 455 -13 412 -13 _c
302 -13 215 20 151 87 _c
}_e{87 154 56 246 56 364 _c
56 481 87 573 151 641 _c
215 708 302 742 412 742 _c
456 742 497 736 535 725 _c
573 713 610 696 644 673 _c
_cl}_e}_d
/D{770 0 98 0 711 729 _sc
197 648 _m
197 81 _l
316 81 _l
416 81 490 103 537 149 _c
583 195 607 267 607 365 _c
607 463 583 534 537 580 _c
490 625 416 648 316 648 _c
197 648 _l
98 729 _m
301 729 _l
442 729 546 699 612 641 _c
678 582 711 490 711 365 _c
711 239 677 147 611 88 _c
545 29 441 0 301 0 _c
98 0 _l
98 729 _l
_cl}_d
/E{632 0 98 0 568 729 _sc
98 729 _m
559 729 _l
559 646 _l
197 646 _l
197 430 _l
544 430 _l
544 347 _l
197 347 _l
197 83 _l
568 83 _l
568 0 _l
98 0 _l
98 729 _l
_cl}_d
/F{575 0 98 0 517 729 _sc
98 729 _m
517 729 _l
517 646 _l
197 646 _l
197 431 _l
486 431 _l
486 348 _l
197 348 _l
197 0 _l
98 0 _l
98 729 _l
_cl}_d
/G{{775 0 56 -13 693 742 _sc
595 104 _m
595 300 _l
434 300 _l
434 381 _l
693 381 _l
693 68 _l
655 40 613 20 567 7 _c
521 -6 472 -13 420 -13 _c
306 -13 216 20 152 86 _c
88 152 56 245 56 364 _c
56 482 88 575 152 642 _c
216 708 306 742 420 742 _c
467 742 512 736 555 724 _c
598 712 638 695 674 673 _c
674 568 _l
637 598 598 621 557 637 _c
516 653 473 661 428 661 _c
}_e{338 661 271 636 227 586 _c
182 536 160 462 160 364 _c
160 265 182 191 227 141 _c
271 91 338 67 428 67 _c
462 67 493 70 521 76 _c
549 82 573 91 595 104 _c
_cl}_e}_d
/H{752 0 98 0 654 729 _sc
98 729 _m
197 729 _l
197 430 _l
555 430 _l
555 729 _l
654 729 _l
654 0 _l
555 0 _l
555 347 _l
197 347 _l
197 0 _l
98 0 _l
98 729 _l
_cl}_d
/I{295 0 98 0 197 729 _sc
98 729 _m
197 729 _l
197 0 _l
98 0 _l
98 729 _l
_cl}_d
/K{656 0 98 0 677 729 _sc
98 729 _m
197 729 _l
197 421 _l
524 729 _l
651 729 _l
289 389 _l
677 0 _l
547 0 _l
197 351 _l
197 0 _l
98 0 _l
98 729 _l
_cl}_d
/L{557 0 98 0 552 729 _sc
98 729 _m
197 729 _l
197 83 _l
552 83 _l
552 0 _l
98 0 _l
98 729 _l
_cl}_d
/M{863 0 98 0 765 729 _sc
98 729 _m
245 729 _l
431 233 _l
618 729 _l
765 729 _l
765 0 _l
669 0 _l
669 640 _l
481 140 _l
382 140 _l
194 640 _l
194 0 _l
98 0 _l
98 729 _l
_cl}_d
/N{748 0 98 0 650 729 _sc
98 729 _m
231 729 _l
554 119 _l
554 729 _l
650 729 _l
650 0 _l
517 0 _l
194 610 _l
194 0 _l
98 0 _l
98 729 _l
_cl}_d
/O{787 0 56 -13 731 742 _sc
394 662 _m
322 662 265 635 223 582 _c
181 528 160 456 160 364 _c
160 272 181 199 223 146 _c
265 92 322 66 394 66 _c
465 66 522 92 564 146 _c
606 199 627 272 627 364 _c
627 456 606 528 564 582 _c
522 635 465 662 394 662 _c
394 742 _m
496 742 577 707 639 639 _c
700 571 731 479 731 364 _c
731 248 700 157 639 89 _c
577 21 496 -13 394 -13 _c
291 -13 209 21 148 89 _c
86 157 56 248 56 364 _c
56 479 86 571 148 639 _c
209 707 291 742 394 742 _c
_cl}_d
/P{603 0 98 0 569 729 _sc
197 648 _m
197 374 _l
321 374 _l
367 374 402 385 427 409 _c
452 433 465 467 465 511 _c
465 555 452 588 427 612 _c
402 636 367 648 321 648 _c
197 648 _l
98 729 _m
321 729 _l
402 729 464 710 506 673 _c
548 636 569 582 569 511 _c
569 439 548 384 506 348 _c
464 311 402 293 321 293 _c
197 293 _l
197 0 _l
98 0 _l
98 729 _l
_cl}_d
/Q{{787 0 56 -128 731 742 _sc
394 662 _m
322 662 265 635 223 582 _c
181 528 160 456 160 364 _c
160 272 181 199 223 146 _c
265 92 322 66 394 66 _c
465 66 522 92 564 146 _c
606 199 627 272 627 364 _c
627 456 606 528 564 582 _c
522 635 465 662 394 662 _c
532 13 _m
662 -128 _l
543 -128 _l
435 -11 _l
424 -11 416 -12 410 -12 _c
404 -12 399 -13 394 -13 _c
291 -13 209 21 148 89 _c
}_e{86 157 56 248 56 364 _c
56 479 86 571 148 639 _c
209 707 291 742 394 742 _c
496 742 577 707 639 639 _c
700 571 731 479 731 364 _c
731 279 714 206 680 146 _c
646 86 596 41 532 13 _c
_cl}_e}_d
/R{{695 0 98 0 666 729 _sc
444 342 _m
465 334 486 319 506 296 _c
526 272 546 240 566 199 _c
666 0 _l
560 0 _l
467 187 _l
443 235 419 268 397 284 _c
374 300 343 308 304 308 _c
197 308 _l
197 0 _l
98 0 _l
98 729 _l
321 729 _l
404 729 466 711 507 677 _c
548 642 569 589 569 519 _c
569 473 558 434 537 404 _c
515 374 484 353 444 342 _c
197 648 _m
197 389 _l
321 389 _l
}_e{368 389 404 400 428 422 _c
452 444 465 476 465 519 _c
465 561 452 593 428 615 _c
404 637 368 648 321 648 _c
197 648 _l
_cl}_e}_d
/S{{635 0 66 -13 579 742 _sc
535 705 _m
535 609 _l
497 627 462 640 429 649 _c
395 657 363 662 333 662 _c
279 662 237 651 208 631 _c
179 610 165 580 165 542 _c
165 510 174 485 194 469 _c
213 452 250 439 304 429 _c
364 417 _l
437 403 491 378 526 343 _c
561 307 579 260 579 201 _c
579 130 555 77 508 41 _c
460 5 391 -13 300 -13 _c
265 -13 228 -9 189 -2 _c
}_e{150 5 110 16 69 32 _c
69 134 _l
109 111 148 94 186 83 _c
224 71 262 66 300 66 _c
356 66 399 77 430 99 _c
460 121 476 152 476 194 _c
476 230 465 258 443 278 _c
421 298 385 313 335 323 _c
275 335 _l
201 349 148 372 115 404 _c
82 435 66 478 66 534 _c
66 598 88 649 134 686 _c
179 723 242 742 322 742 _c
356 742 390 739 426 733 _c
461 727 497 717 535 705 _c
}_e{_cl}_e}_d
/T{611 0 -2 0 614 729 _sc
-2 729 _m
614 729 _l
614 646 _l
355 646 _l
355 0 _l
256 0 _l
256 646 _l
-2 646 _l
-2 729 _l
_cl}_d
/V{684 0 8 0 676 729 _sc
286 0 _m
8 729 _l
111 729 _l
342 115 _l
573 729 _l
676 729 _l
398 0 _l
286 0 _l
_cl}_d
/W{989 0 33 0 956 729 _sc
33 729 _m
133 729 _l
286 113 _l
439 729 _l
550 729 _l
703 113 _l
856 729 _l
956 729 _l
773 0 _l
649 0 _l
495 633 _l
340 0 _l
216 0 _l
33 729 _l
_cl}_d
/Y{611 0 -1 0 613 729 _sc
-1 729 _m
104 729 _l
306 429 _l
507 729 _l
613 729 _l
355 347 _l
355 0 _l
256 0 _l
256 347 _l
-1 729 _l
_cl}_d
/a{{613 0 60 -13 522 560 _sc
343 275 _m
270 275 220 266 192 250 _c
164 233 150 205 150 165 _c
150 133 160 107 181 89 _c
202 70 231 61 267 61 _c
317 61 357 78 387 114 _c
417 149 432 196 432 255 _c
432 275 _l
343 275 _l
522 312 _m
522 0 _l
432 0 _l
432 83 _l
411 49 385 25 355 10 _c
325 -5 287 -13 243 -13 _c
187 -13 142 2 109 33 _c
76 64 60 106 60 159 _c
}_e{60 220 80 266 122 298 _c
163 329 224 345 306 345 _c
432 345 _l
432 354 _l
432 395 418 427 391 450 _c
364 472 326 484 277 484 _c
245 484 215 480 185 472 _c
155 464 127 453 100 439 _c
100 522 _l
132 534 164 544 195 550 _c
226 556 256 560 286 560 _c
365 560 424 539 463 498 _c
502 457 522 395 522 312 _c
_cl}_e}_d
/c{{550 0 55 -13 488 560 _sc
488 526 _m
488 442 _l
462 456 437 466 411 473 _c
385 480 360 484 334 484 _c
276 484 230 465 198 428 _c
166 391 150 339 150 273 _c
150 206 166 154 198 117 _c
230 80 276 62 334 62 _c
360 62 385 65 411 72 _c
437 79 462 90 488 104 _c
488 21 _l
462 9 436 0 410 -5 _c
383 -10 354 -13 324 -13 _c
242 -13 176 12 128 64 _c
}_e{79 115 55 185 55 273 _c
55 362 79 432 128 483 _c
177 534 244 560 330 560 _c
358 560 385 557 411 551 _c
437 545 463 537 488 526 _c
_cl}_e}_d
/e{{615 0 55 -13 562 560 _sc
562 296 _m
562 252 _l
149 252 _l
153 190 171 142 205 110 _c
238 78 284 62 344 62 _c
378 62 412 66 444 74 _c
476 82 509 95 541 113 _c
541 28 _l
509 14 476 3 442 -3 _c
408 -9 373 -13 339 -13 _c
251 -13 182 12 131 62 _c
80 112 55 181 55 268 _c
55 357 79 428 127 481 _c
175 533 241 560 323 560 _c
397 560 455 536 498 489 _c
}_e{540 441 562 377 562 296 _c
472 322 _m
471 371 457 410 431 440 _c
404 469 368 484 324 484 _c
274 484 234 469 204 441 _c
174 413 156 373 152 322 _c
472 322 _l
_cl}_e}_d
/g{{635 0 55 -207 544 560 _sc
454 280 _m
454 344 440 395 414 431 _c
387 467 349 485 301 485 _c
253 485 215 467 188 431 _c
161 395 148 344 148 280 _c
148 215 161 165 188 129 _c
215 93 253 75 301 75 _c
349 75 387 93 414 129 _c
440 165 454 215 454 280 _c
544 68 _m
544 -24 523 -93 482 -139 _c
440 -184 377 -207 292 -207 _c
260 -207 231 -204 203 -200 _c
175 -195 147 -188 121 -178 _c
}_e{121 -91 _l
147 -105 173 -115 199 -122 _c
225 -129 251 -133 278 -133 _c
336 -133 380 -117 410 -87 _c
439 -56 454 -10 454 52 _c
454 96 _l
435 64 411 40 382 24 _c
353 8 319 0 279 0 _c
211 0 157 25 116 76 _c
75 127 55 195 55 280 _c
55 364 75 432 116 483 _c
157 534 211 560 279 560 _c
319 560 353 552 382 536 _c
411 520 435 496 454 464 _c
454 547 _l
544 547 _l
}_e{544 68 _l
_cl}_e}_d
/i{278 0 94 0 184 760 _sc
94 547 _m
184 547 _l
184 0 _l
94 0 _l
94 547 _l
94 760 _m
184 760 _l
184 646 _l
94 646 _l
94 760 _l
_cl}_d
/k{579 0 91 0 576 760 _sc
91 760 _m
181 760 _l
181 311 _l
449 547 _l
564 547 _l
274 291 _l
576 0 _l
459 0 _l
181 267 _l
181 0 _l
91 0 _l
91 760 _l
_cl}_d
/l{278 0 94 0 184 760 _sc
94 760 _m
184 760 _l
184 0 _l
94 0 _l
94 760 _l
_cl}_d
/m{{974 0 91 0 889 560 _sc
520 442 _m
542 482 569 511 600 531 _c
631 550 668 560 711 560 _c
767 560 811 540 842 500 _c
873 460 889 403 889 330 _c
889 0 _l
799 0 _l
799 327 _l
799 379 789 418 771 444 _c
752 469 724 482 686 482 _c
639 482 602 466 575 435 _c
548 404 535 362 535 309 _c
535 0 _l
445 0 _l
445 327 _l
445 379 435 418 417 444 _c
398 469 369 482 331 482 _c
}_e{285 482 248 466 221 435 _c
194 404 181 362 181 309 _c
181 0 _l
91 0 _l
91 547 _l
181 547 _l
181 462 _l
201 495 226 520 255 536 _c
283 552 317 560 357 560 _c
397 560 430 550 458 530 _c
486 510 506 480 520 442 _c
_cl}_e}_d
/n{634 0 91 0 549 560 _sc
549 330 _m
549 0 _l
459 0 _l
459 327 _l
459 379 448 417 428 443 _c
408 469 378 482 338 482 _c
289 482 251 466 223 435 _c
195 404 181 362 181 309 _c
181 0 _l
91 0 _l
91 547 _l
181 547 _l
181 462 _l
202 494 227 519 257 535 _c
286 551 320 560 358 560 _c
420 560 468 540 500 501 _c
532 462 549 405 549 330 _c
_cl}_d
/o{612 0 55 -13 557 560 _sc
306 484 _m
258 484 220 465 192 427 _c
164 389 150 338 150 273 _c
150 207 163 156 191 118 _c
219 80 257 62 306 62 _c
354 62 392 80 420 118 _c
448 156 462 207 462 273 _c
462 337 448 389 420 427 _c
392 465 354 484 306 484 _c
306 560 _m
384 560 445 534 490 484 _c
534 433 557 363 557 273 _c
557 183 534 113 490 63 _c
445 12 384 -13 306 -13 _c
227 -13 165 12 121 63 _c
77 113 55 183 55 273 _c
55 363 77 433 121 484 _c
165 534 227 560 306 560 _c
_cl}_d
/r{411 0 91 0 411 560 _sc
411 463 _m
401 469 390 473 378 476 _c
366 478 353 480 339 480 _c
288 480 249 463 222 430 _c
194 397 181 350 181 288 _c
181 0 _l
91 0 _l
91 547 _l
181 547 _l
181 462 _l
199 495 224 520 254 536 _c
284 552 321 560 365 560 _c
371 560 378 559 386 559 _c
393 558 401 557 411 555 _c
411 463 _l
_cl}_d
/s{{521 0 54 -13 472 560 _sc
443 531 _m
443 446 _l
417 458 391 468 364 475 _c
336 481 308 485 279 485 _c
234 485 200 478 178 464 _c
156 450 145 430 145 403 _c
145 382 153 366 169 354 _c
185 342 217 330 265 320 _c
296 313 _l
360 299 405 279 432 255 _c
458 230 472 195 472 151 _c
472 100 452 60 412 31 _c
372 1 316 -13 246 -13 _c
216 -13 186 -10 154 -5 _c
}_e{122 0 89 8 54 20 _c
54 113 _l
87 95 120 82 152 74 _c
184 65 216 61 248 61 _c
290 61 323 68 346 82 _c
368 96 380 117 380 144 _c
380 168 371 187 355 200 _c
339 213 303 226 247 238 _c
216 245 _l
160 257 119 275 95 299 _c
70 323 58 356 58 399 _c
58 450 76 490 112 518 _c
148 546 200 560 268 560 _c
301 560 332 557 362 552 _c
391 547 418 540 443 531 _c
}_e{_cl}_e}_d
/u{634 0 85 -13 543 547 _sc
85 216 _m
85 547 _l
175 547 _l
175 219 _l
175 167 185 129 205 103 _c
225 77 255 64 296 64 _c
344 64 383 79 411 110 _c
439 141 453 183 453 237 _c
453 547 _l
543 547 _l
543 0 _l
453 0 _l
453 84 _l
431 50 405 26 377 10 _c
348 -5 315 -13 277 -13 _c
214 -13 166 6 134 45 _c
101 83 85 140 85 216 _c
_cl}_d
/minus{838 0 106 272 732 355 _sc
106 355 _m
732 355 _l
732 272 _l
106 272 _l
106 355 _l
_cl}_d
end readonly def

/BuildGlyph
 {exch begin
 CharStrings exch
 2 copy known not{pop /.notdef}if
 true 3 1 roll get exec
 end}_d

/BuildChar {
 1 index /Encoding get exch get
 1 index /BuildGlyph get exec
}_d

FontName currentdict end definefont pop
%!PS-Adobe-3.0 Resource-Font
%%Title: cmr10
%%Copyright: Copyright (C) 1994, Basil K. Malyshev. All Rights Reserved.012BaKoMa Fonts Collection, Level-B.
%%Creator: Converted from TrueType to type 3 by PPR
25 dict begin
/_d{bind def}bind def
/_m{moveto}_d
/_l{lineto}_d
/_cl{closepath eofill}_d
/_c{curveto}_d
/_sc{7 -1 roll{setcachedevice}{pop pop pop pop pop pop}ifelse}_d
/_e{exec}_d
/FontName /Cmr10 def
/PaintType 0 def
/FontMatrix[.001 0 0 .001 0 0]def
/FontBBox[-44 -250 1009 750]def
/FontType 3 def
/Encoding [ /Delta /zero /two /one ] def
/FontInfo 10 dict dup begin
/FamilyName (cmr10) def
/FullName (cmr10) def
/Notice (Copyright (C) 1994, Basil K. Malyshev. All Rights Reserved.012BaKoMa Fonts Collection, Level-B. ) def
/Weight (Regular) def
/Version (1.1/12-Nov-94) def
/ItalicAngle 0.0 def
/isFixedPitch false def
/UnderlinePosition -133 def
/UnderlineThickness 20 def
end readonly def
/CharStrings 4 dict dup begin
/Delta{833 0 46 0 786 716 _sc
54 0 _m
48 0 46 2 46 8 _c
46 8 46 9 46 9 _c
46 9 47 10 47 11 _c
391 705 _l
394 712 400 716 409 716 _c
423 716 _l
432 716 438 712 441 705 _c
785 11 _l
785 10 786 9 786 9 _c
786 9 786 8 786 8 _c
786 2 783 0 778 0 _c
54 0 _l
120 80 _m
647 80 _l
384 611 _l
120 80 _l
_cl}_d
/zero{{500 0 39 -21 460 666 _sc
250 -21 _m
168 -21 112 12 83 79 _c
53 146 39 226 39 319 _c
39 377 44 431 55 482 _c
65 533 86 576 118 612 _c
149 648 193 666 250 666 _c
294 666 330 655 358 634 _c
386 612 407 585 422 551 _c
436 517 446 480 452 441 _c
457 402 460 361 460 319 _c
460 261 454 208 444 158 _c
433 108 412 65 381 31 _c
350 -3 306 -21 250 -21 _c
250 4 _m
}_e{287 4 315 23 333 61 _c
351 99 362 141 366 187 _c
370 233 373 283 373 335 _c
373 385 370 431 366 473 _c
362 515 351 554 333 588 _c
315 622 287 640 250 640 _c
212 640 184 622 166 588 _c
148 554 136 515 132 473 _c
128 431 126 385 126 335 _c
126 297 126 262 128 230 _c
130 197 135 163 143 128 _c
151 93 163 64 181 40 _c
198 16 221 4 250 4 _c
_cl}_e}_d
/two{{500 0 50 0 449 666 _sc
50 0 _m
50 27 _l
50 28 50 30 52 32 _c
207 204 _l
230 229 249 250 264 268 _c
278 285 293 305 307 327 _c
321 349 333 372 341 396 _c
349 419 354 444 354 470 _c
354 497 349 523 339 548 _c
329 573 314 593 294 608 _c
274 623 249 631 221 631 _c
192 631 166 622 143 605 _c
119 587 103 565 94 537 _c
96 537 100 538 105 538 _c
}_e{119 538 132 533 143 523 _c
153 513 159 500 159 484 _c
159 468 153 455 143 445 _c
132 434 119 429 105 429 _c
89 429 76 434 66 445 _c
55 456 50 469 50 484 _c
50 508 54 532 64 554 _c
73 576 86 595 104 613 _c
122 630 142 643 164 652 _c
186 661 210 666 236 666 _c
274 666 309 658 342 642 _c
375 626 401 603 420 573 _c
439 543 449 509 449 470 _c
}_e{449 441 442 414 430 388 _c
417 362 401 338 381 317 _c
361 295 336 271 305 244 _c
274 217 254 199 244 190 _c
131 81 _l
227 81 _l
274 81 313 81 345 82 _c
377 82 394 84 396 86 _c
404 94 412 125 420 178 _c
449 178 _l
421 0 _l
50 0 _l
_cl}_e}_d
/one{500 0 87 0 421 666 _sc
93 0 _m
93 35 _l
176 35 218 45 218 67 _c
218 592 _l
183 575 139 567 87 567 _c
87 602 _l
168 602 230 623 272 666 _c
286 666 _l
288 666 291 665 293 663 _c
295 661 296 659 296 657 _c
296 67 _l
296 45 337 35 421 35 _c
421 0 _l
93 0 _l
_cl}_d
end readonly def

/BuildGlyph
 {exch begin
 CharStrings exch
 2 copy known not{pop /.notdef}if
 true 3 1 roll get exec
 end}_d

/BuildChar {
 1 index /Encoding get exch get
 1 index /BuildGlyph get exec
}_d

FontName currentdict end definefont pop
%!PS-Adobe-3.0 Resource-Font
%%Title: cmmi10
%%Copyright: Copyright (C) 1994, Basil K. Malyshev. All Rights Reserved.012BaKoMa Fonts Collection, Level-B.
%%Creator: Converted from TrueType to type 3 by PPR
25 dict begin
/_d{bind def}bind def
/_m{moveto}_d
/_l{lineto}_d
/_cl{closepath eofill}_d
/_c{curveto}_d
/_sc{7 -1 roll{setcachedevice}{pop pop pop pop pop pop}ifelse}_d
/_e{exec}_d
/FontName /Cmmi10 def
/PaintType 0 def
/FontMatrix[.001 0 0 .001 0 0]def
/FontBBox[-34 -250 1048 750]def
/FontType 3 def
/Encoding [ /G ] def
/FontInfo 10 dict dup begin
/FamilyName (cmmi10) def
/FullName (cmmi10) def
/Notice (Copyright (C) 1994, Basil K. Malyshev. All Rights Reserved.012BaKoMa Fonts Collection, Level-B. ) def
/Weight (Regular) def
/Version (1.1/12-Nov-94) def
/ItalicAngle 0.0 def
/isFixedPitch false def
/UnderlinePosition -133 def
/UnderlineThickness 20 def
end readonly def
/CharStrings 1 dict dup begin
/G{{786 0 51 -21 761 705 _sc
146 219 _m
146 177 154 141 170 110 _c
186 79 210 55 241 38 _c
272 21 308 13 349 13 _c
389 13 426 22 462 41 _c
498 59 520 86 530 122 _c
552 208 _l
552 210 552 212 552 214 _c
552 216 553 217 553 219 _c
553 225 551 229 547 231 _c
530 235 497 238 447 238 _c
440 238 437 242 437 251 _c
439 259 440 264 442 268 _c
444 271 448 273 454 273 _c
}_e{712 273 _l
718 273 722 268 722 260 _c
722 258 721 255 720 251 _c
719 247 718 244 716 242 _c
714 239 712 238 709 238 _c
687 238 670 236 660 232 _c
650 228 643 219 639 204 _c
617 118 _l
589 7 _l
587 2 584 0 580 0 _c
574 0 566 7 556 22 _c
546 37 538 50 534 60 _c
511 32 480 12 441 -1 _c
402 -14 362 -21 322 -21 _c
270 -21 223 -9 182 13 _c
}_e{140 36 108 68 85 110 _c
62 152 51 199 51 252 _c
51 308 63 363 88 418 _c
112 472 146 521 189 564 _c
231 607 280 641 334 667 _c
388 692 443 705 499 705 _c
521 705 542 701 562 695 _c
582 688 601 678 619 664 _c
637 650 651 635 662 617 _c
741 703 _l
741 704 742 705 746 705 _c
752 705 _l
754 705 756 704 758 702 _c
760 700 761 697 761 695 _c
693 425 _l
}_e{693 420 690 418 685 418 _c
667 418 _l
661 418 659 421 659 429 _c
661 443 663 461 663 481 _c
663 513 657 544 646 573 _c
635 602 618 625 595 643 _c
571 661 543 670 509 670 _c
455 670 405 656 360 629 _c
314 601 276 565 244 521 _c
212 477 188 428 171 374 _c
154 320 146 269 146 219 _c
_cl}_e}_d
end readonly def

/BuildGlyph
 {exch begin
 CharStrings exch
 2 copy known not{pop /.notdef}if
 true 3 1 roll get exec
 end}_d

/BuildChar {
 1 index /Encoding get exch get
 1 index /BuildGlyph get exec
}_d

FontName currentdict end definefont pop
end
%%EndProlog
mpldict begin
-5.942 -211.419 translate
623.884 1214.838 0 0 clipbox
gsave
0 0 m
623.884 0 l
623.884 1214.84 l
0 1214.84 l
cl
1.000 setgray
fill
grestore
0.500 setlinewidth
1 setlinejoin
0 setlinecap
[] 0 setdash
0.000 setgray
gsave
/o {
gsave
newpath
translate
0.5 setlinewidth
1 setlinejoin
0 setlinecap
0 0 m
0 4 l
gsave
0.000 setgray
fill
grestore
stroke
grestore
} bind def
55.6688 49.825 o
grestore
gsave
/o {
gsave
newpath
translate
0.5 setlinewidth
1 setlinejoin
0 setlinecap
0 0 m
0 -4 l
gsave
0.000 setgray
fill
grestore
stroke
grestore
} bind def
55.6688 1201.83 o
grestore
gsave
/o {
gsave
newpath
translate
0.5 setlinewidth
1 setlinejoin
0 setlinecap
0 0 m
0 4 l
gsave
0.000 setgray
fill
grestore
stroke
grestore
} bind def
167.269 49.825 o
grestore
gsave
/o {
gsave
newpath
translate
0.5 setlinewidth
1 setlinejoin
0 setlinecap
0 0 m
0 -4 l
gsave
0.000 setgray
fill
grestore
stroke
grestore
} bind def
167.269 1201.83 o
grestore
gsave
/o {
gsave
newpath
translate
0.5 setlinewidth
1 setlinejoin
0 setlinecap
0 0 m
0 4 l
gsave
0.000 setgray
fill
grestore
stroke
grestore
} bind def
278.869 49.825 o
grestore
gsave
/o {
gsave
newpath
translate
0.5 setlinewidth
1 setlinejoin
0 setlinecap
0 0 m
0 -4 l
gsave
0.000 setgray
fill
grestore
stroke
grestore
} bind def
278.869 1201.83 o
grestore
gsave
/o {
gsave
newpath
translate
0.5 setlinewidth
1 setlinejoin
0 setlinecap
0 0 m
0 4 l
gsave
0.000 setgray
fill
grestore
stroke
grestore
} bind def
390.469 49.825 o
grestore
gsave
/o {
gsave
newpath
translate
0.5 setlinewidth
1 setlinejoin
0 setlinecap
0 0 m
0 -4 l
gsave
0.000 setgray
fill
grestore
stroke
grestore
} bind def
390.469 1201.83 o
grestore
gsave
/o {
gsave
newpath
translate
0.5 setlinewidth
1 setlinejoin
0 setlinecap
0 0 m
0 4 l
gsave
0.000 setgray
fill
grestore
stroke
grestore
} bind def
502.069 49.825 o
grestore
gsave
/o {
gsave
newpath
translate
0.5 setlinewidth
1 setlinejoin
0 setlinecap
0 0 m
0 -4 l
gsave
0.000 setgray
fill
grestore
stroke
grestore
} bind def
502.069 1201.83 o
grestore
gsave
/o {
gsave
newpath
translate
0.5 setlinewidth
1 setlinejoin
0 setlinecap
0 0 m
0 4 l
gsave
0.000 setgray
fill
grestore
stroke
grestore
} bind def
613.669 49.825 o
grestore
gsave
/o {
gsave
newpath
translate
0.5 setlinewidth
1 setlinejoin
0 setlinecap
0 0 m
0 -4 l
gsave
0.000 setgray
fill
grestore
stroke
grestore
} bind def
613.669 1201.83 o
grestore
gsave
/o {
gsave
newpath
translate
0.5 setlinewidth
1 setlinejoin
0 setlinecap
0 0 m
4 0 l
gsave
0.000 setgray
fill
grestore
stroke
grestore
} bind def
55.6688 49.825 o
grestore
gsave
/o {
gsave
newpath
translate
0.5 setlinewidth
1 setlinejoin
0 setlinecap
0 0 m
-4 0 l
gsave
0.000 setgray
fill
grestore
stroke
grestore
} bind def
613.669 49.825 o
grestore
gsave
/o {
gsave
newpath
translate
0.5 setlinewidth
1 setlinejoin
0 setlinecap
0 0 m
4 0 l
gsave
0.000 setgray
fill
grestore
stroke
grestore
} bind def
55.6688 280.225 o
grestore
gsave
/o {
gsave
newpath
translate
0.5 setlinewidth
1 setlinejoin
0 setlinecap
0 0 m
-4 0 l
gsave
0.000 setgray
fill
grestore
stroke
grestore
} bind def
613.669 280.225 o
grestore
gsave
/o {
gsave
newpath
translate
0.5 setlinewidth
1 setlinejoin
0 setlinecap
0 0 m
4 0 l
gsave
0.000 setgray
fill
grestore
stroke
grestore
} bind def
55.6688 510.625 o
grestore
gsave
/o {
gsave
newpath
translate
0.5 setlinewidth
1 setlinejoin
0 setlinecap
0 0 m
-4 0 l
gsave
0.000 setgray
fill
grestore
stroke
grestore
} bind def
613.669 510.625 o
grestore
gsave
/o {
gsave
newpath
translate
0.5 setlinewidth
1 setlinejoin
0 setlinecap
0 0 m
4 0 l
gsave
0.000 setgray
fill
grestore
stroke
grestore
} bind def
55.6688 741.025 o
grestore
gsave
/o {
gsave
newpath
translate
0.5 setlinewidth
1 setlinejoin
0 setlinecap
0 0 m
-4 0 l
gsave
0.000 setgray
fill
grestore
stroke
grestore
} bind def
613.669 741.025 o
grestore
gsave
/o {
gsave
newpath
translate
0.5 setlinewidth
1 setlinejoin
0 setlinecap
0 0 m
4 0 l
gsave
0.000 setgray
fill
grestore
stroke
grestore
} bind def
55.6688 971.425 o
grestore
gsave
/o {
gsave
newpath
translate
0.5 setlinewidth
1 setlinejoin
0 setlinecap
0 0 m
-4 0 l
gsave
0.000 setgray
fill
grestore
stroke
grestore
} bind def
613.669 971.425 o
grestore
gsave
/o {
gsave
newpath
translate
0.5 setlinewidth
1 setlinejoin
0 setlinecap
0 0 m
4 0 l
gsave
0.000 setgray
fill
grestore
stroke
grestore
} bind def
55.6688 1201.83 o
grestore
gsave
/o {
gsave
newpath
translate
0.5 setlinewidth
1 setlinejoin
0 setlinecap
0 0 m
-4 0 l
gsave
0.000 setgray
fill
grestore
stroke
grestore
} bind def
613.669 1201.83 o
grestore
gsave
55.6688 678.189 m
613.669 678.189 l
613.669 1201.83 l
55.6688 1201.83 l
cl
1.000 setgray
fill
grestore
1.000 setlinewidth
gsave
558 523.6 55.67 678.2 clipbox
63.8746 774.717 m
74.8158 774.717 l
74.8158 852.734 l
63.8746 852.734 l
cl
gsave
0.169 0.549 0.745 setrgbcolor
fill
grestore
stroke
grestore
gsave
558 523.6 55.67 678.2 clipbox
91.2276 745.209 m
102.169 745.209 l
102.169 852.734 l
91.2276 852.734 l
cl
gsave
0.169 0.549 0.745 setrgbcolor
fill
grestore
stroke
grestore
gsave
558 523.6 55.67 678.2 clipbox
118.581 774.804 m
129.522 774.804 l
129.522 852.734 l
118.581 852.734 l
cl
gsave
0.169 0.549 0.745 setrgbcolor
fill
grestore
stroke
grestore
gsave
558 523.6 55.67 678.2 clipbox
145.933 852.734 m
156.875 852.734 l
156.875 928.779 l
145.933 928.779 l
cl
gsave
0.169 0.549 0.745 setrgbcolor
fill
grestore
stroke
grestore
gsave
558 523.6 55.67 678.2 clipbox
173.286 840.874 m
184.228 840.874 l
184.228 852.734 l
173.286 852.734 l
cl
gsave
0.169 0.549 0.745 setrgbcolor
fill
grestore
stroke
grestore
gsave
558 523.6 55.67 678.2 clipbox
200.639 794.287 m
211.581 794.287 l
211.581 852.734 l
200.639 852.734 l
cl
gsave
0.169 0.549 0.745 setrgbcolor
fill
grestore
stroke
grestore
gsave
558 523.6 55.67 678.2 clipbox
227.992 811.069 m
238.933 811.069 l
238.933 852.734 l
227.992 852.734 l
cl
gsave
0.169 0.549 0.745 setrgbcolor
fill
grestore
stroke
grestore
gsave
558 523.6 55.67 678.2 clipbox
255.345 841.274 m
266.286 841.274 l
266.286 852.734 l
255.345 852.734 l
cl
gsave
0.169 0.549 0.745 setrgbcolor
fill
grestore
stroke
grestore
gsave
558 523.6 55.67 678.2 clipbox
282.698 852.734 m
293.639 852.734 l
293.639 852.734 l
282.698 852.734 l
cl
gsave
0.169 0.549 0.745 setrgbcolor
fill
grestore
stroke
grestore
gsave
558 523.6 55.67 678.2 clipbox
310.051 852.734 m
320.992 852.734 l
320.992 879.493 l
310.051 879.493 l
cl
gsave
0.169 0.549 0.745 setrgbcolor
fill
grestore
stroke
grestore
gsave
558 523.6 55.67 678.2 clipbox
337.404 852.734 m
348.345 852.734 l
348.345 977.899 l
337.404 977.899 l
cl
gsave
0.169 0.549 0.745 setrgbcolor
fill
grestore
stroke
grestore
gsave
558 523.6 55.67 678.2 clipbox
364.757 852.734 m
375.698 852.734 l
375.698 901.851 l
364.757 901.851 l
cl
gsave
0.169 0.549 0.745 setrgbcolor
fill
grestore
stroke
grestore
gsave
558 523.6 55.67 678.2 clipbox
392.11 852.734 m
403.051 852.734 l
403.051 909.862 l
392.11 909.862 l
cl
gsave
0.169 0.549 0.745 setrgbcolor
fill
grestore
stroke
grestore
gsave
558 523.6 55.67 678.2 clipbox
419.463 852.734 m
430.404 852.734 l
430.404 958.91 l
419.463 958.91 l
cl
gsave
0.169 0.549 0.745 setrgbcolor
fill
grestore
stroke
grestore
gsave
558 523.6 55.67 678.2 clipbox
446.816 852.734 m
457.757 852.734 l
457.757 1028.84 l
446.816 1028.84 l
cl
gsave
0.169 0.549 0.745 setrgbcolor
fill
grestore
stroke
grestore
gsave
558 523.6 55.67 678.2 clipbox
474.169 852.734 m
485.11 852.734 l
485.11 968.928 l
474.169 968.928 l
cl
gsave
0.169 0.549 0.745 setrgbcolor
fill
grestore
stroke
grestore
gsave
558 523.6 55.67 678.2 clipbox
501.522 852.734 m
512.463 852.734 l
512.463 1000.2 l
501.522 1000.2 l
cl
gsave
0.169 0.549 0.745 setrgbcolor
fill
grestore
stroke
grestore
gsave
558 523.6 55.67 678.2 clipbox
528.875 852.734 m
539.816 852.734 l
539.816 994.302 l
528.875 994.302 l
cl
gsave
0.169 0.549 0.745 setrgbcolor
fill
grestore
stroke
grestore
gsave
558 523.6 55.67 678.2 clipbox
556.228 852.734 m
567.169 852.734 l
567.169 944.317 l
556.228 944.317 l
cl
gsave
0.169 0.549 0.745 setrgbcolor
fill
grestore
stroke
grestore
gsave
558 523.6 55.67 678.2 clipbox
583.581 852.734 m
594.522 852.734 l
594.522 1032.47 l
583.581 1032.47 l
cl
gsave
0.169 0.549 0.745 setrgbcolor
fill
grestore
stroke
grestore
gsave
558 523.6 55.67 678.2 clipbox
74.8158 724.734 m
85.757 724.734 l
85.757 852.734 l
74.8158 852.734 l
cl
gsave
0.890 0.290 0.200 setrgbcolor
fill
grestore
stroke
grestore
gsave
558 523.6 55.67 678.2 clipbox
102.169 747.425 m
113.11 747.425 l
113.11 852.734 l
102.169 852.734 l
cl
gsave
0.890 0.290 0.200 setrgbcolor
fill
grestore
stroke
grestore
gsave
558 523.6 55.67 678.2 clipbox
129.522 761.97 m
140.463 761.97 l
140.463 852.734 l
129.522 852.734 l
cl
gsave
0.890 0.290 0.200 setrgbcolor
fill
grestore
stroke
grestore
gsave
558 523.6 55.67 678.2 clipbox
156.875 764.298 m
167.816 764.298 l
167.816 852.734 l
156.875 852.734 l
cl
gsave
0.890 0.290 0.200 setrgbcolor
fill
grestore
stroke
grestore
gsave
558 523.6 55.67 678.2 clipbox
184.228 789.316 m
195.169 789.316 l
195.169 852.734 l
184.228 852.734 l
cl
gsave
0.890 0.290 0.200 setrgbcolor
fill
grestore
stroke
grestore
gsave
558 523.6 55.67 678.2 clipbox
211.581 807.352 m
222.522 807.352 l
222.522 852.734 l
211.581 852.734 l
cl
gsave
0.890 0.290 0.200 setrgbcolor
fill
grestore
stroke
grestore
gsave
558 523.6 55.67 678.2 clipbox
238.933 808.516 m
249.875 808.516 l
249.875 852.734 l
238.933 852.734 l
cl
gsave
0.890 0.290 0.200 setrgbcolor
fill
grestore
stroke
grestore
gsave
558 523.6 55.67 678.2 clipbox
266.286 830.625 m
277.228 830.625 l
277.228 852.734 l
266.286 852.734 l
cl
gsave
0.890 0.290 0.200 setrgbcolor
fill
grestore
stroke
grestore
gsave
558 523.6 55.67 678.2 clipbox
293.639 852.734 m
304.581 852.734 l
304.581 852.734 l
293.639 852.734 l
cl
gsave
0.890 0.290 0.200 setrgbcolor
fill
grestore
stroke
grestore
gsave
558 523.6 55.67 678.2 clipbox
320.992 852.734 m
331.933 852.734 l
331.933 881.243 l
320.992 881.243 l
cl
gsave
0.890 0.290 0.200 setrgbcolor
fill
grestore
stroke
grestore
gsave
558 523.6 55.67 678.2 clipbox
348.345 852.734 m
359.286 852.734 l
359.286 948.152 l
348.345 948.152 l
cl
gsave
0.890 0.290 0.200 setrgbcolor
fill
grestore
stroke
grestore
gsave
558 523.6 55.67 678.2 clipbox
375.698 852.734 m
386.639 852.734 l
386.639 952.807 l
375.698 952.807 l
cl
gsave
0.890 0.290 0.200 setrgbcolor
fill
grestore
stroke
grestore
gsave
558 523.6 55.67 678.2 clipbox
403.051 852.734 m
413.992 852.734 l
413.992 956.298 l
403.051 956.298 l
cl
gsave
0.890 0.290 0.200 setrgbcolor
fill
grestore
stroke
grestore
gsave
558 523.6 55.67 678.2 clipbox
430.404 852.734 m
441.345 852.734 l
441.345 959.207 l
430.404 959.207 l
cl
gsave
0.890 0.290 0.200 setrgbcolor
fill
grestore
stroke
grestore
gsave
558 523.6 55.67 678.2 clipbox
457.757 852.734 m
468.698 852.734 l
468.698 1024.37 l
457.757 1024.37 l
cl
gsave
0.890 0.290 0.200 setrgbcolor
fill
grestore
stroke
grestore
gsave
558 523.6 55.67 678.2 clipbox
485.11 852.734 m
496.051 852.734 l
496.051 1027.86 l
485.11 1027.86 l
cl
gsave
0.890 0.290 0.200 setrgbcolor
fill
grestore
stroke
grestore
gsave
558 523.6 55.67 678.2 clipbox
512.463 852.734 m
523.404 852.734 l
523.404 1054.62 l
512.463 1054.62 l
cl
gsave
0.890 0.290 0.200 setrgbcolor
fill
grestore
stroke
grestore
gsave
558 523.6 55.67 678.2 clipbox
539.816 852.734 m
550.757 852.734 l
550.757 1068.59 l
539.816 1068.59 l
cl
gsave
0.890 0.290 0.200 setrgbcolor
fill
grestore
stroke
grestore
gsave
558 523.6 55.67 678.2 clipbox
567.169 852.734 m
578.11 852.734 l
578.11 1129.68 l
567.169 1129.68 l
cl
gsave
0.890 0.290 0.200 setrgbcolor
fill
grestore
stroke
grestore
gsave
558 523.6 55.67 678.2 clipbox
594.522 852.734 m
605.463 852.734 l
605.463 1166.33 l
594.522 1166.33 l
cl
gsave
0.890 0.290 0.200 setrgbcolor
fill
grestore
stroke
grestore
0.500 setlinewidth
gsave
/o {
gsave
newpath
translate
0.5 setlinewidth
1 setlinejoin
0 setlinecap
0 0 m
0 4 l
gsave
0.000 setgray
fill
grestore
stroke
grestore
} bind def
74.8158 678.189 o
grestore
gsave
/o {
gsave
newpath
translate
0.5 setlinewidth
1 setlinejoin
0 setlinecap
0 0 m
0 -4 l
gsave
0.000 setgray
fill
grestore
stroke
grestore
} bind def
74.8158 1201.83 o
grestore
/BitstreamVeraSans-Roman findfont
20.000 scalefont
setfont
gsave
70.628309 658.985511 translate
0.000000 rotate
0.000000 0.000000 m /F glyphshow
grestore
gsave
/o {
gsave
newpath
translate
0.5 setlinewidth
1 setlinejoin
0 setlinecap
0 0 m
0 4 l
gsave
0.000 setgray
fill
grestore
stroke
grestore
} bind def
102.169 678.189 o
grestore
gsave
/o {
gsave
newpath
translate
0.5 setlinewidth
1 setlinejoin
0 setlinecap
0 0 m
0 -4 l
gsave
0.000 setgray
fill
grestore
stroke
grestore
} bind def
102.169 1201.83 o
grestore
gsave
97.637500 658.985511 translate
0.000000 rotate
0.000000 0.000000 m /L glyphshow
grestore
gsave
/o {
gsave
newpath
translate
0.5 setlinewidth
1 setlinejoin
0 setlinecap
0 0 m
0 4 l
gsave
0.000 setgray
fill
grestore
stroke
grestore
} bind def
129.522 678.189 o
grestore
gsave
/o {
gsave
newpath
translate
0.5 setlinewidth
1 setlinejoin
0 setlinecap
0 0 m
0 -4 l
gsave
0.000 setgray
fill
grestore
stroke
grestore
} bind def
129.522 1201.83 o
grestore
gsave
128.537316 658.985511 translate
0.000000 rotate
0.000000 0.000000 m /I glyphshow
grestore
gsave
/o {
gsave
newpath
translate
0.5 setlinewidth
1 setlinejoin
0 setlinecap
0 0 m
0 4 l
gsave
0.000 setgray
fill
grestore
stroke
grestore
} bind def
156.875 678.189 o
grestore
gsave
/o {
gsave
newpath
translate
0.5 setlinewidth
1 setlinejoin
0 setlinecap
0 0 m
0 -4 l
gsave
0.000 setgray
fill
grestore
stroke
grestore
} bind def
156.875 1201.83 o
grestore
gsave
152.171507 658.985511 translate
0.000000 rotate
0.000000 0.000000 m /P glyphshow
grestore
gsave
/o {
gsave
newpath
translate
0.5 setlinewidth
1 setlinejoin
0 setlinecap
0 0 m
0 4 l
gsave
0.000 setgray
fill
grestore
stroke
grestore
} bind def
184.228 678.189 o
grestore
gsave
/o {
gsave
newpath
translate
0.5 setlinewidth
1 setlinejoin
0 setlinecap
0 0 m
0 -4 l
gsave
0.000 setgray
fill
grestore
stroke
grestore
} bind def
184.228 1201.83 o
grestore
gsave
178.079136 658.985511 translate
0.000000 rotate
0.000000 0.000000 m /Y glyphshow
grestore
gsave
/o {
gsave
newpath
translate
0.5 setlinewidth
1 setlinejoin
0 setlinecap
0 0 m
0 4 l
gsave
0.000 setgray
fill
grestore
stroke
grestore
} bind def
211.581 678.189 o
grestore
gsave
/o {
gsave
newpath
translate
0.5 setlinewidth
1 setlinejoin
0 setlinecap
0 0 m
0 -4 l
gsave
0.000 setgray
fill
grestore
stroke
grestore
} bind def
211.581 1201.83 o
grestore
gsave
204.900827 658.985511 translate
0.000000 rotate
0.000000 0.000000 m /V glyphshow
grestore
gsave
/o {
gsave
newpath
translate
0.5 setlinewidth
1 setlinejoin
0 setlinecap
0 0 m
0 4 l
gsave
0.000 setgray
fill
grestore
stroke
grestore
} bind def
238.933 678.189 o
grestore
gsave
/o {
gsave
newpath
translate
0.5 setlinewidth
1 setlinejoin
0 setlinecap
0 0 m
0 -4 l
gsave
0.000 setgray
fill
grestore
stroke
grestore
} bind def
238.933 1201.83 o
grestore
gsave
232.269393 658.985511 translate
0.000000 rotate
0.000000 0.000000 m /M glyphshow
grestore
gsave
/o {
gsave
newpath
translate
0.5 setlinewidth
1 setlinejoin
0 setlinecap
0 0 m
0 4 l
gsave
0.000 setgray
fill
grestore
stroke
grestore
} bind def
266.286 678.189 o
grestore
gsave
/o {
gsave
newpath
translate
0.5 setlinewidth
1 setlinejoin
0 setlinecap
0 0 m
0 -4 l
gsave
0.000 setgray
fill
grestore
stroke
grestore
} bind def
266.286 1201.83 o
grestore
gsave
257.059835 658.985511 translate
0.000000 rotate
0.000000 0.000000 m /W glyphshow
grestore
gsave
/o {
gsave
newpath
translate
0.5 setlinewidth
1 setlinejoin
0 setlinecap
0 0 m
0 4 l
gsave
0.000 setgray
fill
grestore
stroke
grestore
} bind def
293.639 678.189 o
grestore
gsave
/o {
gsave
newpath
translate
0.5 setlinewidth
1 setlinejoin
0 setlinecap
0 0 m
0 -4 l
gsave
0.000 setgray
fill
grestore
stroke
grestore
} bind def
293.639 1201.83 o
grestore
gsave
286.959651 658.985511 translate
0.000000 rotate
0.000000 0.000000 m /A glyphshow
grestore
gsave
/o {
gsave
newpath
translate
0.5 setlinewidth
1 setlinejoin
0 setlinecap
0 0 m
0 4 l
gsave
0.000 setgray
fill
grestore
stroke
grestore
} bind def
320.992 678.189 o
grestore
gsave
/o {
gsave
newpath
translate
0.5 setlinewidth
1 setlinejoin
0 setlinecap
0 0 m
0 -4 l
gsave
0.000 setgray
fill
grestore
stroke
grestore
} bind def
320.992 1201.83 o
grestore
gsave
315.117279 658.985511 translate
0.000000 rotate
0.000000 0.000000 m /C glyphshow
grestore
gsave
/o {
gsave
newpath
translate
0.5 setlinewidth
1 setlinejoin
0 setlinecap
0 0 m
0 4 l
gsave
0.000 setgray
fill
grestore
stroke
grestore
} bind def
348.345 678.189 o
grestore
gsave
/o {
gsave
newpath
translate
0.5 setlinewidth
1 setlinejoin
0 setlinecap
0 0 m
0 -4 l
gsave
0.000 setgray
fill
grestore
stroke
grestore
} bind def
348.345 1201.83 o
grestore
gsave
343.649908 658.985511 translate
0.000000 rotate
0.000000 0.000000 m /E glyphshow
grestore
gsave
/o {
gsave
newpath
translate
0.5 setlinewidth
1 setlinejoin
0 setlinecap
0 0 m
0 4 l
gsave
0.000 setgray
fill
grestore
stroke
grestore
} bind def
375.698 678.189 o
grestore
gsave
/o {
gsave
newpath
translate
0.5 setlinewidth
1 setlinejoin
0 setlinecap
0 0 m
0 -4 l
gsave
0.000 setgray
fill
grestore
stroke
grestore
} bind def
375.698 1201.83 o
grestore
gsave
369.330974 658.985511 translate
0.000000 rotate
0.000000 0.000000 m /G glyphshow
grestore
gsave
/o {
gsave
newpath
translate
0.5 setlinewidth
1 setlinejoin
0 setlinecap
0 0 m
0 4 l
gsave
0.000 setgray
fill
grestore
stroke
grestore
} bind def
403.051 678.189 o
grestore
gsave
/o {
gsave
newpath
translate
0.5 setlinewidth
1 setlinejoin
0 setlinecap
0 0 m
0 -4 l
gsave
0.000 setgray
fill
grestore
stroke
grestore
} bind def
403.051 1201.83 o
grestore
gsave
396.879228 658.985511 translate
0.000000 rotate
0.000000 0.000000 m /T glyphshow
grestore
gsave
/o {
gsave
newpath
translate
0.5 setlinewidth
1 setlinejoin
0 setlinecap
0 0 m
0 4 l
gsave
0.000 setgray
fill
grestore
stroke
grestore
} bind def
430.404 678.189 o
grestore
gsave
/o {
gsave
newpath
translate
0.5 setlinewidth
1 setlinejoin
0 setlinecap
0 0 m
0 -4 l
gsave
0.000 setgray
fill
grestore
stroke
grestore
} bind def
430.404 1201.83 o
grestore
gsave
425.271232 658.985511 translate
0.000000 rotate
0.000000 0.000000 m /S glyphshow
grestore
gsave
/o {
gsave
newpath
translate
0.5 setlinewidth
1 setlinejoin
0 setlinecap
0 0 m
0 4 l
gsave
0.000 setgray
fill
grestore
stroke
grestore
} bind def
457.757 678.189 o
grestore
gsave
/o {
gsave
newpath
translate
0.5 setlinewidth
1 setlinejoin
0 setlinecap
0 0 m
0 -4 l
gsave
0.000 setgray
fill
grestore
stroke
grestore
} bind def
457.757 1201.83 o
grestore
gsave
451.631985 658.985511 translate
0.000000 rotate
0.000000 0.000000 m /D glyphshow
grestore
gsave
/o {
gsave
newpath
translate
0.5 setlinewidth
1 setlinejoin
0 setlinecap
0 0 m
0 4 l
gsave
0.000 setgray
fill
grestore
stroke
grestore
} bind def
485.11 678.189 o
grestore
gsave
/o {
gsave
newpath
translate
0.5 setlinewidth
1 setlinejoin
0 setlinecap
0 0 m
0 -4 l
gsave
0.000 setgray
fill
grestore
stroke
grestore
} bind def
485.11 1201.83 o
grestore
gsave
478.359926 658.985511 translate
0.000000 rotate
0.000000 0.000000 m /Q glyphshow
grestore
gsave
/o {
gsave
newpath
translate
0.5 setlinewidth
1 setlinejoin
0 setlinecap
0 0 m
0 4 l
gsave
0.000 setgray
fill
grestore
stroke
grestore
} bind def
512.463 678.189 o
grestore
gsave
/o {
gsave
newpath
translate
0.5 setlinewidth
1 setlinejoin
0 setlinecap
0 0 m
0 -4 l
gsave
0.000 setgray
fill
grestore
stroke
grestore
} bind def
512.463 1201.83 o
grestore
gsave
506.947243 658.985511 translate
0.000000 rotate
0.000000 0.000000 m /N glyphshow
grestore
gsave
/o {
gsave
newpath
translate
0.5 setlinewidth
1 setlinejoin
0 setlinecap
0 0 m
0 4 l
gsave
0.000 setgray
fill
grestore
stroke
grestore
} bind def
539.816 678.189 o
grestore
gsave
/o {
gsave
newpath
translate
0.5 setlinewidth
1 setlinejoin
0 setlinecap
0 0 m
0 -4 l
gsave
0.000 setgray
fill
grestore
stroke
grestore
} bind def
539.816 1201.83 o
grestore
gsave
534.136121 658.985511 translate
0.000000 rotate
0.000000 0.000000 m /R glyphshow
grestore
gsave
/o {
gsave
newpath
translate
0.5 setlinewidth
1 setlinejoin
0 setlinecap
0 0 m
0 4 l
gsave
0.000 setgray
fill
grestore
stroke
grestore
} bind def
567.169 678.189 o
grestore
gsave
/o {
gsave
newpath
translate
0.5 setlinewidth
1 setlinejoin
0 setlinecap
0 0 m
0 -4 l
gsave
0.000 setgray
fill
grestore
stroke
grestore
} bind def
567.169 1201.83 o
grestore
gsave
561.614062 658.985511 translate
0.000000 rotate
0.000000 0.000000 m /H glyphshow
grestore
gsave
/o {
gsave
newpath
translate
0.5 setlinewidth
1 setlinejoin
0 setlinecap
0 0 m
0 4 l
gsave
0.000 setgray
fill
grestore
stroke
grestore
} bind def
594.522 678.189 o
grestore
gsave
/o {
gsave
newpath
translate
0.5 setlinewidth
1 setlinejoin
0 setlinecap
0 0 m
0 -4 l
gsave
0.000 setgray
fill
grestore
stroke
grestore
} bind def
594.522 1201.83 o
grestore
gsave
588.740441 658.985511 translate
0.000000 rotate
0.000000 0.000000 m /K glyphshow
grestore
gsave
/o {
gsave
newpath
translate
0.5 setlinewidth
1 setlinejoin
0 setlinecap
0 0 m
4 0 l
gsave
0.000 setgray
fill
grestore
stroke
grestore
} bind def
55.6688 678.189 o
grestore
gsave
/o {
gsave
newpath
translate
0.5 setlinewidth
1 setlinejoin
0 setlinecap
0 0 m
-4 0 l
gsave
0.000 setgray
fill
grestore
stroke
grestore
} bind def
613.669 678.189 o
grestore
/BitstreamVeraSans-Roman findfont
12.000 scalefont
setfont
gsave
36.200000 674.876136 translate
0.000000 rotate
0.000000 0.000000 m /minus glyphshow
10.054688 0.000000 m /three glyphshow
grestore
gsave
/o {
gsave
newpath
translate
0.5 setlinewidth
1 setlinejoin
0 setlinecap
0 0 m
4 0 l
gsave
0.000 setgray
fill
grestore
stroke
grestore
} bind def
55.6688 736.37 o
grestore
gsave
/o {
gsave
newpath
translate
0.5 setlinewidth
1 setlinejoin
0 setlinecap
0 0 m
-4 0 l
gsave
0.000 setgray
fill
grestore
stroke
grestore
} bind def
613.669 736.37 o
grestore
gsave
36.434375 733.057955 translate
0.000000 rotate
0.000000 0.000000 m /minus glyphshow
10.054688 0.000000 m /two glyphshow
grestore
gsave
/o {
gsave
newpath
translate
0.5 setlinewidth
1 setlinejoin
0 setlinecap
0 0 m
4 0 l
gsave
0.000 setgray
fill
grestore
stroke
grestore
} bind def
55.6688 794.552 o
grestore
gsave
/o {
gsave
newpath
translate
0.5 setlinewidth
1 setlinejoin
0 setlinecap
0 0 m
-4 0 l
gsave
0.000 setgray
fill
grestore
stroke
grestore
} bind def
613.669 794.552 o
grestore
gsave
36.340625 791.239773 translate
0.000000 rotate
0.000000 0.000000 m /minus glyphshow
10.054688 0.000000 m /one glyphshow
grestore
gsave
/o {
gsave
newpath
translate
0.5 setlinewidth
1 setlinejoin
0 setlinecap
0 0 m
4 0 l
gsave
0.000 setgray
fill
grestore
stroke
grestore
} bind def
55.6688 852.734 o
grestore
gsave
/o {
gsave
newpath
translate
0.5 setlinewidth
1 setlinejoin
0 setlinecap
0 0 m
-4 0 l
gsave
0.000 setgray
fill
grestore
stroke
grestore
} bind def
613.669 852.734 o
grestore
gsave
45.621875 849.421591 translate
0.000000 rotate
0.000000 0.000000 m /zero glyphshow
grestore
gsave
/o {
gsave
newpath
translate
0.5 setlinewidth
1 setlinejoin
0 setlinecap
0 0 m
4 0 l
gsave
0.000 setgray
fill
grestore
stroke
grestore
} bind def
55.6688 910.916 o
grestore
gsave
/o {
gsave
newpath
translate
0.5 setlinewidth
1 setlinejoin
0 setlinecap
0 0 m
-4 0 l
gsave
0.000 setgray
fill
grestore
stroke
grestore
} bind def
613.669 910.916 o
grestore
gsave
46.450000 907.603409 translate
0.000000 rotate
0.000000 0.000000 m /one glyphshow
grestore
gsave
/o {
gsave
newpath
translate
0.5 setlinewidth
1 setlinejoin
0 setlinecap
0 0 m
4 0 l
gsave
0.000 setgray
fill
grestore
stroke
grestore
} bind def
55.6688 969.098 o
grestore
gsave
/o {
gsave
newpath
translate
0.5 setlinewidth
1 setlinejoin
0 setlinecap
0 0 m
-4 0 l
gsave
0.000 setgray
fill
grestore
stroke
grestore
} bind def
613.669 969.098 o
grestore
gsave
46.106250 965.785227 translate
0.000000 rotate
0.000000 0.000000 m /two glyphshow
grestore
gsave
/o {
gsave
newpath
translate
0.5 setlinewidth
1 setlinejoin
0 setlinecap
0 0 m
4 0 l
gsave
0.000 setgray
fill
grestore
stroke
grestore
} bind def
55.6688 1027.28 o
grestore
gsave
/o {
gsave
newpath
translate
0.5 setlinewidth
1 setlinejoin
0 setlinecap
0 0 m
-4 0 l
gsave
0.000 setgray
fill
grestore
stroke
grestore
} bind def
613.669 1027.28 o
grestore
gsave
45.918750 1023.967045 translate
0.000000 rotate
0.000000 0.000000 m /three glyphshow
grestore
gsave
/o {
gsave
newpath
translate
0.5 setlinewidth
1 setlinejoin
0 setlinecap
0 0 m
4 0 l
gsave
0.000 setgray
fill
grestore
stroke
grestore
} bind def
55.6688 1085.46 o
grestore
gsave
/o {
gsave
newpath
translate
0.5 setlinewidth
1 setlinejoin
0 setlinecap
0 0 m
-4 0 l
gsave
0.000 setgray
fill
grestore
stroke
grestore
} bind def
613.669 1085.46 o
grestore
gsave
45.293750 1082.148864 translate
0.000000 rotate
0.000000 0.000000 m /four glyphshow
grestore
gsave
/o {
gsave
newpath
translate
0.5 setlinewidth
1 setlinejoin
0 setlinecap
0 0 m
4 0 l
gsave
0.000 setgray
fill
grestore
stroke
grestore
} bind def
55.6688 1143.64 o
grestore
gsave
/o {
gsave
newpath
translate
0.5 setlinewidth
1 setlinejoin
0 setlinecap
0 0 m
-4 0 l
gsave
0.000 setgray
fill
grestore
stroke
grestore
} bind def
613.669 1143.64 o
grestore
gsave
45.996875 1140.330682 translate
0.000000 rotate
0.000000 0.000000 m /five glyphshow
grestore
gsave
/o {
gsave
newpath
translate
0.5 setlinewidth
1 setlinejoin
0 setlinecap
0 0 m
4 0 l
gsave
0.000 setgray
fill
grestore
stroke
grestore
} bind def
55.6688 1201.83 o
grestore
gsave
/o {
gsave
newpath
translate
0.5 setlinewidth
1 setlinejoin
0 setlinecap
0 0 m
-4 0 l
gsave
0.000 setgray
fill
grestore
stroke
grestore
} bind def
613.669 1201.83 o
grestore
gsave
45.637500 1198.512500 translate
0.000000 rotate
0.000000 0.000000 m /six glyphshow
grestore
gsave
27.043750 853.006818 translate
90.000000 rotate
/Cmr10 findfont
20.0 scalefont
setfont
0.000000 0.662813 moveto
/Delta glyphshow

16.660156 0.662813 moveto
/Delta glyphshow

/Cmmi10 findfont
20.0 scalefont
setfont
33.320312 0.662813 moveto
/G glyphshow

/Cmr10 findfont
14.0 scalefont
setfont
49.042969 9.670313 moveto
/two glyphshow

56.042969 9.670313 moveto
/one glyphshow

63.042969 9.670313 moveto
/zero glyphshow

/BitstreamVeraSans-Roman findfont
20.0 scalefont
setfont
73.444219 0.662813 moveto
/parenleft glyphshow

81.246953 0.662813 moveto
/k glyphshow

92.828984 0.662813 moveto
/c glyphshow

103.825078 0.662813 moveto
/a glyphshow

116.080938 0.662813 moveto
/l glyphshow

121.637578 0.662813 moveto
/slash glyphshow

128.375859 0.662813 moveto
/m glyphshow

147.858281 0.662813 moveto
/o glyphshow

160.094609 0.662813 moveto
/l glyphshow

165.651250 0.662813 moveto
/parenright glyphshow


grestore
1.000 setlinewidth
gsave
55.6688 1201.83 m
613.669 1201.83 l
stroke
grestore
gsave
613.669 678.189 m
613.669 1201.83 l
stroke
grestore
gsave
55.6688 678.189 m
613.669 678.189 l
stroke
grestore
gsave
55.6688 678.189 m
55.6688 1201.83 l
stroke
grestore
gsave
65.6688 1127.11 m
275.278 1127.11 l
275.278 1191.83 l
65.6688 1191.83 l
65.6688 1127.11 l
cl
gsave
1.000 setgray
fill
grestore
stroke
grestore
gsave
73.6688 1168.62 m
113.669 1168.62 l
113.669 1182.62 l
73.6688 1182.62 l
cl
gsave
0.169 0.549 0.745 setrgbcolor
fill
grestore
stroke
grestore
/BitstreamVeraSans-Roman findfont
20.000 scalefont
setfont
gsave
129.668750 1168.621875 translate
0.000000 rotate
0.000000 0.000000 m /O glyphshow
15.742188 0.000000 m /u glyphshow
28.417969 0.000000 m /r glyphshow
36.640625 0.000000 m /s glyphshow
grestore
gsave
73.6688 1139.26 m
113.669 1139.26 l
113.669 1153.26 l
73.6688 1153.26 l
cl
gsave
0.890 0.290 0.200 setrgbcolor
fill
grestore
stroke
grestore
gsave
129.668750 1139.262500 translate
0.000000 rotate
0.000000 0.000000 m /M glyphshow
17.255859 0.000000 m /o glyphshow
29.492188 0.000000 m /o glyphshow
41.728516 0.000000 m /n glyphshow
54.404297 0.000000 m /hyphen glyphshow
61.621094 0.000000 m /F glyphshow
73.125000 0.000000 m /l glyphshow
78.681641 0.000000 m /e glyphshow
90.986328 0.000000 m /m glyphshow
110.468750 0.000000 m /i glyphshow
116.025391 0.000000 m /n glyphshow
128.701172 0.000000 m /g glyphshow
grestore
gsave
55.6688 49.825 m
613.669 49.825 l
613.669 573.461 l
55.6688 573.461 l
cl
1.000 setgray
fill
grestore
/p0_0 {
newpath
translate
0 -5.47723 m
1.45258 -5.47723 2.84586 -4.90011 3.87298 -3.87298 c
4.90011 -2.84586 5.47723 -1.45258 5.47723 0 c
5.47723 1.45258 4.90011 2.84586 3.87298 3.87298 c
2.84586 4.90011 1.45258 5.47723 0 5.47723 c
-1.45258 5.47723 -2.84586 4.90011 -3.87298 3.87298 c
-4.90011 2.84586 -5.47723 1.45258 -5.47723 0 c
-5.47723 -1.45258 -4.90011 -2.84586 -3.87298 -3.87298 c
-2.84586 -4.90011 -1.45258 -5.47723 0 -5.47723 c
cl
} bind def
0.169 0.549 0.745 setrgbcolor
gsave
558 523.6 55.67 49.83 clipbox
241.669 246.189 p0_0
gsave
fill
grestore
stroke
grestore
gsave
558 523.6 55.67 49.83 clipbox
471.689 405.453 p0_0
gsave
fill
grestore
stroke
grestore
gsave
558 523.6 55.67 49.83 clipbox
456.809 412.087 p0_0
gsave
fill
grestore
stroke
grestore
gsave
558 523.6 55.67 49.83 clipbox
424.569 444.302 p0_0
gsave
fill
grestore
stroke
grestore
gsave
558 523.6 55.67 49.83 clipbox
272.049 276.293 p0_0
gsave
fill
grestore
stroke
grestore
gsave
558 523.6 55.67 49.83 clipbox
428.289 376.906 p0_0
gsave
fill
grestore
stroke
grestore
gsave
558 523.6 55.67 49.83 clipbox
343.349 386.999 p0_0
gsave
fill
grestore
stroke
grestore
gsave
558 523.6 55.67 49.83 clipbox
348.309 301.445 p0_0
gsave
fill
grestore
stroke
grestore
gsave
558 523.6 55.67 49.83 clipbox
536.789 349.219 p0_0
gsave
fill
grestore
stroke
grestore
gsave
558 523.6 55.67 49.83 clipbox
144.949 158.518 p0_0
gsave
fill
grestore
stroke
grestore
gsave
558 523.6 55.67 49.83 clipbox
129.449 125.223 p0_0
gsave
fill
grestore
stroke
grestore
gsave
558 523.6 55.67 49.83 clipbox
575.849 448.386 p0_0
gsave
fill
grestore
stroke
grestore
gsave
558 523.6 55.67 49.83 clipbox
194.549 199.315 p0_0
gsave
fill
grestore
stroke
grestore
gsave
558 523.6 55.67 49.83 clipbox
105.269 158.419 p0_0
gsave
fill
grestore
stroke
grestore
gsave
558 523.6 55.67 49.83 clipbox
147.429 331.74 p0_0
gsave
fill
grestore
stroke
grestore
gsave
558 523.6 55.67 49.83 clipbox
355.129 365.637 p0_0
gsave
fill
grestore
stroke
grestore
gsave
558 523.6 55.67 49.83 clipbox
352.029 310.457 p0_0
gsave
fill
grestore
stroke
grestore
gsave
558 523.6 55.67 49.83 clipbox
218.109 233.296 p0_0
gsave
fill
grestore
stroke
grestore
gsave
558 523.6 55.67 49.83 clipbox
174.089 232.846 p0_0
gsave
fill
grestore
stroke
grestore
gsave
558 523.6 55.67 49.83 clipbox
193.309 180.436 p0_0
gsave
fill
grestore
stroke
grestore
3.000 setlinewidth
2 setlinecap
0.388 setgray
gsave
558 523.6 55.67 49.83 clipbox
55.6688 143.73 m
67.0565 150.718 l
78.4443 157.706 l
89.832 164.695 l
101.22 171.683 l
112.608 178.672 l
123.995 185.66 l
135.383 192.648 l
146.771 199.637 l
158.159 206.625 l
169.546 213.614 l
180.934 220.602 l
192.322 227.591 l
203.71 234.579 l
215.097 241.567 l
226.485 248.556 l
237.873 255.544 l
249.261 262.533 l
260.648 269.521 l
272.036 276.509 l
283.424 283.498 l
294.812 290.486 l
306.199 297.475 l
317.587 304.463 l
328.975 311.452 l
340.363 318.44 l
351.75 325.428 l
363.138 332.417 l
374.526 339.405 l
385.914 346.394 l
397.301 353.382 l
408.689 360.37 l
420.077 367.359 l
431.465 374.347 l
442.852 381.336 l
454.24 388.324 l
465.628 395.313 l
477.016 402.301 l
488.403 409.289 l
499.791 416.278 l
511.179 423.266 l
522.567 430.255 l
533.954 437.243 l
545.342 444.231 l
556.73 451.22 l
568.118 458.208 l
579.505 465.197 l
590.893 472.185 l
602.281 479.174 l
613.669 486.162 l
stroke
grestore
0.500 setlinewidth
0 setlinecap
0.000 setgray
gsave
/o {
gsave
newpath
translate
0.5 setlinewidth
1 setlinejoin
0 setlinecap
0 0 m
0 4 l
gsave
0.000 setgray
fill
grestore
stroke
grestore
} bind def
55.6688 49.825 o
grestore
gsave
/o {
gsave
newpath
translate
0.5 setlinewidth
1 setlinejoin
0 setlinecap
0 0 m
0 -4 l
gsave
0.000 setgray
fill
grestore
stroke
grestore
} bind def
55.6688 573.461 o
grestore
/BitstreamVeraSans-Roman findfont
12.000 scalefont
setfont
gsave
47.934375 36.700000 translate
0.000000 rotate
0.000000 0.000000 m /minus glyphshow
10.054688 0.000000 m /three glyphshow
grestore
gsave
/o {
gsave
newpath
translate
0.5 setlinewidth
1 setlinejoin
0 setlinecap
0 0 m
0 4 l
gsave
0.000 setgray
fill
grestore
stroke
grestore
} bind def
117.669 49.825 o
grestore
gsave
/o {
gsave
newpath
translate
0.5 setlinewidth
1 setlinejoin
0 setlinecap
0 0 m
0 -4 l
gsave
0.000 setgray
fill
grestore
stroke
grestore
} bind def
117.669 573.461 o
grestore
gsave
110.051563 36.700000 translate
0.000000 rotate
0.000000 0.000000 m /minus glyphshow
10.054688 0.000000 m /two glyphshow
grestore
gsave
/o {
gsave
newpath
translate
0.5 setlinewidth
1 setlinejoin
0 setlinecap
0 0 m
0 4 l
gsave
0.000 setgray
fill
grestore
stroke
grestore
} bind def
179.669 49.825 o
grestore
gsave
/o {
gsave
newpath
translate
0.5 setlinewidth
1 setlinejoin
0 setlinecap
0 0 m
0 -4 l
gsave
0.000 setgray
fill
grestore
stroke
grestore
} bind def
179.669 573.461 o
grestore
gsave
172.004688 36.700000 translate
0.000000 rotate
0.000000 0.000000 m /minus glyphshow
10.054688 0.000000 m /one glyphshow
grestore
gsave
/o {
gsave
newpath
translate
0.5 setlinewidth
1 setlinejoin
0 setlinecap
0 0 m
0 4 l
gsave
0.000 setgray
fill
grestore
stroke
grestore
} bind def
241.669 49.825 o
grestore
gsave
/o {
gsave
newpath
translate
0.5 setlinewidth
1 setlinejoin
0 setlinecap
0 0 m
0 -4 l
gsave
0.000 setgray
fill
grestore
stroke
grestore
} bind def
241.669 573.461 o
grestore
gsave
238.645313 36.700000 translate
0.000000 rotate
0.000000 0.000000 m /zero glyphshow
grestore
gsave
/o {
gsave
newpath
translate
0.5 setlinewidth
1 setlinejoin
0 setlinecap
0 0 m
0 4 l
gsave
0.000 setgray
fill
grestore
stroke
grestore
} bind def
303.669 49.825 o
grestore
gsave
/o {
gsave
newpath
translate
0.5 setlinewidth
1 setlinejoin
0 setlinecap
0 0 m
0 -4 l
gsave
0.000 setgray
fill
grestore
stroke
grestore
} bind def
303.669 573.461 o
grestore
gsave
301.059375 36.700000 translate
0.000000 rotate
0.000000 0.000000 m /one glyphshow
grestore
gsave
/o {
gsave
newpath
translate
0.5 setlinewidth
1 setlinejoin
0 setlinecap
0 0 m
0 4 l
gsave
0.000 setgray
fill
grestore
stroke
grestore
} bind def
365.669 49.825 o
grestore
gsave
/o {
gsave
newpath
translate
0.5 setlinewidth
1 setlinejoin
0 setlinecap
0 0 m
0 -4 l
gsave
0.000 setgray
fill
grestore
stroke
grestore
} bind def
365.669 573.461 o
grestore
gsave
362.887500 36.700000 translate
0.000000 rotate
0.000000 0.000000 m /two glyphshow
grestore
gsave
/o {
gsave
newpath
translate
0.5 setlinewidth
1 setlinejoin
0 setlinecap
0 0 m
0 4 l
gsave
0.000 setgray
fill
grestore
stroke
grestore
} bind def
427.669 49.825 o
grestore
gsave
/o {
gsave
newpath
translate
0.5 setlinewidth
1 setlinejoin
0 setlinecap
0 0 m
0 -4 l
gsave
0.000 setgray
fill
grestore
stroke
grestore
} bind def
427.669 573.461 o
grestore
gsave
424.793750 36.700000 translate
0.000000 rotate
0.000000 0.000000 m /three glyphshow
grestore
gsave
/o {
gsave
newpath
translate
0.5 setlinewidth
1 setlinejoin
0 setlinecap
0 0 m
0 4 l
gsave
0.000 setgray
fill
grestore
stroke
grestore
} bind def
489.669 49.825 o
grestore
gsave
/o {
gsave
newpath
translate
0.5 setlinewidth
1 setlinejoin
0 setlinecap
0 0 m
0 -4 l
gsave
0.000 setgray
fill
grestore
stroke
grestore
} bind def
489.669 573.461 o
grestore
gsave
486.481250 36.700000 translate
0.000000 rotate
0.000000 0.000000 m /four glyphshow
grestore
gsave
/o {
gsave
newpath
translate
0.5 setlinewidth
1 setlinejoin
0 setlinecap
0 0 m
0 4 l
gsave
0.000 setgray
fill
grestore
stroke
grestore
} bind def
551.669 49.825 o
grestore
gsave
/o {
gsave
newpath
translate
0.5 setlinewidth
1 setlinejoin
0 setlinecap
0 0 m
0 -4 l
gsave
0.000 setgray
fill
grestore
stroke
grestore
} bind def
551.669 573.461 o
grestore
gsave
548.832813 36.700000 translate
0.000000 rotate
0.000000 0.000000 m /five glyphshow
grestore
gsave
/o {
gsave
newpath
translate
0.5 setlinewidth
1 setlinejoin
0 setlinecap
0 0 m
0 4 l
gsave
0.000 setgray
fill
grestore
stroke
grestore
} bind def
613.669 49.825 o
grestore
gsave
/o {
gsave
newpath
translate
0.5 setlinewidth
1 setlinejoin
0 setlinecap
0 0 m
0 -4 l
gsave
0.000 setgray
fill
grestore
stroke
grestore
} bind def
613.669 573.461 o
grestore
gsave
610.653125 36.700000 translate
0.000000 rotate
0.000000 0.000000 m /six glyphshow
grestore
gsave
226.168750 11.356250 translate
0.000000 rotate
/BitstreamVeraSans-Roman findfont
20.0 scalefont
setfont
0.000000 0.662813 moveto
/O glyphshow

15.742188 0.662813 moveto
/u glyphshow

28.417969 0.662813 moveto
/r glyphshow

36.640625 0.662813 moveto
/space glyphshow

/Cmr10 findfont
20.0 scalefont
setfont
42.998047 0.662813 moveto
/Delta glyphshow

59.658203 0.662813 moveto
/Delta glyphshow

/Cmmi10 findfont
20.0 scalefont
setfont
76.318359 0.662813 moveto
/G glyphshow

/Cmr10 findfont
14.0 scalefont
setfont
92.041016 9.670313 moveto
/two glyphshow

99.041016 9.670313 moveto
/one glyphshow

106.041016 9.670313 moveto
/zero glyphshow

/BitstreamVeraSans-Roman findfont
20.0 scalefont
setfont
116.442266 0.662813 moveto
/parenleft glyphshow

124.245000 0.662813 moveto
/k glyphshow

135.827031 0.662813 moveto
/c glyphshow

146.823125 0.662813 moveto
/a glyphshow

159.078984 0.662813 moveto
/l glyphshow

164.635625 0.662813 moveto
/slash glyphshow

171.373906 0.662813 moveto
/m glyphshow

190.856328 0.662813 moveto
/o glyphshow

203.092656 0.662813 moveto
/l glyphshow

208.649297 0.662813 moveto
/parenright glyphshow


grestore
gsave
/o {
gsave
newpath
translate
0.5 setlinewidth
1 setlinejoin
0 setlinecap
0 0 m
4 0 l
gsave
0.000 setgray
fill
grestore
stroke
grestore
} bind def
55.6688 49.825 o
grestore
gsave
/o {
gsave
newpath
translate
0.5 setlinewidth
1 setlinejoin
0 setlinecap
0 0 m
-4 0 l
gsave
0.000 setgray
fill
grestore
stroke
grestore
} bind def
613.669 49.825 o
grestore
gsave
36.200000 46.512500 translate
0.000000 rotate
0.000000 0.000000 m /minus glyphshow
10.054688 0.000000 m /three glyphshow
grestore
gsave
/o {
gsave
newpath
translate
0.5 setlinewidth
1 setlinejoin
0 setlinecap
0 0 m
4 0 l
gsave
0.000 setgray
fill
grestore
stroke
grestore
} bind def
55.6688 115.28 o
grestore
gsave
/o {
gsave
newpath
translate
0.5 setlinewidth
1 setlinejoin
0 setlinecap
0 0 m
-4 0 l
gsave
0.000 setgray
fill
grestore
stroke
grestore
} bind def
613.669 115.28 o
grestore
gsave
36.434375 111.967045 translate
0.000000 rotate
0.000000 0.000000 m /minus glyphshow
10.054688 0.000000 m /two glyphshow
grestore
gsave
/o {
gsave
newpath
translate
0.5 setlinewidth
1 setlinejoin
0 setlinecap
0 0 m
4 0 l
gsave
0.000 setgray
fill
grestore
stroke
grestore
} bind def
55.6688 180.734 o
grestore
gsave
/o {
gsave
newpath
translate
0.5 setlinewidth
1 setlinejoin
0 setlinecap
0 0 m
-4 0 l
gsave
0.000 setgray
fill
grestore
stroke
grestore
} bind def
613.669 180.734 o
grestore
gsave
36.340625 177.421591 translate
0.000000 rotate
0.000000 0.000000 m /minus glyphshow
10.054688 0.000000 m /one glyphshow
grestore
gsave
/o {
gsave
newpath
translate
0.5 setlinewidth
1 setlinejoin
0 setlinecap
0 0 m
4 0 l
gsave
0.000 setgray
fill
grestore
stroke
grestore
} bind def
55.6688 246.189 o
grestore
gsave
/o {
gsave
newpath
translate
0.5 setlinewidth
1 setlinejoin
0 setlinecap
0 0 m
-4 0 l
gsave
0.000 setgray
fill
grestore
stroke
grestore
} bind def
613.669 246.189 o
grestore
gsave
45.621875 242.876136 translate
0.000000 rotate
0.000000 0.000000 m /zero glyphshow
grestore
gsave
/o {
gsave
newpath
translate
0.5 setlinewidth
1 setlinejoin
0 setlinecap
0 0 m
4 0 l
gsave
0.000 setgray
fill
grestore
stroke
grestore
} bind def
55.6688 311.643 o
grestore
gsave
/o {
gsave
newpath
translate
0.5 setlinewidth
1 setlinejoin
0 setlinecap
0 0 m
-4 0 l
gsave
0.000 setgray
fill
grestore
stroke
grestore
} bind def
613.669 311.643 o
grestore
gsave
46.450000 308.330682 translate
0.000000 rotate
0.000000 0.000000 m /one glyphshow
grestore
gsave
/o {
gsave
newpath
translate
0.5 setlinewidth
1 setlinejoin
0 setlinecap
0 0 m
4 0 l
gsave
0.000 setgray
fill
grestore
stroke
grestore
} bind def
55.6688 377.098 o
grestore
gsave
/o {
gsave
newpath
translate
0.5 setlinewidth
1 setlinejoin
0 setlinecap
0 0 m
-4 0 l
gsave
0.000 setgray
fill
grestore
stroke
grestore
} bind def
613.669 377.098 o
grestore
gsave
46.106250 373.785227 translate
0.000000 rotate
0.000000 0.000000 m /two glyphshow
grestore
gsave
/o {
gsave
newpath
translate
0.5 setlinewidth
1 setlinejoin
0 setlinecap
0 0 m
4 0 l
gsave
0.000 setgray
fill
grestore
stroke
grestore
} bind def
55.6688 442.552 o
grestore
gsave
/o {
gsave
newpath
translate
0.5 setlinewidth
1 setlinejoin
0 setlinecap
0 0 m
-4 0 l
gsave
0.000 setgray
fill
grestore
stroke
grestore
} bind def
613.669 442.552 o
grestore
gsave
45.918750 439.239773 translate
0.000000 rotate
0.000000 0.000000 m /three glyphshow
grestore
gsave
/o {
gsave
newpath
translate
0.5 setlinewidth
1 setlinejoin
0 setlinecap
0 0 m
4 0 l
gsave
0.000 setgray
fill
grestore
stroke
grestore
} bind def
55.6688 508.007 o
grestore
gsave
/o {
gsave
newpath
translate
0.5 setlinewidth
1 setlinejoin
0 setlinecap
0 0 m
-4 0 l
gsave
0.000 setgray
fill
grestore
stroke
grestore
} bind def
613.669 508.007 o
grestore
gsave
45.293750 504.694318 translate
0.000000 rotate
0.000000 0.000000 m /four glyphshow
grestore
gsave
/o {
gsave
newpath
translate
0.5 setlinewidth
1 setlinejoin
0 setlinecap
0 0 m
4 0 l
gsave
0.000 setgray
fill
grestore
stroke
grestore
} bind def
55.6688 573.461 o
grestore
gsave
/o {
gsave
newpath
translate
0.5 setlinewidth
1 setlinejoin
0 setlinecap
0 0 m
-4 0 l
gsave
0.000 setgray
fill
grestore
stroke
grestore
} bind def
613.669 573.461 o
grestore
gsave
45.996875 570.148864 translate
0.000000 rotate
0.000000 0.000000 m /five glyphshow
grestore
gsave
26.200000 150.643182 translate
90.000000 rotate
/BitstreamVeraSans-Roman findfont
20.0 scalefont
setfont
0.000000 0.662813 moveto
/M glyphshow

17.255859 0.662813 moveto
/o glyphshow

29.492188 0.662813 moveto
/o glyphshow

41.728516 0.662813 moveto
/n glyphshow

54.404297 0.662813 moveto
/hyphen glyphshow

61.621094 0.662813 moveto
/F glyphshow

73.125000 0.662813 moveto
/l glyphshow

78.681641 0.662813 moveto
/e glyphshow

90.986328 0.662813 moveto
/m glyphshow

110.468750 0.662813 moveto
/i glyphshow

116.025391 0.662813 moveto
/n glyphshow

128.701172 0.662813 moveto
/g glyphshow

141.396484 0.662813 moveto
/space glyphshow

/Cmr10 findfont
20.0 scalefont
setfont
147.753906 0.662813 moveto
/Delta glyphshow

164.414062 0.662813 moveto
/Delta glyphshow

/Cmmi10 findfont
20.0 scalefont
setfont
181.074219 0.662813 moveto
/G glyphshow

/Cmr10 findfont
14.0 scalefont
setfont
196.796875 9.670313 moveto
/two glyphshow

203.796875 9.670313 moveto
/one glyphshow

210.796875 9.670313 moveto
/zero glyphshow

/BitstreamVeraSans-Roman findfont
20.0 scalefont
setfont
221.198125 0.662813 moveto
/parenleft glyphshow

229.000859 0.662813 moveto
/k glyphshow

240.582891 0.662813 moveto
/c glyphshow

251.578984 0.662813 moveto
/a glyphshow

263.834844 0.662813 moveto
/l glyphshow

269.391484 0.662813 moveto
/slash glyphshow

276.129766 0.662813 moveto
/m glyphshow

295.612188 0.662813 moveto
/o glyphshow

307.848516 0.662813 moveto
/l glyphshow

313.405156 0.662813 moveto
/parenright glyphshow


grestore
1.000 setlinewidth
gsave
55.6688 573.461 m
613.669 573.461 l
stroke
grestore
gsave
613.669 49.825 m
613.669 573.461 l
stroke
grestore
gsave
55.6688 49.825 m
613.669 49.825 l
stroke
grestore
gsave
55.6688 49.825 m
55.6688 573.461 l
stroke
grestore

end
showpage
