## 1fep
##############################################
##############################################
## single value percentile
# single value: 
	247	L	-2	0.00114
	669	V	-3	0.0012
	187	F	-4	0.01309
	460	M	 0	0.01486
	177	F	 0	0.01844
	444	P	 3	0.02082
	351	V	-2	0.02788
	458	L	-2	0.04155
##############################################
##############################################
## vector profile coef
# vector profile: 
	572	V	-3	-0.0320121591521
	161	F	 3	0.0308775869586
	521	W	-4	0.0387433915241
	AAAAAAAAAAAAAAAAAAAAAAAAA
	525	V	 0	0.307534291826
	527	W	 2	0.56749474724
	448	I	-1	0.777638280426
