## 1kmo
##############################################
##############################################
## single value percentile
# single value: 
	513	G	 4	0.00119
	559	L	 4	0.00127
	546	Y	-3	0.007
	229	V	 2	0.00983
	505	W	-4	0.01659
	385	R	 4	0.02299
	408	Y	 1	0.02559
	557	L	 2	0.04422
	AAAAAAAAAAAAAAAAAAAAAAAAA
	VVVVVVVVVVVVVVVVVVVVVVVVV
	705	V	 3	0.96389
	684	W	 4	0.98609
	653	S	 3	0.99032
##############################################
##############################################
## vector profile coef
# vector profile: 
	705	V	 3	-0.544005993224
	360	Y	 3	-0.167021246379
	692	F	-4	-0.0127066556039
	513	G	 4	0.0785256293669
	AAAAAAAAAAAAAAAAAAAAAAAAA
	410	Y	 3	0.170362516693
	258	F	-4	0.41378602418
	642	Y	-3	0.429356215064
	690	Y	-2	0.46850060245
	703	F	 1	0.491457931807
	297	F	-2	0.688755050504
