## 1qj8
##############################################
##############################################
## single value percentile
# single value: 
	 26	L	 0	0.00113
	 71	Y	-4	0.0294
	AAAAAAAAAAAAAAAAAAAAAAAAA
	VVVVVVVVVVVVVVVVVVVVVVVVV
	109	Y	 3	0.95655
	 43	F	 1	0.96199
##############################################
##############################################
## vector profile coef
# vector profile: 
	115	F	-3	-0.151274043484
