## 1t16
##############################################
##############################################
## single value percentile
# single value: 
	 82	M	 0	0.00149
	 98	I	 2	0.0066
	389	Y	 3	0.00963
	227	Y	 2	0.00966
	295	Y	 4	0.00966
	411	W	 4	0.02301
	100	S	 4	0.02632
	275	W	 3	0.04595
##############################################
##############################################
## vector profile coef
# vector profile: 
	AAAAAAAAAAAAAAAAAAAAAAAAA
	100	S	 4	0.193607222015
	281	N	-3	0.362723532836
	385	V	-1	0.782525732537
