## 1thq
##############################################
##############################################
## single value percentile
# single value: 
	AAAAAAAAAAAAAAAAAAAAAAAAA
	VVVVVVVVVVVVVVVVVVVVVVVVV
	131	V	-4	0.95927
	125	L	 2	0.98502
	 69	L	-2	0.99872
##############################################
##############################################
## vector profile coef
# vector profile: 
	113	A	 3	-0.547343104017
	129	A	-2	-0.389883200112
	131	V	-4	-0.0254283002636
	127	P	 0	0.00524123032676
	AAAAAAAAAAAAAAAAAAAAAAAAA
	123	P	 4	0.250451538404
	 81	W	 4	0.32460997982
	125	L	 2	0.488419364462
	111	V	 1	0.537885146897
	 69	L	-2	0.623225799799
	 73	A	 2	0.623941301942
	 25	L	-1	0.656043862426
	 27	I	 1	0.733028289971
