## 1tly
##############################################
##############################################
## single value percentile
# single value: 
	222	L	-3	0.00118
	102	W	-3	0.02543
	AAAAAAAAAAAAAAAAAAAAAAAAA
	VVVVVVVVVVVVVVVVVVVVVVVVV
	181	L	-4	0.99122
##############################################
##############################################
## vector profile coef
# vector profile: 
	171	V	-3	0.0732157286952
	AAAAAAAAAAAAAAAAAAAAAAAAA
	227	W	-4	0.106845241433
	 37	L	 1	0.440961660635
	187	T	 2	0.488174931834
	231	V	 0	0.618960143908
	185	G	 0	0.699691536849
