## 2f1t
##############################################
##############################################
## single value percentile
# single value: 
	150	V	-2	0.03562
##############################################
##############################################
## vector profile coef
# vector profile: 
	  6	F	-4	0.069373088305
	AAAAAAAAAAAAAAAAAAAAAAAAA
	134	A	 4	0.41759755611
