## 2fcp
##############################################
##############################################
## single value percentile
# single value: 
	166	F	 1	0.02842
	219	F	-2	0.03187
	284	Y	 0	0.03497
	641	L	-1	0.04796
	AAAAAAAAAAAAAAAAAAAAAAAAA
	VVVVVVVVVVVVVVVVVVVVVVVVV
	595	G	 1	0.96663
	645	G	 3	0.97934
##############################################
##############################################
## vector profile coef
# vector profile: 
	AAAAAAAAAAAAAAAAAAAAAAAAA
	233	S	 1	0.518189164571
	491	V	-1	0.597814766821
	545	V	-1	0.688804282913
