## 2mpr
##############################################
##############################################
## single value percentile
# single value: 
	316	W	 4	0.00666
	302	Y	 3	0.007
	 11	I	 3	0.00872
	234	Y	 3	0.0122
	355	I	 2	0.03127
	280	W	 4	0.03133
	AAAAAAAAAAAAAAAAAAAAAAAAA
	VVVVVVVVVVVVVVVVVVVVVVVVV
	104	K	 1	0.96141
	129	I	-2	0.97711
	336	V	 1	0.97984
	 86	V	-3	0.99859
##############################################
##############################################
## vector profile coef
# vector profile: 
	193	Y	 3	-0.24666149619
	425	I	-3	-0.218305781339
	 86	V	-3	-0.0907626189897
	106	F	 3	0.0764678160748
	AAAAAAAAAAAAAAAAAAAAAAAAA
	129	I	-2	0.242631670931
	230	F	-1	0.444874634218
	300	G	 1	0.54658930129
	334	L	-1	0.574638964384
	 84	A	-1	0.677846123949
