## 2omf
##############################################
##############################################
## single value percentile
# single value: 
	 19	G	 2	0.00373
	187	I	 0	0.01174
	191	Y	 4	0.01484
	 43	L	 1	0.02394
	185	F	-2	0.02919
	155	V	 2	0.0376
	 90	Y	-4	0.04012
	AAAAAAAAAAAAAAAAAAAAAAAAA
	VVVVVVVVVVVVVVVVVVVVVVVVV
	 13	L	-4	0.9669
##############################################
##############################################
## vector profile coef
# vector profile: 
	AAAAAAAAAAAAAAAAAAAAAAAAA
	 21	H	 4	0.135155738064
	 19	G	 2	0.18108005698
	139	Y	 0	0.497592417539
	 15	G	-2	0.541327108343
	 17	A	 0	0.627464578037
