## 2qdz
##############################################
##############################################
## single value percentile
# single value: 
	548	I	 3	0.01132
	524	M	-1	0.02325
	274	V	-3	0.02829
	AAAAAAAAAAAAAAAAAAAAAAAAA
	VVVVVVVVVVVVVVVVVVVVVVVVV
	283	L	 0	0.95267
	554	F	-3	0.95446
	405	G	 1	0.97448
	252	I	 2	0.97853
	215	L	 0	0.99879
##############################################
##############################################
## vector profile coef
# vector profile: 
	554	F	-3	-0.234705609773
	AAAAAAAAAAAAAAAAAAAAAAAAA
	371	Y	-4	0.192923620648
	478	L	-2	0.415610574913
	248	L	-2	0.573268713693
	489	V	 0	0.627109893218
	281	L	-2	0.632616203204
	215	L	 0	0.717322328267
