## 2vqi
##############################################
##############################################
## single value percentile
# single value: 
	215	R	-3	0.01447
	437	T	-2	0.02914
	604	H	-3	0.03131
	146	L	-4	0.0427
	AAAAAAAAAAAAAAAAAAAAAAAAA
	VVVVVVVVVVVVVVVVVVVVVVVVV
	522	V	-2	0.97441
	477	K	-3	0.97483
	246	L	-1	0.98023
	550	G	-4	0.98315
	488	L	 0	0.9932
##############################################
##############################################
## vector profile coef
# vector profile: 
	556	G	 2	-0.200528267864
	558	M	 4	-0.171352920237
	226	L	 0	0.0241850243197
	AAAAAAAAAAAAAAAAAAAAAAAAA
	242	T	 3	0.310967935135
	522	V	-2	0.328352450101
	439	A	 0	0.337934702606
	224	L	-2	0.546704927059
	554	Y	 0	0.593123210663
	437	T	-2	0.625346485801
