## 3aeh
##############################################
##############################################
## single value percentile
# single value: 
	1375	Y	-3	0.04742
	AAAAAAAAAAAAAAAAAAAAAAAAA
	VVVVVVVVVVVVVVVVVVVVVVVVV
	1289	K	-4	0.95877
	1142	M	 1	0.96001
	1234	Y	-3	0.9702
##############################################
##############################################
## vector profile coef
# vector profile: 
	1234	Y	-3	-0.197007773672
	AAAAAAAAAAAAAAAAAAAAAAAAA
	1232	V	-1	0.45980229719
	1155	L	-4	0.509149054804
	1196	F	-2	0.534607722956
	1285	V	 0	0.679851355319
