## 3dwo
##############################################
##############################################
## single value percentile
# single value: 
	359	Y	 4	0.04069
	AAAAAAAAAAAAAAAAAAAAAAAAA
	VVVVVVVVVVVVVVVVVVVVVVVVV
	102	L	-1	0.9727
	343	G	-2	0.97329
##############################################
##############################################
## vector profile coef
# vector profile: 
	104	V	-3	-0.564998310733
	102	L	-1	-0.316775666308
	AAAAAAAAAAAAAAAAAAAAAAAAA
	290	L	 0	0.620370540902
	228	L	-2	0.731707198431
