## 3dzm
##############################################
##############################################
## single value percentile
# single value: 
	 83	Y	-4	0.0238
	102	Y	 4	0.04816
	AAAAAAAAAAAAAAAAAAAAAAAAA
	VVVVVVVVVVVVVVVVVVVVVVVVV
	 41	F	 3	0.95319
	 20	L	 0	0.96099
	 16	F	 4	0.96499
	 22	V	-2	0.99062
##############################################
##############################################
## vector profile coef
# vector profile: 
	152	V	 3	-0.328948519554
	 41	F	 3	-0.205074310003
	136	A	-3	-0.156584433038
	 16	F	 4	-0.0476119697133
	AAAAAAAAAAAAAAAAAAAAAAAAA
	 83	Y	-4	0.464930499463
