## 3o44
##############################################
##############################################
## single value percentile
# single value: 
##############################################
##############################################
## vector profile coef
# vector profile: 
	AAAAAAAAAAAAAAAAAAAAAAAAA
	300	G	 4	0.494509238468
