## 3pik
##############################################
##############################################
## single value percentile
# single value: 
	317	F	 4	0.04284
	AAAAAAAAAAAAAAAAAAAAAAAAA
	VVVVVVVVVVVVVVVVVVVVVVVVV
	295	S	 2	0.9742
##############################################
##############################################
## vector profile coef
# vector profile: 
