## 3rbh
##############################################
##############################################
## single value percentile
# single value: 
	170	W	-1	0.00134
	155	E	 3	0.00403
	436	K	-3	0.00935
	384	G	-1	0.0284
	 69	I	 4	0.04612
	274	Y	-2	0.04685
	AAAAAAAAAAAAAAAAAAAAAAAAA
	VVVVVVVVVVVVVVVVVVVVVVVVV
	255	L	 3	0.9529
	209	G	 1	0.96077
	227	H	 4	0.96893
	434	V	-1	0.97384
	172	F	-3	0.98105
	382	L	 1	0.98206
	133	V	-2	0.98228
	458	I	-2	0.98793
	153	L	 1	0.99873
##############################################
##############################################
## vector profile coef
# vector profile: 
	151	Q	-1	-0.462811247454
	127	A	 4	-0.439964666162
	131	F	 0	-0.326977525863
	170	W	-1	-0.315900042289
	172	F	-3	-0.281775306514
	213	T	-3	-0.234169325382
	149	G	-3	-0.225820927253
	225	I	 2	-0.194212443987
	177	L	-4	-0.171154456595
	255	L	 3	-0.165691295612
	259	A	-1	-0.104621341096
	129	R	 2	-0.0934771337806
	432	L	 1	-0.0897911940158
	436	K	-3	-0.048275733632
	166	E	 3	-0.0365322373267
	456	A	-4	0.000884736739498
	272	L	-4	0.00847105082356
	458	I	-2	0.0366119550048
	AAAAAAAAAAAAAAAAAAAAAAAAA
	464	L	 4	0.102829005095
	460	F	 0	0.223329347081
	434	V	-1	0.229553388357
	380	A	 3	0.271307640902
	 92	A	 2	0.278423299439
	181	A	 0	0.305028262115
	396	L	 0	0.33890474438
	382	L	 1	0.346888713795
	332	R	 4	0.36711336453
	328	V	 0	0.419944880632
	386	W	-3	0.433034535268
	280	W	 4	0.501941229481
	384	G	-1	0.516026795079
	276	A	 0	0.581995609371
	221	I	-2	0.582435026573
	 90	G	 0	0.708271065777
	257	I	 1	0.71995772013
	183	V	 2	0.721282757265
