## 3v8x
##############################################
##############################################
## single value percentile
# single value: 
	222	H	 2	0.00415
	333	H	 4	0.01706
	793	V	 1	0.03343
	AAAAAAAAAAAAAAAAAAAAAAAAA
	VVVVVVVVVVVVVVVVVVVVVVVVV
	640	L	-2	0.9642
	588	D	-2	0.9669
	638	L	-4	0.98013
##############################################
##############################################
## vector profile coef
# vector profile: 
	222	H	 2	-0.684502322823
	216	A	-4	-0.425447745943
	224	G	 4	-0.20817817584
	AAAAAAAAAAAAAAAAAAAAAAAAA
	646	T	 4	0.189209886435
	220	L	 0	0.334681370005
	742	I	-3	0.369860078188
	430	Y	 2	0.482505680297
	854	Y	-2	0.665280208132
	759	F	 1	0.689864994782
	482	A	 1	0.706865719821
