## 4c00
##############################################
##############################################
## single value percentile
# single value: 
	347	T	 3	0.0286
	AAAAAAAAAAAAAAAAAAAAAAAAA
	VVVVVVVVVVVVVVVVVVVVVVVVV
	429	F	 2	0.95647
	518	V	 0	0.96991
	328	Y	-4	0.98827
	502	G	 2	0.99373
##############################################
##############################################
## vector profile coef
# vector profile: 
	304	I	 2	-0.231125661396
	427	S	 4	-0.0372424278428
	AAAAAAAAAAAAAAAAAAAAAAAAA
	429	F	 2	0.143942914372
	334	F	 2	0.231906292687
	349	L	 1	0.321010576186
	520	V	 2	0.368095653721
	351	A	-1	0.374736489476
	435	W	-4	0.428825141393
	431	A	 0	0.70372084427
	573	L	-1	0.76537807717
